GalaxyID,x,y,e1,e2
Galaxy1,3969.09,798.87,-0.32203675922395059,0.085043920128781259
Galaxy2,2285.62,3232.15,-0.12432678845689854,-0.36710564393967793
Galaxy3,1158.46,824.57,0.042586703024716149,0.15306983978400446
Galaxy4,3653.21,751.35,0.029384032540690164,-0.07542257035644491
Galaxy5,839.84,2122.04,0.12495757441958669,-0.13922492377077689
Galaxy6,4047.33,1763.38,-0.11086578150926614,-0.24821913690171099
Galaxy7,3775.52,3395.49,-0.44698541802053471,0.18809634560270169
Galaxy8,3445.13,3344.27,-0.020424842030287937,-0.1157828808114153
Galaxy9,3706.61,1122.8,-0.19251191033810111,-0.31401248775016621
Galaxy10,1779.6,4122.16,-0.11608070343246407,0.13212225301955943
Galaxy11,956.91,1121.45,0.27719770230245355,0.30017917007149136
Galaxy12,3760.32,3796.76,0.069145664791536846,0.24890386712829116
Galaxy13,4032.69,3510.24,-0.0023924431899990106,-0.088011988554786355
Galaxy14,663.03,3803.01,-0.05457344755147843,0.13620594132350114
Galaxy15,2999.23,3530.28,0.033629776744420151,0.13856875771854293
Galaxy16,751.88,3370.76,0.18672621232574804,0.012146006411340921
Galaxy17,906.73,2257.67,-0.0035154325494651251,-0.14852959112796901
Galaxy18,4103.83,2232.95,-0.11791970454808706,-0.32333115953187985
Galaxy19,3993.57,3110.22,0.059228386966727165,0.47908360136920752
Galaxy20,3102.4,3981.64,0.11447046771903657,0.17660570358296165
Galaxy21,3222.49,369.67,0.19947821375001551,-0.12523356573473862
Galaxy22,1768.38,3865.64,0.081002011916833039,-0.032905607814222304
Galaxy23,2723.86,2256.23,-0.2425517513620683,-0.0028408655032022834
Galaxy24,2433.54,3315.07,0.016173951527114535,-0.29259407249648817
Galaxy25,2139.12,907.37,-0.52861818224118129,-0.13547746349149742
Galaxy26,2245.05,3948.26,-0.015215557172783917,0.1740228884326267
Galaxy27,3551.45,2582.81,0.027272392699751652,-0.1438192640496001
Galaxy28,3847.0,2126.27,-0.27360582842487102,-0.072535915171160648
Galaxy29,2875.64,3169.24,0.086462308843307162,-0.0078386431102842324
Galaxy30,3908.76,2614.28,0.22175021699894532,-0.08543566399868982
Galaxy31,390.72,632.61,0.11925407842405734,-0.11624861069221598
Galaxy32,304.79,276.62,-0.04804507458780663,0.25637415620711751
Galaxy33,1397.26,1177.0,0.032097383278438613,-0.28317295358971928
Galaxy34,211.31,2615.05,0.2692397472904634,-0.087783471468343269
Galaxy35,3398.69,535.89,0.24700647009380483,0.049783560916430269
Galaxy36,2994.49,45.35,-0.1209267823444245,0.14078323555225594
Galaxy37,2749.85,4191.67,-0.032182455980727664,0.18516802220240766
Galaxy38,415.61,3037.96,0.30804336378982056,-0.054032601092594883
Galaxy39,2439.13,1343.26,-0.11844581293296963,-0.21491566969811574
Galaxy40,81.71,487.08,-0.16040385745095939,-0.10196938188509383
Galaxy41,3372.45,3907.04,-0.05341327967524527,-0.084951274489092454
Galaxy42,3705.17,569.48,0.12744289481894328,-0.42361554610602314
Galaxy43,2741.97,3933.89,0.2277177538126095,0.18891686630200019
Galaxy44,4014.81,890.08,0.36990344805326503,-0.15315272198159538
Galaxy45,4067.48,4078.42,-0.079037996184142742,0.31936126964828526
Galaxy46,1868.74,3665.92,-0.13132699689700422,0.15782649042273894
Galaxy47,1441.97,1572.0,-0.26979836216951192,-0.024210971100574186
Galaxy48,598.54,4039.16,-0.46999595764733415,0.069986485885811356
Galaxy49,2835.83,3528.5,-0.043326968176462269,0.041584532224357706
Galaxy50,2669.44,1343.84,0.091320996684277345,-0.63373347541771807
Galaxy51,323.77,1392.85,0.12857167876941339,0.28968374499807054
Galaxy52,3685.23,314.91,0.15181069990296595,-0.22717682467579098
Galaxy53,1522.75,4030.14,0.33142634205138932,0.068290801978471871
Galaxy54,1704.23,4198.73,0.1210688182265654,-0.058037373295993844
Galaxy55,4039.24,1232.24,0.24496647631344315,-0.29218080686358533
Galaxy56,3985.59,3351.94,-0.042188933447646515,-0.14922915199740269
Galaxy57,2206.47,3506.37,-0.41951151940509418,0.17281853808162989
Galaxy58,3590.51,2814.07,0.20192915747128443,0.31324190478514069
Galaxy59,1375.54,1164.3,-0.19506898540977599,0.4843138189897459
Galaxy60,2765.76,1835.06,-0.012280121414188841,0.098001050555733493
Galaxy61,2175.62,2415.22,-0.31626848739808167,-0.12873072648489953
Galaxy62,1651.04,436.55,-0.2973161857203217,0.27633142817556777
Galaxy63,1589.63,3788.31,-0.14009943717776599,-0.043574302108744495
Galaxy64,4136.75,2796.71,0.27331001762645013,0.013164428988820165
Galaxy65,1320.78,1228.09,0.2737173640867106,0.16792461897221519
Galaxy66,3751.97,3909.7,-0.02857338677876331,0.48602250562036919
Galaxy67,2199.9,3578.13,0.068328546198043294,-0.037694877140226998
Galaxy68,2458.8,2680.4,-0.20512017858985634,-0.18867875267155457
Galaxy69,1881.98,229.4,-0.62940868066421685,0.31948081176586368
Galaxy70,1970.1,442.96,-0.029388787701139452,-0.43790015060878695
Galaxy71,2785.97,3104.85,0.11393579715252501,-0.22394992368777683
Galaxy72,4147.36,1965.72,-0.24432951175034728,-0.14015260308788233
Galaxy73,2924.4,2006.82,-0.069504528248314407,0.020552965919549193
Galaxy74,1799.96,1736.3,0.10308070740285552,0.22012857059121466
Galaxy75,3603.57,1115.77,0.014373043369839059,0.058886340556741384
Galaxy76,736.98,1282.86,-0.099588200636117924,-0.17126118464359119
Galaxy77,1096.57,3353.09,0.3283251570937285,-0.022977290741509948
Galaxy78,3820.48,1813.51,0.27970397913742984,-0.32788253972755282
Galaxy79,121.36,643.83,-0.073422903003285134,-0.19025146574498183
Galaxy80,2045.13,2947.19,0.15116908306123744,-0.24065940072678593
Galaxy81,1501.66,1711.57,0.03255665160207169,0.19814866952206295
Galaxy82,3208.61,2188.36,0.29870210715125978,-0.14450194910739989
Galaxy83,2422.61,1153.3,-0.42805413702097539,0.012103518146227732
Galaxy84,1504.07,4098.07,-0.14943524091906255,0.14932502008993306
Galaxy85,3242.18,1099.52,0.056835645969401792,-0.53535558830849117
Galaxy86,1851.2,3043.34,0.37957898630152243,-0.42953624566661408
Galaxy87,778.05,940.12,-0.051206280017328409,-0.047050448475390361
Galaxy88,703.84,240.85,-0.073954161129833926,0.38436561636998035
Galaxy89,2718.89,2239.18,0.37163622261196794,0.092349819378691606
Galaxy90,3606.7,2929.5,-0.37797947057045678,0.17490576974872465
Galaxy91,1426.05,3520.0,-0.29750614114745644,-0.1143934323791293
Galaxy92,451.83,3715.02,-0.040464954680819218,-0.10108101636804619
Galaxy93,2408.68,2308.08,0.16413915563554682,-0.20893384516666066
Galaxy94,1725.21,1504.93,-0.24837618446270893,-0.2188457847570266
Galaxy95,3486.43,165.22,-0.11285719892266888,-0.47848445096495151
Galaxy96,694.89,406.67,-0.082385670182494847,0.57167936228469018
Galaxy97,2326.23,3855.37,-0.35370303914262535,-0.083687338673438624
Galaxy98,1880.11,1515.03,-0.048975107869020151,-0.10917682998070066
Galaxy99,3050.14,1780.45,-0.44555739698749913,-0.2246309860147658
Galaxy100,3569.02,3525.35,0.25909215313500344,0.19844867369890026
Galaxy101,3266.59,815.17,0.12114639640381737,0.022839569777752255
Galaxy102,3095.16,3999.83,0.010890546241305282,0.30306558957005092
Galaxy103,1787.08,1551.54,0.084344147414753184,-0.12051375492637462
Galaxy104,1446.43,3112.68,0.35629401179076148,-0.063270396069827178
Galaxy105,3249.43,2626.63,-0.052370886992398807,-0.50534681330895437
Galaxy106,3745.77,853.93,-0.38422858125520443,0.19257511171047861
Galaxy107,3081.87,67.19,-0.18364168122529484,0.16860100144537793
Galaxy108,3993.0,2701.5,0.11235958097296002,-0.15077879424861371
Galaxy109,1437.29,2730.06,-0.17099332421406538,0.14811659477163533
Galaxy110,71.39,4086.89,0.23289066114367646,-0.050041083881400827
Galaxy111,2070.1,2437.08,0.020227198687515324,-0.048925951880204273
Galaxy112,1978.37,3390.92,0.083845230685488437,0.17640738719815008
Galaxy113,3286.37,552.58,-0.24697857869293249,-0.10736867685272367
Galaxy114,1578.24,3505.02,-0.22424734581696371,-0.10400245728867898
Galaxy115,2721.14,2621.59,-0.044203892224233654,-0.28724460636232957
Galaxy116,4180.59,2559.38,-0.14257891342192294,-0.13643211767200972
Galaxy117,605.84,4004.21,-0.0078624941209490817,-0.18322363996817931
Galaxy118,1817.27,4020.98,-0.22507509620797897,0.034752121020734661
Galaxy119,3568.25,1692.58,0.077620108836662122,0.10570483775439446
Galaxy120,2876.32,1960.88,0.26729703309602887,0.27741665368203944
Galaxy121,3902.34,732.16,0.14040373240414639,-0.42490443988216997
Galaxy122,302.93,3259.58,-0.23850918161203188,-0.32301150541606066
Galaxy123,3484.69,3819.14,-0.28645832461967535,0.32806839168273916
Galaxy124,2285.42,2031.55,-0.091953760519298461,0.059862863235792943
Galaxy125,354.39,3837.9,0.28265802856554156,-0.12687490362282294
Galaxy126,1182.91,3681.24,0.31915800679110445,0.10422709015308068
Galaxy127,1257.41,2486.58,0.214969439510798,0.072452943651055132
Galaxy128,22.57,2559.49,0.35522223033544831,0.070740019363374401
Galaxy129,1237.83,1120.63,-0.22071488176744086,0.14846187849651063
Galaxy130,330.9,1964.64,0.073688979676729841,-0.013769596315076321
Galaxy131,697.65,1602.88,-0.17343771813778552,0.35587989663907182
Galaxy132,4037.55,3659.12,0.18311916128736433,-0.0696517731381356
Galaxy133,484.32,2297.79,-0.090706363221658204,-0.12997562359541634
Galaxy134,2508.77,3098.46,0.21281012532158763,-0.35130646182957648
Galaxy135,3769.82,2340.49,0.036544670610482541,-0.13895189927735099
Galaxy136,3425.75,457.73,0.041420059500771447,0.01558857942912481
Galaxy137,1068.73,3118.68,0.33027654924964922,-0.22736837124349574
Galaxy138,1705.83,2478.97,-0.068327509106049469,0.22536646235834343
Galaxy139,3126.22,3840.11,-0.12736283208040788,-0.0073106643822708484
Galaxy140,2082.4,3270.81,-0.27049487712324849,0.049816118390002814
Galaxy141,2368.54,2277.53,0.015974165695999326,-0.23832237677671297
Galaxy142,3730.13,809.93,-0.095489772913162477,-0.28357787216952407
Galaxy143,3198.77,3332.19,0.22630407565624594,0.087176007614497564
Galaxy144,3896.15,1936.39,-0.22358378413987123,0.11321785523171954
Galaxy145,2125.45,1807.48,0.16226164137046448,-0.33110819302299432
Galaxy146,612.6,4038.47,-0.028591551053980924,-0.19505239871423513
Galaxy147,585.08,889.52,-0.20604103695945772,0.57830813618363219
Galaxy148,15.76,2021.66,-0.18525964421104657,0.30890384832421791
Galaxy149,785.57,244.88,-0.030082601022153974,-0.17436922253344692
Galaxy150,2905.42,922.83,0.1634357687361831,-0.10662782009171257
Galaxy151,2378.99,1902.98,-0.44448028609191403,-0.030807469266611043
Galaxy152,249.63,3333.06,0.072406590421996445,0.10855187442574185
Galaxy153,2219.65,180.51,-0.20596956043284531,0.2097193444867633
Galaxy154,4147.37,427.35,0.16788553663661948,0.020793831523670175
Galaxy155,1285.42,2054.02,0.026720763307551573,0.10213257467406762
Galaxy156,3371.49,2185.68,0.38202147411697723,0.018825077357481873
Galaxy157,2253.04,87.85,0.088063530271505763,0.32738713169055711
Galaxy158,107.47,2423.67,0.1583098835611931,-0.16556789066569028
Galaxy159,3764.79,2060.31,0.044751918084830686,-0.26840621194660219
Galaxy160,3382.95,3619.58,-0.22711816400579651,0.023676493996184655
Galaxy161,2390.11,3560.14,-0.184597650233008,-0.20680212848774049
Galaxy162,1369.36,1988.54,0.077920913748299903,0.38929949507071338
Galaxy163,1470.15,2287.11,0.17113502905494651,0.35033479699011549
Galaxy164,1819.17,3203.44,-0.19812233488933301,-0.13904494491367472
Galaxy165,845.92,846.78,-0.28236824730050375,-0.067908340801486916
Galaxy166,1028.16,441.72,-0.089847753251197371,0.10964915691474547
Galaxy167,4155.64,1506.17,0.33760386803118048,-0.33800980150233995
Galaxy168,1760.03,4143.96,-0.3214802949124167,-0.061247829066213566
Galaxy169,566.86,2395.5,0.22502173905217884,0.0273091520901763
Galaxy170,2511.6,1656.43,-0.23231440061824382,0.045732364595942238
Galaxy171,2875.49,3740.12,-0.16338697644727224,0.25128432506746906
Galaxy172,353.61,680.76,-0.34406647375099153,-0.04567205440483954
Galaxy173,2242.14,2838.19,0.5255609184817307,-0.063941360051297511
Galaxy174,1877.34,3271.68,0.082924687218708243,0.50619043122459528
Galaxy175,2109.15,1533.56,-0.13118996481450995,0.39413007746141648
Galaxy176,3036.95,3040.69,-0.10804961315609415,0.082084178253936546
Galaxy177,747.69,1170.29,0.090369292713868954,0.13741350402127833
Galaxy178,1683.91,265.6,-0.15427618611838956,-0.18075317953094278
Galaxy179,3258.61,3475.42,0.42170485118884404,0.0024566627396069851
Galaxy180,3512.68,1210.71,-0.13483197685681347,-0.031987729676171389
Galaxy181,94.88,4175.51,-0.072169424169379284,0.082345882839000017
Galaxy182,1589.05,536.55,0.056206115356284003,-0.032837302069566518
Galaxy183,4110.06,1066.16,0.060349400602881936,0.20250236269123106
Galaxy184,1287.56,3974.3,-0.070782484957664732,0.095082518371405106
Galaxy185,646.76,1605.64,0.48221772930013668,0.21838541888723223
Galaxy186,4021.45,242.58,-0.10656074656726465,0.060202888752600964
Galaxy187,34.45,3063.67,0.28311911868745976,0.30790254228631631
Galaxy188,3073.66,2563.46,-0.13564585188053732,-0.044998636377063035
Galaxy189,4107.53,627.22,-0.35477241155930356,-0.38480651583368319
Galaxy190,3041.26,3596.44,0.4318222293680154,-0.17911279551801301
Galaxy191,2005.03,3747.73,-0.17982137819616092,-0.11290995303609956
Galaxy192,1269.59,973.36,-0.057688053944970286,0.223128317416461
Galaxy193,2266.79,378.38,-0.046761977760838846,-0.088033663612609725
Galaxy194,2326.85,2473.08,-0.36011470747154972,0.034070077853366909
Galaxy195,811.27,200.86,0.060033814232367672,-0.1780191467666353
Galaxy196,869.17,1074.27,0.027363674246407552,0.076765269692901483
Galaxy197,687.24,3249.19,0.1950566610322052,-0.15341942650120763
Galaxy198,3615.3,61.31,-0.15616606570261912,-0.030298090396982114
Galaxy199,4091.78,3004.13,0.17077406027836345,-0.26277971065066419
Galaxy200,3859.34,989.72,-0.091085785467318423,-0.089785877036620498
Galaxy201,43.51,1750.65,-0.087396231510962652,0.012409132888288599
Galaxy202,2974.6,3995.95,-0.013903557451431164,0.50687257585321888
Galaxy203,1431.98,2225.31,0.33069648797805379,0.10500722344110829
Galaxy204,2487.9,105.45,0.39525809014937474,-0.24962855679511772
Galaxy205,1136.14,1847.57,-0.31799720867084474,-0.10520974851080986
Galaxy206,2586.06,2507.57,-0.060229050618601648,-0.27551569369422035
Galaxy207,1170.71,1100.69,-0.019582802036947969,0.12092442743021488
Galaxy208,3282.9,3013.59,0.008203680111143058,-0.15975792404847627
Galaxy209,708.97,504.38,-0.06917924141249096,-0.13801716497141764
Galaxy210,1241.8,4143.74,0.43417796112199719,-0.0075533733576087225
Galaxy211,911.86,3111.03,0.12606309402034213,-0.082065614950954852
Galaxy212,2925.14,2892.08,0.22927126446277046,-0.07881113298168857
Galaxy213,1834.6,3619.51,0.10472816606253516,-0.46240259296459357
Galaxy214,3060.52,1795.53,-0.01574134823215162,-0.35559455879592561
Galaxy215,964.62,2439.36,0.39821807385522212,0.099175064038155958
Galaxy216,1652.79,1126.88,0.24426989830065138,-0.0097769452081959002
Galaxy217,1999.29,3758.21,-0.52169468566566113,-0.20654493546799449
Galaxy218,685.49,2933.6,0.39019593537047104,-0.25033509363174461
Galaxy219,756.6,4053.28,0.086995177649973901,-0.28618922091187049
Galaxy220,2095.69,1700.31,0.063339537614681113,-0.011038115447340985
Galaxy221,148.84,3114.14,-0.53142232117690447,-0.51134747053403451
Galaxy222,2009.26,1299.79,0.10788770414286827,-0.1746353240626764
Galaxy223,3626.02,1004.06,0.1003537914464963,-0.1837964987787741
Galaxy224,1198.68,3604.79,0.15562492753906051,-0.032440755063497945
Galaxy225,140.78,3606.42,-0.13463892073509212,-0.087345140937799742
Galaxy226,174.62,2235.14,-0.29980791928587563,-0.19957675633130678
Galaxy227,3996.13,3414.6,0.25473198568914801,0.27311632096742305
Galaxy228,1087.81,3526.93,-0.36303499610582279,0.2956643838754241
Galaxy229,3688.3,1413.6,-0.15501525046000425,0.033801551023967008
Galaxy230,61.67,1325.44,-0.37595138259041044,0.10095995520464482
Galaxy231,1060.66,3223.37,0.14701548342943821,-0.14109427103863376
Galaxy232,3212.44,2378.27,-0.27208501692736592,-0.48590513239258848
Galaxy233,757.46,4045.14,-0.22950986393890713,-0.42863430100635991
Galaxy234,265.59,3011.44,-0.21676580950612889,-0.13569774817226149
Galaxy235,1702.52,1240.53,-0.37619323952928452,0.091111244000843528
Galaxy236,4073.65,1492.59,-0.13068758219248416,-0.096843316561634765
Galaxy237,1246.87,452.58,-0.041686829805129985,-0.14806346271017318
Galaxy238,3198.29,3417.85,0.33269120960784176,-0.041163222898062901
Galaxy239,1117.0,1149.21,0.2190987599772585,0.33669524757276853
Galaxy240,1496.65,2045.52,-0.27491267530789898,-0.19220071530294441
Galaxy241,3704.87,3562.32,0.18681943235169507,0.26667138060790307
Galaxy242,3776.64,2228.23,0.21336183405548478,-0.33809609831853937
Galaxy243,3442.96,3017.85,-0.36713438708240131,-0.27209460237190836
Galaxy244,2713.39,1351.67,-0.40727353130244753,-0.10420373166910606
Galaxy245,1696.19,2217.78,-0.27786087113467051,0.40275237087658167
Galaxy246,2666.08,3686.69,-0.00035505920533408786,0.14236455153470434
Galaxy247,296.19,3868.94,-0.011963964497858109,-0.10734887713764718
Galaxy248,1586.6,195.12,0.090271094283820158,0.17046466231737234
Galaxy249,2159.98,1.34,0.19192730406944986,0.1273345215387576
Galaxy250,4179.1,2899.21,-0.078378153526976163,0.16242836263678112
Galaxy251,2907.82,3157.58,0.14860754245712454,0.12806526694919759
Galaxy252,2578.01,1300.3,-0.15751623521965091,-0.26461434456880739
Galaxy253,3537.56,3421.69,0.074132955225236302,0.12633706682323312
Galaxy254,3955.71,1880.84,0.15791784982291085,-0.0069146607971954932
Galaxy255,1074.56,3559.46,-0.026387206757425924,-0.40207762588088175
Galaxy256,2440.85,1618.6,-0.1612662433514585,0.33043310565213674
Galaxy257,4022.14,1357.91,-0.42825579196186631,0.24177597283408636
Galaxy258,990.8,3986.72,-0.58897811144668488,-0.21153497680418551
Galaxy259,1597.17,4007.59,-0.096924767776290735,0.13924913242122525
Galaxy260,29.42,1169.63,-0.12778047494207964,0.56714265496571115
Galaxy261,2432.68,1271.13,-0.044830165623347532,0.075747584113147637
Galaxy262,3296.28,244.37,0.054697785402462645,-0.48847689368585007
Galaxy263,1290.25,2628.45,-0.0075445770326184047,0.18639779259589173
Galaxy264,3293.95,2530.06,-0.26666224812104289,0.059854187360618302
Galaxy265,3519.06,2212.26,0.00030387558069816523,-0.40718399629798641
Galaxy266,931.05,155.92,-0.15913976226979148,0.10134299229161924
Galaxy267,96.44,392.31,-0.22043821458057208,0.087553464270445705
Galaxy268,2973.05,3249.2,-0.079134291753014091,-0.099639827627801325
Galaxy269,487.03,2456.51,0.077680402402148199,0.09749934253112584
Galaxy270,3480.41,1727.04,0.28337988507016565,0.30744124358625247
Galaxy271,2450.87,3922.19,-0.20045344704421258,0.019641446226494261
Galaxy272,2049.29,967.31,-0.34066961489130143,0.087592228104594105
Galaxy273,1392.57,3703.06,-0.01009289686965114,0.16643588920649119
Galaxy274,990.71,348.28,0.025292122872722839,-0.035274139531483201
Galaxy275,1346.25,1179.05,-0.23785222682353985,-0.1689327431868832
Galaxy276,819.67,4156.55,0.43559300209153023,0.031921651657346395
Galaxy277,3016.04,4068.02,-0.21600098758641717,0.204034992699407
Galaxy278,2398.78,3499.7,0.17783912257227291,-0.1352789447459217
Galaxy279,1899.27,1533.55,-0.11723076352683563,0.45651735267125532
Galaxy280,115.92,1836.67,0.22297864303073545,0.23614517246737954
Galaxy281,1782.17,3675.36,0.36464242363965305,0.22133721702759879
Galaxy282,19.66,2239.12,-0.094458080465617517,0.19592270878751172
Galaxy283,2308.43,3987.91,-0.38799794042643132,0.18136010993272278
Galaxy284,1581.06,313.8,-0.3347219518951926,0.10203505412492217
Galaxy285,823.45,2838.02,0.19648168531152943,-0.013248377515907907
Galaxy286,328.29,379.58,0.10450480504679323,0.088859902078920083
Galaxy287,1224.51,2366.08,-0.28617515826057505,0.095401837725891545
Galaxy288,4026.95,3106.98,0.019992059212455032,0.10027030326944096
Galaxy289,162.39,373.7,-0.29051250308469628,-0.15491641200184511
Galaxy290,1652.5,844.26,-0.26931721424113647,0.2545384340742109
Galaxy291,920.92,893.25,-0.088614564163734422,0.12758846495976012
Galaxy292,3211.77,3711.85,-0.10975436602847623,-0.37561807595089769
Galaxy293,471.59,1590.01,-0.3905704275935547,-0.10559001785226435
Galaxy294,1479.89,1737.74,-0.42120007381645397,0.40739739474551961
Galaxy295,3060.35,3827.56,-0.17523393505033169,0.2091151925963354
Galaxy296,1978.18,558.31,-0.1404168785708029,-0.232229923324756
Galaxy297,4022.3,3178.03,0.39720986210856324,0.10452773658510284
Galaxy298,10.58,586.3,0.25299739414243516,0.44114597543744016
Galaxy299,2220.19,1498.15,-0.12931296391938824,-0.018955035019443137
Galaxy300,3132.21,4095.03,-0.049374821835245622,-0.18748058288583344
Galaxy301,1871.13,3133.79,0.31721869522539292,-0.39210569610235219
Galaxy302,34.97,3181.79,0.32222698567247549,0.17375543198158877
Galaxy303,1575.75,1259.99,0.054409363793803789,0.17016395098054646
Galaxy304,682.85,1892.85,-0.046393874806942251,0.24402605399630511
Galaxy305,646.92,3510.8,0.078392262483647307,-0.1502726548090868
Galaxy306,1933.57,2139.39,0.011422602965089318,-0.38671321420785132
Galaxy307,3913.29,4136.85,0.00077767272916011432,0.37214287594142087
Galaxy308,3906.76,327.99,-0.14008608500701081,-0.42056877160399886
Galaxy309,2039.36,62.2,-0.10290137951098936,-0.61663333424439759
Galaxy310,2684.88,3554.27,0.099443954634401019,0.4935190349955364
Galaxy311,3082.09,1003.39,0.46852103815686746,-0.0461627431810748
Galaxy312,2708.73,1738.27,0.1879585074627742,-0.015354474297321702
Galaxy313,3045.06,2113.27,0.0032249367333469503,-0.069935930546180552
Galaxy314,3026.89,813.95,-0.13114873526151122,-0.098472759418504335
Galaxy315,2026.66,3536.14,-0.22710311522521404,-0.47990532025236127
Galaxy316,605.26,2934.27,0.054054528820175668,-0.057481000909963623
Galaxy317,140.93,3503.55,0.44445533622383654,0.043676726868951896
Galaxy318,3786.77,1162.62,0.16336940127744701,-0.24132410440189334
Galaxy319,3955.52,1925.7,-0.02066449091875254,-0.65138882612276205
Galaxy320,2795.51,366.64,-0.24518847484264866,-0.3755418077029859
Galaxy321,4116.82,2089.6,0.37649478236777473,-0.3706063317514256
Galaxy322,3115.24,391.02,0.12192107784729588,-0.04606023136522637
Galaxy323,1567.26,3573.03,0.056836686244952916,0.21371527761566564
Galaxy324,2525.23,3745.13,-0.20330006068574807,0.012177862110619081
Galaxy325,3677.58,1391.84,0.32410819289326037,0.028747115418688907
Galaxy326,2660.09,3387.48,0.19809663070845412,0.1880484427093056
Galaxy327,3332.77,138.67,0.078139637900955919,0.0982220838913202
Galaxy328,3231.88,1011.52,-0.22056591295771591,-0.46522759081354215
Galaxy329,1540.26,2508.13,0.13693550836355733,-0.12294382925571853
Galaxy330,2108.89,1433.29,-0.046460770055551881,0.40831487639526054
Galaxy331,559.53,3896.52,-0.21725542392596747,-0.016618676363019363
Galaxy332,9.52,2217.43,0.37875692959115687,-0.040475815529486092
Galaxy333,1765.74,4063.24,-0.42884325710435967,-0.15694169433527425
Galaxy334,1981.4,3579.68,-0.32981263714169329,0.17792370546678063
Galaxy335,3356.71,4107.21,0.26739043494394299,0.052104093632267173
Galaxy336,106.03,1143.33,-0.16286192102186767,0.30866575696804799
Galaxy337,1804.85,1826.75,-0.24367674204664297,-0.25204237645151317
Galaxy338,1533.17,1176.24,-0.08224252876416438,-0.19087936711147169
Galaxy339,2241.07,1919.32,0.38216024409363103,-0.20664113948749385
Galaxy340,3818.15,2183.22,0.21763467882876258,0.025647279440840803
Galaxy341,4137.93,2827.66,0.23982182756102513,-0.34386450150517195
Galaxy342,1804.79,2903.51,-0.27361621967100946,-0.010303397719713434
Galaxy343,2523.82,2294.47,0.37853780555363736,0.06754459207716762
Galaxy344,4139.17,3326.58,0.017097295849876598,0.013721026913364326
Galaxy345,1804.33,2701.97,-0.099764667711379831,-0.35699477174789296
Galaxy346,885.36,3541.69,0.21897513505865002,-0.15322456167067844
Galaxy347,583.89,390.67,-0.26788537205663321,0.045668617411149151
Galaxy348,2511.88,62.26,-0.23823491696934143,0.079413832700715489
Galaxy349,2214.85,2284.03,0.22600865302547785,-0.030135932834881266
Galaxy350,511.2,1899.11,0.065359095662506667,0.074466342565685767
Galaxy351,3408.71,172.89,-0.059102319621104696,-0.35797527052982192
Galaxy352,2814.7,4001.98,-0.12378259277158574,0.25235892903894164
Galaxy353,1802.85,2464.01,0.26516684679224939,0.053766929606453795
Galaxy354,1529.87,4161.07,-0.32893757133132262,0.03692350875183055
Galaxy355,2541.68,2509.14,-0.063876998171692012,-0.26998057522119312
Galaxy356,498.29,1684.01,-0.15735858158596477,0.025940122130435866
Galaxy357,391.01,4141.84,0.1884781538653002,-0.197197142547962
Galaxy358,2072.09,824.26,-0.3324457212501849,0.033879439146806245
Galaxy359,18.29,1154.02,0.066557245431127232,-0.30232590147518407
Galaxy360,2645.76,830.65,0.08510779056701448,-0.18898043818165899
Galaxy361,595.39,3497.11,-0.023660735861672499,-0.22419326508832194
Galaxy362,176.24,3311.68,0.3770174393793348,0.20513658704067805
Galaxy363,3226.78,1108.49,-0.059790475440257972,-0.11217958479915015
Galaxy364,628.53,827.29,-0.076618711726530175,-0.30743698368572914
Galaxy365,2823.52,1081.46,-0.23419560906630144,-0.32088109397745151
Galaxy366,428.83,2582.71,-0.15034955166141215,0.027294570279964382
Galaxy367,3214.72,1013.53,-0.38431750576012891,-0.13227709630527321
Galaxy368,739.25,1254.68,-0.21584114456718839,0.44754457018253957
Galaxy369,2124.89,1159.18,0.047512462173746495,0.10797456168503627
Galaxy370,933.35,1900.2,0.26827244885288737,0.38012105264789808
Galaxy371,1508.13,2095.65,-0.085192674088049342,-0.31935057695867386
Galaxy372,1234.2,3556.84,0.51260774556073785,0.017414146566715138
Galaxy373,3273.56,2844.85,-0.021259393188449882,0.37704783683731752
Galaxy374,94.62,3613.78,0.40193262188611972,-0.56052923314430525
Galaxy375,3781.86,2313.18,-0.51452496184111185,0.16286837718712699
Galaxy376,3228.87,1573.18,-0.17047251870286126,-0.41347267011239486
Galaxy377,763.31,4170.31,0.20276788429843753,0.13513494902475331
Galaxy378,3267.54,3981.96,-0.088907343316328019,0.10539454674558182
Galaxy379,3125.01,1991.74,0.25705165809062053,-0.16271500690536084
Galaxy380,4050.61,3307.19,0.17046858132204992,0.11670807117364518
Galaxy381,460.2,1073.23,0.21674040650059556,-0.15385040041885734
Galaxy382,3681.9,2209.94,-0.24236761905406284,-0.071031786018096482
Galaxy383,373.74,1722.77,0.092930091065037537,0.030314394521415738
Galaxy384,1489.3,2.55,-0.20262608477211155,-0.011250550474485359
Galaxy385,2254.38,1074.96,-0.094605515925184014,0.11023357419978771
Galaxy386,4034.42,2485.76,-0.09785324540654608,-0.00059834254831089839
Galaxy387,2593.89,1247.39,-0.30656385391269664,-0.12800393931324108
Galaxy388,213.75,1310.32,0.13030759095024633,0.18723878380242492
Galaxy389,2834.39,734.6,0.3146735027550478,0.10353975345692633
Galaxy390,2479.49,4020.35,0.12524939329235965,-0.09539026146883503
Galaxy391,1756.7,3363.93,-0.032914372566697478,0.14962971572614278
Galaxy392,3891.09,3629.96,0.17125057359406201,0.10484421260379131
Galaxy393,3274.89,1887.99,0.17263269852928578,0.14262289819846669
Galaxy394,1717.7,3799.99,-0.095525816162443697,-0.048081231705739358
Galaxy395,1098.46,1496.98,0.10769953403886025,0.091582341152476238
Galaxy396,2566.11,59.99,-0.36661156487533547,-0.41807091379769962
Galaxy397,932.95,2484.32,0.33679398935129806,-0.26440293412322585
Galaxy398,1673.47,1775.81,-0.274446086542951,0.52319557281755535
Galaxy399,2746.99,223.72,-0.21584174193506361,-0.12472139147653477
Galaxy400,3440.71,2330.98,0.13135197736065335,0.27222674604209046
Galaxy401,1336.69,413.67,-0.28112691424451902,0.10812583469839815
Galaxy402,622.36,2515.53,-0.0041530681673815351,-0.24925762923661166
Galaxy403,3948.26,3766.63,0.52098232923937571,0.27737595627964395
Galaxy404,911.4,2798.84,0.28961472085202977,-0.0056580566185928972
Galaxy405,2729.78,184.75,0.0051781131506467848,-0.046025756250232856
Galaxy406,2454.14,1818.93,0.029233252815375005,-0.071714487733390758
Galaxy407,2800.49,2982.97,-0.05017759470938174,-0.18385436234727501
Galaxy408,1372.22,1978.9,0.29903438178956465,-0.25385482336355392
Galaxy409,755.65,626.52,-0.15448276220567073,0.34232587434847184
Galaxy410,3394.64,1229.44,-0.28338956174138175,-0.23042704471470993
Galaxy411,281.7,1153.85,-0.26434621151520438,0.36616607450923189
Galaxy412,2354.98,2848.51,0.13711079232349549,-0.080813009751869155
Galaxy413,1048.71,3402.62,0.13779523456295517,0.21127098801601718
Galaxy414,2128.31,1011.49,-0.030039930152449656,-0.23385971286664414
Galaxy415,2560.05,503.85,-0.26397302963556041,0.047221629352346695
Galaxy416,3679.08,4121.56,-0.27064688733291864,0.61991882912906804
Galaxy417,124.83,3913.73,-0.26425320730252583,-0.31135744051392289
Galaxy418,1039.7,3283.02,-0.13833264337734597,-0.087449015063020885
Galaxy419,695.22,3051.35,0.14055639269036163,-0.047366656592600045
Galaxy420,1162.19,209.13,-0.23121113438639801,0.27161700766924551
Galaxy421,2515.76,3586.74,0.11573647681662952,0.07421441002272966
Galaxy422,2446.9,2721.97,-0.079199752522776445,0.052057338706881326
Galaxy423,2758.29,3072.3,0.31726106978866531,-0.27204407244517426
Galaxy424,1544.9,826.24,0.012343575421027236,-0.20745256297634296
Galaxy425,2687.27,3346.12,-0.095250484583732448,0.17891783870237554
Galaxy426,1061.05,4098.35,-0.032714288048739243,-0.16578943713631808
Galaxy427,935.47,3375.53,0.18910403403926465,0.036300739437229057
Galaxy428,1959.54,448.62,-0.44315864610653899,0.26285826307639787
Galaxy429,3897.37,1744.84,-0.17227683250427039,-0.19229415579964787
Galaxy430,1524.44,3585.84,-0.15948035491393059,-0.070532643025640579
Galaxy431,139.63,3518.28,0.23666983262597011,-0.25015501835209186
Galaxy432,207.92,3289.92,0.11814355346873975,0.012234915265106491
Galaxy433,3767.34,3465.12,0.23495501239941968,0.12526836648800413
Galaxy434,3776.49,1327.54,-0.062144249250756359,-0.17400141369480437
Galaxy435,3132.45,258.24,-0.14327482619787965,-0.34520664555285363
Galaxy436,3384.42,1103.17,-0.37895962009901984,0.26301707132691204
Galaxy437,258.45,4086.82,0.56575700453183375,0.054458031204625029
Galaxy438,2704.67,2892.15,0.20975451062929856,0.29603798501450052
Galaxy439,259.27,69.22,-0.089719199950245188,0.11277895102846701
Galaxy440,3952.49,1092.99,-0.066092289794000197,-0.43784894277842767
Galaxy441,1299.53,1247.91,-0.30323718900568469,0.16837087743920176
Galaxy442,2416.7,1829.17,-0.38190954061055865,-0.032492007943573889
Galaxy443,3044.28,2129.23,0.23301146050137617,-0.2379365465952481
Galaxy444,2424.27,1944.69,0.68942824537754865,-0.1259320474369946
Galaxy445,1846.79,2254.85,0.11493685783380889,-0.038621939810320929
Galaxy446,1388.87,3106.89,-0.029375943171292884,-0.040872006778915795
Galaxy447,655.34,3838.1,-0.003712519417613136,-0.088297306503296522
Galaxy448,1694.23,3745.93,0.29946472406916225,0.27246365188918775
Galaxy449,2953.2,3221.76,0.38856050545012943,-0.15510645516937122
Galaxy450,3329.36,646.68,0.028468402928550296,0.24609183106968641
Galaxy451,1142.81,1823.66,-0.39785454805111153,0.14467569592109886
Galaxy452,3034.03,2845.73,0.34484685859734954,0.25940042989560513
Galaxy453,2629.29,3454.53,0.060088638498699214,0.0077051753489664754
Galaxy454,2975.17,2281.6,0.20077628186047375,-0.024455093928238913
Galaxy455,3852.92,619.42,0.12649445547033902,-0.29288487371947186
Galaxy456,2539.66,4094.51,-0.21502285164025342,-0.083399818860581398
Galaxy457,1737.08,1308.99,-0.37469296749899034,-0.12637471446939241
Galaxy458,4155.73,2745.34,0.24509453045654811,-0.55931168787149155
Galaxy459,4013.74,2587.59,0.31450134431334376,-0.19124797421178508
Galaxy460,119.19,1808.68,0.19201536541310893,0.19194986567521957
Galaxy461,193.65,10.35,-0.040577337165094866,-0.049071447943487861
Galaxy462,2267.49,1079.38,-0.0095559051500851977,0.023251802629802344
Galaxy463,674.8,1823.85,0.20298162305626985,0.046438682169880341
Galaxy464,202.79,843.87,0.042366356773561653,-0.083199383760904966
Galaxy465,1543.74,86.21,0.081154827890364434,-0.017427980892039299
Galaxy466,2095.53,1094.71,-0.33675091098630849,0.39535217818743795
Galaxy467,1762.33,2517.87,0.076500308011514029,0.15827556768251844
Galaxy468,3759.07,214.06,0.13249734202795688,-0.14493896423685576
Galaxy469,2449.68,1401.06,0.20028776554799335,-0.50899157896651925
Galaxy470,2630.45,2744.76,0.27350772893873809,-0.059266419586342031
Galaxy471,1110.85,1095.24,-0.22215211615409933,0.15651142191062606
Galaxy472,1380.15,3004.35,-0.090770035927648179,-0.072503893389062685
Galaxy473,1578.24,2221.03,-0.037623875976456556,-0.012108327164250116
Galaxy474,1568.44,2954.93,0.083848083650697708,0.016168776222673334
Galaxy475,648.53,498.98,-0.29030295104224091,-0.032099349141825578
Galaxy476,3496.39,2361.5,0.03793437199423394,-0.17141492214959247
Galaxy477,3055.9,101.17,-0.0034443961014126168,0.27129227189625266
Galaxy478,2949.05,3105.74,-0.21348137871188752,0.18468630992350768
Galaxy479,1140.62,3750.86,0.051789560509392256,0.13473419425593833
Galaxy480,3070.93,725.97,0.0067149116027685335,0.13738854223972469
Galaxy481,4163.63,708.72,-0.012539145514491461,-0.12601610032867278
Galaxy482,2291.64,786.65,-0.24565150380716383,-0.31375117632645294
Galaxy483,3354.61,561.69,-0.049547329419762844,-0.16026383956764093
Galaxy484,1391.79,1070.52,-0.11656923861102472,-0.12371156402128788
Galaxy485,1858.21,3480.01,0.12224370328333339,0.090666111089331258
Galaxy486,863.18,2655.24,0.15964300301378612,0.24062529290256285
Galaxy487,722.59,3316.59,0.14313762644161335,0.26603441512537446
Galaxy488,1165.3,3888.28,0.039673192629359824,-0.21965275331546832
Galaxy489,2654.23,1409.65,-0.067389649505244426,-0.093311579208110729
Galaxy490,1595.68,463.41,-0.011681096507330152,0.16000620835765725
Galaxy491,2299.38,1758.34,0.15142953385703253,0.0020762778126525716
Galaxy492,4027.46,1605.71,-0.075659305336496827,0.085667458743383468
Galaxy493,3243.43,106.91,0.19126749933946033,-0.54198354554793549
Galaxy494,2940.15,1984.82,0.25256095442816834,-0.23120446856796237
Galaxy495,543.1,89.69,-0.13795127388437298,0.013259103139068695
Galaxy496,1630.92,2684.48,0.10411280392242743,0.029466771447372808
Galaxy497,1146.82,2829.39,0.18908092258181039,0.29281677301689191
Galaxy498,338.45,1251.6,0.11133446847705017,0.12221497860739275
Galaxy499,2144.56,3107.23,0.28710478841828635,0.25704079665604507
Galaxy500,346.63,720.73,0.16333687836035995,0.0074337984955008263
Galaxy501,1625.82,2808.19,0.36001189339245221,0.05434268976181221
Galaxy502,2506.58,1065.19,-0.30432192674117287,-0.031380892759954038
Galaxy503,1651.31,4134.15,-0.26818965745584022,-0.34977135161646999
Galaxy504,220.75,866.26,0.001682872611408124,-0.0075097521349211382
Galaxy505,1445.4,3680.28,-0.29634574877082187,-0.70552156928083187
Galaxy506,4170.08,1881.3,0.0057969227808699342,-0.18802621324134711
Galaxy507,1932.38,3514.35,-0.084625847919558808,0.24517068404570233
Galaxy508,3782.57,2308.0,0.12687469843963448,-0.0080687555255558596
Galaxy509,1879.63,3465.63,-0.049155559305515073,0.10834079633405015
Galaxy510,3719.38,4076.69,-0.15985973601988512,0.36574915052568235
Galaxy511,3969.93,3349.17,0.16626541844673384,0.5346456498535197
Galaxy512,3030.55,2590.71,0.31790242386690043,0.036195881970287572
Galaxy513,3023.31,3984.0,-0.028596188662563624,0.24055692135925341
Galaxy514,401.14,952.29,-0.27437664827887404,0.21126027528241356
Galaxy515,837.42,3633.65,0.042412301855745731,-0.15993814822099414
Galaxy516,983.89,1610.61,0.21573851157261503,0.11950427936629093
Galaxy517,2822.7,3065.49,0.030962525307327904,-0.16129266384524238
Galaxy518,3446.44,2770.26,0.088267091104878695,0.063938814813552985
Galaxy519,1206.89,3538.04,-0.033984433333919699,-0.044249608886000324
Galaxy520,3709.38,2239.71,-0.096560527288801323,-0.25452174886250972
Galaxy521,2537.92,861.36,0.12722968061754467,-0.37805684794349437
Galaxy522,664.38,114.1,-0.37993373662937313,0.36559489874817219
Galaxy523,1510.44,935.4,-0.19763436821244584,0.16413121189703395
Galaxy524,1564.82,3091.57,-0.22213105795746052,0.010117686382205587
Galaxy525,556.66,2302.85,0.063179444514383329,-0.17523741940777821
Galaxy526,654.17,1831.76,-0.18936142491513647,0.11113450514455048
Galaxy527,2980.14,668.36,0.14874062492480788,0.027104241825965714
Galaxy528,2715.38,1067.56,-0.12330142194037867,-0.23607937401575277
Galaxy529,869.11,1771.08,0.087507765543773278,0.11245825393754082
Galaxy530,3347.18,1747.36,0.037541187587670326,-0.038670759472595517
Galaxy531,49.14,2890.31,-0.28325708566678076,-0.18868149776647322
Galaxy532,1068.91,824.02,-0.39608536283090756,-0.07136927547791222
Galaxy533,3026.71,753.89,0.15769737499506936,-0.13217416400103005
Galaxy534,3061.56,4148.55,0.2266272513287344,0.2914726018772702
Galaxy535,1433.89,3086.97,-0.1858152776636893,0.24827947126916095
Galaxy536,2359.08,287.19,0.013426633557392348,0.088486589760005424
Galaxy537,1701.05,2886.18,0.12504176412297285,-0.084887024732386449
Galaxy538,2157.91,638.37,-0.18238193912129513,0.5752497399601153
Galaxy539,626.15,698.72,-0.26128183813556138,0.21203396847720488
Galaxy540,1467.08,1930.87,-0.30660711733719054,0.11557020260362136
Galaxy541,1047.42,1794.3,0.31113746323409475,0.026323150278909635
Galaxy542,203.6,2436.19,0.18233075601692589,0.17988768618714931
Galaxy543,3662.5,3861.19,0.089084320977488154,0.30404339831149263
Galaxy544,2476.74,3654.23,-0.10491462358049081,-0.13534826231054126
Galaxy545,4161.22,1858.66,0.08880447189320298,0.0032140179239434907
Galaxy546,2467.59,711.9,0.012219462513185564,-0.17128713320392086
Galaxy547,425.14,1351.54,-0.15508354471386587,0.28013599956128543
Galaxy548,2660.77,3153.96,-0.089892869641107154,0.29993009211958976
Galaxy549,1019.37,1679.99,0.184173480083347,0.13726090025630164
Galaxy550,686.96,1270.6,-0.16363037885416443,-0.030753303131670601
Galaxy551,814.13,3114.32,0.4027727788226414,-0.29689445224304384
Galaxy552,3408.02,3818.11,-0.03223382251819075,0.33849954584814901
Galaxy553,643.22,1577.03,-0.16092041679321506,0.27241639442025845
Galaxy554,4096.13,3646.25,0.13203568590546122,0.095998234756729972
Galaxy555,1319.26,3802.02,0.0053516972066570689,-0.56111427614880749
Galaxy556,2047.23,3185.51,-0.083694439330531778,0.34522323447221914
Galaxy557,2156.0,3888.41,-0.21740968223671789,0.70864402423649442
Galaxy558,299.63,1930.41,-0.12233280574519864,-0.0091467489806565938
Galaxy559,3661.58,1121.89,0.24722888389413075,0.096905142827374502
Galaxy560,2520.95,3956.62,-0.099217854908043177,-0.16189757408730834
Galaxy561,1551.78,24.04,-0.20105865402216494,0.37998143414901658
Galaxy562,3481.81,1652.61,0.10858173114633793,-0.051973939794996704
Galaxy563,4169.37,1861.63,0.077952162981370476,-0.37389019824570213
Galaxy564,379.84,3427.74,-0.27381279650774015,0.01798439046390217
Galaxy565,450.29,1326.88,0.21330406174352284,0.15321986726202388
Galaxy566,1808.4,832.46,-0.39040666389383272,-0.21929521564724125
Galaxy567,3194.75,951.67,-0.15726972602518707,-0.10805574180435079
Galaxy568,932.54,2056.7,-0.004538534582666176,-0.27547735868370049
Galaxy569,3653.07,3517.45,-0.041024210004928674,0.43630407437250823
Galaxy570,2298.82,1022.57,-0.36040732572378287,-0.096984893228705127
Galaxy571,3383.04,2111.06,-0.047432381766141715,-0.14116301984092111
Galaxy572,3437.8,866.6,-0.30318256280749223,-0.049472980062910163
Galaxy573,3836.38,1806.34,0.14281300327740706,0.15340123356725499
Galaxy574,2299.07,3449.49,-0.15224556468601269,0.17934009065388584
Galaxy575,55.85,3912.15,-0.01041139242775678,-0.43610339892150862
Galaxy576,2701.33,1646.63,0.13376652918404047,-0.025461429393157597
Galaxy577,345.28,3937.09,0.03026627720734263,0.30647232694708726
Galaxy578,1271.58,415.87,0.017998579295650935,0.24607600555761566
Galaxy579,3653.89,162.64,-0.15132946545291803,-0.0023933453043137043
Galaxy580,473.04,2249.81,0.26035368593115493,-0.19894249781806675
Galaxy581,438.96,3546.28,0.18396401965810535,0.11743669730221484
Galaxy582,2985.2,3117.14,0.39391539626702421,0.017353165375330409
Galaxy583,2302.06,2529.81,0.38327396557198407,-0.30441579943749097
Galaxy584,3836.2,65.81,-0.068887287062372765,-0.2641827567120677
Galaxy585,1784.47,985.52,0.074629553813016503,-0.15391639712232238
Galaxy586,711.01,2607.91,0.18249708992697736,0.2045500592249388
Galaxy587,3423.16,2789.32,-0.012738622861472371,0.23143685980851697
Galaxy588,1940.27,1791.89,0.19815423529695797,-0.14320853587285282
Galaxy589,1908.34,2136.29,-0.24344371068298876,-0.12803882386145995
Galaxy590,3630.28,2127.98,-0.021985249522083694,-0.017207808541574568
Galaxy591,1053.79,1731.18,0.030106974273298389,0.20010058785806295
Galaxy592,2761.99,2117.58,0.21211042332120336,-0.18131285787498963
