GalaxyID,x,y,e1,e2
Galaxy1,3245.17,256.26,-0.040701659943891189,-0.089691379171931068
Galaxy2,2865.74,2118.49,-0.080441801214575906,-0.0086029597416750897
Galaxy3,1891.76,3290.72,-0.1522987723315529,-0.28375622755526908
Galaxy4,485.07,3392.13,0.19272677055426374,-0.010391618440327492
Galaxy5,3197.96,147.8,0.13248451424077376,-0.048479933541354575
Galaxy6,945.94,2403.88,0.41799867925575479,0.26916458669899823
Galaxy7,2642.83,4079.31,-0.03838623227087945,-0.21013761714056017
Galaxy8,3484.17,1175.36,-0.15527879623461258,-0.14185719799320118
Galaxy9,2159.29,1579.84,-0.25898913582225241,0.054493466972222016
Galaxy10,1878.34,722.21,0.10243835940966492,-0.14817355502846941
Galaxy11,1787.0,2373.35,0.13508226900172671,0.3565803250924629
Galaxy12,1970.79,2494.1,-0.26691582095575606,0.21489450008208261
Galaxy13,3176.83,319.68,-0.31463599482391202,-0.073827927312836814
Galaxy14,3856.08,977.59,-0.057713977980228107,-0.060256142585982678
Galaxy15,2524.01,649.23,-0.42506228970754578,-0.06541938141802299
Galaxy16,3180.34,3253.28,-0.076560970460926303,-0.34860305010734427
Galaxy17,2268.08,3465.41,0.015935573440246487,0.11163392834630412
Galaxy18,2639.66,2781.14,-0.11711807215543844,0.16375679484002589
Galaxy19,2984.51,281.89,0.10572916380778455,-0.10549347340217755
Galaxy20,2736.07,1164.67,-0.17913025142655317,-0.02837622152107782
Galaxy21,1324.57,2331.64,0.013070019449737538,-0.26256699447942627
Galaxy22,3105.26,2415.28,-0.29885664480112289,-0.17776952799976026
Galaxy23,3313.73,4084.27,-0.12985027732878923,0.38291732570059067
Galaxy24,191.25,4168.33,-0.10217020393657392,-0.021810034809511727
Galaxy25,2013.02,2264.07,-0.11531150887868538,-0.1487006697917396
Galaxy26,2515.46,1047.32,-0.13569900259935985,0.28522177481759098
Galaxy27,3933.88,3813.74,0.032755772143970546,0.043759353223171295
Galaxy28,103.85,1076.15,0.37142705086676314,0.3750489393860737
Galaxy29,2903.74,3939.1,-0.0007739128558207041,-0.12939944298915385
Galaxy30,1169.11,2911.62,-0.17467464184418727,-0.083703951868660587
Galaxy31,2706.07,2319.38,0.28272515364548184,-0.05967700358961818
Galaxy32,3542.45,4192.2,0.49999141850169321,0.16621318344655278
Galaxy33,3959.77,864.55,-0.3689503938568755,-0.032731570605041699
Galaxy34,1047.45,1233.24,-0.34116746524057368,-0.051016189225173897
Galaxy35,475.75,1396.08,-0.28422580738734132,-0.25174938877005454
Galaxy36,3696.54,3752.67,0.25307572693300517,-0.29732906925493924
Galaxy37,4031.52,3192.71,0.0028703822735349771,0.011838631380994585
Galaxy38,2626.63,2536.28,-0.076458474440849883,0.099163044291420602
Galaxy39,1459.57,620.31,-0.054754277304560714,0.28814551237005437
Galaxy40,2252.2,431.07,-0.01925331658734189,-0.16583623806388112
Galaxy41,2125.7,2507.2,0.1881452817363794,0.14024070861604956
Galaxy42,2824.25,1481.7,0.20760638313652108,0.12223826874469969
Galaxy43,2227.61,162.08,-0.17419765496456049,0.28812301449109751
Galaxy44,855.11,2557.38,0.10479007337962268,-0.07865602536216329
Galaxy45,594.02,1500.59,-0.19304328017217307,0.27121382188299231
Galaxy46,649.68,1993.94,0.14469116422335868,0.048505978940226263
Galaxy47,1955.44,2065.7,-0.18091605359558457,0.33764922603956948
Galaxy48,2140.72,625.37,-0.055618200777741197,-0.1760641137615217
Galaxy49,3253.59,2336.3,0.023739596278541025,-0.075736807258189903
Galaxy50,555.69,3711.97,-0.090023708449836787,0.07568650319112033
Galaxy51,1863.82,1843.67,-0.23243273345327381,0.25751565201439264
Galaxy52,1911.64,1884.01,-0.09688998165335963,-0.36024355341883368
Galaxy53,2940.81,317.37,-0.07102490019267782,-0.072387735468325443
Galaxy54,1069.32,731.92,-0.21241337968580395,-0.27408789971364528
Galaxy55,2846.4,453.86,-0.22941401615179829,-0.12602728441638761
Galaxy56,3385.04,1302.86,-0.40569768510567489,0.025748830583365259
Galaxy57,3597.4,2476.29,-0.13021116658552789,0.15895321617945818
Galaxy58,3608.91,3573.94,-0.080156837539520437,0.10681073319765344
Galaxy59,200.88,3518.12,0.38995242660917645,-0.43200115590791321
Galaxy60,738.12,1296.74,-0.4312343138923756,0.46934150841256828
Galaxy61,2774.05,3334.43,-0.088231590791843784,0.28946568160957337
Galaxy62,509.0,3978.45,-0.17794812675256438,-0.29116760593446156
Galaxy63,1377.58,4032.83,-0.023840698950658948,-0.075284660023900662
Galaxy64,3879.24,418.85,0.12381183223740024,0.0015904710315727821
Galaxy65,231.14,114.97,-0.14023117516795477,0.11349755137890695
Galaxy66,3008.45,4037.21,0.39735621713953784,0.0048207040247151833
Galaxy67,2471.73,981.8,-0.30713005976678476,-0.065567822831597178
Galaxy68,1400.99,4009.39,0.39557904521099951,-0.073399869606364979
Galaxy69,277.18,130.76,-0.15271882038480056,0.30928295604963868
Galaxy70,2987.12,1115.07,-0.20558900410644287,-0.05278275757823242
Galaxy71,1629.7,825.33,-0.061725716265075184,0.05947587271126252
Galaxy72,568.96,2438.79,0.14598817308677772,-0.0059859554629144163
Galaxy73,1911.15,4191.72,-0.26725384637433347,0.029845269924424433
Galaxy74,1575.82,947.9,-0.12534827933090609,0.034114214948008398
Galaxy75,3938.67,1701.8,0.11051219183742847,-0.19838297240580188
Galaxy76,156.44,1223.27,-0.12226487289587641,-0.11587355721076328
Galaxy77,657.16,3164.07,-0.010614589550597048,0.0038032444188608946
Galaxy78,1524.71,2774.08,0.070486281011980331,0.5210356836747414
Galaxy79,1354.41,4057.67,0.11219778431090031,-0.016819201683371116
Galaxy80,86.7,2413.98,-0.14244732864807724,0.17979620994834092
Galaxy81,1811.93,672.29,-0.15829518904608136,-0.23453770881400759
Galaxy82,3281.11,3045.1,-0.11254292706240016,-0.45100725017585475
Galaxy83,3211.34,252.95,-0.43911287973036661,0.16085546928083738
Galaxy84,3112.6,2185.38,-0.08626939084865945,-0.20653300167874461
Galaxy85,3486.34,2218.67,-0.0020206149009078869,-0.11882134508561729
Galaxy86,1671.75,1907.53,-0.2278901295682188,0.16113464927459398
Galaxy87,2387.9,3830.89,-0.28007486207964927,0.032044125657392425
Galaxy88,108.24,281.18,-0.45035893527996307,0.30417211680128553
Galaxy89,1319.01,1707.54,0.12455078808968201,0.42247207278306809
Galaxy90,3737.15,2769.63,0.11590352284937362,-0.24227181541109227
Galaxy91,718.36,1554.14,-0.25966116137861495,0.059826751325193162
Galaxy92,991.51,2156.92,0.4781850541969091,0.21023510441722598
Galaxy93,2333.33,3352.35,-0.032466012304048955,0.39764187560384323
Galaxy94,4149.26,1858.26,0.13145610819533793,-0.19822688217399853
Galaxy95,2476.82,3729.85,0.044506402354790087,0.23316145267009949
Galaxy96,3204.33,2473.53,-0.1613976617288152,-0.32062494513518047
Galaxy97,1063.03,1499.79,0.23033615703373037,-0.094200618579024981
Galaxy98,2759.71,504.77,-0.19651368685443552,0.10935651636944567
Galaxy99,3583.2,2120.69,-0.37537088274966179,-0.060844552819065353
Galaxy100,1999.83,2085.02,-0.99615069578292814,0.39379789641430668
Galaxy101,143.73,2315.33,0.17210649269670028,0.099264955419091166
Galaxy102,147.83,358.68,-0.30793839640823312,-0.0032000637608899096
Galaxy103,483.5,1630.21,-0.087041475903506055,0.11304755201390988
Galaxy104,1303.93,1356.07,-0.17634127765615823,0.13999248695958169
Galaxy105,2598.84,3604.31,0.052934263278272456,0.030178835791919073
Galaxy106,625.14,555.94,0.46335592984978557,-0.16027749027624844
Galaxy107,3367.88,942.13,-0.24665178673903521,-0.22755929105385964
Galaxy108,1637.4,2199.7,-0.24652315587232754,0.028238931146621488
Galaxy109,1898.19,4119.14,0.20504669617798138,-0.51983378927363377
Galaxy110,775.27,1347.89,-0.13752984301980109,-0.13473762197990841
Galaxy111,1377.92,2930.76,-0.056616265978191027,-0.1064324112136141
Galaxy112,3247.31,4198.3,-0.28886846533172567,0.12991056971362835
Galaxy113,2982.12,1430.71,-0.058583135961742278,0.32485593380254479
Galaxy114,3253.95,4141.88,-0.21241401324358775,0.085450276607156053
Galaxy115,1857.32,2888.25,-0.21785234087102281,0.016969683324484369
Galaxy116,891.65,1024.96,0.105228005196878,0.35272133394610206
Galaxy117,685.95,2392.52,0.32762889584519628,0.15849299376239595
Galaxy118,1717.08,316.58,-0.28753003709488467,0.048804789070491558
Galaxy119,2813.98,1684.57,-0.26001756170498336,-0.0071946285636381654
Galaxy120,4144.06,164.78,-0.070664631276497081,-0.22251961008186583
Galaxy121,1949.59,256.75,-0.070078050686797538,0.30753188004772808
Galaxy122,2379.4,810.0,-0.075635062924775384,-0.39560725571295802
Galaxy123,3470.98,233.14,0.20903416480264764,0.015179986218936972
Galaxy124,1993.95,422.38,-0.291710130353659,-0.22246740807218995
Galaxy125,1920.68,3139.94,0.093695396268378014,-0.072381858075732858
Galaxy126,1673.91,228.97,-0.29275283589679035,-0.021939500740143572
Galaxy127,3839.69,1938.09,0.20549508501836228,-0.29555095631070827
Galaxy128,2820.71,1247.5,-0.0032018453632447486,0.076033903936920125
Galaxy129,46.88,1240.44,0.1715623688971088,0.52401634679786535
Galaxy130,1093.45,2103.47,-0.070361644412656271,0.37556739103540032
Galaxy131,633.81,3239.89,0.065092611406813383,-0.10047333849288498
Galaxy132,2232.82,1355.08,-0.059797060498620089,0.39115067932871994
Galaxy133,1826.68,2472.77,-0.16445386977215523,0.14667237474386507
Galaxy134,3949.6,1574.14,0.097150817455575078,-0.11883377014385341
Galaxy135,953.73,4128.23,0.40184118198651936,0.056727301224815563
Galaxy136,3157.81,3364.22,0.023184491607524976,-0.030910185659460077
Galaxy137,885.41,3271.58,-0.033059271871722418,-0.30362633560115071
Galaxy138,82.99,3988.19,0.12505434517684449,0.075957631096417247
Galaxy139,2452.84,1654.34,-0.20275678583682682,-0.092257801160740158
Galaxy140,2578.74,2108.54,-0.18615944606327611,-0.36413240528407487
Galaxy141,39.86,1256.08,-0.080022144721030447,0.085655446605743896
Galaxy142,3722.81,2738.46,-0.13820878267230932,0.22388940614406
Galaxy143,3649.9,1552.8,-0.33389810558314703,-0.05589627982440501
Galaxy144,1825.13,756.81,-0.28716419652435166,-0.029093106530541271
Galaxy145,3524.92,953.31,-0.0091798786832887891,0.30436348966835847
Galaxy146,3599.87,1208.48,-0.29172193763976678,0.042052219849625344
Galaxy147,1489.03,1655.86,0.079439788665116653,0.60500252165671675
Galaxy148,1909.77,1042.98,-0.27012732392160449,-0.12356647770276981
Galaxy149,3485.21,1799.9,-0.018435586334418885,-0.39245489862114968
Galaxy150,2473.86,857.95,-0.42180123971946415,0.054141543656650873
Galaxy151,1107.2,1146.71,-0.14651940755230142,0.14670529299208743
Galaxy152,2341.99,3857.6,0.04271100115246157,0.13795882388009298
Galaxy153,305.37,3010.58,0.093745455775167061,0.092940735824524098
Galaxy154,2274.84,2269.03,-0.29064400897546061,-0.25493183344960973
Galaxy155,3877.61,259.5,0.22303462241303873,-0.053641146980963214
Galaxy156,1817.23,465.27,-0.24289040826487207,-0.042436811791115664
Galaxy157,633.88,103.93,-0.18293929911463808,0.26560078669012183
Galaxy158,1910.44,2693.18,-0.084284484616811012,0.077463974006096684
Galaxy159,98.74,136.2,0.044100125101717097,0.17383263644223149
Galaxy160,1869.98,3995.02,-0.066402132699558025,-0.17365094430993813
Galaxy161,1032.62,2555.15,0.20153772584938134,0.49315516945918503
Galaxy162,357.59,997.41,-0.24477550575994975,0.15349235644392742
Galaxy163,3277.6,1387.71,-0.37905084139919143,-0.062000914561455733
Galaxy164,52.68,3002.2,-0.00785054546758987,0.16787976977283431
Galaxy165,3747.45,1383.1,0.12322588256427774,-0.04514710368155124
Galaxy166,2482.61,694.33,0.11451950224202764,-0.22370491830410963
Galaxy167,513.5,1956.76,-0.36757000192410538,0.33145350333011225
Galaxy168,2479.11,2439.86,0.0063774936825386486,0.17077076517010414
Galaxy169,3009.92,2482.14,-0.31950839348954879,0.013082469379054718
Galaxy170,3419.17,681.23,-0.084706944705885967,-0.14607670173819398
Galaxy171,2500.87,4066.91,-0.46011820918883328,0.023119491795473467
Galaxy172,220.06,1758.73,0.10685164439629703,0.14887372575806823
Galaxy173,2304.13,1954.39,-0.074920798367242566,0.071618147306232074
Galaxy174,116.61,572.11,0.27853681699712907,0.28334407086096453
Galaxy175,1620.29,1035.03,0.023841317210857943,0.14047592658443164
Galaxy176,4128.29,2172.25,-0.1967680918450779,-0.15435033103717188
Galaxy177,3785.6,3392.71,0.34287463982924793,-0.00060170396105436313
Galaxy178,1869.6,1243.53,-0.017800220317526205,-0.33691832244734932
Galaxy179,2253.77,385.26,-0.21399968038113942,0.15596344494353839
Galaxy180,878.26,2652.42,0.22502462320462691,-0.14199480177072249
Galaxy181,3606.45,3650.48,0.11062927314273208,0.36033456041032386
Galaxy182,2919.91,4173.35,-0.46840936919408815,0.10936904174683534
Galaxy183,2069.0,230.64,-0.025779099286444673,-0.083784526516343424
Galaxy184,3162.91,2855.66,-0.67132756434736374,-0.17797987097805065
Galaxy185,4105.56,3770.37,-0.19115217444334615,-0.13161063568638767
Galaxy186,1383.31,1131.32,0.15310811125070756,0.01383420498838514
Galaxy187,2824.32,840.68,0.075844481731807994,0.28154840295052985
Galaxy188,3310.81,226.45,0.10642046593791146,-0.29799701087644587
Galaxy189,915.17,4131.99,-0.008200971353096248,-0.14676322135085076
Galaxy190,2689.51,1280.44,0.20268332156624222,0.22492924498141537
Galaxy191,1112.07,2286.2,-0.32300499681984229,0.2369491701633189
Galaxy192,1298.57,2710.84,-0.30083180067115761,-0.0043676059596849115
Galaxy193,2905.25,2970.4,0.15544636055145106,-0.069493936436656994
Galaxy194,950.89,29.67,-0.45688195504263696,0.46832572037876452
Galaxy195,2928.55,3188.34,0.044188948426518437,-0.6052735275872192
Galaxy196,3073.73,1885.1,-0.25975838949837315,-0.28889601776036239
Galaxy197,396.94,1981.05,0.27617130460819733,0.15846395959592741
Galaxy198,2640.07,1821.41,0.40064098347299981,-0.035226325517171447
Galaxy199,2430.65,1349.0,-0.52214250730301404,-0.26971853993133582
Galaxy200,2084.33,1272.3,-0.21979195258345846,-0.024367223599154678
Galaxy201,2306.75,1315.3,-0.20933689687790102,0.19707623083972683
Galaxy202,694.94,1635.47,0.053027753615069957,-0.13379345572684176
Galaxy203,3134.44,724.72,-0.27477407396585524,-0.12742791444072471
Galaxy204,2172.06,2581.16,0.10760395996227926,0.25859264992888942
Galaxy205,2432.42,1832.82,-0.17134348401377872,-0.36796901083131262
Galaxy206,1378.21,2833.06,0.052205958942417204,0.2173162114202411
Galaxy207,1767.24,1850.8,-0.3530731921386035,0.43746766356844602
Galaxy208,2473.29,1805.9,-0.26016895433255993,0.37303930117242973
Galaxy209,2521.61,521.84,-0.40437781771120884,0.26655895960564857
Galaxy210,1261.57,2966.28,0.09100950205202446,-0.012770675595929315
Galaxy211,999.06,1699.53,-0.22712199159768842,0.16070215466221752
Galaxy212,4012.42,2474.44,-0.10601903490862931,0.13330656279274561
Galaxy213,3909.75,2229.39,0.10022532013700636,0.28567088056812662
Galaxy214,2639.93,3983.25,-0.12887139934465461,-0.043261183041621742
Galaxy215,1663.0,2365.07,0.11114501307493239,0.032173291864010467
Galaxy216,2639.76,2751.51,-0.30392418760509587,0.26789124296951061
Galaxy217,1901.79,338.14,-0.45929305974052292,0.38538272852695321
Galaxy218,146.5,31.6,-0.33025021137157173,0.11027415223637829
Galaxy219,2028.79,215.64,-0.62823818286693145,0.015643567118276101
Galaxy220,870.26,2940.18,-0.035537310263625332,0.29866319806602437
Galaxy221,1981.44,607.1,-0.22997944097981871,0.23525306414716082
Galaxy222,3084.47,1522.27,-0.58458115413860434,-0.0018956770724170013
Galaxy223,1419.14,3252.22,0.061961243071721378,-0.092969916290570609
Galaxy224,3772.78,523.98,-0.11225674615260205,0.17432381255463536
Galaxy225,2906.48,3286.42,0.047670084893348535,0.41612585232983773
Galaxy226,356.18,2285.19,-0.3046812571342874,0.14599509141875958
Galaxy227,1137.0,2821.95,0.20174192159070287,-0.036139065293073536
Galaxy228,2827.36,3854.02,-0.2584470171669368,-0.049338293981178033
Galaxy229,2652.46,3634.26,-0.092916643222934109,0.27972968944252802
Galaxy230,4156.87,454.11,0.10215262266311731,-0.11707093116770363
Galaxy231,3085.79,1415.54,-0.016649868500990345,-0.44790749135037905
Galaxy232,535.34,1041.2,-0.16297025030562581,0.40943421061918361
Galaxy233,3517.73,9.99,0.22147381035105057,-0.31260746682490465
Galaxy234,3896.76,1797.38,-0.39541078091415521,0.0382620164423563
Galaxy235,271.89,1655.91,-0.12636207416023887,0.076919884808195824
Galaxy236,1418.77,293.84,-0.16699928991714549,0.05103698559129035
Galaxy237,2777.13,2404.72,-0.27372096570429838,0.063445595805763755
Galaxy238,3904.97,2381.9,0.27983212838297711,-0.38391773492829345
Galaxy239,3250.98,1817.88,0.061981885222826716,-0.44717324174947631
Galaxy240,1799.82,1180.64,0.083556357243334267,-0.49512269718074386
Galaxy241,3476.48,3325.67,0.18255042326877871,0.13243009938692601
Galaxy242,1677.12,779.16,-0.13368814559446124,-0.13704052869820746
Galaxy243,1027.28,1346.83,0.079160918724599544,-0.071315006280535997
Galaxy244,3539.63,109.56,-0.34230478297526212,-0.16016905875273163
Galaxy245,1595.29,1048.75,-0.12427477606905953,0.3501236670702379
Galaxy246,1349.66,846.15,0.14735965474536061,0.13913658587991917
Galaxy247,2426.41,3880.69,0.12127280209371794,0.20481149832846099
Galaxy248,4116.28,2608.72,0.44307268352361229,0.019800045031081459
Galaxy249,2076.62,210.56,-0.21469608284280101,-0.12648155495555297
Galaxy250,569.99,3888.52,-0.083043047125906128,-0.11095696823987264
Galaxy251,2215.38,3304.89,-0.19370144014151428,-0.11907631128759086
Galaxy252,2420.35,2370.26,-0.27551837612971364,0.19811788057269991
Galaxy253,1300.46,1822.04,-0.24651106726112082,0.071244197900679193
Galaxy254,3183.05,4177.6,0.20604550394973969,0.15532790588190604
Galaxy255,2460.61,3078.37,-0.039414573083435545,0.10054079233077171
Galaxy256,3368.74,1027.02,0.093778442199575984,-0.14259548606416553
Galaxy257,1889.2,2941.96,-0.1878431822538443,-0.07775696851578176
Galaxy258,1940.66,3185.22,-0.068890971426468023,-0.081602180930149482
Galaxy259,28.55,1678.68,-0.021595545504060447,0.13456259592548442
Galaxy260,1141.28,2806.06,-0.51380625117059464,0.033398638935659503
Galaxy261,3498.53,2277.37,-0.2246371389532828,0.24186722309780651
Galaxy262,2508.28,615.75,-0.28732417587643111,0.25295750795311273
Galaxy263,1006.32,550.62,0.11521801930865501,0.3370937568991848
Galaxy264,231.64,3061.92,-0.085112432201853883,-0.10408045706333702
Galaxy265,1867.32,1720.81,-0.10122172439070891,-0.017107511215818133
Galaxy266,1013.37,2482.57,-0.067466630061290694,0.29702337559648084
Galaxy267,2347.17,1730.97,0.0294973288770711,-0.1105791526060511
Galaxy268,1851.48,163.59,-0.054272198327853099,0.075336064624468457
Galaxy269,2776.76,3869.85,-0.38254242523074,-0.22928837229935159
Galaxy270,555.31,3252.5,-0.19817763637434463,0.35766592111637052
Galaxy271,3939.78,4098.85,0.54704221023273814,-0.25737710944526548
Galaxy272,2434.76,61.56,-0.48531287774661991,-0.21290060478114159
Galaxy273,1376.81,3124.12,0.1302617482306361,-0.032560217343648098
Galaxy274,2803.89,1760.27,-0.11225330671123805,-0.059945900996352774
Galaxy275,2853.66,850.76,0.023772859788526723,0.088284210124348325
Galaxy276,1806.77,17.38,0.028109369731408845,-0.19124460183809161
Galaxy277,3426.22,3571.38,0.0011254860005581735,0.56579475418366532
Galaxy278,658.34,2957.06,0.060333054386031121,0.03186908370704046
Galaxy279,793.65,2001.6,0.081313109908577111,-0.28989244388611962
Galaxy280,2768.83,3457.78,-0.1121579030043682,-0.05861446088419054
Galaxy281,4102.66,3571.32,0.0960799972874328,-0.21645650418819587
Galaxy282,897.38,4006.87,0.041963122001461767,0.12405673384336645
Galaxy283,334.55,3716.49,0.18998326015506609,-0.32851365418044343
Galaxy284,305.76,1253.41,-0.009923683839282639,0.10297557436023631
Galaxy285,292.57,2536.74,0.21600556928186215,-0.074612274074277118
Galaxy286,548.6,2952.38,-0.36490892597822683,0.32434150533957268
Galaxy287,2556.12,3281.68,0.060711481812726592,0.069513505726688934
Galaxy288,3560.38,3090.72,-0.21024666365409747,0.19443372956715471
Galaxy289,1351.82,2143.45,-0.16893770972641176,-0.17093559501876573
Galaxy290,504.07,3917.89,0.10443477524594258,-0.049808291948086524
Galaxy291,2340.82,1055.65,-0.21266116612311475,-0.051447397457797819
Galaxy292,3759.76,3409.76,0.36734048933295116,-0.35620686656531275
Galaxy293,946.16,694.06,-0.14198622476123557,-0.25739915415315767
Galaxy294,3180.33,2236.83,-0.18945011018253885,0.012527050116418553
Galaxy295,3600.52,342.46,-0.20631382795448286,-0.24014826870143524
Galaxy296,1349.53,2940.3,-0.044050345418764458,0.30562935751501286
Galaxy297,1508.42,1370.1,0.29051566768979969,0.20770279185330887
Galaxy298,1877.28,1034.01,0.24858183554744018,0.04739597595465106
Galaxy299,1542.77,1657.55,0.14315327670699102,0.47467761457191915
Galaxy300,2124.62,547.26,-0.37695907319843175,0.034599082638404853
Galaxy301,795.37,2888.31,0.19049884362239944,0.18896339807853563
Galaxy302,271.85,1265.7,0.72331294862824946,-0.23175099011482581
Galaxy303,2109.72,523.72,-0.29351472415976343,-0.058330216979781462
Galaxy304,2346.72,815.37,-0.4038723408598543,0.25123145396740915
Galaxy305,1620.09,2339.45,0.15102541176852785,0.23166107783133363
Galaxy306,2800.57,4120.87,0.071979231782501457,0.077238780841111576
Galaxy307,3518.04,2099.91,-0.14071943206244855,-0.00030074127711296472
Galaxy308,1266.62,473.81,-0.12197225752096338,-0.19708945451841148
Galaxy309,3057.3,3235.5,-0.16460126558820309,-0.22397125778943866
Galaxy310,3887.97,2704.76,0.34604401274067231,-0.30355981197663318
Galaxy311,2757.34,3966.48,-0.10382719520564658,0.06921652590316818
Galaxy312,1432.23,884.92,-0.037989088680070546,0.15325000788957169
Galaxy313,1582.24,1201.86,-0.16198177336860251,0.02360791340026841
Galaxy314,2958.72,2578.0,-0.022580178666911727,0.013384589818104753
Galaxy315,371.5,953.81,-0.32356770575101024,0.38124114432131945
Galaxy316,2071.75,1302.19,-0.4357488383472034,-0.002744476864788889
Galaxy317,1436.12,4143.86,0.50974608307208857,0.0446687319996798
Galaxy318,1910.07,1574.62,0.16328017628511471,-0.31988632909204329
Galaxy319,3241.64,1014.53,-0.31582874421539697,0.0062483818172113098
Galaxy320,1199.75,3385.23,0.047284496707850066,0.030032542198559942
Galaxy321,437.39,2031.87,-0.25689931917779874,0.17446498579161007
Galaxy322,1426.7,655.81,0.024456056678781535,-0.16496767478997565
Galaxy323,3915.04,2551.12,-0.17562852220983205,-0.44189906142919944
Galaxy324,1457.38,3952.5,0.32054726864348648,-0.3156079797317673
Galaxy325,2037.59,1597.31,0.56709261471360173,0.070125431910304209
Galaxy326,1111.0,832.72,-0.2694909341321487,0.095588002834265967
Galaxy327,929.65,4051.44,-0.044159502620648633,-0.31432030130379585
Galaxy328,72.49,317.94,0.13991588815454653,0.25704961998908316
Galaxy329,1438.8,2514.73,0.31330551082853547,0.61088725752891837
Galaxy330,1118.84,1232.56,0.44711280059447456,-0.016525861164847139
Galaxy331,1875.18,714.89,0.24284634843988218,-0.0035286723011227206
Galaxy332,2513.76,719.0,-0.29672947087982821,-0.017088448886583386
Galaxy333,2383.98,405.01,-0.18456937605729398,0.16483416824923625
Galaxy334,3072.39,2567.18,-0.26623040157768119,-0.023904714325334142
Galaxy335,1465.21,899.08,-0.079980673323327339,0.026585015951816254
Galaxy336,545.08,1809.85,0.19363689414055335,0.20558571418867161
Galaxy337,2703.99,1095.4,-0.34959122593520331,-0.39963853786202419
Galaxy338,3991.26,3211.22,0.17191532481630603,0.13233331492848446
Galaxy339,2779.41,683.03,-0.13020826088932341,-0.42259598738370591
Galaxy340,840.85,2450.39,-0.11204400255762745,0.47869337562416697
Galaxy341,2677.16,157.6,-0.3642046112346079,0.13092324945425773
Galaxy342,2148.61,3648.31,-0.15835667286889538,0.29584096374108837
Galaxy343,1487.74,3991.5,-0.19114749064366893,0.17774426583466024
Galaxy344,3901.2,4137.61,-0.02502283921418412,-0.25335917311875006
Galaxy345,3515.49,1794.21,0.010678973906824568,0.17422679637792154
Galaxy346,2607.48,3725.93,-0.45693711451739649,0.034893712328672291
Galaxy347,2415.48,3354.77,-0.11634746984541056,-0.28346974277281356
Galaxy348,846.83,2722.32,0.21575716168978476,-0.16098778080058843
Galaxy349,2396.64,2002.2,-0.15572808897698198,-0.099920563291305359
Galaxy350,4167.12,2495.53,0.046686444324589141,-0.30238512068700385
Galaxy351,895.43,2748.11,-0.0041874282618754727,-0.01763654092318645
Galaxy352,3630.2,185.28,-0.065384166358418469,-0.19892195322379735
Galaxy353,1785.84,3344.95,0.13806429741479248,-0.24137166468691731
Galaxy354,1049.66,2354.76,-0.10513406412621386,0.42674106470104511
Galaxy355,1480.5,3072.62,0.36750460119168982,0.34828409080302625
Galaxy356,2920.47,1395.63,0.29625524608096221,0.11997892857312317
Galaxy357,1859.44,3314.38,-0.25078511780214646,-0.10180692739680229
Galaxy358,2793.45,1529.59,0.27194699449289272,-0.27190425847165534
Galaxy359,1113.27,3895.05,-0.26165032680454875,0.05667963507710494
Galaxy360,1036.23,2554.6,0.070668056428696766,0.19110351547358023
Galaxy361,3936.38,1818.47,-0.2467571323524238,-0.20385446721480432
Galaxy362,3230.75,33.39,0.095126121434215033,0.031183722103663991
Galaxy363,2271.19,124.47,-0.38499495012521417,0.060521112772299393
Galaxy364,914.09,1477.71,-0.29776418109252567,0.060392202935472414
Galaxy365,3516.76,3267.18,0.032312044137284751,-0.086741958293103508
Galaxy366,3369.76,1673.64,-0.30191897367274895,0.11266852091795992
Galaxy367,1665.15,190.28,-0.12063202148734224,-0.15295079326037653
Galaxy368,2958.31,1071.31,-0.1535288720689732,0.024591330215393607
Galaxy369,1019.79,568.21,-0.25646120956439761,-0.21676041683542932
Galaxy370,1268.75,200.58,0.01550712514285929,0.16494143098083722
Galaxy371,91.97,1552.59,-0.1950682724878231,0.45129447516829424
Galaxy372,4056.03,2761.6,0.14198826625012662,0.060084106909121082
Galaxy373,3692.8,3349.97,0.13270463192376758,0.12231506760278646
Galaxy374,2436.17,791.8,0.16996458340255804,-0.36693848709002558
Galaxy375,3011.01,1248.97,-0.11841802508467454,-0.10349314141794946
Galaxy376,2411.84,2819.65,-0.18287406057141051,-0.067144293621565959
Galaxy377,1025.8,1692.51,-0.040581212576305641,0.024558166881559207
Galaxy378,1253.57,3023.88,0.56157313566633282,0.18882118184595714
Galaxy379,426.26,3437.01,-0.27424671374070952,0.20922068743476166
Galaxy380,4113.95,4099.7,0.3311507113168411,0.1940454648091049
Galaxy381,1741.59,1660.4,-0.20804914403770644,-0.10859055351424121
Galaxy382,3168.36,813.43,-0.18547723463102531,0.23413219645540104
Galaxy383,1608.87,2987.01,0.15450723190669982,0.14592167734154696
Galaxy384,859.85,2778.66,-0.41901830577997407,0.25225593245317718
Galaxy385,2324.61,467.38,-0.18923606982035493,0.15202031363220503
Galaxy386,1764.11,3349.77,0.15342715850837518,0.22618388063925821
Galaxy387,3091.39,4058.89,0.19644512457103258,0.26367180557069314
Galaxy388,4002.57,990.91,-0.43310072223876717,-0.023663111121692254
Galaxy389,3478.35,2098.92,0.28202912255391016,-0.12578865938392436
Galaxy390,3124.61,3315.43,-0.33390391747008796,-0.22870436015265722
Galaxy391,177.74,1220.61,0.3619309980610565,0.060972896821242531
Galaxy392,1740.69,1494.81,-0.059661021988143895,0.15976112773685353
Galaxy393,3854.88,1173.46,-0.47737635076677659,-0.17240481807435934
Galaxy394,2788.74,1650.31,0.038211020868412771,-0.098796826347516936
Galaxy395,2638.41,242.58,0.032426583842961959,0.30929798130629288
Galaxy396,3466.57,3098.68,0.21239223579874014,0.32027828884613485
Galaxy397,230.46,818.81,0.18786984314887148,-0.067150892078104846
Galaxy398,2571.8,1227.1,-0.21493291393398134,0.13343537086992358
Galaxy399,1645.93,3994.27,0.28352777335476015,-0.14992932555671429
Galaxy400,1272.71,3592.44,-0.026515809847690197,0.035898522403124841
Galaxy401,2048.08,4181.88,0.0090673069624968849,-0.27832149724260807
Galaxy402,1819.84,2914.39,-0.15219562555640076,-0.42828365896094811
Galaxy403,335.66,3860.07,-0.42927775316903849,0.20688792058622874
Galaxy404,1260.99,1341.45,-0.15056548582568069,0.038521589586218416
Galaxy405,2520.1,2653.8,-0.11296127797160406,0.43486050998587439
Galaxy406,2122.27,1141.69,0.24786367511866977,-0.19654729512703997
Galaxy407,1567.43,3155.58,-0.28702608770313898,0.17615806052375771
Galaxy408,3980.72,2584.79,0.19324103034386997,0.025477673082686059
Galaxy409,3884.99,1100.03,0.24669073694981175,-0.00036809115660110803
Galaxy410,3796.14,705.05,-0.44799981016855633,0.0031213068647097941
Galaxy411,4182.0,1813.64,0.023912948166832163,0.1875506521294702
Galaxy412,3162.14,3118.94,0.098154000989700063,-0.020177075269401462
Galaxy413,1355.93,311.12,-0.27339845258528683,-0.37543988520573057
Galaxy414,992.21,3732.39,0.079725411538207391,-0.035875043662984871
Galaxy415,1057.17,1526.8,0.07267546124490315,0.27603056407653526
Galaxy416,217.89,3697.28,0.36111003354700044,-0.090359067817740349
Galaxy417,3382.71,3498.69,-0.010097734089441007,0.094076049337565248
Galaxy418,2717.96,1168.43,-0.17872278975304459,0.019278754072407089
Galaxy419,299.51,2464.78,-0.11799836453419571,0.19568647440895975
Galaxy420,2134.2,1305.98,-0.038441794872689894,0.55098800331350806
Galaxy421,2096.43,2846.0,-0.14035275072648853,-0.21556672856669698
Galaxy422,2760.12,3169.62,0.14121923812975051,0.080285402718387994
Galaxy423,2067.97,986.48,-0.10907402620013672,-0.15745441527336662
Galaxy424,2162.62,4099.21,-0.2509154472887074,-0.14424513150339069
Galaxy425,2248.6,1538.15,0.081350202181968867,0.4259219776727648
Galaxy426,628.73,3544.27,0.2968832839851242,0.14706258888394716
Galaxy427,4030.98,3142.21,0.24768815309955655,0.16673991536880239
Galaxy428,679.78,3374.52,0.063587675449523415,-0.062986362345784003
Galaxy429,2549.53,3491.02,0.070691537849463526,-0.71772986370555536
Galaxy430,1004.57,3282.16,-0.17936552700092581,0.38793158101984082
Galaxy431,822.59,2567.87,-0.041846715510629712,0.48640727659492555
Galaxy432,2668.48,696.18,-0.35382687260100171,-0.45545091427702272
Galaxy433,2445.12,3338.61,0.22059559766134576,-0.1968298438407193
Galaxy434,453.13,3209.11,-0.39364610238318432,0.34072353148502016
Galaxy435,1254.93,1764.51,0.27520282218353492,-0.14181741273252865
Galaxy436,2575.39,3727.2,0.028735452799237421,-0.30594990936005884
Galaxy437,3258.67,3361.34,0.0064091407154345803,-0.10206805346753207
Galaxy438,511.65,2127.34,-0.095903726585921237,0.08669235588817846
Galaxy439,2705.15,2532.43,0.032659441366283681,0.34871884100177153
Galaxy440,1152.31,3365.02,0.2928316304976728,-0.17765494259230036
Galaxy441,3995.84,3718.97,0.13806495931809376,-0.39205936840058153
Galaxy442,3560.17,3582.6,-0.050979407550003242,-0.12031586171026658
Galaxy443,933.93,2342.17,0.35745492089998959,-0.06553418106024661
Galaxy444,2433.76,2694.27,-0.32715063956773049,0.051421058994092425
Galaxy445,4103.57,1760.01,-0.15710979352783538,-0.0941416254337058
Galaxy446,3042.77,2837.47,-0.055476812343751271,-0.40850996428958564
Galaxy447,1323.1,1637.85,-0.14915316928843475,0.45231081642528798
Galaxy448,273.58,121.83,0.35679082502503073,-0.22711022909222112
Galaxy449,2140.11,1767.6,0.16549835022962239,-0.068616961717690661
Galaxy450,3802.63,2207.65,-0.0592349095596377,-0.14066188900121285
Galaxy451,3413.62,879.3,-0.098192656622307306,0.014554789726078043
Galaxy452,1752.3,2566.02,0.012378608438306765,-0.021476461042248512
Galaxy453,3294.61,3878.62,0.28031617940009651,0.060461365284036367
Galaxy454,2886.71,3321.17,0.26275565887863095,-0.20979061601307714
Galaxy455,591.4,2498.82,-0.075019466930696888,-0.20189169396839704
Galaxy456,60.53,1574.23,0.2603602196610561,0.17234303586561669
Galaxy457,2168.33,1297.72,-0.39150809714461987,-0.29265286970293164
Galaxy458,4159.1,1635.25,0.1072525248874984,0.068736952346467012
Galaxy459,409.46,3869.94,-0.090848200155786457,-0.16471314750121535
Galaxy460,2988.06,3779.09,0.25803925096536728,-0.024146062455529305
Galaxy461,1658.08,2510.86,-0.0017965123131104439,0.40113640679721796
Galaxy462,3626.37,4061.24,-0.42745565412129494,0.12074530261859188
Galaxy463,2131.49,2057.03,0.23467763643958059,0.16623454208558028
Galaxy464,2796.8,669.37,-0.18375419882951444,0.13862548553191975
Galaxy465,989.06,4199.86,0.24621460112783869,0.2929345933128284
Galaxy466,3593.37,719.0,-0.10142051202390452,-0.153873603726911
Galaxy467,3287.89,1980.07,0.29389772353048632,-0.080210832426693024
Galaxy468,2356.23,3130.21,-0.20094305599683179,0.074728875689906674
Galaxy469,1841.18,246.53,-0.39877671158557465,-0.19140747783254775
Galaxy470,2075.3,3279.15,0.080533357530262722,0.046604342721640088
Galaxy471,2632.12,1313.96,-0.28144044719964079,-0.053685511124357446
Galaxy472,455.19,960.39,0.061112899420018622,0.10896828633075065
Galaxy473,4132.05,1696.63,-0.12206506568531121,-0.28770807336188031
Galaxy474,740.75,3240.97,0.027860077191330379,0.4740823332109208
Galaxy475,265.85,2764.65,0.17485290229991834,0.024635794793499075
Galaxy476,2983.99,2002.38,0.26070972814175153,-0.13852709049110046
Galaxy477,718.39,3858.64,0.13782090193756286,0.10573331658227116
Galaxy478,639.97,1461.11,-0.049565691384157298,0.23913821405851093
Galaxy479,2701.26,1961.31,-0.33462739419685372,0.075170968998871796
Galaxy480,585.78,1716.56,-0.044524518188117625,0.29959437168499015
Galaxy481,572.39,1837.05,0.064868637546029242,0.051698414857123953
Galaxy482,3387.63,3473.06,-0.007308692396167521,0.0051777346495580009
Galaxy483,2461.11,2373.03,-0.20064223448631946,0.099608715022596606
Galaxy484,988.14,12.65,-0.080243697808618036,0.027987073833581594
Galaxy485,931.2,1.18,0.16513765511247175,-0.053974253807206135
Galaxy486,3048.09,1670.25,0.3407723107069206,0.23842537317831705
Galaxy487,4.21,707.95,0.10490463046673663,0.12319869705813735
Galaxy488,470.64,1475.8,-0.091721523631152907,-0.036724965863665693
Galaxy489,1036.7,3767.13,0.077612974524294068,-0.22474762389735725
Galaxy490,3710.28,511.13,-0.47586468644665814,-0.23327947327016965
Galaxy491,3474.22,433.74,0.24026948466029849,-0.18753948903330359
Galaxy492,2260.94,3671.42,-0.11135908895398504,0.092410843050216601
Galaxy493,2470.84,3427.96,0.056273215406275355,-0.29081739449395094
Galaxy494,518.32,2643.54,0.064349007863645169,0.19129249446688915
Galaxy495,2644.73,1023.51,-0.049759096085687848,-0.36300492504562204
Galaxy496,2284.43,299.99,-0.058311112619459593,-0.047979264535612846
Galaxy497,1119.91,127.2,0.0044028984687933259,-0.16858548119369582
Galaxy498,1821.65,138.56,0.12702225352334226,-0.075391632505815084
Galaxy499,495.19,2508.86,-0.13708377303040331,0.39532031748396673
Galaxy500,252.83,1487.46,-0.41175137154413577,0.44252317135505381
Galaxy501,2278.3,1176.39,-0.015338158039282679,-0.10851951607882038
Galaxy502,672.14,4080.45,0.36646269610478277,-0.23362297145467065
Galaxy503,306.68,3865.88,-0.10209839442351432,0.32512629402679588
Galaxy504,652.01,16.96,0.14714045409302964,0.19355299354983602
Galaxy505,3181.6,187.07,0.19151799134496339,-0.44268625267520217
Galaxy506,1538.21,1408.67,-0.11015534370521152,0.59107291905781323
Galaxy507,3948.93,2861.11,0.34906175701392717,0.23652019063699445
Galaxy508,103.23,668.87,0.10601554354329265,-0.045454362998311043
Galaxy509,285.96,1885.43,0.33288883909160449,0.27856463834799566
Galaxy510,135.32,2450.71,0.025489509890677442,-0.20019185545306545
Galaxy511,1578.67,1832.82,0.031625788338997873,-0.072725896388808553
Galaxy512,2785.45,1969.01,0.34074112043442784,-0.43339815681490085
Galaxy513,318.05,3990.63,0.39765465854278725,-0.10824817456256136
Galaxy514,3460.6,2659.32,0.092352724513354204,0.2944529201395758
Galaxy515,549.39,2741.9,0.22721500130213163,0.29018250472797535
Galaxy516,2372.0,913.55,-0.5590180194557185,-0.037941870193689053
Galaxy517,3805.14,3100.08,0.1069318906341951,-0.078501893351616683
Galaxy518,3368.21,207.43,-0.19855144354244827,-0.11696997220923264
Galaxy519,3643.51,204.35,-0.42354631780331864,0.050157306892968087
Galaxy520,1779.97,667.78,0.039884140210096231,0.09141259191748255
Galaxy521,3645.37,2951.61,-0.33674842749461897,0.34367274799828029
Galaxy522,1034.53,789.87,0.097105904511023591,0.13746293451352792
Galaxy523,3360.13,449.13,-0.1213866531397268,-0.20845069898634416
Galaxy524,490.47,288.75,-0.38702215527534789,0.25127566395017265
Galaxy525,3140.95,2027.37,-0.039898076525305193,-0.16287905641358846
Galaxy526,934.14,579.9,-0.11051106236555218,-0.01840380060733357
Galaxy527,1513.48,1646.64,-0.11093364090815788,0.14568221931858966
Galaxy528,523.91,1714.66,0.077405198481371215,0.10295197390470176
Galaxy529,1525.97,2965.05,0.11688237847203951,-0.15000161382642116
Galaxy530,1220.61,2351.65,0.2439956562071216,0.3241153885713316
Galaxy531,1235.16,3721.51,0.095473372603292958,-0.077942990397412287
Galaxy532,852.52,3448.53,-0.10729402365010735,-0.01609335383226812
Galaxy533,349.42,2740.18,0.18526675209264606,-0.1312922999821135
Galaxy534,233.23,2407.72,0.21227306310750288,0.043788663132368566
Galaxy535,1573.46,1731.31,0.11887815503712997,0.293510686366593
Galaxy536,2445.29,2255.29,-0.152034823065652,0.22349221665441174
Galaxy537,3907.85,3746.17,0.1490531589311026,0.22535096834563681
Galaxy538,4012.02,358.03,-0.027719339013468042,-0.33567385649177028
