GalaxyID,x,y,e1,e2
Galaxy1,1340.76,2453.74,0.11080640529100447,0.060290057145556582
Galaxy2,3676.6,4143.94,0.034534047772226156,-0.34964927974937721
Galaxy3,3768.32,1162.23,0.23813124802802474,-0.12756282847563669
Galaxy4,1192.98,2153.66,-0.30492160603232243,-0.35052580431117469
Galaxy5,257.87,1906.16,-0.42435592705447189,0.58078199832807509
Galaxy6,2345.48,1970.4,-0.10783614990814616,-0.18340140708574637
Galaxy7,2638.55,1975.23,0.1550311781174388,-0.23300432349693212
Galaxy8,821.2,2169.38,-0.06498112897423626,-0.081338009339319742
Galaxy9,3605.0,1155.11,-0.01397141336283764,-0.41285585893554289
Galaxy10,1022.8,662.8,-0.2054152714331203,0.56285202652020905
Galaxy11,499.28,2849.15,0.35150617130217909,0.72362579906475577
Galaxy12,3852.78,1470.53,0.10820410521144393,0.13682554945833689
Galaxy13,1576.6,1546.16,0.14223831715901508,-0.07927914548024409
Galaxy14,956.61,1162.51,-0.28120260424420623,0.28686559204443324
Galaxy15,3052.67,3558.13,-0.019230062033492423,-0.11233721426338736
Galaxy16,2342.39,3358.94,-0.042449477685331305,-0.21154021119168875
Galaxy17,2231.21,1504.82,0.097703054315035384,0.069504883888023478
Galaxy18,2955.75,3937.43,0.19590555933830206,0.10827769382776933
Galaxy19,3612.25,2838.89,-0.33095865310995454,0.082283109260511286
Galaxy20,444.79,3412.19,0.14575183856400428,0.1944589994539449
Galaxy21,962.97,898.38,-0.011649412566249406,0.26450267315049242
Galaxy22,3825.99,1155.59,0.38973747095286171,0.04283425715653344
Galaxy23,1811.94,3277.33,0.048345099355203078,-0.45414580290602474
Galaxy24,707.67,318.58,-0.44842532490766429,-0.13357701146852463
Galaxy25,2017.54,3558.13,0.043424159856379069,-0.052032918077581494
Galaxy26,4106.94,3037.95,0.072154121297162033,0.44372173799445985
Galaxy27,1126.53,1143.39,-0.050073061313880007,-0.10164941004549803
Galaxy28,2955.24,2.1,-0.0098958230392427321,-0.45562654439988137
Galaxy29,927.35,1863.5,0.19635012543151992,0.013812529805630087
Galaxy30,2714.56,3286.76,0.36456744090134935,-0.24582146293838789
Galaxy31,152.21,2174.28,0.43487624249606088,0.28278501552167939
Galaxy32,2520.59,3600.49,0.26445445744532592,-0.44867484921840134
Galaxy33,1826.99,3996.07,0.11012130199540035,0.033836986882809048
Galaxy34,2036.72,3606.99,-0.080362449380774331,0.31265761933351538
Galaxy35,3965.6,3408.65,0.3809869928316254,-0.08985630155921269
Galaxy36,3742.59,3239.51,0.30560418110788345,0.20089274794543777
Galaxy37,702.98,2177.7,-0.20086572216018822,0.47544866873254127
Galaxy38,4090.54,2696.6,0.38427859408974541,-0.051989694354217422
Galaxy39,4064.41,3583.67,-0.11092667250207769,-0.076621980800430672
Galaxy40,3557.52,461.04,0.19704955052951525,-0.19367845095930486
Galaxy41,1606.55,4066.55,0.21169619507434842,0.065006987573975009
Galaxy42,2921.07,3101.82,-0.1357879899381505,-0.33802975100640137
Galaxy43,3842.71,3990.26,0.24222297420834793,0.077107930002299679
Galaxy44,3644.24,3146.28,0.42890282874922514,-0.099015952519328945
Galaxy45,3179.36,921.93,-0.03460495958632849,-0.10502500931976111
Galaxy46,1447.75,2147.5,-0.013088073526210442,-0.050605504680685975
Galaxy47,1954.43,2142.99,-0.33320264473944661,0.014764712647367118
Galaxy48,2825.06,973.19,-0.40307502239459081,-0.14612615819654845
Galaxy49,1428.05,2513.24,-0.13317853735277099,-0.14594764630117524
Galaxy50,3473.76,495.28,-0.08774765551208942,-0.097486721290143463
Galaxy51,627.45,540.65,0.039846383776389049,-0.061323769514967513
Galaxy52,780.03,920.48,-0.056340542386297862,-0.21175039784693617
Galaxy53,2352.73,890.52,0.11303887375103952,0.028679205504022393
Galaxy54,1542.96,2562.62,-0.0063241062532007619,-0.170421081344136
Galaxy55,3910.14,1832.09,0.074606310504607615,0.066251722654553202
Galaxy56,1564.06,2476.9,0.13867213164674203,0.03468925226996443
Galaxy57,772.33,1683.59,-0.54318654406136246,-0.1795616902009595
Galaxy58,460.76,711.33,-0.098854526877409712,-0.11835227589446896
Galaxy59,2704.06,3452.98,0.54677096787502955,0.057127994383141589
Galaxy60,1323.95,1491.69,-0.16697797761316605,-0.21774331304914249
Galaxy61,2828.77,3610.28,0.20144927496817652,-0.037300882137471604
Galaxy62,3705.97,2282.11,0.21659732393008119,-0.24661212230502205
Galaxy63,3052.01,3660.27,0.0074208601308699274,0.24049385060859382
Galaxy64,2220.97,2573.3,0.19962959726508922,-0.055654626709246646
Galaxy65,3464.94,3570.85,0.35056968349363171,-0.21710514032794972
Galaxy66,2419.26,3644.07,0.21510750510801602,-0.11168557238076936
Galaxy67,2219.54,507.96,-0.46397536630057035,-0.096120522143724213
Galaxy68,3922.3,2135.81,0.089954435215854139,0.057536929118452262
Galaxy69,3185.8,2602.34,0.22796465415233502,-0.23120181400818027
Galaxy70,234.65,324.72,-0.34716486459122731,0.2915787470822705
Galaxy71,1940.33,2546.75,0.20185247686327112,-0.011570385319746856
Galaxy72,3758.87,3535.74,0.039223910589846617,-0.31412570222245417
Galaxy73,1548.45,2002.04,-0.39542620430323072,0.24027010154160106
Galaxy74,1339.04,417.68,0.11648832300940118,0.10121774943433329
Galaxy75,1102.97,1562.63,-0.17356573310519069,-0.58483689653678705
Galaxy76,2750.33,1710.6,0.046224129450807554,-0.32012375120728498
Galaxy77,89.18,266.93,-0.35097402644760806,-0.025743660613155556
Galaxy78,307.36,3356.99,-0.14855169567738527,-0.0051542491832594628
Galaxy79,1674.38,3927.03,0.076900804133564107,0.39973648090251807
Galaxy80,2789.77,1214.76,0.093427670884875316,-0.65808193742322163
Galaxy81,1732.97,352.24,-0.34193102027956901,0.012400515048409076
Galaxy82,3725.33,2155.43,-0.27790218549728701,-0.31105575057847568
Galaxy83,650.67,1136.69,-0.3416264432546704,-0.12903160428923033
Galaxy84,617.37,3250.28,-0.43905663778306259,-0.048377785938888362
Galaxy85,1082.19,2373.44,0.035993289778824877,0.31692041448635816
Galaxy86,998.97,3747.98,-0.15252660266984072,-0.075046143557034539
Galaxy87,372.55,3112.24,0.42153100060909371,0.28148047849142838
Galaxy88,3457.65,3536.75,0.058181573689648103,-0.32711572241973214
Galaxy89,3714.88,2938.45,0.14240374615836998,-0.16374998630509147
Galaxy90,205.49,59.55,-0.24809891309086657,0.13196367216269853
Galaxy91,3057.17,3174.27,-0.1377961757332245,-0.11041175000833438
Galaxy92,3672.13,540.0,0.22537133752159055,-0.29439314895519642
Galaxy93,3220.21,554.32,0.03413967453061062,-0.1977215557450312
Galaxy94,3901.87,2197.37,-0.17290785893925964,-0.25368972511729998
Galaxy95,3715.88,814.84,0.24455666501383269,-0.27983812241276851
Galaxy96,1600.76,1903.28,-0.18470500389376468,-0.28628536311875696
Galaxy97,2777.35,1749.6,0.15035649111053048,-0.046966475513221889
Galaxy98,3233.49,4014.26,-0.23257020139291934,0.16489919478485068
Galaxy99,2981.33,800.49,-0.14291068818173508,-0.048311129900412753
Galaxy100,2453.82,710.54,-0.14877278435216118,0.013701653356075455
Galaxy101,945.09,3920.12,0.058547912478294988,-0.202604579084353
Galaxy102,3050.49,1205.08,-0.22057947893771873,0.072608846833637664
Galaxy103,3400.25,3195.15,0.13756498907244724,-0.224842360936131
Galaxy104,413.24,2221.04,-0.15126379725603623,0.17444905960046461
Galaxy105,3769.25,849.61,0.11057293585227038,-0.2795324606989199
Galaxy106,2627.02,1853.08,0.39378012085039743,0.060459489300717678
Galaxy107,2161.7,3749.75,0.56907486974326416,0.016077927540633887
Galaxy108,2587.06,541.95,-0.22755361113451736,-0.1617890818872528
Galaxy109,2992.03,1372.75,-0.15713857410844081,-0.04075346849520517
Galaxy110,761.37,1418.82,0.020212671312968916,-0.058628765940402901
Galaxy111,642.03,2785.05,-0.1352275909941176,0.14584635271827848
Galaxy112,1302.55,610.83,-0.50803342487177905,-0.15387293395219315
Galaxy113,1359.44,1735.2,-0.54283297753935933,-0.21020992866732144
Galaxy114,2912.99,3753.8,0.11522030790553439,-0.20598255332516521
Galaxy115,1012.87,2443.85,-0.19823064626955453,0.23786303724377802
Galaxy116,3969.44,1799.78,-0.028168345291020094,-0.25194027480042563
Galaxy117,3452.85,2037.9,0.013715007077101021,0.040046338763277345
Galaxy118,1438.5,2914.07,-0.14044078458659709,0.27843142108876945
Galaxy119,3274.71,18.22,0.17479564572813683,0.029093202590942308
Galaxy120,7.83,1755.33,-0.26329804767024589,0.068754661081727328
Galaxy121,2059.57,4017.89,-0.19300622250056118,0.32763370396209934
Galaxy122,3562.11,2409.65,0.67211691160757825,-0.15763282545918103
Galaxy123,3366.26,3962.35,-0.23328766860035724,0.010116316865536479
Galaxy124,2914.51,3970.63,0.37062075390130966,0.043578724628592601
Galaxy125,1842.44,459.26,-0.26611409513913259,-0.082248285406440025
Galaxy126,2902.5,1840.18,-0.026703724846166222,0.11675231079932341
Galaxy127,1019.16,3372.87,-0.12208026446308236,0.57743428154454668
Galaxy128,1617.07,2772.81,-0.2287956653047733,-0.079860878569162713
Galaxy129,1746.82,2396.67,0.00060571590128875863,-0.21220602527047341
Galaxy130,1551.88,1322.3,0.10028307956115445,0.056414364735594295
Galaxy131,3642.71,3084.63,-0.021897039535228924,-0.39986769199646083
Galaxy132,1935.89,249.76,-0.22875869797012793,0.23825079694651347
Galaxy133,2708.17,860.0,-0.32451015945632072,-0.18135183282106507
Galaxy134,45.5,3693.09,0.39584091874911131,0.1472122465086925
Galaxy135,895.75,3557.04,-0.42356748634838826,0.065590071224218449
Galaxy136,1602.12,3094.21,-0.016482545580776699,-0.2758763360104054
Galaxy137,3402.85,2992.45,0.12822556266340684,-0.040832847232738376
Galaxy138,2415.95,1442.25,-0.080946105749033187,-0.062920753596856616
Galaxy139,2937.34,148.49,0.18232775316844996,0.017496660177880985
Galaxy140,2854.02,1885.7,-0.093506747093059409,-0.30463909581749338
Galaxy141,2397.52,1895.94,-0.14628435122652966,-0.51025848522765882
Galaxy142,232.55,769.25,-0.39637653996644057,0.090349007146497226
Galaxy143,1071.81,3933.57,-0.3369751633666227,-0.053955387244120856
Galaxy144,3178.92,1462.0,-0.031337694263520739,0.13804337718506929
Galaxy145,2546.39,2337.68,0.23096489823170094,0.034045539673019154
Galaxy146,1738.75,232.65,-0.085500960573082652,0.2126798546852601
Galaxy147,729.45,2554.43,-0.23067008083305898,0.38728332051400577
Galaxy148,3404.1,2584.55,0.07513038661350345,-0.21934632083626024
Galaxy149,2548.7,2181.38,0.023779213749175281,-0.078082525499860292
Galaxy150,3544.69,2689.59,-0.081126812730952153,-0.044034915406796132
Galaxy151,224.11,482.9,-0.1631302999953515,0.11415118008408999
Galaxy152,2209.97,4110.93,0.12552428776960214,0.31002119150717422
Galaxy153,2483.5,2221.72,0.31978021831713377,0.074982020475474975
Galaxy154,2940.1,1346.2,0.042081009386248862,-0.0029050648159176518
Galaxy155,3196.9,915.71,-0.65860126183252943,-0.07303597132308795
Galaxy156,1020.89,2624.17,-0.33475215143673787,-0.24980197764877141
Galaxy157,4122.03,88.53,0.02498457055347774,-0.047858652117753267
Galaxy158,2688.07,1714.36,-0.081308301859695439,-0.20870933591037452
Galaxy159,1970.67,3356.03,0.069591884942937415,0.036111610673949052
Galaxy160,1692.68,3093.65,-0.27148840776208144,-0.071877473227007951
Galaxy161,2856.98,3705.1,0.3010332205470353,0.25147684245472407
Galaxy162,723.7,387.75,-0.24211695044881876,0.050944095091947833
Galaxy163,1824.63,1226.26,-0.47575231315088634,-0.1223318820669643
Galaxy164,453.92,1047.17,-0.29872393663310237,0.19213661379585278
Galaxy165,2860.44,2381.63,0.18394071240402748,-0.22492975887535088
Galaxy166,3031.6,3150.14,0.49335349457461497,-0.283440557249938
Galaxy167,1009.24,2786.0,-0.42239752990952628,0.31639307064847638
Galaxy168,754.56,713.77,0.3661298362855222,0.0012534237028053799
Galaxy169,313.33,304.33,-0.094700566093034344,0.44632819857174855
Galaxy170,3376.41,1863.15,-0.11701654425026459,0.11515244245865827
Galaxy171,2603.18,2132.79,-0.13736935475712087,0.075089293285647063
Galaxy172,2760.55,924.65,0.18206921318901437,-0.25317312507511869
Galaxy173,2110.05,3217.95,0.14049873878870481,-0.26259792052713243
Galaxy174,3190.25,1396.21,-0.19147068238088411,-0.30766545794512168
Galaxy175,1644.06,3392.67,0.089581496335970456,-0.30691867247369309
Galaxy176,2706.16,650.05,-0.18762814029301611,-0.31915950493501943
Galaxy177,339.83,2029.6,-0.0031549029884739982,0.14033487484643581
Galaxy178,2196.45,3154.63,0.2632005671145678,-0.24592794492237519
Galaxy179,2407.8,1899.77,0.11339274502884455,-0.21499773090781146
Galaxy180,2920.01,1184.77,-0.088116804208089997,-0.061931676246042469
Galaxy181,3200.59,4114.36,0.33315683771450277,0.10686537109038399
Galaxy182,910.64,91.23,-0.086069695817726555,-0.16027830817084715
Galaxy183,2186.58,352.2,-0.064957882411682905,0.17589585500482086
Galaxy184,3063.37,1178.25,-0.33888619770394551,-0.06253491205305825
Galaxy185,891.59,3099.69,-0.024033641594584806,0.64565524330132773
Galaxy186,3045.69,1935.41,0.36874077631460767,0.19204366134898565
Galaxy187,3382.04,3606.05,0.18581145826952553,-0.26361108576283987
Galaxy188,2939.47,3625.45,0.46406882056601406,-0.12300229422154481
Galaxy189,2610.92,2413.18,0.043801719176128351,-0.17909940822809745
Galaxy190,3664.08,3914.11,0.19556101128711917,-0.20818237660029551
Galaxy191,79.74,2987.33,-0.35280856120526921,0.18848082087041357
Galaxy192,191.38,1294.54,-0.21824079230483351,0.13362432050181222
Galaxy193,4055.62,1987.64,-0.055293910058446277,0.17626736946480187
Galaxy194,255.44,3775.85,-0.41311689405475926,-0.062200006626671397
Galaxy195,168.49,3962.48,0.2731230256207775,-0.23617354737975793
Galaxy196,1722.75,399.78,-0.31859883262593069,-0.64673541916958777
Galaxy197,3667.21,393.75,-0.066533017379386827,-0.027741060210175417
Galaxy198,11.39,1776.33,-0.21194266347473401,0.3088845469679774
Galaxy199,3108.22,1117.05,-0.057421661688768492,-0.11771431685254055
Galaxy200,686.48,1257.89,-0.62022510737736036,0.076657520131853854
Galaxy201,1771.13,463.19,-0.44893411394832794,0.18665865132898263
Galaxy202,555.93,1161.84,0.017127032155064059,-0.10940260392112568
Galaxy203,3571.28,2173.96,-0.16933512313021998,-0.26417158682071201
Galaxy204,1526.65,253.81,-0.14755288211109618,0.041985258829465313
Galaxy205,1207.72,3831.41,0.072953118757944815,-0.19120341279801206
Galaxy206,119.08,1656.36,0.034339540886313663,0.37424535641258794
Galaxy207,3203.59,158.2,0.36049907670431253,-0.24861675672890199
Galaxy208,2382.05,1553.16,0.23149260357140783,-0.074458183566644034
Galaxy209,4065.29,173.32,-0.024081761323131723,0.050744615168740459
Galaxy210,2382.97,3404.07,0.46007784801547597,0.30359666374007244
Galaxy211,1147.55,3445.02,0.20311990720525686,0.021913837501268105
Galaxy212,1409.94,82.79,-0.16772229420104734,-0.56865991340659816
Galaxy213,1910.31,246.66,-0.30478015478162679,-0.41831999518317353
Galaxy214,1030.56,3446.68,0.087480056266804135,0.20242721510153613
Galaxy215,1889.3,2754.46,-0.18858945910944799,-0.3640617414389723
Galaxy216,1467.9,2186.86,0.09597974668063744,0.10936544699447069
Galaxy217,3778.21,2775.53,-0.12956211592040076,-0.060355255116388888
Galaxy218,1283.82,2800.49,0.15392304005437552,-0.12416263278994522
Galaxy219,2168.26,732.07,-0.19903370878350857,-0.16414677885990167
Galaxy220,387.26,59.98,-0.15292626334940945,0.17239504320890509
Galaxy221,2545.76,1383.77,0.29291945644570633,-0.16892548968169382
Galaxy222,1801.3,3562.69,0.13060253792415497,0.077473959538347847
Galaxy223,637.29,2061.27,0.0055078858726965163,0.4122498489882136
Galaxy224,73.47,1970.86,-0.37697702988450504,0.13544309669410545
Galaxy225,1471.36,3742.98,-0.10591656377899258,0.069290520506430128
Galaxy226,4092.1,3310.7,0.070678663711257667,-0.10460809495034774
Galaxy227,2407.66,1247.56,0.034799045625757641,-0.11444536264723301
Galaxy228,1840.26,4078.54,-0.012380683040108309,-0.089997594567279349
Galaxy229,3656.17,3992.84,0.35938673044823732,-0.12947553534493053
Galaxy230,1261.64,2803.98,-0.53131853584199007,0.021306902165234239
Galaxy231,627.28,1759.88,-0.10452056352288959,0.069851819006847823
Galaxy232,90.97,2637.26,-0.12327507981030793,0.32301077522439808
Galaxy233,2605.52,3133.46,0.32547604301331412,-0.05420566003608579
Galaxy234,2099.79,752.77,0.01569332124114628,-0.055436674892846566
Galaxy235,620.65,972.96,-0.24864662620881095,0.18961435177953617
Galaxy236,341.7,3336.14,0.37284414784408748,-0.0031008102555609984
Galaxy237,299.65,3382.1,0.20947611367436283,0.017752567372188471
Galaxy238,3333.23,435.58,-0.47539597328305894,-0.53625597408782344
Galaxy239,3768.9,958.37,-0.25465247581514289,-0.17649866195928501
Galaxy240,1478.66,3409.75,-0.12782589208726056,0.21281367187396832
Galaxy241,2336.42,2566.33,-0.062428284029805409,-0.14964346625684866
Galaxy242,1462.27,2137.38,-0.087303374427556799,-0.041665281825948294
Galaxy243,826.25,66.01,-0.69052809006016957,0.097175816707173207
Galaxy244,3982.16,3771.88,0.015912275750302129,-0.12390482682810222
Galaxy245,3670.14,1794.91,-0.0098399076379050016,-0.14356197459416725
Galaxy246,3088.94,280.46,-0.20127050007931044,-0.26745237760223539
Galaxy247,366.86,1486.08,-0.22457475052792564,0.1023821769865588
Galaxy248,3699.05,1749.2,-0.25578272905959037,-0.58144286604888562
Galaxy249,2008.98,701.83,-0.14738672597767766,-0.17485605960410888
Galaxy250,2972.57,1657.91,0.052216630302995518,0.023019526008037833
Galaxy251,724.3,2876.92,0.16331466312059778,-0.56294872690415643
Galaxy252,278.63,2804.37,-0.044860174032985242,0.17032736827777015
Galaxy253,132.35,3002.02,0.11230939141818735,0.22019684766660985
Galaxy254,3063.59,98.12,0.054101678965388533,-0.039824682278873313
Galaxy255,591.12,563.74,-0.019394847379731323,0.29101485112610792
Galaxy256,1336.66,1588.2,-0.24612824941927583,0.072846598187747302
Galaxy257,2580.33,1606.91,0.33336647916579065,-0.018961550977503017
Galaxy258,1381.75,1173.2,-0.05968782667798149,0.37394755435359589
Galaxy259,2808.66,3869.68,0.25391272946609433,0.2833020962857305
Galaxy260,2942.27,1185.56,-0.003582467423060974,-0.46705327714015443
Galaxy261,635.83,3609.33,0.17742646378236285,0.53214655178690551
Galaxy262,3006.1,2663.54,0.10918789348512123,-0.48008645432277308
Galaxy263,1344.2,2080.18,-0.010941191627471925,0.010299011045414939
Galaxy264,3139.77,96.72,-0.14945169925387156,0.15988887459221302
Galaxy265,3931.82,3603.07,0.072196046383448148,-0.43801011952203817
Galaxy266,1506.5,84.92,-0.38810488365933349,0.10560026370344384
Galaxy267,2679.74,161.18,0.042422108317052551,-0.10545747753022632
Galaxy268,1405.69,402.26,0.053067808371126457,-0.33951865348447874
Galaxy269,2175.09,4164.25,0.18147553908230707,-0.13947305598707863
Galaxy270,324.7,305.58,0.22209735473212139,0.18921037530700349
Galaxy271,637.09,325.42,-0.28569222607701444,0.50210858783550505
Galaxy272,427.42,601.97,-0.23855899734471242,0.40935988921379796
Galaxy273,2433.93,2505.13,0.077285877198214031,-0.25235250960213795
Galaxy274,2423.44,2868.89,0.32465115414886253,-0.3492389917180917
Galaxy275,1181.27,1978.73,-0.10800498591304936,-0.17040939316944492
Galaxy276,1778.27,1068.86,-0.15851472498808161,0.3112874746390018
Galaxy277,2238.07,2578.45,-0.025896666536462262,-0.15787176568446537
Galaxy278,175.13,1938.1,-0.066971052990165925,0.23385267022211748
Galaxy279,801.48,3297.06,0.024713741400204027,0.56294306046141085
Galaxy280,3260.63,3124.93,0.11660190310387461,-0.28569906278329876
Galaxy281,1021.24,3533.88,0.11925547308966628,-0.097096410989948895
Galaxy282,2868.17,3427.77,0.23382496738334055,-0.25237135766598262
Galaxy283,2237.15,3942.1,0.37250270404525843,0.030573949466650881
Galaxy284,1952.42,3324.65,-0.076841379506960156,-0.091491963916671859
Galaxy285,48.88,3566.08,-0.10715707397481836,0.45053533218680869
Galaxy286,1207.0,3366.64,-0.27104466698154617,-0.16383817474628531
Galaxy287,1907.81,2905.59,-0.014535882234594996,-0.22185302370166265
Galaxy288,1691.4,936.51,-0.29549945293220803,-0.796482457361819
Galaxy289,2280.1,2926.16,0.20115234111914443,-0.05260544067173259
Galaxy290,465.1,2695.16,-0.26422326074446489,0.23871735419003121
Galaxy291,3775.05,2977.02,0.030668675290131439,-0.073803645619788472
Galaxy292,822.02,1769.9,-0.22859278079237252,0.22151151874066341
Galaxy293,1554.66,2950.95,-0.097518217703293802,-0.077655678674022469
Galaxy294,1118.05,210.33,-0.22318328443479141,-0.054199217981564976
Galaxy295,2556.08,2574.36,0.071489616815996984,-0.38675351023953086
Galaxy296,291.25,773.8,-0.033833232209892219,0.12280876851232957
Galaxy297,194.67,2367.6,0.15080969141972389,-0.12396693515221699
Galaxy298,2070.74,2472.88,0.29683414864784075,-0.42645330592767861
Galaxy299,494.84,3051.44,0.020916577754648374,0.064634809782152525
Galaxy300,2388.53,1226.21,-0.3052411926822482,-0.20862263570321693
Galaxy301,69.09,56.36,-0.27928979310029189,0.020977735324991184
Galaxy302,3931.0,685.5,-0.071947893987759554,-0.2282735125050124
Galaxy303,2848.88,441.05,-0.23055637238109478,0.20390640459839779
Galaxy304,2994.39,1960.07,0.023299744223772165,-0.41938403803598989
Galaxy305,1302.42,2722.1,-0.33924584135604585,0.16858080307027754
Galaxy306,17.38,300.11,-0.13327860627106905,0.23717708252557992
Galaxy307,3380.28,295.94,-0.10203922109683222,0.10665658499881958
Galaxy308,1167.74,3570.91,0.008404636796085746,-0.11008804094536287
Galaxy309,1826.3,103.47,-0.20671782062680291,0.043493708923594276
Galaxy310,3772.88,2786.26,0.0073575075759209907,0.28603409850583611
Galaxy311,575.62,816.03,-0.40463984409734866,0.26632856173213582
Galaxy312,1198.33,2234.92,-0.41753604536733935,0.018752123675087599
Galaxy313,499.72,3379.42,0.14154570052642076,0.46662070024628366
Galaxy314,1919.49,2545.11,-0.065643097258035715,-0.31222520799215936
Galaxy315,347.24,4067.3,0.27863935076432644,0.017187703841100604
Galaxy316,1895.26,878.1,-0.16061096109537501,0.0026419038341500556
Galaxy317,3856.58,4019.83,0.16470707395414458,0.17708270647316049
Galaxy318,715.44,2025.49,-0.014378505451813239,-0.17201045151557109
Galaxy319,1710.71,1201.07,-0.31949306016180035,-0.021265030517475712
Galaxy320,2687.29,2169.56,0.034796490046415787,0.041635086828259671
Galaxy321,3023.27,2200.2,-0.048590573147397682,-0.2049400794364708
Galaxy322,437.83,590.61,-0.2099361083247874,0.31545668771161461
Galaxy323,2837.53,1424.71,-0.28002513606388857,-0.50791612429821487
Galaxy324,3109.27,2943.52,-0.078172695184235086,-0.19811886530598033
Galaxy325,3462.51,3347.16,-0.016682785468129097,0.089600408112867347
Galaxy326,3449.89,980.65,-0.52879686820297267,-0.1314679488757674
Galaxy327,2509.64,1490.2,-0.087465133021968219,-0.04783906367101208
Galaxy328,2921.59,1390.98,0.074675615871954162,-0.2482873228647392
Galaxy329,3994.87,1118.3,0.010719179493560037,-0.30744036374597472
Galaxy330,422.42,2973.08,-0.17060182125087106,-0.025568371648433785
Galaxy331,1359.38,2823.91,0.18227362214870019,0.094280426710253371
Galaxy332,3828.96,3655.17,-0.087021570147045424,-0.14805766677851545
Galaxy333,3327.7,37.42,-0.33570450880245573,-0.21511182419696759
Galaxy334,4175.55,2857.15,0.026285006405974448,-0.43814576484324491
Galaxy335,3108.22,1556.48,-0.0028093454672847712,0.04368463022906624
Galaxy336,2261.34,1894.61,-0.09374680937053434,-0.18496996855137937
Galaxy337,2174.97,1540.1,0.050187970099977691,-0.13564536674464533
Galaxy338,1483.36,1356.22,-0.045816821277333025,0.021697431854759829
Galaxy339,3377.45,420.78,-0.025917205026561155,0.19446921083506769
Galaxy340,1631.51,1805.61,0.064509167024894148,0.0089956530030508575
Galaxy341,2212.43,1941.59,-0.44308243061208807,-0.12660047815620412
Galaxy342,1866.7,1252.76,-0.23452998776281664,0.21068136904565793
Galaxy343,2082.64,3895.85,0.3019208010809894,0.14717291589761089
Galaxy344,6.86,2869.04,-0.11547407957805592,-0.03415497535585546
Galaxy345,2573.54,2757.57,-0.18703126694140099,-0.16184187162070696
Galaxy346,913.33,4192.26,-0.52101139700596522,0.057889640110340895
Galaxy347,2035.06,2756.04,-0.01327603309109791,-0.44617028341109993
Galaxy348,1616.02,3744.86,0.1110590348097039,0.30482545767316166
Galaxy349,2682.97,1396.97,0.22205097896853881,-0.68241981591684353
Galaxy350,3133.5,3495.31,0.073152696499738726,-0.098377950431920116
Galaxy351,939.71,2889.55,-0.14135565353386215,0.26007535603205578
Galaxy352,2523.77,2314.5,0.041439301198277226,-0.25864178975874008
Galaxy353,1617.23,3192.02,0.018588365201201398,-0.4442032114654112
Galaxy354,2906.13,1545.2,-0.056878428184788887,-0.11910124186221852
Galaxy355,1566.78,1687.1,0.120358287121756,-0.051302725947438566
Galaxy356,1598.88,817.83,-0.57571827991954405,-0.39038532149692329
Galaxy357,3063.22,3637.41,0.66495830943246692,0.081729672268541206
Galaxy358,243.28,3940.46,0.2523123629765387,0.10241936589866098
Galaxy359,2045.42,1799.87,-0.14757020219249775,0.030781632868941394
Galaxy360,2869.53,2265.51,-0.10583851419007211,0.16443058289068122
Galaxy361,4133.54,3079.63,0.32383089966719314,-0.32930615442920114
Galaxy362,3865.29,89.08,-0.27850271243297792,-0.27404819539347924
Galaxy363,1793.16,1933.81,0.29367634645744733,0.12442734540292719
Galaxy364,2445.64,1104.4,-0.15312375373407278,-0.15940310753343936
Galaxy365,3591.9,2273.44,-0.06477135797622692,0.087495246841391011
Galaxy366,622.52,1330.01,-0.0019072471195688279,0.062101714826052257
Galaxy367,3674.15,2277.26,-0.073085948085616248,0.023169581394565958
Galaxy368,714.84,2939.51,-0.078221517915694205,0.10179034744486939
Galaxy369,2151.53,1824.15,-0.51656166678625459,-0.27659825724731218
Galaxy370,2824.87,1530.28,-0.12798109208880451,-0.083683520048525584
Galaxy371,1560.35,2769.32,-0.46658296727758808,0.093802317184711187
Galaxy372,3551.96,3511.93,0.41735862420956971,-0.37710151792850599
Galaxy373,2812.15,2003.91,-0.18121350095344879,-0.37881068265345264
Galaxy374,1563.8,4136.19,-0.11663830248846224,0.36537490581706988
Galaxy375,3083.04,776.0,0.25668518066872048,0.0044213290212435918
Galaxy376,1686.31,1424.42,-0.14813783413915704,-0.074701341887926889
Galaxy377,3093.24,2234.81,0.0017307172355698272,0.056014996602857192
Galaxy378,1733.8,3061.14,0.056058809688145514,-0.33810182549626766
Galaxy379,2869.93,1889.89,0.066315429244213686,-0.28323317808529147
Galaxy380,2398.74,4078.37,0.21686128557985149,-0.22740633491253559
Galaxy381,3930.74,1941.92,-0.052146008337281641,0.27682954834664131
Galaxy382,1245.26,2366.6,-0.29887171643278942,0.048679190222003427
Galaxy383,3303.4,2555.69,-0.27708473643978188,0.1285754247246057
Galaxy384,529.11,3527.45,0.045564804873907946,0.23152494933051343
Galaxy385,172.18,1845.38,0.21047921092740185,0.19224083504055481
Galaxy386,1974.51,2498.14,-0.42012085346318956,-0.087951922006266156
Galaxy387,3982.6,3419.2,0.1184202529726027,0.13406727898104043
Galaxy388,835.6,2883.0,-0.37485901132469807,0.23956136625816149
Galaxy389,1502.34,427.78,-0.32015541704714867,-0.13111485938969039
Galaxy390,878.3,1898.54,-0.29773329600073645,0.40089070727607679
Galaxy391,3382.54,1318.38,-0.048333188069656662,-0.30748615540999547
Galaxy392,1979.7,1799.01,0.078388597252311773,0.041221462024754796
Galaxy393,3753.7,836.71,-0.0047183900676385677,-0.27094447454184128
Galaxy394,2408.11,4085.5,0.11443639580889439,0.42920694276458132
Galaxy395,290.69,1048.78,-0.38112176041976265,0.22865879205098663
Galaxy396,2040.27,3321.62,0.15375339734427518,-0.17030562292041695
Galaxy397,3569.15,980.09,0.054010628131060549,-0.42884265175705893
Galaxy398,978.43,446.11,-0.066002890396063996,-0.056241483453104722
Galaxy399,314.85,934.08,0.13150111899092287,-0.30684333030599714
Galaxy400,1277.31,3158.52,-0.14008503541779133,-0.083524256844935738
Galaxy401,770.75,628.97,0.17749125128946605,0.15880187381761007
Galaxy402,3539.21,3961.41,0.094999203864656698,0.50159713567783681
Galaxy403,575.91,632.82,-0.34718604857108526,-0.16507788573342777
Galaxy404,2715.92,2887.03,0.19488146029112474,-0.34010105135088725
Galaxy405,1853.08,2291.06,0.067803295656625753,-0.067594713123398792
Galaxy406,1363.7,561.48,-0.16639604501776803,0.28090847604344543
Galaxy407,1000.63,704.58,-0.19266177469596721,0.14352505061589405
Galaxy408,1176.0,2441.32,-0.20368920433568624,0.10160924487456968
Galaxy409,1057.97,326.92,-0.26431868004561693,-0.029107794179031574
Galaxy410,3316.14,1190.92,0.24822194698088265,0.045027627542077175
Galaxy411,3613.33,2384.31,0.32527540188256199,-0.15141720749338622
Galaxy412,827.66,3093.94,0.045415953118170538,0.068855922641732986
Galaxy413,3556.77,1166.87,0.097185414819255217,-0.17406666060588166
Galaxy414,3801.11,2409.58,0.086074612622971086,-0.077148965990518209
Galaxy415,3440.31,1776.32,0.075035475752786907,-0.25734555617807642
Galaxy416,2470.23,2967.32,-0.019022564250764928,0.13827871174870288
Galaxy417,2919.28,3952.72,0.61617489351497756,0.078269194177408546
Galaxy418,2713.06,3837.61,0.20589023318261684,0.17229944453908716
Galaxy419,3394.44,874.64,-0.030485334950724325,-0.40434294605172399
Galaxy420,3365.68,1231.75,-0.2743594610832879,-0.23849427687778713
Galaxy421,2183.1,3948.84,0.11482605779320429,-0.055211593066971626
Galaxy422,2954.34,1840.67,-0.28232319427810887,0.14872384550027287
Galaxy423,2224.27,2159.58,-0.24420613275435404,0.1675723157782302
Galaxy424,2418.57,3822.59,0.5126004617896267,-0.11210353606812323
Galaxy425,3794.12,434.25,-0.10555716625073092,0.46031273149130914
Galaxy426,196.85,939.75,0.26536982535151565,0.24302178359433188
Galaxy427,380.71,3706.8,-0.1760280468092468,0.2938577778572623
Galaxy428,3370.9,1674.59,0.15561237081959514,0.014424690920858851
Galaxy429,2994.96,3109.97,0.22461160967064819,-0.18568786392050846
Galaxy430,3113.07,697.1,-0.14118898479191294,0.036461407489619929
Galaxy431,1922.76,773.13,-0.36516683513213244,-0.075371453087556495
Galaxy432,3224.58,3399.2,-0.020041272785876224,-0.16209967819983934
Galaxy433,2709.95,3589.88,0.37103828487960544,-0.16883058253467309
Galaxy434,2357.88,521.49,-0.1795255193518196,0.15192247113140622
Galaxy435,3523.69,3132.79,-0.073753922480446793,0.10801767355583942
Galaxy436,3225.29,1350.84,0.16682787484223341,-0.16431618273334186
Galaxy437,2208.99,902.84,-0.36145487603959159,-0.076932302354080606
Galaxy438,2710.82,652.18,0.048272086066096356,-0.35731291919758118
Galaxy439,2466.19,3215.91,0.10713191677518503,0.18365623024348518
Galaxy440,4042.97,1314.67,0.10550365526711392,-0.66175957371388117
Galaxy441,2821.11,678.87,0.11118602036019169,0.012495513920117524
Galaxy442,1294.98,934.99,0.11723769589751593,-0.26073324196708098
Galaxy443,2837.9,3797.59,0.081956353261396483,0.15561745711343797
Galaxy444,1506.92,3118.02,-0.18033879205417425,-0.19880559961962033
Galaxy445,266.6,1289.66,0.11522945231973741,0.33413478448937706
Galaxy446,3354.4,1058.29,-0.082584096357524547,0.036807850273389842
Galaxy447,3148.95,2551.11,-0.20909719541972793,-0.3393593111668699
Galaxy448,3978.74,3797.44,0.37368770472136809,0.46881437197943443
Galaxy449,3793.88,1529.57,0.3493241566810309,-0.31508738318855078
Galaxy450,3001.2,4177.66,0.16436665050820878,0.15260263501726704
Galaxy451,2949.88,770.78,-0.1489721748319158,0.040488136027783728
Galaxy452,546.06,3955.83,0.05750047282745574,0.06433021920823695
Galaxy453,1701.0,3548.1,0.01542404182983198,0.17750323409917854
Galaxy454,1497.71,3680.82,0.18260921782017239,-0.26962127293153443
Galaxy455,749.1,3943.13,-0.017796527431460554,0.23543655702840255
Galaxy456,2778.52,2598.09,-0.034063335170609083,0.22714205635210433
Galaxy457,2450.62,2702.18,0.014850929251851313,-0.37157686984140276
Galaxy458,1554.57,1904.31,0.0026036608364169156,0.10576140345640907
Galaxy459,1972.22,4020.78,0.16937311897742527,-0.14575457471387168
Galaxy460,283.43,292.67,-0.22442642775837085,0.31069798338171117
Galaxy461,2175.02,2118.18,-0.31835273236504802,-0.57958403776516565
Galaxy462,3429.15,1926.76,0.28957084192463906,-0.18710148908527494
Galaxy463,258.18,610.82,0.09393369815087782,0.25141666025511766
Galaxy464,1862.55,2711.51,-0.12441996010743639,-0.23201286667650892
Galaxy465,1324.17,269.03,0.081754991928537357,-0.10578976242460431
Galaxy466,692.56,3857.06,-0.40004825326071769,0.0074765516434146806
Galaxy467,2434.59,1521.88,-0.15881088094808796,-0.19089036320395167
Galaxy468,2730.16,3553.77,0.004035425380176122,-0.11417266371174009
Galaxy469,2018.64,2661.65,0.12562627950513405,-0.25581933948696889
Galaxy470,2729.4,3275.54,0.044783601481619889,-0.41359490231461954
Galaxy471,1989.36,673.04,0.11444154377892057,-0.07796871447598698
Galaxy472,823.99,2172.02,0.066919086355591656,-0.14917797577240144
Galaxy473,3153.96,290.26,-0.40390386301256642,-0.085579785249778662
Galaxy474,691.09,3680.76,-0.15078594711491541,0.31739472870537844
Galaxy475,1773.36,582.73,-0.21738748272722502,0.21237899420282086
Galaxy476,1801.4,1765.91,0.096613946485766322,0.1085720246230194
Galaxy477,3001.41,275.47,-0.01447901308816911,-0.21786760037013447
Galaxy478,111.88,1995.38,-0.08722203325086629,-0.29981144103042112
Galaxy479,444.62,3323.88,-0.088003306872929885,-0.062550647724148534
Galaxy480,1521.6,3307.78,0.2215300700318279,0.16816219152370523
Galaxy481,254.69,3052.4,-0.076724608441352371,0.098574395168587958
Galaxy482,3065.38,3374.06,-0.37106392061411453,-0.34468940945674609
Galaxy483,2551.57,3039.15,0.22807737336659051,-0.12004686662780924
Galaxy484,334.33,2635.91,-0.30100466262210329,0.2840890359821362
Galaxy485,3589.5,2011.53,-0.14160117208006393,-0.50276431389333165
Galaxy486,1495.94,340.56,-0.41481625444125486,-0.046385241129329291
Galaxy487,2667.16,3121.04,0.26500596596651449,-0.16922584312526115
Galaxy488,3135.38,3456.13,0.075907641977034132,-0.19156651915186534
Galaxy489,959.55,1518.84,0.03305200969357866,0.01908489241462747
Galaxy490,2560.42,3713.4,0.45995570770485272,0.091304032802362975
