GalaxyID,x,y,e1,e2
Galaxy1,1242.25,3212.3,0.2431986743881438,-0.25350569939037532
Galaxy2,2775.09,1979.07,0.22312677091737013,0.20865521336708018
Galaxy3,3814.23,3326.69,0.47413137725693533,-0.011509585306275563
Galaxy4,631.44,2699.35,0.10403722014378791,0.19499027179553907
Galaxy5,4196.6,317.57,-0.17105345765385915,-0.061164576409425173
Galaxy6,2129.96,642.81,-0.4317169722678954,0.30044113106674974
Galaxy7,1889.99,1755.68,-0.16516897488516599,0.20656183013603066
Galaxy8,3968.49,3318.89,-0.51081801574265284,0.22533177637134408
Galaxy9,1739.01,3280.54,0.15697542326626704,0.20027710969447951
Galaxy10,1581.79,2093.49,0.04938149553783272,0.00085299770173125067
Galaxy11,1655.31,3524.05,-0.015198065294493246,0.46663462407997475
Galaxy12,3785.96,1836.98,-0.23196044652236783,-0.39236229875394257
Galaxy13,966.61,424.45,-0.1685588123642679,0.094581382157438623
Galaxy14,3452.69,3233.77,0.27643147795266443,0.25774714371280227
Galaxy15,1048.1,2616.96,0.1815017136418571,0.18544355924307679
Galaxy16,1800.38,2080.05,-0.1412436194327519,-0.1865420045551423
Galaxy17,4197.23,2264.9,-0.10106171709595607,0.051548151597415215
Galaxy18,2949.96,2836.17,-0.0683557606500029,-0.54521017373006353
Galaxy19,1113.03,237.52,-0.1636038823654184,0.35345986999914519
Galaxy20,3246.63,466.76,-0.016610751469042007,-0.19194701443847434
Galaxy21,2355.45,114.92,-0.011673905900939141,0.06913105591129981
Galaxy22,1001.86,2185.39,-0.08373081442528256,0.0065609489316543479
Galaxy23,495.32,814.09,-0.091785756837044319,0.14908914620274602
Galaxy24,3042.37,2400.88,0.019557605091980818,0.11806441462324332
Galaxy25,480.38,386.89,0.11457289546759612,0.20509353208698644
Galaxy26,622.62,1705.16,0.015756290164195139,0.099646678485747445
Galaxy27,1146.96,692.26,0.20508335171911793,-0.10381209711877384
Galaxy28,4053.61,2075.3,-0.033057554079304309,-0.11499451480039452
Galaxy29,1473.52,3974.58,0.10858106253687085,0.048308009864337156
Galaxy30,1083.45,348.16,-0.38773168012725034,0.45623796611797784
Galaxy31,449.72,1169.21,-0.30605741993022567,0.27399281734300662
Galaxy32,1464.86,694.97,-0.024377868315579754,0.16483196952716506
Galaxy33,2730.11,2186.52,-0.053322395625705468,0.040527614535722505
Galaxy34,165.92,1654.82,0.061299551518590192,0.039825228578058841
Galaxy35,3653.38,125.86,0.17524514760571575,-0.2335536638191647
Galaxy36,2038.82,362.87,0.23690562265239667,-0.21599558631857649
Galaxy37,613.94,41.48,-0.09976750355872413,0.35230044574820507
Galaxy38,2584.4,2574.78,-0.078457895278436912,0.05587951457925272
Galaxy39,1558.53,2617.81,0.0065997360284372579,0.42642498463674361
Galaxy40,3049.07,3322.62,-0.10034704549647284,0.15548842578588801
Galaxy41,2714.0,3140.58,-0.18324993680638624,-0.32240670599516913
Galaxy42,3741.25,1353.84,0.062873537737769269,-0.072024901955790269
Galaxy43,2619.39,3522.51,-0.17213858418819544,0.15657810832755645
Galaxy44,3009.86,1084.62,0.0021420973620308592,-0.15779354987120581
Galaxy45,326.75,2337.96,-0.097245664305680227,0.068247908853655018
Galaxy46,241.73,2745.17,0.16911555229091665,0.10630785874688214
Galaxy47,1346.49,1615.51,-0.0039440077307300037,0.048804769286338132
Galaxy48,642.09,280.05,-0.092981086961354889,0.070999107620515867
Galaxy49,1232.98,489.13,0.25344723121798207,-0.2098163429507717
Galaxy50,573.3,757.1,-0.1657067273632456,-0.2690595134951736
Galaxy51,2283.95,479.46,-0.040363786480694386,-0.18055121167064855
Galaxy52,96.32,3009.76,0.29044656967881294,0.18017288022792177
Galaxy53,1657.68,3851.08,-0.10166467449145683,-0.19008575453329124
Galaxy54,2252.47,97.09,-0.090416988354306158,0.13072496603873632
Galaxy55,3778.62,98.34,-0.45097649349608526,-0.13555625305676583
Galaxy56,297.49,1467.28,0.19979160006080288,0.18320280747220077
Galaxy57,1128.59,2912.63,0.35911459866223439,-0.36052362880724209
Galaxy58,2163.99,59.35,0.084596740226633327,0.057946235405906182
Galaxy59,889.0,371.83,0.017249387266256147,0.25569366040828123
Galaxy60,2702.39,2281.89,0.24772520266778181,0.15996971928812745
Galaxy61,2526.08,3141.03,0.092389982919449831,0.0011532729808469422
Galaxy62,2713.4,1360.34,-0.14325753744299863,0.19067578606884195
Galaxy63,3417.01,79.51,0.077024531789520373,0.0039426401730343064
Galaxy64,1898.19,3386.0,-0.19041162513161081,-0.21704939014150831
Galaxy65,1061.97,160.28,-0.053304720802336628,0.030388273117327363
Galaxy66,1632.15,1566.09,-0.12591597054942763,0.055084811241340279
Galaxy67,2768.08,411.22,-0.43638947801998063,0.21630998917706631
Galaxy68,1534.15,688.76,-0.52100876398154283,0.35180472749240776
Galaxy69,4136.25,19.6,-0.091089571668088648,-0.39863844371360563
Galaxy70,1834.9,1352.67,-0.22715632823757487,-0.18820591562824288
Galaxy71,1506.15,2821.7,0.066738263681672572,0.3714935021653375
Galaxy72,4088.03,2040.79,0.045059015586302799,0.35057429392353562
Galaxy73,2797.46,478.59,0.0014371041079386249,-0.12557279337055527
Galaxy74,1965.19,2704.37,-0.086671191222504843,-0.17295673021497973
Galaxy75,2335.04,2626.38,-0.047184038081133722,0.21634839836237812
Galaxy76,2401.69,1334.46,-0.64677251988713069,0.025580977665404545
Galaxy77,78.29,3895.77,0.14262177885566718,0.26704084353008423
Galaxy78,2978.83,3461.29,0.10178092034161376,-0.063511822025807574
Galaxy79,3651.43,3402.25,0.25861287907433927,-0.4010155005210872
Galaxy80,1354.62,1053.74,-0.24411402269313665,0.36609001260390223
Galaxy81,731.76,3795.94,0.041783740272352765,0.066079020053427834
Galaxy82,119.41,668.08,-0.050713598975648748,0.50335604021012115
Galaxy83,3297.29,1223.87,-0.51705669050193415,-0.065963725057516048
Galaxy84,551.88,3603.67,0.41314507498826869,-0.03145475136482119
Galaxy85,2615.32,3567.16,-0.00096662413146192394,-0.21581292187102818
Galaxy86,2468.72,2849.1,0.070710545339695091,0.016095269863757585
Galaxy87,1202.72,873.77,-0.16485950559935933,-0.39397627808764724
Galaxy88,229.1,3129.66,-0.15001019507435293,0.058453206035767452
Galaxy89,2507.66,3595.89,0.19158613996960072,0.12601441088423102
Galaxy90,671.67,2895.27,0.3126581026930132,0.03168864351326825
Galaxy91,2978.6,127.02,-0.29446425095944539,0.10350455262753162
Galaxy92,3789.01,2459.21,0.22496129930338418,-0.026414320760020593
Galaxy93,707.31,2981.1,-0.014072318748519275,0.10717867337694512
Galaxy94,1600.88,78.11,0.097662136577416653,-0.081059845880570539
Galaxy95,2922.68,262.04,-0.094253935230341118,0.310447630216307
Galaxy96,3782.84,3470.02,0.36861165565469867,0.17666570670646289
Galaxy97,2833.62,1059.59,0.026388113227275578,-0.14698029308109362
Galaxy98,2857.53,598.34,0.026001989490317262,-0.3283885784556424
Galaxy99,2459.45,1625.66,-0.093042273317714419,0.36068361168655699
Galaxy100,1345.98,1851.67,-0.028732707241652208,0.20678747876081147
Galaxy101,3151.48,4055.82,0.3895606640732846,-0.3695642497063279
Galaxy102,1515.61,1250.23,-0.16323542475041336,-0.10873686564042812
Galaxy103,1840.94,2098.54,-0.30982410954179185,0.23019227787743907
Galaxy104,3545.12,2407.5,0.075510131914050108,-0.26594636907540548
Galaxy105,2369.46,3361.09,0.2827968085906416,0.2401734505344979
Galaxy106,3828.92,3800.27,0.21331730676616587,-0.045761507884875596
Galaxy107,44.99,3104.86,-0.044032271813130464,0.063807501513787779
Galaxy108,300.9,3610.06,-0.0066864700076064709,-0.028405243462516293
Galaxy109,3832.96,852.34,0.086133456569888425,-0.27709057583723562
Galaxy110,782.12,325.99,0.10373254502219519,0.28166515016841198
Galaxy111,1637.78,3139.1,-0.24428086251056177,0.11629468573953163
Galaxy112,2686.73,3478.71,-0.40765587843528339,-0.40224617873801916
Galaxy113,2070.48,3277.83,0.23634853790848095,0.25682735539537022
Galaxy114,3928.88,1938.99,0.43348135652286129,-0.025203320107139632
Galaxy115,1905.46,747.42,0.0083389218630202933,0.33866488458575927
Galaxy116,736.2,1982.97,-0.13100763749603941,0.21623464501210288
Galaxy117,2049.45,1920.15,-0.12185597256223224,0.084734270322880931
Galaxy118,1461.61,83.82,-0.2188677421640946,-0.048049539577961889
Galaxy119,724.99,4105.77,0.042546102375698489,-0.028710669280990544
Galaxy120,216.08,3162.93,0.082848121389648477,0.2538027533667887
Galaxy121,2003.64,2219.42,-0.082386795212997799,-0.084177642914327416
Galaxy122,1336.73,848.87,0.23455635764888058,0.33674759038485169
Galaxy123,992.56,2907.48,-0.17252776161769359,0.3829838683196356
Galaxy124,2587.91,3418.38,0.14354767276349989,0.24541236460420002
Galaxy125,2208.13,3458.95,-0.3667007848203449,0.023201486478028527
Galaxy126,2155.66,2588.6,-0.41113720839899792,0.091608109173626787
Galaxy127,3654.66,2502.41,-0.18190208292287724,-0.1880088535787878
Galaxy128,81.21,3625.53,-0.29595587457844319,-0.36130358788694417
Galaxy129,2674.81,2701.74,-0.076202597186340149,-0.26744326570381399
Galaxy130,2438.73,259.6,0.11511319594290817,-0.4418772628209201
Galaxy131,2570.49,3454.91,-0.19264248242570517,0.23560337932171532
Galaxy132,3253.6,454.63,-0.097712143129688928,-0.40718962948695181
Galaxy133,3211.72,2459.25,-0.21348326137338325,-0.24131193571234438
Galaxy134,1878.36,1080.84,0.089659884177481441,-0.10739022583915653
Galaxy135,2700.12,818.92,-0.15647804065489673,0.13921204670847526
Galaxy136,972.06,3166.75,0.095486675967494411,0.3952217600793077
Galaxy137,2469.86,4159.7,-0.042967948659541899,0.22059998924792551
Galaxy138,4084.99,4109.1,0.04356585043275156,-0.075214208457953485
Galaxy139,2955.22,1539.64,0.065234995437784771,0.16250812471358655
Galaxy140,2537.97,2306.3,-0.079004589842912143,0.21344076697331216
Galaxy141,804.77,2732.22,-0.10460417054445173,0.24032462754723588
Galaxy142,2379.59,1510.48,-0.41741386744895081,-0.22263684782499538
Galaxy143,3953.6,570.28,-0.24343510868437526,-0.11926448069372296
Galaxy144,1825.54,1657.63,-0.18926399979265721,0.085853261121652855
Galaxy145,420.47,759.62,-0.17502459682563967,-0.0094383923296350036
Galaxy146,1690.76,341.29,-0.11203613803008441,0.27273147104254308
Galaxy147,264.33,703.96,-0.059072859291026764,0.2779052455833419
Galaxy148,4002.22,1767.79,0.12882041774440933,-0.14534509127489564
Galaxy149,3517.53,1473.03,-0.17437052962101857,0.014519351081006132
Galaxy150,827.02,1024.88,0.19291458096684044,-0.39629352851482891
Galaxy151,3904.9,1085.89,-0.15156357017566841,-0.0053287764057047271
Galaxy152,1040.37,1415.13,-0.23326046376196313,0.059164236986445656
Galaxy153,168.37,2935.39,-0.16839352170963012,-0.021916037446329639
Galaxy154,3556.38,3900.95,0.16901239070211332,-0.032012116830123991
Galaxy155,1391.46,169.47,0.054460191688624676,0.54012427800326679
Galaxy156,1467.33,370.79,-0.44505000817908857,0.14982955146553315
Galaxy157,2319.85,3580.93,0.030346585878082449,0.086327339469054451
Galaxy158,145.32,562.41,0.27763835528001957,0.22980379817177435
Galaxy159,264.17,3741.88,0.11237118837295015,-0.48114713811798165
Galaxy160,157.52,117.65,-0.078092276575790681,0.047909894845979781
Galaxy161,1686.43,1125.69,-0.52575846372587298,0.41091557746893614
Galaxy162,3097.22,2209.73,-0.061981995990286406,-0.30983558210728179
Galaxy163,2369.48,1356.35,-0.16895242880831529,0.21921456173131712
Galaxy164,3094.11,27.39,0.18715550838947612,-0.10154104485447794
Galaxy165,3428.84,2953.31,0.012376324540237585,0.1875930435776845
Galaxy166,37.05,2712.69,-0.085104206633760782,0.34527124111503127
Galaxy167,3016.54,2729.86,0.18861193758141356,-0.031043202255147839
Galaxy168,1080.06,3248.53,0.08736470576308239,-0.46368782974884032
Galaxy169,2171.15,3312.17,0.016791280057933407,0.0075699689869157816
Galaxy170,1790.04,771.29,0.27624092505284514,0.17750473187160626
Galaxy171,2709.56,2206.24,-0.15091968553705823,0.10074338801650026
Galaxy172,263.11,3794.48,-0.010541573988379571,-0.20715240756386455
Galaxy173,4065.86,3630.55,0.17501097156472917,0.14472830506814044
Galaxy174,422.52,19.82,-0.1181474437514717,0.23315915735379283
Galaxy175,3114.0,2985.36,-0.31894837796639791,-0.36276427694701402
Galaxy176,2249.68,2336.7,-0.18949637166541286,-0.38095986204321119
Galaxy177,1901.49,3000.71,-0.026506059284333278,0.27548099868940068
Galaxy178,2816.28,2618.04,-0.03506813566902249,-0.31364800384628755
Galaxy179,129.4,2056.48,-0.086790115227641892,0.10220355417172572
Galaxy180,361.39,1569.96,0.25083895055336852,-0.013080650674724026
Galaxy181,1011.66,1367.62,0.24244026527161544,0.29185649737347175
Galaxy182,844.96,1479.37,-0.70103465176186019,0.13067319280562145
Galaxy183,2548.22,1580.69,-0.039568109292777404,0.052649010981424299
Galaxy184,650.57,2961.68,-0.0063717076121219962,0.14562074567980299
Galaxy185,4010.63,1571.1,0.069999253765004182,-0.096393222796675351
Galaxy186,1195.42,2452.59,0.037847055306647816,-0.065842229330360963
Galaxy187,1982.87,1973.94,0.092687878319766742,-0.022416493857732464
Galaxy188,1478.45,2804.7,0.24625015014334337,-0.24338819870150083
Galaxy189,2664.31,2369.04,-0.038428781523812044,0.11361736260300814
Galaxy190,2304.96,135.32,-0.26755633700511322,-0.094569711297316755
Galaxy191,3544.87,2067.15,-0.45356734114981168,-0.1244787363471174
Galaxy192,1950.95,1786.58,-0.34994853078486621,-0.3237879149871381
Galaxy193,1368.35,999.06,-0.32689823681291247,-0.18078689118666114
Galaxy194,2356.06,3680.54,0.12082219255935756,0.047208053793693444
Galaxy195,3623.01,864.91,0.35528606802030044,-0.11811988556505565
Galaxy196,899.54,1808.67,-0.39358279434713617,0.21726379522330963
Galaxy197,2043.35,1083.07,-0.11226538541912269,-0.17552580904798037
Galaxy198,2525.27,4006.73,0.19017548183565633,0.017843314863419515
Galaxy199,2555.67,3555.24,0.070168956488780659,0.49284986188215596
Galaxy200,1359.07,1568.68,0.13096675344144043,-0.32692252673130029
Galaxy201,1039.18,2310.75,-0.1037226014622008,-0.14428127266153148
Galaxy202,605.78,212.84,-0.56699483102307235,0.12061106214105172
Galaxy203,3943.17,711.59,0.18877880009029255,0.31733531576164153
Galaxy204,580.57,657.53,0.3213822032818166,-0.04845033583594735
Galaxy205,3174.4,1737.55,0.11925796644362527,-0.013655538699507294
Galaxy206,1121.86,789.2,-0.20808720191993674,0.27098521897723515
Galaxy207,3377.66,2939.84,0.52381825636061419,-0.065395866798837882
Galaxy208,136.12,2076.1,0.19006112133152114,-0.083036657789190976
Galaxy209,1067.12,3553.14,-0.032466615874820387,-0.22895565821133487
Galaxy210,1107.36,2041.74,0.23969996363902898,-0.30492499429946307
Galaxy211,2334.68,837.81,-0.19751694223334337,-0.29191257322719694
Galaxy212,2572.62,961.21,-0.12048814647293984,-0.39778688750707147
Galaxy213,2983.61,3424.1,0.59089615700359843,-0.19440208879533261
Galaxy214,3148.38,1285.18,0.3691372580197726,0.39530742372661853
Galaxy215,2364.8,1761.46,-0.32002625537097806,0.19466380633400182
Galaxy216,3346.47,758.41,-0.1683484833496581,-0.022840991533548086
Galaxy217,3007.66,1470.4,-0.07821420875761162,0.11426110499586763
Galaxy218,89.75,2584.92,0.15690337763304446,-0.21967554666175076
Galaxy219,1539.3,3890.68,-0.20631318138173466,-0.30735647646586517
Galaxy220,1819.42,1217.36,-0.1591142451887271,0.17186860248041713
Galaxy221,3295.28,1828.17,0.0646918299536762,0.043892361660159418
Galaxy222,2562.75,1815.16,0.29194829007237466,0.098485334074663144
Galaxy223,688.77,3218.59,0.14695458376977991,0.35285488262472631
Galaxy224,2028.07,1340.73,-0.29925646466769806,0.20209728979999714
Galaxy225,1803.28,264.72,-0.41175623688517959,0.12782354643870772
Galaxy226,584.94,3417.56,-0.0024860902294563392,-0.14001762625420966
Galaxy227,1427.43,3795.18,0.13664802390721617,-0.47240808376858434
Galaxy228,329.33,3546.55,0.35479034393363984,-0.29873041037859527
Galaxy229,3805.08,651.71,0.33794516971253807,-0.050534977577206888
Galaxy230,2901.16,3347.25,-0.22677045420330871,-0.17392268772556271
Galaxy231,661.58,1108.67,-0.5241861891385089,0.2864698641677339
Galaxy232,4007.77,3067.05,0.10502830511984826,0.43324782541678941
Galaxy233,3325.56,719.5,0.12134542720180558,-0.17379850305825734
Galaxy234,2512.49,2108.62,-0.2090691985625098,0.11677680208760807
Galaxy235,3793.34,3952.03,0.1190042287270876,0.33164704581241505
Galaxy236,203.72,1930.27,-0.012416061928271861,-0.16685031487534355
Galaxy237,2876.28,1551.62,-0.15129425075753797,0.013217013627669111
Galaxy238,549.41,327.58,-0.27764402359719476,-0.019097324705202562
Galaxy239,2182.76,1540.1,-0.18820249481130005,0.21184425428145159
Galaxy240,3050.17,2421.56,-0.035660733432174088,-0.087439423973828562
Galaxy241,2857.84,2207.65,-0.045813843463421502,-0.18343323964104277
Galaxy242,766.5,3420.4,0.4020172166083103,0.25543798815162977
Galaxy243,1191.37,1089.87,0.5162500846161836,0.1614074293447928
Galaxy244,3523.75,1997.06,0.12653769723658725,-0.24286294141044665
Galaxy245,2409.69,790.44,0.093329008915498196,0.35148207250952196
Galaxy246,954.08,1881.6,0.15559172155389106,0.046048715842826243
Galaxy247,2914.59,2282.99,-0.086288938865941189,-0.31029751698458996
Galaxy248,2714.19,3268.24,0.16663177488540692,0.18134643730351063
Galaxy249,3311.62,1776.78,-0.061178980039221953,-0.10016360024085905
Galaxy250,762.92,2279.81,-0.093187421041126178,0.14515213888332948
Galaxy251,2233.44,1154.03,-0.16967845151014221,0.16472400648755564
Galaxy252,2593.67,680.43,-0.28000630192729398,0.40468425591767682
Galaxy253,190.92,2897.35,-0.058710279412045874,0.15643605081471584
Galaxy254,959.25,2091.62,0.01673727294111127,0.27627119556933344
Galaxy255,3426.36,3367.52,0.22667595258236373,0.48015898703197102
Galaxy256,2311.54,1280.69,0.20210661776707312,-0.038053573457104889
Galaxy257,2189.38,3827.36,0.098534184550797085,-0.026359443832903895
Galaxy258,473.49,3749.85,-0.10028067198553597,-0.021465175786693269
Galaxy259,2196.99,3874.72,-0.16352748641326417,-0.60492617279213834
Galaxy260,969.25,2978.95,-0.04689223558994951,0.16708088579775282
Galaxy261,635.09,3211.12,-0.26641452580229458,-0.30789558515374338
Galaxy262,2469.9,597.09,0.3171752158482265,-0.056754000991787366
Galaxy263,1432.56,3662.12,0.082386733043356267,0.051681701199185699
Galaxy264,2534.6,17.02,-0.2608652600278667,0.33195634000206597
Galaxy265,1156.77,2691.61,-0.29707719896259227,0.29890472573975346
Galaxy266,3273.11,2413.04,0.038117103758382315,-0.027099635493213231
Galaxy267,2336.2,6.88,0.049773818023763627,0.1970558611463383
Galaxy268,1940.42,497.5,-0.19625909544694639,0.091456091374966964
Galaxy269,1268.11,2420.58,0.50937557480689788,-0.01420208893809824
Galaxy270,4155.54,521.13,-4.2133755083967328e-05,-0.25932965127505625
Galaxy271,1316.74,2151.41,0.31171056922559381,0.028815225053240412
Galaxy272,1622.23,2855.91,0.090366196103589341,0.22372927526954611
Galaxy273,2269.18,872.68,-0.043163422349176056,0.44947728706907025
Galaxy274,945.66,595.41,-0.044004677457156464,0.39297586579459098
Galaxy275,1466.15,2185.08,-0.29928382474253357,-0.14032486640245148
Galaxy276,2339.64,1619.0,-0.23985456490849616,0.099641051961990912
Galaxy277,402.47,2080.3,-0.056339094624316806,-0.11789423289544171
Galaxy278,3284.92,57.0,-0.083844887231319928,-0.0085833058836833898
Galaxy279,291.32,2436.87,-0.11205875513831783,0.056885802577240019
Galaxy280,640.61,536.92,-0.24435161959572493,0.091865638638435387
Galaxy281,2022.73,347.32,0.066473338689664568,0.080868347724831285
Galaxy282,789.58,3096.56,-0.2896258127627232,0.24586277569246306
Galaxy283,2413.72,1095.53,-0.056480497549797601,-0.19617022281885346
Galaxy284,2943.52,3785.36,-0.031466533488677062,0.047005400911584228
Galaxy285,1719.65,3466.52,0.11447041543837841,-0.14006535971522249
Galaxy286,2808.79,3038.87,-0.072924278757129452,0.23084524752736574
Galaxy287,3528.02,2925.23,-0.099973198258453078,0.024066592366519368
Galaxy288,1698.55,1463.96,-0.24173937248848931,0.030660522518874495
Galaxy289,3600.59,2499.27,0.045820043036259736,0.22831379478013872
Galaxy290,809.21,1859.07,-0.16935202935963181,0.02126378315461977
Galaxy291,295.22,2071.83,0.038540764710013872,0.30948866038694378
Galaxy292,3076.38,2162.12,-0.16378109081,-0.50750425520230824
Galaxy293,4189.81,2680.97,0.23781900753055107,-0.43555615150569188
Galaxy294,2426.04,3798.04,0.13595803074572133,0.11427632196833676
Galaxy295,2927.81,1818.07,-0.052889314890464362,-0.12032324757825057
Galaxy296,675.2,3898.22,0.064181162185793686,-0.11593402827472546
Galaxy297,1261.31,2926.93,0.074265554096440117,-0.20828749284269521
Galaxy298,2612.24,1023.83,-0.1845851856352686,-0.19315313510081017
Galaxy299,2363.45,3977.95,-0.093848803620775606,-0.35853318609934481
Galaxy300,693.43,2708.83,0.091044294177765731,-0.15635861907925061
Galaxy301,3079.68,2868.76,-0.24520721359895925,-0.02158052682067077
Galaxy302,2161.56,2504.48,0.00095961880380587838,0.14203042781397318
Galaxy303,1671.36,2283.79,-0.22572544247858167,0.14398548198571334
Galaxy304,2744.29,3810.49,-0.29785513727324459,0.20949798837981631
Galaxy305,2413.53,2059.09,-0.050847600117529035,0.20561726834498159
Galaxy306,3638.33,1153.51,-0.39742821657959987,-0.081978131807649221
Galaxy307,4142.02,1929.14,0.16267055745822881,-0.21565364734040593
Galaxy308,2637.91,3087.99,-0.19174984206005316,0.28290570314411884
Galaxy309,4170.8,1763.75,-0.16083014767686143,-0.51296743349145901
Galaxy310,631.67,336.42,0.11629408919949343,0.15474692484974847
Galaxy311,743.15,226.13,-0.19097236013393062,0.11957020519062288
Galaxy312,338.52,3670.74,0.037533078258658897,-0.083739228961322729
Galaxy313,988.44,835.13,0.088790367503566198,0.22211518261740446
Galaxy314,2790.39,3251.53,0.13479709138152082,-0.083981372269638796
Galaxy315,3275.41,443.4,-0.033290889861778292,-0.18918392011675034
Galaxy316,632.12,2141.21,0.13522409452468534,0.53493605072566419
Galaxy317,1930.9,3011.23,0.24296930372245951,-0.11644972415148025
Galaxy318,3566.23,448.93,-0.33665116312365073,0.26616368812692065
Galaxy319,1630.65,1817.88,-0.03587942354061753,0.019965939085602388
Galaxy320,675.52,780.39,0.074272801935233765,0.098463371231308078
Galaxy321,4038.54,614.07,-0.27373589056142839,-0.15416932117586285
Galaxy322,1773.28,2931.97,0.21537055882126269,0.031914357094286278
Galaxy323,2793.33,1252.33,-0.11805622432935101,-0.057210405359549556
Galaxy324,2864.36,2772.68,0.34089329760205467,-0.13816360070761269
Galaxy325,1333.3,1430.33,0.10292002121474689,-0.16269090656316143
Galaxy326,3126.31,1164.75,-0.39089361579754933,-0.21980993525661571
Galaxy327,761.73,3333.25,0.087769675215247783,-0.064867401248516698
Galaxy328,4110.8,830.83,0.0010734839281906355,0.1496706923697867
Galaxy329,222.29,367.62,-0.36595444142688105,-0.19740226900001331
Galaxy330,2986.2,3715.33,-0.57607926747098981,0.21472234294937309
Galaxy331,1261.72,1564.37,0.014620503853642761,-0.025776312604740809
Galaxy332,1845.39,1501.94,-0.50708455439105116,0.075668509973163531
Galaxy333,971.52,2696.44,0.10451709776744027,0.034072089745675188
Galaxy334,2429.81,2008.35,-0.11233518657945804,-0.071151993242602546
Galaxy335,2472.0,2389.78,-0.29318967078980762,-0.1562127658518474
Galaxy336,956.99,14.24,0.25778420941062424,-0.17847627969351948
Galaxy337,595.72,315.46,0.00043828394867362341,-0.18367755748952261
Galaxy338,3260.53,123.38,-0.12383490598566133,-0.2735022348167796
Galaxy339,2001.78,2754.42,-0.1201223906849163,-0.0088249151449605601
Galaxy340,757.1,3809.22,0.14614466473638862,-0.12435162759621537
Galaxy341,1131.45,161.36,-0.32897735891933755,0.16277176626525003
Galaxy342,2155.88,3110.59,-0.21744021101136451,-0.16103848740626914
Galaxy343,586.87,2283.28,0.14433625480226814,0.25112428586081248
Galaxy344,2093.92,1116.47,-0.00014691396378332944,0.21281254740560065
Galaxy345,2033.11,1918.76,-0.20497502660284292,0.17184173440204886
Galaxy346,1374.96,3507.04,0.063331091047984192,0.35134930398368591
Galaxy347,383.79,864.18,0.077335902509603621,0.4969718922606825
Galaxy348,1022.1,3987.59,0.10127579793611984,-0.57827289374399948
Galaxy349,2117.53,807.51,0.12639919000583552,-0.2872661167521105
Galaxy350,922.69,1173.8,0.32475562925256984,-0.020055480543192977
Galaxy351,3459.9,1787.19,0.21741074793568671,-0.19226930151134203
Galaxy352,1129.9,3099.44,0.12542571976026826,-0.13385645986762482
Galaxy353,620.02,1757.0,-0.21813985207356595,-0.14684936094323295
Galaxy354,3246.98,1739.9,-0.29793108306270538,-0.029778879306276013
Galaxy355,1165.08,2684.67,-0.23938362521046941,-0.0077256472513489161
Galaxy356,3869.07,976.21,-0.37192229113013348,0.19644756757162771
Galaxy357,836.7,3711.18,0.12210253917759931,-0.078894127237543479
Galaxy358,271.15,3567.47,0.22506652451159628,-0.038532975479586874
Galaxy359,3065.73,2127.36,-0.038507142393003138,-0.42196093341600793
Galaxy360,145.73,2805.16,0.14414881154610826,-0.075322893993034115
Galaxy361,782.15,1170.32,0.1617463561405191,0.40434724727976318
Galaxy362,289.95,3425.66,0.14929968360875462,0.36311307285218702
Galaxy363,4108.13,3741.55,0.28829696527378507,0.39643077873302662
Galaxy364,3782.18,3618.18,0.2096279429723705,-0.19291685096419195
Galaxy365,763.53,896.85,0.025358535501245325,-0.048133679178014754
Galaxy366,2761.82,136.75,-0.24238691547004534,0.11480994894461632
Galaxy367,1281.16,79.59,-0.31472225403851051,-0.10831491903075645
Galaxy368,1503.07,556.96,0.049284851479611896,0.029294971795078631
Galaxy369,2327.21,139.98,-0.19730857835837501,-0.27133513945974241
Galaxy370,1192.16,4027.4,0.0068507035527336779,-0.32567709296545511
Galaxy371,1977.32,2125.31,0.39616412910957916,0.49142295207828773
Galaxy372,87.77,215.43,-0.46116951136771639,-0.1932653422135876
Galaxy373,2091.74,1620.02,0.065739627955668734,-0.15978185385799959
Galaxy374,570.92,1006.42,0.20212331656948138,0.1770946284444706
Galaxy375,631.93,3290.27,0.32617687867831191,0.3473283702063597
Galaxy376,1723.58,1135.13,-0.27444618201156734,-0.076631327665566157
Galaxy377,2881.19,2406.52,0.080013914782979922,0.094586918649092674
Galaxy378,3802.63,2343.13,0.075877629224201104,-0.36370898330922541
Galaxy379,3741.8,425.27,-0.037155491074763791,-0.56449834568540935
Galaxy380,3146.79,3416.89,-0.12158301531872884,0.18149514353726576
Galaxy381,3727.83,2978.35,0.46130545237767479,0.10909530260428854
Galaxy382,820.52,271.09,-0.043818615219322801,0.63916194498238488
Galaxy383,3538.91,2725.13,-0.11432027834919735,0.0041041937542601881
Galaxy384,3158.36,3668.74,0.018538697810925209,0.40065625422818185
Galaxy385,1593.4,2046.15,-0.019203972316701734,0.12512226596130921
Galaxy386,3068.65,2017.7,-0.016089697335214148,-0.18529832738419316
Galaxy387,3554.77,2819.88,0.23522006970030568,0.10076347374273714
Galaxy388,3779.25,3625.49,0.16179290699243026,-0.32273101858336634
Galaxy389,3154.59,1741.02,-0.19099536558817029,-0.10383050039942647
Galaxy390,1953.01,3320.92,0.078203477377624203,0.22250895400576773
Galaxy391,3504.65,3100.62,0.13662596828896195,0.16926571978974336
Galaxy392,2464.45,1280.96,-0.20010691676985037,0.018268628613931075
Galaxy393,2826.36,3965.79,-0.16613701360559427,0.096511345146590433
Galaxy394,3084.97,495.82,-0.27114374396031882,-0.018128465046028434
Galaxy395,2524.45,290.52,-0.055095392182298961,-0.17321286312991768
Galaxy396,1266.7,234.95,0.054109377666679781,-0.018753259283440724
Galaxy397,847.89,4187.63,0.053798364824290026,0.099307452405534097
Galaxy398,3194.34,4177.11,-0.40987084354170178,-0.16096280135432062
Galaxy399,3673.5,2753.15,-0.29534176752109292,0.30334916227854725
Galaxy400,1634.56,4032.39,0.11956486844428681,-0.18586002747723129
Galaxy401,1585.26,1213.67,0.18448346973748975,0.54340791678003841
Galaxy402,3330.93,1474.69,-0.12899613635380952,0.056027683239779733
Galaxy403,3614.33,3141.34,0.1493633848141647,-0.3221387676294587
Galaxy404,4078.25,143.21,0.2256852235188565,-0.4026868750564282
Galaxy405,1652.41,2879.48,-0.09118389814326408,-0.20209953006562933
Galaxy406,1522.56,525.27,-0.15971062023050653,0.23359899564081452
Galaxy407,2019.63,2988.79,-0.11999007337502859,0.017494889825755089
Galaxy408,290.05,1561.29,0.048876173125882057,-0.13535291946817057
Galaxy409,2247.5,1258.82,-0.153297828063854,0.34179895571395913
Galaxy410,1657.51,4057.71,0.13473486707950846,0.15587161344624176
Galaxy411,451.27,3367.45,-0.15487967237766509,-0.074810556357233784
Galaxy412,1783.5,1143.21,0.12462357535418925,0.21314102707071528
Galaxy413,172.63,2353.94,0.090760543688048798,0.11544114576634318
Galaxy414,2958.36,100.65,-0.22116139071915553,0.08478646104695195
Galaxy415,3263.32,1646.39,-0.43946161730073957,-0.27280190363169782
Galaxy416,2468.14,914.13,0.079303702905230533,0.020748640534116295
Galaxy417,466.11,1287.25,0.093428278909892401,-0.028793461850300101
Galaxy418,4115.28,3717.54,-0.039977177650208501,0.12593424384711835
Galaxy419,3650.77,480.76,0.12880830681618116,0.0072343578503180211
Galaxy420,1389.0,1782.67,-0.13373601816123715,0.21251214737459001
Galaxy421,672.87,1655.63,-0.29099014672353118,0.0437044810362332
Galaxy422,3548.5,3182.42,-0.046974890754499454,0.0031004762827380183
Galaxy423,2571.42,1308.3,-0.29162044100377477,0.04209997409452014
Galaxy424,1587.2,2050.46,-0.18975931137385527,0.10739008317916128
Galaxy425,2472.06,3135.56,0.2715765089992061,-0.015846508605432054
Galaxy426,3761.14,1227.39,-0.082163125826502051,-0.24645858302415474
Galaxy427,3277.44,3190.26,-0.34490841458998422,-0.06651241191259015
Galaxy428,3699.19,1778.94,-0.017406202224855449,-0.15450683115286235
Galaxy429,3714.46,2706.43,0.13848523594267881,-0.33711469879270883
Galaxy430,673.61,3644.0,0.36056644725743203,0.17730948605437288
Galaxy431,4077.67,2331.14,0.088157294377794432,-0.15137864508747614
Galaxy432,3835.49,4010.15,0.12093530081327608,0.16951005848308273
Galaxy433,1651.27,597.95,0.2399443982544292,0.25995244758349634
Galaxy434,1002.77,2533.79,0.078704856161944517,0.33269248005178842
Galaxy435,360.21,3080.38,0.16392562705638297,0.058259580931089017
Galaxy436,1022.64,3667.77,-0.19628990792988441,0.074118000161702141
Galaxy437,1538.16,2009.54,0.060890907289953125,0.17377028357582064
Galaxy438,2352.99,2458.73,-0.22338836521181485,-0.22445695623503753
Galaxy439,3296.83,2564.79,0.0051611139523173033,-0.29156825291491784
Galaxy440,950.9,3208.27,-0.17868518905989836,-0.17090226559836647
Galaxy441,1181.61,1693.44,0.18215404823233533,0.26963200669695231
Galaxy442,445.51,1203.0,0.037107670458545614,-0.042564446447193149
Galaxy443,2473.97,2421.68,-0.27136094142909473,-0.18840135207302253
Galaxy444,2772.88,1677.52,-0.41600619724400822,-0.15228778545237717
Galaxy445,1975.09,3835.87,0.1876828859115115,-0.1386255660890458
Galaxy446,1555.86,3283.59,0.17008219935693875,0.030829941249033585
Galaxy447,1945.59,3432.47,0.19755872720567108,0.36481698678630159
Galaxy448,362.09,4040.0,0.082217852943270414,-0.031672591107061408
Galaxy449,308.17,2240.22,0.1041697235011525,-0.16884182921597726
Galaxy450,1589.75,464.29,-0.032349690978890414,-0.06928458620028359
Galaxy451,235.09,1856.57,0.56218408653087182,0.17867509127508918
Galaxy452,461.99,2171.43,0.11302329098297981,0.040460620101302941
Galaxy453,2236.44,1847.24,-0.04126926587718327,0.0030671834268878595
Galaxy454,3003.87,1071.53,-0.13399745509722091,0.042610523378667872
Galaxy455,2605.83,2029.67,-0.025731147343446864,0.38805525308416355
Galaxy456,2994.49,856.05,0.14145303477474724,-0.27641650027967712
Galaxy457,1977.77,3093.61,-0.28810311554256568,-0.039429321626119646
Galaxy458,4142.31,2131.85,0.16851715801561834,0.10554899097687601
Galaxy459,3931.21,2800.14,-0.023259420784793164,0.23386796279335631
Galaxy460,2087.71,248.69,-0.05189398581337272,0.2873472497440428
Galaxy461,2306.1,879.94,-0.13796004467816297,-0.24986839840802688
Galaxy462,1887.62,453.14,-0.032454323038531296,-0.093828729312864428
Galaxy463,3781.52,995.76,-0.10432453103844852,-0.31398533247477889
Galaxy464,1497.71,2857.45,0.36282076991005019,0.057757410540590151
Galaxy465,1630.33,692.6,-0.1731911929244081,-0.32304012996573073
Galaxy466,1555.25,8.01,-0.23554334808968469,-0.14931911533602824
Galaxy467,629.63,2563.61,0.33313678199154217,0.0037429248714601071
Galaxy468,1705.35,582.93,-0.0041044879695993075,0.224811075981732
Galaxy469,1717.16,3092.18,0.35992699804249456,-0.23486539760402711
Galaxy470,360.38,3036.21,0.28418246117911194,0.087355591139088529
Galaxy471,2574.66,620.53,-0.082632466932969578,-0.27739269999967259
Galaxy472,1855.81,2437.01,0.13586559934777781,-0.21473291917137013
Galaxy473,2825.65,3454.31,-0.2011342187301326,0.14703771947458841
Galaxy474,176.37,4118.49,-0.0043765339391868829,-0.14112034909818849
Galaxy475,186.84,26.81,0.31658366147592992,0.25475773462373846
Galaxy476,468.5,1726.74,0.21811358485354179,-0.26374351248542416
Galaxy477,1808.83,892.85,-0.26135780182102786,-0.058838131563960352
Galaxy478,1214.95,3405.74,0.29369418825640359,0.33060803103708197
Galaxy479,2612.56,358.07,-0.25466482691256642,0.37386925995566761
Galaxy480,2714.88,2480.96,-0.028943953118104382,-0.14771115494996304
Galaxy481,2290.73,251.31,0.18282328139578058,-0.019249452815137076
Galaxy482,2041.21,1287.75,-0.21089202597053586,0.18047575808929289
Galaxy483,3197.74,3052.15,-0.1610285062911096,0.33254989446740862
Galaxy484,1102.68,1423.54,-0.18726026202971954,0.38329645304621662
Galaxy485,1849.85,1877.91,0.1469227558062956,-0.13178177061430885
Galaxy486,1969.92,4168.01,-0.024496533464102983,0.34922933539881185
Galaxy487,3715.47,690.27,0.44845085383571415,-0.4861689554029725
Galaxy488,1444.35,2139.71,0.024909540295832748,0.41954288584953359
Galaxy489,291.48,750.82,-0.61702616310760017,0.010280191171929132
Galaxy490,476.02,3677.74,0.10711590596388261,0.056867780375544852
Galaxy491,755.83,2421.34,0.11519393261953925,0.12108042939853265
Galaxy492,1407.28,2173.45,0.063676014846638984,0.23445084963713023
Galaxy493,3469.0,2184.73,-0.1444674722931143,-0.1260763008917255
Galaxy494,478.77,46.2,-0.14679469000330145,0.16119964809225926
Galaxy495,408.89,2162.7,0.042558584613090339,-0.054736086655136296
Galaxy496,3392.34,4088.44,0.077922549108290329,0.28513046102834305
Galaxy497,700.27,3038.25,0.12277933165770986,0.0035041372000264442
Galaxy498,1922.66,3636.26,0.18616864842347486,-0.23269653236347571
Galaxy499,3358.83,2247.32,-0.22047967825015524,0.40551794172266042
Galaxy500,285.09,2555.05,0.14720750863196105,0.10292572952707965
Galaxy501,4119.98,2024.05,0.23504677558352799,-0.20494872509163442
Galaxy502,3860.69,664.34,-0.15862051473225908,0.12637870640478047
Galaxy503,892.09,3346.66,0.10871211172424484,-0.098227773989362707
Galaxy504,1152.79,364.07,-0.12500142423593313,0.18582987477668406
Galaxy505,3345.99,2071.45,-0.31929802820368558,0.092319630251827295
Galaxy506,1698.08,1832.22,0.019697707845328538,-0.082264948117187014
Galaxy507,2613.57,311.09,-0.21474323081267627,0.08070229008101093
Galaxy508,2195.79,3761.78,-0.2549903469763547,0.29006128832152539
Galaxy509,866.0,1966.9,-0.1668079194025327,0.18154805567205629
Galaxy510,1840.56,3732.8,0.23753074417375705,-0.082503270229017101
Galaxy511,3606.52,461.09,-0.23017751171123474,-0.12820536929882573
Galaxy512,1472.14,2956.41,-0.026462977884439937,0.12731925550045003
Galaxy513,1388.0,4159.65,0.135244736921281,-0.034381451832786722
Galaxy514,578.63,3325.52,0.25896979069925813,0.21510313838963074
Galaxy515,2582.81,122.51,-0.2685825959497804,-0.20402988642438974
Galaxy516,3283.38,123.93,-0.17196773035586399,-0.2093094378506028
Galaxy517,2387.29,3783.18,-0.012557796216674383,-0.034055081571086915
Galaxy518,2665.49,243.32,0.075378917471712353,-0.34612762504387301
Galaxy519,2521.16,701.83,-0.33812396430475655,0.028887598776251067
Galaxy520,3882.4,603.27,0.31637649411210728,0.10193669660921462
Galaxy521,783.5,3731.8,0.214440342421366,0.071616504869680492
Galaxy522,2735.55,1101.85,-0.023723970592009452,0.16337589933637583
Galaxy523,168.37,2574.04,0.19866405972442958,0.11769521744929945
Galaxy524,1595.14,3758.62,0.14348648610535619,0.0082792880415078138
Galaxy525,1709.77,2716.15,0.11711346986710741,0.26456884741440001
Galaxy526,2905.7,32.25,-0.13832761189224399,0.16446336222683711
Galaxy527,2373.8,2429.89,-0.242287830657338,-0.14231327746525743
Galaxy528,376.93,2313.59,-0.025220639220114749,-0.23688344342267656
Galaxy529,3385.89,3237.19,0.22741401342643044,0.11929123449386231
Galaxy530,305.58,2068.86,0.10967908485551811,0.042973159378722925
Galaxy531,1628.57,2503.84,0.06891032119466356,0.3669287255674531
Galaxy532,53.77,192.66,0.31363824331838258,0.051556937330182184
Galaxy533,2471.19,2053.83,-0.12786735639050853,0.023658885279711928
Galaxy534,168.31,4153.62,0.086529141175012078,-0.23069867942069797
Galaxy535,974.18,1876.75,-0.18484709499337137,-0.0088020247659141293
Galaxy536,4099.31,1425.92,-0.13625091865563263,-0.086806886613138692
Galaxy537,3270.84,1563.7,-0.11239199764950178,-0.06937103028105418
Galaxy538,3996.7,1900.49,-0.22017477368010674,-0.17937139813304098
Galaxy539,356.57,2090.87,-0.22550123350579698,0.47276722494133627
Galaxy540,97.63,2279.13,-0.33245275794038298,-0.0021730106399447946
Galaxy541,2832.01,3352.66,-0.12233738714638875,-0.22074700524225638
Galaxy542,1546.98,839.42,-0.12752917712006595,-0.2695952652479055
Galaxy543,2491.21,3276.99,-0.30065506380420637,-0.084125557499267575
Galaxy544,2313.47,1352.06,-0.01545350594817016,-0.25215279076853359
Galaxy545,3062.61,2213.4,-0.01056287127000291,-0.23588221038965287
Galaxy546,1194.6,2548.61,-0.027236242636474249,0.16234350304254547
Galaxy547,3945.22,848.9,-0.48478933688563164,-0.077953235374871588
Galaxy548,1397.81,2049.99,-0.074631738351502025,-0.094683758868584239
Galaxy549,299.87,3389.66,0.21840307394679817,0.14745848330394473
Galaxy550,2364.19,2315.76,-0.075970156407619449,-0.084661248954421314
Galaxy551,426.26,1458.23,0.10903862497117756,0.14099291471673953
Galaxy552,153.43,770.36,-0.21596974387279158,0.12850773914516697
Galaxy553,2274.23,3459.18,0.060076285232459822,0.24921538796821796
Galaxy554,1808.74,1901.45,-0.21719064839189486,0.074189834770216428
Galaxy555,3895.55,336.39,-0.1263967173293965,0.36210908898677169
Galaxy556,525.83,3555.27,0.013684762436373454,0.32574973287865827
Galaxy557,3150.99,370.53,0.22915986989242751,0.53921918867767982
Galaxy558,3351.63,438.47,-0.13628967829656236,-0.05356813175255417
Galaxy559,1615.65,665.27,0.13767829367681433,0.0070425266325374325
Galaxy560,299.22,2341.08,-0.15767557117932735,0.089884503388511158
Galaxy561,248.7,880.36,0.11569295290195339,-0.1784324452688297
Galaxy562,234.0,1408.02,0.18412645802022343,0.21786043124479987
Galaxy563,1463.91,3626.49,0.28585515431189135,0.13354359004314453
Galaxy564,3130.61,2202.85,-0.057617312615560093,-0.090111279187173154
Galaxy565,3525.7,1329.6,0.070548027608813055,-0.18623725372632036
Galaxy566,3248.41,3193.05,0.28997305832303932,-0.37652265206606106
Galaxy567,3935.24,3997.71,0.22592763396368187,0.22601512694548168
Galaxy568,9.85,3863.71,0.096169402989592562,0.071260831534698282
Galaxy569,4190.91,3154.77,-0.092571080426353425,-0.092190578624439329
Galaxy570,3954.16,888.58,0.19067761210710391,-0.05405305635068948
Galaxy571,3434.82,3807.67,-0.22454555591256173,0.20925031268927746
Galaxy572,1756.85,2719.24,-0.2845429025391481,0.14327678584633713
Galaxy573,591.81,62.49,0.17342592578013527,0.28071181255085492
Galaxy574,3613.16,2097.64,0.080241732635794566,-0.51648034941302057
Galaxy575,652.57,1514.35,0.21220815854486352,0.4128907479033766
Galaxy576,3504.95,273.1,0.049998557996301346,-0.1204826475043371
Galaxy577,3586.96,3896.16,0.16583993018503249,-0.25247349688583287
Galaxy578,3824.85,3419.07,-0.0031470720369025651,0.069876593395327966
