GalaxyID,x,y,e1,e2
Galaxy1,3653.23,572.08,0.07933294759438618,-0.025742992992350264
Galaxy2,3021.65,2029.19,0.15525025707738935,0.020397695804781249
Galaxy3,3469.34,3185.54,0.12724827543479714,-0.10478802185751729
Galaxy4,1279.29,2915.21,0.019845105560905074,-0.13094699166709967
Galaxy5,3267.93,3767.45,0.19916363987404362,-0.013582953289873176
Galaxy6,2076.97,1951.78,-0.071434801418686938,0.02936356287131367
Galaxy7,1027.25,489.16,-0.092855686616967636,0.029359389296910988
Galaxy8,1812.12,2734.45,-0.32270787220541169,-0.19530219590703338
Galaxy9,2263.19,3363.03,-0.17524527324605949,0.094763236361019187
Galaxy10,2036.57,3929.34,-0.29017658132298363,0.073971633698547978
Galaxy11,877.57,652.53,0.11791233201873989,-0.23322611876820282
Galaxy12,2110.94,4199.23,-0.11723425319734501,-0.33572850586986741
Galaxy13,3189.62,542.6,-0.094157894751023763,-0.10110664762005914
Galaxy14,2762.33,1468.79,0.074377832133755845,0.24069749242109628
Galaxy15,2320.57,3305.08,-0.023831979986309704,-0.44126888123752439
Galaxy16,325.21,2011.93,0.25932413723543984,-0.032027845714505954
Galaxy17,1121.98,258.35,0.17991510948261424,0.14339808107933025
Galaxy18,2549.05,3724.21,-0.34524595232072641,-0.13063730249341649
Galaxy19,4140.18,2107.36,-0.30630737929625051,0.48984061530455858
Galaxy20,3483.32,1973.81,-0.015183762967173303,-0.19016434578903219
Galaxy21,3985.51,2513.19,-0.16339155041458001,0.41963002783908776
Galaxy22,1434.79,1962.61,-0.089300270881849941,-0.31489167074107111
Galaxy23,2400.7,237.94,0.44383119897740214,0.38537844459204862
Galaxy24,592.27,78.68,0.26531569846916159,0.035673670190598875
Galaxy25,571.44,2624.47,-0.20360977323438467,-0.062660435109903739
Galaxy26,3948.94,3134.13,0.098561810486687232,0.45347186250560245
Galaxy27,2694.96,4156.75,-0.22917759566486506,0.28100913113785564
Galaxy28,3581.89,1161.95,-0.086827071554797852,-0.044528277080853274
Galaxy29,4145.7,282.83,0.60652904548293451,-0.1315886804841058
Galaxy30,2564.34,4007.36,-0.28268069317719463,0.091862710811289758
Galaxy31,1771.96,1665.88,-0.36159644109931033,0.031185931120537552
Galaxy32,2015.76,2356.75,-0.070641350047770654,-0.028393198759939245
Galaxy33,2009.96,2932.98,0.17460050801783294,-0.45115469415592069
Galaxy34,4017.68,2546.75,0.16454669392296373,0.43030474863828683
Galaxy35,338.63,4117.74,0.36707142758330769,-0.51469558512050118
Galaxy36,708.65,3945.14,-0.24199381806977671,-0.59873534117761185
Galaxy37,74.66,189.23,0.53389936380763903,-0.25045406895643219
Galaxy38,2943.29,929.17,-0.41570060430829731,0.15576641770802471
Galaxy39,677.51,1910.42,-0.20589216757804013,0.10205596709666329
Galaxy40,2340.56,2377.1,-0.045713439041965648,-0.056203202783964214
Galaxy41,3690.05,1247.07,-0.0011529876991093341,0.22486211749000012
Galaxy42,8.3,3841.95,-0.05059594977150754,-0.29524683517931583
Galaxy43,2126.55,1298.54,-0.0002160401613453683,-0.14341059203509238
Galaxy44,3126.68,1685.13,-0.031336721334332074,0.5697021195940366
Galaxy45,537.99,2795.04,-0.18582930508270726,-0.44398187104903675
Galaxy46,2961.12,2495.66,-0.33765587718241347,-0.10091527220502552
Galaxy47,2423.68,1937.18,-0.073839301246192562,0.093186506428234561
Galaxy48,2363.42,2640.94,-0.16504567724667624,-0.10331682729090232
Galaxy49,4095.04,224.12,-0.21556378026982598,0.058945470382909489
Galaxy50,2093.89,714.33,0.14615997874413264,0.087861577892823312
Galaxy51,607.51,1012.27,0.039428725767791883,-0.059488401636636601
Galaxy52,1419.64,3533.14,0.013009172023279947,-0.17609071148873029
Galaxy53,811.34,1678.65,-0.03354999024356202,-0.03454264130531709
Galaxy54,431.14,213.61,0.40502297716021485,-0.020220836901932857
Galaxy55,1927.32,1996.56,-0.15968229809214649,0.13832707540165534
Galaxy56,3174.1,46.84,-0.046890912164445478,-0.0050460259364284166
Galaxy57,1302.76,3970.34,-0.045470119183608368,-0.32949337708758136
Galaxy58,1226.2,3526.41,-0.16213029163014084,0.02671255109325682
Galaxy59,1768.39,470.7,0.32659637503838557,-0.16744669335659343
Galaxy60,2263.38,2354.78,0.17150239329858993,-0.076640745380619948
Galaxy61,477.45,3209.42,0.22452152272401693,-0.21473063121696326
Galaxy62,765.46,1805.49,-0.1018144366452233,-0.035130140632242374
Galaxy63,2277.11,3272.87,0.15757619115491728,0.085022726205273139
Galaxy64,1179.34,397.07,0.25883197672846342,0.2399550415528727
Galaxy65,3241.99,1437.88,-0.13407862625693073,0.075645785677940211
Galaxy66,3502.98,4078.67,0.12204393355153992,0.067489247390049578
Galaxy67,212.28,2809.9,-0.22180918461215368,0.12874554966117582
Galaxy68,3196.67,43.02,-0.13593148976247302,-0.17868390969891529
Galaxy69,4152.8,4002.15,-0.11615891863479594,0.20227158180702914
Galaxy70,253.54,3605.42,0.022715903117724201,-0.25892910129039765
Galaxy71,2121.55,2322.57,-0.46478315005802351,-0.048420221782614785
Galaxy72,1019.17,3035.31,-0.1170878041723333,-0.28734852496960905
Galaxy73,303.59,414.09,0.24387911112864891,-0.1042441919982077
Galaxy74,2638.29,3535.17,-0.26866561533698918,0.24164373414852131
Galaxy75,3506.21,3614.32,-0.35312938891356521,-0.034801789082149565
Galaxy76,1911.06,27.52,-0.14563629390587968,-0.054109440420658322
Galaxy77,3398.85,80.04,-0.15159116285258339,0.14752658195557919
Galaxy78,4182.3,3932.8,-0.17667106902561236,-0.068260443720040809
Galaxy79,282.55,2583.56,-0.022687245238942399,-0.029032150516351857
Galaxy80,3187.63,2385.51,-0.027653520017824132,-0.0099046152341813881
Galaxy81,869.77,3721.45,0.043485054126630909,-0.31518810241368839
Galaxy82,917.68,4114.35,-0.18353776632078084,-0.44446998462129605
Galaxy83,4077.85,3350.02,-0.15626127795614747,0.16240383361062738
Galaxy84,2135.39,3611.5,0.20719310962706913,0.12613614502842674
Galaxy85,453.88,3794.78,0.12570291168348419,-0.13683640273780956
Galaxy86,1632.49,894.96,0.29628831505143322,-0.022314914003476988
Galaxy87,160.6,234.03,0.33865322590550284,-0.028784493950986336
Galaxy88,1058.13,503.72,0.15737809189360588,0.052099920733457025
Galaxy89,1424.43,3560.97,-0.27627695764245336,0.027653615347073543
Galaxy90,3219.74,2939.39,-0.068781890448023505,-0.27626269240768314
Galaxy91,692.13,695.53,-0.091013410583305421,0.32197186065855721
Galaxy92,3137.61,3318.2,-0.25826427734919605,-0.26574722319986011
Galaxy93,853.51,3929.7,-0.063474448668935049,0.028553772962102458
Galaxy94,2821.97,35.72,-0.13569098589045875,-0.30668040826191489
Galaxy95,1794.2,1728.47,-0.22018682787704238,-0.35153566310984186
Galaxy96,2813.1,593.97,0.022697211610177782,-0.22331054211283452
Galaxy97,3159.47,2683.14,-0.26130221121042602,0.18701034959360929
Galaxy98,576.15,3224.61,0.38802952179782391,-0.27428047773834496
Galaxy99,218.04,591.86,0.36496428340797227,-0.18709446125983292
Galaxy100,2025.71,4105.14,-0.21311133741546262,-0.18933356450341315
Galaxy101,1436.38,3950.97,-0.44484643660894585,0.14519835187966121
Galaxy102,1012.37,102.81,0.30227084665050441,0.11530395482430461
Galaxy103,3835.27,3102.7,-0.34205296221665848,0.64886458676137271
Galaxy104,901.17,2226.59,-0.062180929249676262,-0.26370030968437896
Galaxy105,8.2,289.54,0.20154961912417121,-0.22575984992047793
Galaxy106,2380.92,2539.58,0.081437653768626772,-0.13779919427960449
Galaxy107,499.86,3498.4,-0.50834933126928239,-0.24716036040320799
Galaxy108,2215.9,3824.78,-0.041605498074166108,0.21947927912279974
Galaxy109,1589.01,879.24,-0.37843830115306404,0.17541914694192368
Galaxy110,2199.54,1011.82,-0.33882055230893893,-0.25348128210067455
Galaxy111,1415.13,3583.44,0.062320705264418408,-0.15095162282680477
Galaxy112,1037.91,81.03,0.33210765786915536,0.21385615808856179
Galaxy113,2993.61,1433.26,0.30242985943600409,0.00665379966654428
Galaxy114,2687.86,2980.65,-0.31143863793448678,-0.3872674212604017
Galaxy115,1925.36,3527.53,-0.19110763401403286,0.31050822672381956
Galaxy116,2859.45,1011.72,0.0041356121751909558,0.017528737881124495
Galaxy117,2649.14,251.18,-0.080037966316719819,0.16601604274050019
Galaxy118,3572.63,2929.86,-0.1611503823430317,0.30137717210965032
Galaxy119,3030.66,259.72,-0.090931177906303562,0.1048795977199713
Galaxy120,3719.0,3833.27,-0.27525932578476908,0.15923978717454046
Galaxy121,1640.36,773.09,-0.091812488920264917,0.085032323532294007
Galaxy122,626.59,2895.88,-0.011240673810309652,0.13521368841988404
Galaxy123,2645.5,120.3,0.10677171466882582,-0.14422274219875578
Galaxy124,3116.93,3687.87,0.20345954115690096,0.35688473757430123
Galaxy125,2850.88,710.03,-0.37985420917348506,0.09586503557291523
Galaxy126,575.86,2323.07,-0.28810585990345738,-0.41200279536317308
Galaxy127,1670.3,910.46,-0.04593341877080416,-0.16882283875462459
Galaxy128,2977.22,38.85,0.33524133237511089,-0.13402136216297622
Galaxy129,3725.89,3488.52,-0.08495291115842285,0.24851324306424463
Galaxy130,1744.15,3247.79,-0.26764763428386429,-0.015130227820569525
Galaxy131,1565.5,3694.92,0.2875785181419539,0.35807854239890369
Galaxy132,2657.98,510.21,0.36464567469722292,-0.16034045236155819
Galaxy133,2259.42,3429.74,0.014622684839240369,-0.022910011020051177
Galaxy134,3770.85,4013.69,-0.161611035170213,-0.12105677714715052
Galaxy135,3241.06,2640.59,-0.021881683630248394,-0.047526773814981757
Galaxy136,1924.8,3911.32,0.16425567033826638,0.043988867345919759
Galaxy137,402.6,3833.84,-0.077049975272364415,-0.11624318994413479
Galaxy138,2825.0,785.82,-0.10616234007368663,0.53180911783222662
Galaxy139,3185.58,349.62,0.033262480831494579,-0.0092046393311976272
Galaxy140,1661.62,87.24,0.4252223874017067,0.18619713616470446
Galaxy141,925.71,587.67,0.43286804037947152,0.13989889783273743
Galaxy142,3440.06,1999.57,-0.027936424064476037,-0.034366228237075608
Galaxy143,596.08,3717.36,0.050172300930155025,0.025473237444725627
Galaxy144,823.03,2130.59,0.4030100072164402,-0.41260302830569145
Galaxy145,2848.75,2629.77,-0.1193297850600224,0.19732255995846246
Galaxy146,1402.18,3571.91,-0.19792314172302589,-0.36883115732784333
Galaxy147,650.82,1241.45,0.21622212836127397,-0.19428981370630333
Galaxy148,3398.46,1226.02,-0.023882488411523364,0.0020709484709612869
Galaxy149,3291.42,1708.86,-0.16388525400355589,0.072443524883567423
Galaxy150,3226.15,1198.17,0.39641887725579483,0.0093543047604303931
Galaxy151,816.36,551.61,0.28493231708393435,-0.15379112967690906
Galaxy152,3253.36,4164.97,-0.398767253918202,-0.1813523615457851
Galaxy153,4097.49,2625.96,0.083385556917989961,0.23572673283019585
Galaxy154,3979.42,1045.97,-0.22816589753854449,-0.054239617803014173
Galaxy155,2500.8,3804.3,0.18498423274907339,-0.083186995036422559
Galaxy156,2354.93,1884.96,-0.50708044566347232,-0.41086317120805183
Galaxy157,1517.03,1643.85,-0.058501227869994066,-0.40608429479857544
Galaxy158,1690.4,2786.22,-0.035209503153001337,-0.37107140059177401
Galaxy159,343.97,737.2,0.26108074642254664,-0.2026869434050852
Galaxy160,3371.94,3.27,0.17030333908034323,-0.020077207678087156
Galaxy161,4076.24,4179.34,-0.57670739598254039,0.018271868314156836
Galaxy162,999.16,2475.86,-0.31295791888275559,-0.033710547406313074
Galaxy163,906.94,3549.48,-0.12879366227346239,-0.26989538234955779
Galaxy164,2563.98,1814.88,-0.27917232178289375,-0.03528204402153183
Galaxy165,202.94,218.7,0.12746520087191859,0.42136385209016208
Galaxy166,1566.27,3618.04,-0.26186724078552942,-0.28461098307062938
Galaxy167,1863.35,3649.72,-0.37482088792541535,-0.083516804978895923
Galaxy168,3710.19,3182.3,-0.098816096638167122,0.21174862796338284
Galaxy169,1872.11,2623.71,-0.60913667761080204,-0.49055792641458273
Galaxy170,2336.02,2715.13,-0.29677529625903576,-0.24944331104669951
Galaxy171,701.47,3678.86,0.38950754322259429,-0.40921290202784444
Galaxy172,2952.79,342.75,0.2285084472762681,0.029242299244979973
Galaxy173,263.93,2790.26,0.16915289219199223,-0.018389681761954824
Galaxy174,2345.07,2415.83,0.1666989229809801,-0.056446138099841968
Galaxy175,2954.69,2436.57,-0.18667108454993211,0.051077587266103723
Galaxy176,4171.54,3964.75,-0.40579186658489069,0.27698653756271907
Galaxy177,374.96,2813.79,-0.15877617238223449,-0.18296741027207167
Galaxy178,2454.7,1963.01,0.049157602946630907,-0.20229974739679391
Galaxy179,1638.52,1081.15,-0.14220105141728751,-0.01955389772412125
Galaxy180,3051.5,1247.31,0.19705685495144434,0.052138428424596137
Galaxy181,501.85,4094.43,0.27975345084234859,-0.00477658774008205
Galaxy182,1632.01,2255.07,0.062745675366379247,0.29240801062370125
Galaxy183,3187.35,2473.9,-0.43149598105231346,-0.050499175741494512
Galaxy184,2292.06,1309.34,0.025569342655165361,0.4762137441995985
Galaxy185,397.14,3266.08,-0.20517404347872698,-0.33519716512091324
Galaxy186,3523.67,1496.75,0.21946024730090302,0.22482871871121154
Galaxy187,936.25,1217.32,0.24430035609834991,-0.06972251311280811
Galaxy188,1695.98,3870.8,0.023957744597479097,0.22396137709439939
Galaxy189,2910.41,3774.0,0.24941832508324954,-0.32081893007424739
Galaxy190,3288.15,1096.32,-0.14512356424815032,-0.032119324389237563
Galaxy191,777.44,1938.9,0.21874908941259497,-0.17556295808429354
Galaxy192,3963.36,1948.0,-0.16743255579799915,0.46420470873634861
Galaxy193,3203.41,403.99,-0.0074334501177027168,0.085060392191899495
Galaxy194,853.93,1053.71,-0.13659679073768469,0.076572789433776642
Galaxy195,3940.55,1844.26,0.43025736518626878,0.049077842894002049
Galaxy196,826.46,3341.72,0.035770520790043975,-0.0042636605701293906
Galaxy197,3511.13,1252.63,0.61322140201637998,0.33294265929562328
Galaxy198,3870.33,2673.85,-0.2539075939356652,0.13355566378890488
Galaxy199,1810.92,1995.56,0.022700226637404966,-0.41952359220282454
Galaxy200,1454.41,2725.67,-0.36628056689840482,-0.43067914456080142
Galaxy201,1147.73,1807.8,0.14827953359425974,-0.23445073749440559
Galaxy202,3832.61,4006.71,-0.057588498115673806,0.50095063834259834
Galaxy203,2009.25,2181.72,-0.11067305873155581,-0.31194728996309529
Galaxy204,4147.23,2976.86,-0.3612116714832681,-0.21220708012388045
Galaxy205,2177.28,1782.69,-0.2484509906326951,-0.28825552667474141
Galaxy206,1347.16,2462.57,0.056040591317461239,0.10242670751296049
Galaxy207,1994.1,1050.58,0.17647075009614877,-0.20287736927201341
Galaxy208,3590.77,3006.9,-0.093418109762746504,-0.098904203360345916
Galaxy209,2042.11,589.98,-0.31402237358145957,0.28280727763607166
Galaxy210,1435.49,948.45,0.082815319867418621,0.44549129793085174
Galaxy211,2888.87,3445.84,-0.31917680739663801,0.15400735867456544
Galaxy212,2537.74,1624.7,-0.16620138153483388,-0.14714511628764004
Galaxy213,1194.31,220.8,0.28704425342449269,-0.0085556431599159363
Galaxy214,2247.85,3469.62,-0.34707636279820397,-0.12599336304582903
Galaxy215,172.02,3408.21,-0.014046682107692998,0.08486076125364142
Galaxy216,291.26,514.09,0.081618596019882153,0.10493277390609491
Galaxy217,3985.2,4160.88,-0.017093617516106135,0.035389146836063798
Galaxy218,2541.13,1133.97,-0.33149342336588578,-0.071513000608305691
Galaxy219,3265.97,2920.04,-0.30580653498113364,0.003297320108419835
Galaxy220,119.52,953.44,0.22167347010576272,-0.10125741669859742
Galaxy221,2182.57,1489.47,-0.6686345076027328,-0.24912481858630883
Galaxy222,1711.85,2239.07,-0.33328808899509554,-0.25358663505476448
Galaxy223,2600.75,3380.61,-0.37038650361257019,0.2195095203406438
Galaxy224,2489.6,1420.5,-0.16813009547598526,-0.14023514705030016
Galaxy225,1753.83,3726.91,0.17918392612082254,-0.12568206559624431
Galaxy226,1394.23,294.45,-0.1206508037201095,0.11274151821006664
Galaxy227,3970.17,3610.66,-0.17772174734723351,-0.029608198836235666
Galaxy228,224.71,842.88,-0.21939274920693513,-0.062162729939271612
Galaxy229,3765.43,3513.75,0.22717099144823935,0.066089182098850618
Galaxy230,687.22,1617.13,0.093262854802038483,-0.0243408295690343
Galaxy231,693.34,3163.3,-0.25250444388135984,-0.18628593134403476
Galaxy232,2728.83,1368.93,-0.071548613907681399,0.18409715271212004
Galaxy233,3085.16,1503.19,0.26280675853869451,0.20072767201186958
Galaxy234,1875.04,2856.8,-0.064660604422744614,-0.0089206858904028741
Galaxy235,302.99,2172.06,0.067011528591150796,-0.26543501329480435
Galaxy236,1785.9,1610.41,-0.31950100191054531,-0.19899044278840519
Galaxy237,1694.91,2627.73,0.015982723977316204,-0.2682348242148066
Galaxy238,4096.5,79.61,0.089020886483963627,-0.11253657146924392
Galaxy239,1074.21,1731.33,0.21929933152274025,0.022786216560025246
Galaxy240,868.41,538.46,0.3047694232808344,0.25289350852774056
Galaxy241,966.71,2784.94,-0.059514215054404296,-0.46199587281114324
Galaxy242,524.36,1977.2,0.2297791443547777,0.035173720511143564
Galaxy243,1802.04,3546.35,-0.19003381026084745,-0.12979659775025137
Galaxy244,734.6,574.76,0.033512300542324319,0.073645531644422987
Galaxy245,1633.34,2047.56,0.12941195751471327,-0.18166877877703189
Galaxy246,3886.16,1602.94,0.21857325145124867,-0.046423924386876064
Galaxy247,3305.51,494.7,0.41313313320936917,0.10963344190998886
Galaxy248,474.99,3632.56,-0.10918237502658507,-0.4007481273917084
Galaxy249,2204.56,2964.8,-0.27257650008940049,0.19653678486833284
Galaxy250,3281.98,1296.32,-0.093402052357013959,-0.13593943307682504
Galaxy251,1443.59,1764.43,-0.015878504963691441,-0.41877461892213763
Galaxy252,2059.94,3782.03,0.12649529969011666,-0.27535708437044215
Galaxy253,3120.73,610.41,0.093064114020740107,-0.016266180691103554
Galaxy254,3925.83,1967.2,-0.2576511336744442,-0.18297019694266814
Galaxy255,2064.4,3635.76,-0.11575277044522689,-0.0014801390092777714
Galaxy256,1493.49,1784.77,-0.29420548610427755,-0.061028824067627899
Galaxy257,2721.71,2053.35,-0.60105394410932189,0.077093615396908469
Galaxy258,1540.86,2632.54,0.15018971881198825,0.17271362135138824
Galaxy259,2558.1,1133.38,-0.013287674921384079,0.051299362187531741
Galaxy260,309.18,1328.44,0.23804311961485503,-0.17475705730059571
Galaxy261,393.82,2746.38,0.1056676269247729,0.2448293771419674
Galaxy262,403.56,548.93,0.2600728847452885,0.14447037254072606
Galaxy263,3786.92,1528.2,-0.059794247715446447,0.21155520806839284
Galaxy264,3376.66,1024.74,0.41876654886665399,-0.17101280316047324
Galaxy265,1908.55,2018.74,-0.034098717434259004,-0.47463006334740432
Galaxy266,554.8,1003.91,0.24577800084126761,-0.18212509437485794
Galaxy267,1466.06,3090.67,-0.25485967375007257,-0.34126498989490123
Galaxy268,2268.96,1404.52,-0.33197952397948005,0.036243358866354491
Galaxy269,2326.47,1928.9,-0.21402271448638971,-0.16924039494013277
Galaxy270,2696.21,2169.17,-0.72533519699192817,-0.19593696109479236
Galaxy271,2324.1,293.27,0.057034032077101809,0.13375377525948134
Galaxy272,3604.4,3349.77,-0.13455938094787476,0.11621900503860504
Galaxy273,4135.16,3705.25,-0.086679385130925712,0.04720521781260216
Galaxy274,57.58,1378.2,0.077038775245829028,0.25463271760156203
Galaxy275,3736.98,56.06,-0.13268455953100008,-0.29508650172578033
Galaxy276,211.93,181.92,0.30194674883461958,0.38410823526989823
Galaxy277,3360.99,1776.56,-0.097899839374122777,0.16564119457143406
Galaxy278,1970.76,290.69,0.12832794638946579,-0.060252525836901334
Galaxy279,2548.81,2875.27,0.0021500528441913969,0.19457328296748294
Galaxy280,3181.81,3195.93,-0.20414142749185993,0.031446197352343067
Galaxy281,2131.21,327.46,0.46740959403924093,0.36271719573242034
Galaxy282,1658.46,2061.45,-0.27703392317836872,-0.22986992240072018
Galaxy283,2044.75,3024.88,0.3101797601894507,-0.15329022311728152
Galaxy284,3168.51,2950.09,-0.54448134333962694,-0.047383351271512802
Galaxy285,3059.94,3888.89,0.10807818472166639,-0.1001230442585707
Galaxy286,4195.65,1860.29,-0.062387421789911329,0.029493792378247508
Galaxy287,2801.11,3592.37,-0.12438468250217316,-0.054736733920861716
Galaxy288,3702.35,1406.21,-0.0042589385089270675,0.33120222577095593
Galaxy289,346.58,2512.53,0.18182108925484705,0.085489667341561937
Galaxy290,3540.75,1789.14,0.14562489956906019,0.0062205720841344014
Galaxy291,564.55,4011.29,-0.51043484429433816,-0.083425364422910958
Galaxy292,397.09,4078.97,-0.093765204364499949,-0.26893343969124706
Galaxy293,1510.93,4079.51,-0.016663465575409181,-0.04690246718225722
Galaxy294,1358.49,264.97,-0.32733859746251459,0.069991980268990062
Galaxy295,745.12,2701.24,-0.15498394073084898,-0.086954641862301424
Galaxy296,655.52,3581.6,-0.23153878481886137,0.084098838782929758
Galaxy297,461.56,2798.22,0.22825493350093951,-0.23492258904754701
Galaxy298,30.06,4167.68,-0.18440701210959831,-0.371736788303761
Galaxy299,1262.77,934.69,0.17439481175071933,-0.22990118024068229
Galaxy300,618.24,358.96,0.22792457801704602,-0.13030904185052761
Galaxy301,1617.23,3918.03,0.13731007572808931,-0.16122069854091864
Galaxy302,2267.84,3673.14,-0.14506483479187804,-0.17229127922299112
Galaxy303,2254.53,2210.72,0.079086436421128059,0.064022179416866568
Galaxy304,4047.16,2249.3,-0.26022375158020261,0.069384516393380891
Galaxy305,2207.21,602.88,0.047737181724919191,-0.33924282856748944
Galaxy306,1962.28,551.56,0.089845381734714402,0.2541350518215621
Galaxy307,1110.34,721.38,0.15356901453658378,-0.19360811291761162
Galaxy308,419.65,851.87,-0.043479274301268578,-0.094222590191485739
Galaxy309,2870.52,2330.72,0.34616378279491933,0.027605877177762046
Galaxy310,1860.46,579.89,0.026511102074608522,-0.51477442256658701
Galaxy311,3754.02,3215.12,-0.29648203585464805,0.16752966270433287
Galaxy312,2961.93,356.39,0.15511679676526932,-0.046328236121230063
Galaxy313,337.25,3870.09,-0.0035162532257440732,-0.32224781142332815
Galaxy314,3582.28,1728.21,-0.098863295628367487,0.23943600356631511
Galaxy315,3302.53,4134.64,0.061776084557764788,0.1009104768899302
Galaxy316,1344.11,1729.82,0.24485974253282766,-0.23331577637238129
Galaxy317,2053.05,1691.59,-0.077810140981767167,-0.09612853907512911
Galaxy318,3628.13,1090.54,0.017301783731170403,-0.24209887451896325
Galaxy319,2190.43,3477.96,-0.2014861108245109,-0.073437097483476127
Galaxy320,259.7,1215.73,0.12891779556762098,-0.3316492448028297
Galaxy321,665.16,2906.14,-0.12100607538845266,-0.16293160675287308
Galaxy322,740.74,1209.44,0.15551114237176034,0.12920462863424076
Galaxy323,4163.79,1957.67,0.12350684783422917,0.095693669789140789
Galaxy324,625.12,3472.18,0.33396444949233028,-0.03113136120655996
Galaxy325,966.19,2486.68,-0.18389794951863397,-0.33062195377294762
Galaxy326,2583.32,3187.98,-0.0032519703338495243,-0.18550858947261389
Galaxy327,1446.5,388.92,-0.15980977362567453,0.10239048956879644
Galaxy328,3134.26,2279.94,0.095037818803702101,0.18704421671893029
Galaxy329,3145.4,2873.69,-0.1592944516536825,0.12382855614846656
Galaxy330,2505.05,2568.52,0.057003094974236668,0.15143402240711082
Galaxy331,7.74,1996.82,0.053868394269789781,-0.25938900563644429
Galaxy332,3482.29,2740.65,-0.067354719796284074,0.21424726167191382
Galaxy333,3520.75,3490.61,0.055092196966556789,-0.037881583507112793
Galaxy334,2262.11,495.9,0.043843141388557313,0.11691105203572097
Galaxy335,2222.98,3665.57,-0.19130819777297919,0.023965443762183604
Galaxy336,1022.25,4076.23,-0.5209928718683422,0.15250816398723721
Galaxy337,3649.87,1059.6,0.010819634930474817,0.27996396956327707
Galaxy338,3702.79,1336.73,-0.12852402922739442,-0.032257163431666291
Galaxy339,3911.0,1748.57,0.11264688428273183,-0.058752032837741802
Galaxy340,3882.31,1462.33,-0.080645968091219988,0.26130010803902209
Galaxy341,828.32,1187.06,0.090315199197072066,0.09491368857463639
Galaxy342,371.06,3570.2,-0.079800562201526676,0.26778320836696728
Galaxy343,2296.99,2024.31,-0.19246055001776211,0.011749871033379523
Galaxy344,1145.63,3301.4,-0.13740298581169377,-0.30220962984614003
Galaxy345,148.57,168.06,0.41394607348316792,-0.043212559616830834
Galaxy346,4109.32,1061.86,-0.19911667343972114,-0.12945321125556589
Galaxy347,3040.17,2854.33,-0.30012910690942307,0.34952984265929343
Galaxy348,1244.11,523.26,0.19823899742507375,-0.14229612688850496
Galaxy349,4129.6,3120.4,0.051083009724892547,0.18200305088610952
Galaxy350,952.7,3140.82,0.022763266614614058,-0.27080644807158571
Galaxy351,154.23,3604.62,-0.23757590237327991,0.05348895437957793
Galaxy352,3032.97,3200.81,-0.27202583042483652,-0.11949988770517793
Galaxy353,3600.3,2908.02,0.067093998877601674,-0.2232745842245506
Galaxy354,2767.9,3782.4,0.0080694158972053898,-0.12317481016660703
Galaxy355,1716.5,3776.94,0.021555334061299752,-0.27461974204472239
Galaxy356,2854.81,2983.71,-0.38828343212007327,0.049661685592648615
Galaxy357,3274.11,1285.56,-0.55352915487022358,-0.058036142210478536
Galaxy358,1247.09,2525.18,-0.3522299110406939,0.097766387071974881
Galaxy359,54.74,2479.21,0.091507597350374614,0.22405160471607041
Galaxy360,1067.62,1327.5,0.2822835374231627,0.41620830510120926
Galaxy361,802.92,3854.52,-0.462890993014414,0.11432954461337608
Galaxy362,1276.62,2231.6,-0.085517405750134695,-0.30047011627424935
Galaxy363,2482.36,1835.35,0.041312597755568198,-0.074870623973206554
Galaxy364,1339.24,2835.11,0.0086553526775310641,-0.46440480238345294
Galaxy365,1849.18,2298.86,-0.25952449990374216,0.31676666408313425
Galaxy366,2687.55,2902.92,-0.21859839702059791,0.10648533576718237
Galaxy367,669.53,2561.2,-0.23872876487395225,0.0085017988827583713
Galaxy368,3162.83,757.2,-0.29887397944826832,0.088080166269055377
Galaxy369,1590.22,4128.31,-0.082392065746244539,-0.20994509958033014
Galaxy370,1762.88,2007.78,0.098482420562259587,-0.10144551714019953
Galaxy371,1231.35,2108.6,0.54206052288995688,-0.31232046308364014
Galaxy372,1437.47,15.34,-0.13604101789963868,-0.16511657371647981
Galaxy373,1934.89,26.33,-0.12074905730623246,0.22095836840894476
Galaxy374,945.88,857.96,0.14664755369482962,-0.13745412939355728
Galaxy375,2396.74,2328.77,-0.079852432727167688,0.24665665030067033
Galaxy376,3786.21,3696.98,0.16571580701185815,0.13915714155191056
Galaxy377,3651.74,2048.88,-0.078248502586180435,-0.070326260414405012
Galaxy378,79.76,2617.62,0.26379931813927104,-0.43166828829903692
Galaxy379,3376.8,1367.07,-0.093860463729434629,-0.28251883894407359
Galaxy380,3218.96,2567.27,0.11896492370945511,-0.10033342198479273
Galaxy381,1280.56,1121.83,0.083394384523215292,-0.24423132340238282
Galaxy382,3564.96,71.15,0.034591480342756831,-0.091849944589233401
Galaxy383,1305.93,2441.45,-0.13934105094252788,-0.18816046076005979
Galaxy384,602.43,197.01,-0.071010170107157239,0.25682260751906966
Galaxy385,3136.94,1060.61,-0.087634524173518191,-0.0017385818838162592
Galaxy386,2473.73,248.65,0.12927842183430593,0.069986232040962798
Galaxy387,2903.61,2705.6,-0.31652783831993175,0.11391822463067908
Galaxy388,1792.97,1182.84,-0.2411333850512298,0.047986187825566295
Galaxy389,1932.59,94.38,0.25440125236143563,-0.064559683131588719
Galaxy390,1744.7,3570.03,-0.10724615381518034,-0.2807391136353567
Galaxy391,390.0,2156.83,-0.10952849040781298,-0.26526017432473642
Galaxy392,1231.14,2239.25,0.053240485701619766,-0.20559299790233879
Galaxy393,1915.64,1308.65,-0.087263927104934622,-0.097919037960477975
Galaxy394,1942.83,1176.93,0.14108772574017536,-0.25293578432878683
Galaxy395,3772.92,2519.98,-0.0069879739212094921,0.37722452219750918
Galaxy396,185.45,1531.38,-0.10960757238968402,-0.20735229388827767
Galaxy397,430.29,3161.61,-0.0072287391329053999,0.02154565143518325
Galaxy398,3572.07,2593.12,-0.095497934626316935,0.12833352760547095
Galaxy399,3169.0,2529.85,-0.45976806496997269,0.050710518609205439
Galaxy400,2062.83,2863.5,-0.046712363222621608,0.065092728619818241
Galaxy401,653.99,1822.67,0.33140067710593896,0.05013544957743904
Galaxy402,3845.89,1519.11,-0.26154440053105121,-0.071313095519262792
Galaxy403,2828.41,1510.41,0.011185604144245742,0.265162454685196
Galaxy404,3634.31,801.12,0.14001998760039319,0.0012990474731701951
Galaxy405,3804.15,879.06,-0.23174284702482595,-0.11446763526643214
Galaxy406,8.98,959.46,0.36773337582905929,0.12704888070595693
Galaxy407,4139.73,2565.15,0.002654443270613295,-0.30757148518333044
Galaxy408,2597.07,1068.7,-0.028583968201950305,-0.025841068317316834
Galaxy409,2326.13,3940.68,-0.23450286260161207,-0.00071812334822812449
Galaxy410,3527.76,1835.96,-0.23090381676164373,0.24157955079700988
Galaxy411,2019.87,2505.93,-0.004810671462250532,-0.42474569022733327
Galaxy412,134.85,3341.46,-0.015489795959573172,-0.19105212215784256
Galaxy413,1867.3,1755.45,-0.071376851818688636,0.047426818408287552
Galaxy414,4188.93,1945.99,0.066794812291345457,-0.044642969277106537
Galaxy415,407.63,1866.93,0.14195521163630997,-0.11159285038690389
Galaxy416,1921.65,4121.49,0.013997779941761296,0.29118608501591225
Galaxy417,3166.46,2252.59,-0.15020756598732754,0.10910785872218021
Galaxy418,1345.0,23.51,0.11450153388960357,0.25221722640463595
Galaxy419,3729.39,3367.69,-0.38393743551319803,0.36066640634506325
Galaxy420,4003.02,752.17,-0.18692583426006257,0.096420410846981885
Galaxy421,1682.37,312.46,0.25382836207304738,-0.28697341185918268
Galaxy422,682.73,1986.27,0.38120351835249183,-0.37642514607444744
Galaxy423,1752.39,241.04,0.041977093801944393,0.12893621816886472
Galaxy424,806.17,1675.46,0.24183345743571241,0.046344136012501869
Galaxy425,3110.26,844.54,-0.35592000058090095,-0.27581445399002857
Galaxy426,310.97,837.21,0.40575184124897612,0.1165751287831495
Galaxy427,1601.38,1618.96,0.050278197452885448,0.039620326076633183
Galaxy428,1379.11,232.13,-0.034643985391770854,-0.33444395615203049
Galaxy429,3177.88,3146.61,0.10519704799561311,0.24987944454549393
Galaxy430,2939.11,3137.66,-0.077219483519781293,-0.1953264832015508
Galaxy431,2824.81,2718.58,-0.37139915917951061,-0.25096381600459505
Galaxy432,364.41,1431.59,0.12364475365670528,-0.019230636645388793
Galaxy433,285.14,1941.97,0.14825485954616671,0.19790032040767849
Galaxy434,1841.51,538.05,0.44973279968022745,-0.2606181055015272
Galaxy435,4178.18,1136.55,-0.030918678425488497,0.77465308993298243
Galaxy436,1790.89,722.62,-0.22754515193141636,-0.33755324221998101
Galaxy437,2712.99,1017.8,-0.19899182270320354,-0.27601770961324357
Galaxy438,3742.76,1104.29,0.26246523589426224,-0.058893370641996262
Galaxy439,3114.46,3696.23,-0.27041383330634317,0.11371301260492274
Galaxy440,1214.33,3313.47,-0.23951539771439229,-0.1252611194280803
Galaxy441,2825.66,1578.32,0.16800931791208668,-0.0050269353185165983
Galaxy442,2763.03,1776.02,-0.22274281416037617,0.43806545371982231
Galaxy443,1981.7,354.35,-0.093469974712159648,0.2869201454420105
Galaxy444,1491.31,1197.31,0.39578450757496686,-0.17647298137858478
Galaxy445,2158.22,695.28,-0.094933047490939004,-0.11712645408267112
Galaxy446,2493.41,1836.05,0.032296703407955957,-0.3937647126703217
Galaxy447,794.56,2031.57,-0.053615862689557384,-0.29228952942535935
Galaxy448,3406.31,4148.45,-0.28655483106436941,-0.46345993415489439
Galaxy449,394.59,3547.86,0.17000660921788421,-0.14816147083073006
Galaxy450,3747.58,364.3,-0.42643438501852649,-0.22328542340912541
Galaxy451,2677.19,2895.83,-0.32558141020915421,-0.074943118104579987
Galaxy452,3650.14,1006.19,-0.080386469585067427,0.34668691157620535
Galaxy453,690.58,1619.0,0.076967229070698584,0.14855014636430577
Galaxy454,1121.79,2844.45,0.10198047814977373,0.094700592860694321
Galaxy455,3042.7,2278.91,-0.048988348902502699,0.075813436906142881
Galaxy456,452.66,695.65,0.24546000638525223,0.24246408216828957
Galaxy457,4153.22,2335.55,-0.12612455158868247,0.078701835858274921
Galaxy458,4146.09,2899.2,-0.23946112757775245,-0.04418109360321415
Galaxy459,131.1,454.01,0.10615627004853254,-0.17593580958887775
Galaxy460,3118.5,2183.39,-0.077065118769389457,0.026100774608153091
Galaxy461,829.57,434.45,0.17459654816068276,-0.31615055042491802
Galaxy462,480.85,2961.4,-0.14194233307032694,-0.17397064353184435
Galaxy463,3795.14,2080.08,0.06010069468261707,-0.0020813620783071696
Galaxy464,2032.27,1506.23,0.010485173396252156,-0.24060873119759396
Galaxy465,2319.85,2084.53,-0.14315717727459454,0.26997056725407098
Galaxy466,3728.75,1204.36,-0.27914538444784603,0.37747413387414031
Galaxy467,1780.96,3256.82,-0.13997351168930733,0.22852688452282804
Galaxy468,664.48,2298.14,-0.3612817275355098,-0.2876192860004026
Galaxy469,1087.45,1316.65,0.058613698279989399,0.080514596483891337
Galaxy470,3391.48,3127.11,0.10605624641876749,0.025383491678315481
Galaxy471,1615.22,3240.29,-0.11266613777509078,-0.092778795438480083
Galaxy472,2776.38,2983.53,0.10021014831828379,-0.35218120042522594
Galaxy473,573.63,3488.14,0.036455690084609624,-0.1577551682299114
Galaxy474,2014.75,3284.56,-0.074184924455746148,-0.33549719927771093
Galaxy475,693.07,2686.28,0.29860255746952946,-0.54162986337840102
Galaxy476,275.77,1214.84,-0.15511598074428642,-0.49245006030683924
Galaxy477,3415.04,3492.83,-0.36885125487734099,-0.2186349542655639
Galaxy478,3499.75,2474.18,-0.35227192635775084,0.33107039753725342
Galaxy479,1833.54,1971.01,-0.31076070883265633,0.036382768941189553
Galaxy480,831.64,1053.19,0.019375009841726964,-0.27442970081761481
Galaxy481,3024.5,3675.2,-0.34008524092090209,-0.3758516429084246
Galaxy482,4104.89,2865.35,0.15390558764226325,0.33480818681570501
Galaxy483,2581.59,1809.52,-0.077510880364935586,-0.047256127799660444
Galaxy484,398.58,3180.41,-0.018822749006778876,-0.30303905362840511
Galaxy485,1566.22,1506.24,-0.24113974091465556,-0.032086692582129789
Galaxy486,453.45,3643.09,-0.24688848139272029,-0.11412812323648822
Galaxy487,2327.15,326.41,0.0057528573186982346,-0.048180947110037967
Galaxy488,1598.32,2471.06,-0.11185132922049461,-0.28624161297806761
Galaxy489,3789.84,147.41,0.2555540814022017,-0.30043852574511348
Galaxy490,888.22,2462.31,-0.0083501128579715651,-0.30139410420709956
Galaxy491,3492.15,589.03,-0.67057013711840696,0.039876761193174286
Galaxy492,2103.89,2832.84,0.10002291147245157,-0.43678315008293078
Galaxy493,3481.44,995.98,-0.133156739653782,0.23707190013167445
Galaxy494,3289.25,3115.79,0.082967040504706407,0.23460715479235039
Galaxy495,2231.46,2998.13,-0.17934832942691137,0.16478971716762525
Galaxy496,3129.55,286.96,-0.22762655839157583,0.096007996368380755
Galaxy497,3767.98,2255.58,-0.26308640069003086,-0.083062235508889665
Galaxy498,1173.37,1478.54,0.1010158284125508,0.090778272327345338
Galaxy499,81.69,3620.98,0.1258826056854018,-0.2217498837671589
Galaxy500,371.44,2520.65,0.28426759348919001,-0.29949202911709183
Galaxy501,2101.32,24.11,-0.37475888408032576,0.22765852492800506
Galaxy502,3389.45,968.96,-0.0095374756947214645,0.17377492895691046
Galaxy503,3251.3,1516.86,-0.40958254301141894,0.003219070939217139
Galaxy504,3874.3,2793.2,-0.4178569058034528,0.32068897559461951
Galaxy505,950.84,765.71,-0.024726987708350356,0.15883333379892173
Galaxy506,543.06,3369.87,-0.12009652222333983,-0.13655184378825613
Galaxy507,1428.29,1114.36,-0.24099488260626836,-0.07493654604099477
Galaxy508,764.36,3160.28,-0.0077347135822449092,-0.49641021144399899
Galaxy509,1827.94,2914.66,0.08103105657426779,-0.38829465417626591
Galaxy510,3282.69,3800.03,-0.23589321605369454,-0.039683311620824599
Galaxy511,2109.39,2727.12,-0.16669301754853566,-0.2553889780927705
Galaxy512,3961.01,664.13,0.25253740703900912,-0.468376610309368
Galaxy513,3172.96,409.34,0.28054934409278992,-0.035577598182419817
Galaxy514,2439.13,2150.62,-0.039486199399888122,-0.3724213277425435
Galaxy515,4099.36,1722.51,-0.31672346348962277,0.24400520316996505
Galaxy516,777.91,53.86,0.12759828769375203,0.13386514188661319
Galaxy517,1601.24,4162.48,0.074566477018724098,-0.041274356059089717
Galaxy518,2927.66,4048.52,-0.27899939516500405,0.18572476752834077
Galaxy519,1401.46,536.12,0.044408377291878853,0.041536649700635468
Galaxy520,1378.96,3218.51,0.061634651344704444,-0.10054919985583997
Galaxy521,3175.53,1371.69,-0.1909228237179994,-0.059983003639819538
Galaxy522,2388.11,1930.45,-0.019179344647354657,-0.16344235494802059
Galaxy523,3572.07,2197.44,-0.22470739928264166,0.11321787174121178
Galaxy524,1920.12,2053.89,-0.23703275123229861,0.16501909310147089
Galaxy525,2238.78,688.62,-0.042859393117295932,-0.15099445389773514
Galaxy526,900.02,1894.37,-0.20586185641123864,-0.2821647647063415
Galaxy527,1887.38,279.28,0.66122030208807148,-0.25963438536255329
Galaxy528,1396.65,3222.8,-0.28304147213662273,-0.064051669760026408
Galaxy529,117.36,3972.37,-0.24131083674634343,-0.29841429545143561
Galaxy530,633.76,1731.49,0.18795717431015013,-0.10307687321056501
Galaxy531,4074.73,1001.95,0.081735737956183024,-0.37683116374204878
Galaxy532,1464.79,3253.84,-0.090550722911377335,-0.19798726504634595
Galaxy533,920.01,4056.67,-0.4144846444805777,-0.27109837135868053
Galaxy534,552.67,3924.08,0.1686609003520145,-0.30918509069056943
Galaxy535,3469.98,187.63,0.75744464619609575,-0.28733230950540395
Galaxy536,1166.43,1080.4,-0.031758865530765013,-0.0073740876351990614
Galaxy537,3984.41,3320.75,0.18229795436265187,0.23135298730309539
Galaxy538,3869.65,1044.64,-0.14356091267904109,-0.36552340869217242
Galaxy539,700.89,3205.46,0.085524713523583956,-0.43872978054192724
Galaxy540,2034.28,2664.29,-0.046982521374766759,-0.17453530814447837
Galaxy541,1571.71,4028.57,-0.28274422828061563,0.090772203776644189
Galaxy542,2879.2,328.19,0.18447686710216626,0.29282746169066132
Galaxy543,2660.71,2272.76,-0.1244619128695052,-0.0066701804628860311
Galaxy544,517.3,395.53,-0.11257915997627796,-0.20505820922766388
Galaxy545,2212.72,1486.33,-0.2996697153559591,-0.1215174751774062
Galaxy546,1790.09,1092.94,-0.026312460790859103,-0.064361601628096621
Galaxy547,447.93,4199.7,-0.57142339898609107,-0.23621246580151339
Galaxy548,445.08,2867.64,0.22376353431862278,0.12929637645876418
Galaxy549,369.27,4184.14,-0.44614739482114185,-0.29772639018098768
Galaxy550,701.79,2775.47,-0.065089110018185403,-0.048545462828904262
Galaxy551,2522.87,881.12,-0.31903181968931044,0.17499911354259048
Galaxy552,3016.86,2671.3,-0.071292694365728312,0.23941545727051658
Galaxy553,1439.61,1283.17,0.091851784438722356,-0.12637273876593039
Galaxy554,3118.75,2707.5,0.18023435216374695,0.36769526102082822
Galaxy555,1664.99,179.58,0.073668498044705211,-0.17812511821538046
Galaxy556,671.24,198.06,0.027410547032010679,-0.069465336097338432
Galaxy557,3138.72,1772.48,-0.15832057637241484,0.40121644211804797
Galaxy558,3954.48,3130.9,0.083808443760128901,0.058286606137826033
Galaxy559,238.5,194.69,0.12685236177376705,0.082042092463745747
Galaxy560,499.83,157.76,0.44879860283910011,0.10892912931240656
Galaxy561,3740.67,2570.99,0.015690783458336563,0.16755319602901841
Galaxy562,495.12,242.11,0.32799487986273435,-0.22710463943036835
Galaxy563,3777.97,1873.61,-0.39568780364262313,0.070847959115026199
Galaxy564,3211.31,1008.61,0.21156823049883106,-0.050140093494761617
Galaxy565,2981.89,1243.79,0.35871589116369318,0.3616354786801122
Galaxy566,3771.19,3008.26,-0.57745489275541306,0.25265358298428253
Galaxy567,3245.89,3190.93,-0.17304564215646473,0.2174242819856658
Galaxy568,1347.46,1350.39,-0.45511703093122818,-0.41018574540296399
Galaxy569,2199.49,2034.14,-0.28896422456727966,0.034543973453639396
Galaxy570,3163.78,319.72,0.014137264102009439,-0.060977673230815668
Galaxy571,2779.62,3560.48,-0.27928877591647006,0.14319635609464326
Galaxy572,2787.94,3833.07,-0.39522841808015996,0.17814511288541535
Galaxy573,3530.17,1364.37,-0.32528282321184065,0.14876799329658663
Galaxy574,452.53,744.29,0.33252957303436859,0.20121919351341094
Galaxy575,660.16,85.81,0.20373357793244679,0.3513749518345386
Galaxy576,1275.38,528.77,0.28097774222091887,0.17282885674159174
Galaxy577,2825.44,2915.93,-0.06383064822025987,-0.17858071712785611
Galaxy578,663.15,1687.3,0.084417702140212603,-0.46703019406682128
Galaxy579,1267.75,3800.29,-0.20954857011738237,-0.22855415135330492
Galaxy580,1296.76,1742.6,0.21111544158070472,-0.4173625341616724
Galaxy581,1605.68,37.08,0.1446568474632226,0.40323829520005805
Galaxy582,1421.35,3728.2,-0.060792776913349209,-0.50257572463381972
Galaxy583,2411.43,737.45,0.32730438406919093,-0.37834622283122249
Galaxy584,1597.88,1406.22,-0.14876322492138516,-0.038434542883204859
Galaxy585,538.66,1941.08,0.086042881419068656,-0.32855299664576243
Galaxy586,3292.86,1620.56,-0.029568356951231348,0.0013268028592255399
Galaxy587,247.12,772.37,0.24821622073134919,-0.39495679771161146
Galaxy588,1944.02,1445.98,0.037254840216799992,0.014661132234563751
Galaxy589,3863.85,1216.76,0.25002101020409617,0.084278876226767982
Galaxy590,895.45,122.57,0.099056153533269131,0.0024436345294485129
Galaxy591,3942.49,1871.4,-0.13519783158034607,0.27318097191832219
Galaxy592,1248.22,3667.98,-0.38750460494617117,0.058834005609918527
Galaxy593,685.56,3329.87,0.26121549295210056,-0.42187168945353748
Galaxy594,807.51,734.5,0.51912171543640628,-0.29401836758940175
Galaxy595,776.57,3642.39,-0.27370607656996238,-0.36276604622133096
Galaxy596,4143.65,1588.28,0.43174663774623079,0.05631140111735812
Galaxy597,3825.47,3594.38,-0.1834442908202816,0.33668153903919723
Galaxy598,1417.06,1023.94,0.36885433175210136,-0.15959763061116219
Galaxy599,1544.81,329.33,0.087201822626760725,0.10794086085789795
Galaxy600,320.22,988.54,0.048823145015277028,-0.27124609540665801
Galaxy601,1409.92,2881.9,0.40462793960556931,-0.23402269105859669
Galaxy602,2649.8,1311.39,-0.11297170339683409,0.013061691978873028
Galaxy603,3451.91,1211.31,0.22553477957217749,-0.038055669797160796
Galaxy604,506.21,1064.39,0.30448173685208318,-0.054077974472836195
Galaxy605,20.33,3569.26,0.13333981611000034,-0.24282399065383625
Galaxy606,231.26,2192.96,-0.25374302290833822,0.054910420864060533
Galaxy607,3898.86,2823.38,-0.21779239372352532,-0.010153323943923903
Galaxy608,672.17,697.85,-0.098584320884686327,-0.054064930007806059
Galaxy609,4067.4,3773.7,-0.25621535831319847,-0.20354534654241246
Galaxy610,1626.17,3735.56,0.16867833777209293,-0.18188783053733976
Galaxy611,2719.69,2441.86,-0.17612677346319264,-0.0067618397284043112
Galaxy612,3487.17,664.19,0.0023937534952414019,0.15484506863685776
Galaxy613,1388.08,1138.35,0.50202184134532635,-0.41904613026600968
Galaxy614,1884.83,3430.87,0.16469948373151264,-0.35545356418793345
Galaxy615,2648.63,1819.3,0.18699313153017111,0.4334826987482196
Galaxy616,2549.29,2652.53,-0.092206080517662173,0.11988362456531695
Galaxy617,3813.91,1639.26,0.34641810741009232,0.28043480418487005
Galaxy618,2460.24,1077.23,-0.32334109302298486,-0.096377224650861043
Galaxy619,2400.11,3239.82,0.3396024031658551,-0.038008682424175752
Galaxy620,3193.07,994.84,0.15572352920720478,-0.1508623880556352
Galaxy621,1894.14,4125.63,-0.18706005597437164,-0.28358464698100799
Galaxy622,1702.12,1970.19,-0.24408722602039556,0.27275650708716648
Galaxy623,2834.96,1462.99,-0.22924481191330831,-0.17263554972463202
Galaxy624,2302.21,2945.04,-0.39463398170133573,-0.15750561933845902
Galaxy625,3295.3,285.89,-0.60005488766872728,-0.3277153402526552
Galaxy626,3996.58,2219.28,-0.5280545815448201,0.090956961487216839
Galaxy627,1874.69,526.6,0.06949338247702308,0.096813782453505776
Galaxy628,110.79,2445.73,-0.17983174902745119,-0.12697226817790325
Galaxy629,374.25,3453.0,-0.13719675918265745,-0.26650580937881596
Galaxy630,2842.97,2425.11,-0.1666847050738676,0.19527886082589085
Galaxy631,2861.56,3674.12,-0.049459215969595419,0.16467931846404746
Galaxy632,13.92,2299.52,0.15661375616241585,-0.1417644576751291
Galaxy633,255.94,2235.13,0.26335043885051268,-0.2101297490706435
Galaxy634,3841.05,3534.01,-0.5206676612511294,-0.11342401161994839
Galaxy635,943.84,1430.83,-0.26161066035774544,-0.016462766706211857
Galaxy636,2596.85,818.41,-0.19756114286905743,0.010655927918400733
Galaxy637,1111.55,2717.71,-0.38422534682859166,-0.19086303841692653
Galaxy638,597.99,3196.08,0.036709382086021695,-0.72692996717050418
Galaxy639,1988.99,4144.68,0.25570856029647882,-0.04193049071814945
Galaxy640,2774.13,1175.36,0.081714047002172885,0.090763590118671453
Galaxy641,530.49,2191.68,0.36630810077157105,-0.68880711976144871
Galaxy642,3407.35,4088.92,-0.020799942722183468,-0.047300281662641552
Galaxy643,4179.88,587.11,0.51206727149340192,-0.097168671990047112
Galaxy644,3773.0,1846.73,-0.21213239090120933,0.0050387934567004133
Galaxy645,1374.21,2413.07,-0.48999070639894821,-0.37412396745743726
Galaxy646,4129.31,2732.31,0.28889108000905872,-0.1922824482447979
Galaxy647,2026.34,2762.31,-0.34097756487976216,-0.26798494913563875
Galaxy648,2395.03,3955.79,-0.1552705877156649,0.070509519745655808
Galaxy649,3130.79,1596.13,0.010628597189076938,0.082253416092939791
Galaxy650,2486.24,900.47,-0.12111884243246061,-0.19236721654274441
Galaxy651,3265.34,482.89,0.62041099734821659,-0.016999220855968729
Galaxy652,481.6,890.85,-0.11390564528418598,0.032102609115328362
Galaxy653,582.06,3110.36,0.12729449996226977,-0.12591641331026768
Galaxy654,3533.59,1919.64,0.076680448508355412,-0.23983140054097599
Galaxy655,2988.79,3135.84,-0.21453475183572093,0.160932210493339
Galaxy656,119.65,2046.47,-0.35823949313464476,0.44925675333047577
Galaxy657,991.33,3708.73,-0.011246669054343447,-0.40808706815262763
Galaxy658,1160.3,3534.32,0.11664871038171803,0.00015539256377131161
Galaxy659,2154.76,2159.45,0.17150024293810665,-0.28187207661798908
Galaxy660,556.18,3064.73,0.33197672028490766,-0.25286354166156189
Galaxy661,2703.39,3681.68,-0.17537207766850815,0.18547061397158368
Galaxy662,1306.81,1122.64,0.36961943503417666,-0.15963282015737251
Galaxy663,54.65,3651.16,0.057944153893553695,-0.53785338373517966
Galaxy664,3596.11,2634.94,0.066405512188223617,-0.039108171674314934
Galaxy665,3746.11,3944.28,-0.22392156724920576,0.33175294381298548
Galaxy666,656.28,1471.71,-0.16884135946756579,-0.36654632413902888
Galaxy667,1847.06,1822.05,0.012373924446254209,-0.1347983723169926
Galaxy668,3693.57,3435.52,-0.44059675686528965,0.068536538084510934
Galaxy669,114.15,2800.44,-0.2791806951531085,-0.21261733711981495
Galaxy670,1722.94,2890.4,-0.2642240894783463,-0.5035921668337312
Galaxy671,925.74,3668.31,-0.13440187372975745,0.21803090620839599
Galaxy672,1084.78,2039.81,0.19852887343176459,-0.43747954151964896
Galaxy673,1212.67,144.58,0.28665270409076232,0.07817905468545247
Galaxy674,3459.16,3431.77,-0.086765428898025243,0.0078322484194300879
Galaxy675,1971.91,2673.31,0.29127196985258197,0.00018420905607707816
Galaxy676,2089.63,2635.32,-0.21706276253885953,0.027151696497145453
Galaxy677,642.17,231.75,0.30883138371739738,0.27673326983839086
Galaxy678,427.78,1706.52,-0.0487150569262155,0.056756833573644638
Galaxy679,2136.92,1330.36,0.14671680543914062,0.18851142129323814
Galaxy680,2690.22,241.16,0.060507023284484068,0.15611454074127143
Galaxy681,3361.08,1171.45,0.22282045134530043,0.095184887584230868
Galaxy682,707.78,2860.45,-0.2040936143090708,0.063866578554942072
Galaxy683,2394.14,1337.5,0.14032905306700255,-0.22251897554401831
Galaxy684,2380.11,2173.78,0.082541554343236484,-0.28405647013366819
Galaxy685,2619.16,1436.92,-0.066796042463213218,0.24019067297913041
Galaxy686,3116.74,2025.33,-0.24688148407321397,0.21217919179408412
Galaxy687,3503.34,500.52,0.15803950891494417,0.11437176374953903
Galaxy688,3798.33,1490.9,-0.12551305631168735,0.40822075286763848
Galaxy689,2479.19,662.71,0.45516845503611492,-0.13864374459358211
Galaxy690,690.05,1618.07,0.028126972600012179,0.076250230258538665
Galaxy691,3821.14,3040.24,0.065515627633791457,0.0063257693883582711
