GalaxyID,x,y,e1,e2
Galaxy1,1384.86,627.6,0.41957273765834247,0.23203438390227793
Galaxy2,1159.42,1215.61,0.25763032777640338,-0.10086604876393153
Galaxy3,945.26,1030.14,-0.43311270769525884,0.10087790971662339
Galaxy4,2194.34,3.01,-0.013184493224207124,0.0027487257763489092
Galaxy5,1045.56,2909.44,-0.093455966963244208,-0.24240971397255384
Galaxy6,920.53,3633.25,-0.17516668507404456,-0.16049592404766791
Galaxy7,1373.06,4061.13,0.041244358826649827,-0.22989810397905058
Galaxy8,183.62,3578.69,-0.34469177416619956,-0.0041981893005414994
Galaxy9,4019.16,4178.04,-0.017068803751607325,0.44288139553936795
Galaxy10,1875.21,2288.53,0.29512563460272956,0.094719004116782274
Galaxy11,1541.26,394.76,0.12941226262037328,0.21992739365448397
Galaxy12,2281.82,998.38,-0.05053042961625992,0.11240423627624299
Galaxy13,2278.63,315.53,-0.042067485268971576,-0.034630975675048553
Galaxy14,1285.81,3983.24,0.11012104265490827,-0.13016519412784236
Galaxy15,905.59,3731.32,0.4404354929028752,-0.18120820481000491
Galaxy16,1335.87,3489.21,0.12016369061467164,-0.25317970596968531
Galaxy17,3992.73,2074.81,-0.17940247567904005,0.037020296508680592
Galaxy18,1171.58,3743.49,0.089620509407527346,-0.12620552246712394
Galaxy19,2177.11,3324.99,-0.30759283726953429,-0.1778819256014196
Galaxy20,448.48,3208.93,0.070828059380570726,-0.20378133590386169
Galaxy21,113.71,506.28,-0.23680026799900686,-0.11311360867232072
Galaxy22,1679.01,3225.06,-0.37240442266994217,-0.034003969222273667
Galaxy23,528.9,1009.93,-0.19417010041247931,0.43722871618755543
Galaxy24,628.06,3940.01,-0.29247596534235393,0.15168095280248262
Galaxy25,2951.99,1570.99,0.13977354508654161,0.2819536426795779
Galaxy26,3434.81,942.4,-0.2709224236346256,-0.14485286449567339
Galaxy27,1679.66,1301.61,-0.18467051184538624,-0.30431848763109803
Galaxy28,3751.09,2582.51,-0.39894840147561583,-0.040330837271959866
Galaxy29,2821.23,1917.95,-0.049540737951561692,-0.34094414527293271
Galaxy30,3653.32,2547.81,-0.022890779993103821,-0.14059853893457719
Galaxy31,543.42,3312.14,0.17372794221943899,-0.45088271816753767
Galaxy32,1946.7,2568.53,0.37332040262145316,-0.22247119277236999
Galaxy33,1011.71,2514.43,0.2051910787026795,0.3001078554547002
Galaxy34,222.77,3701.8,0.34999988116535541,-0.19648484092204707
Galaxy35,4116.68,3457.45,-0.71698342334004983,-0.31450315428446196
Galaxy36,400.37,2598.18,0.025238859756595441,-0.063555918047633997
Galaxy37,1000.79,329.54,0.49193087127950808,0.22386746323732548
Galaxy38,1884.77,1786.33,0.41307951432900736,0.27956669625820213
Galaxy39,646.73,174.82,-0.19233505533378231,0.28923005348133574
Galaxy40,818.67,2755.6,-0.11329881355835042,-0.10214677497986387
Galaxy41,2659.42,3130.18,-0.1897202470995939,-0.15400395286574289
Galaxy42,2020.42,541.28,0.043641057635300448,0.14900959417828175
Galaxy43,3647.87,2701.01,-0.23404799645676153,-0.44910851104173544
Galaxy44,3731.15,369.63,-0.3058673447316852,0.29454349266116625
Galaxy45,1414.93,1765.52,0.23424686617044446,0.34102535552651569
Galaxy46,2788.8,1114.73,0.11790134757443049,-0.19085934580817554
Galaxy47,1443.39,1952.02,-0.063191022847139761,0.27145684171337997
Galaxy48,2499.05,3056.11,-0.021642600466138542,0.11973610095787154
Galaxy49,971.76,568.09,-0.29014323015157029,0.15481792256093363
Galaxy50,494.54,750.56,0.4759447120050232,-0.0553399537078334
Galaxy51,466.04,4077.3,-0.076442292507134024,-0.25201715188579477
Galaxy52,3481.88,3187.95,0.026691940098007266,-0.10386771106228336
Galaxy53,757.92,1003.89,0.36559952751348279,-0.20261831506999567
Galaxy54,495.06,1437.8,0.34158694699334136,-0.07959817864239499
Galaxy55,3698.99,1351.57,-0.24505731185200386,-0.18031249280690509
Galaxy56,3894.83,2621.38,0.058884682501148422,0.10384155102350824
Galaxy57,2366.62,1769.29,0.26266977913411749,-0.06672142000388917
Galaxy58,2039.41,3448.22,0.30697580775377137,0.13039326849849012
Galaxy59,2210.97,132.43,0.23377554395667491,-0.10786555310334786
Galaxy60,4125.22,1244.59,0.22089918542159473,-0.2651941401797403
Galaxy61,3040.85,1173.0,-0.36582247795397016,-0.28113502384022371
Galaxy62,2567.83,1272.27,0.46658711045912948,-0.073231336099203695
Galaxy63,1618.46,1124.47,0.087176895608144983,-0.18276757675472011
Galaxy64,1183.9,437.77,0.048967165074060057,0.25168971047042854
Galaxy65,331.76,1902.2,0.071963479708333042,-0.28462403477735532
Galaxy66,4012.37,3577.34,-0.22718081980683474,0.18038394227390381
Galaxy67,3055.63,1346.4,0.07477770293190085,0.19558733509922038
Galaxy68,1849.74,4046.13,-0.13726820424675368,-0.28447849585864154
Galaxy69,744.28,2213.19,0.23526039249979927,-0.43542479446257432
Galaxy70,1571.91,1327.29,0.12520907842112242,0.10935395862057362
Galaxy71,3059.3,2262.08,0.066358557547561189,0.12954513768258924
Galaxy72,420.08,2721.4,0.039361901299280563,-0.1894152495524615
Galaxy73,2725.27,954.71,0.042154466266736038,0.064102502009131437
Galaxy74,3176.42,1161.31,0.14757472391965504,0.026225206451919919
Galaxy75,2869.77,3777.7,-0.20045961717470173,-0.479798808288461
Galaxy76,452.39,179.75,-0.161374870756745,0.24517960538351463
Galaxy77,907.41,353.7,0.44960214163405554,0.30888892523984957
Galaxy78,2489.97,1380.06,-0.16398864361480586,0.27057991441410956
Galaxy79,2967.35,1560.52,-0.12511209975697815,0.31326949015176875
Galaxy80,735.06,720.24,0.23086305632233042,-0.12896911026494379
Galaxy81,1856.49,1808.52,0.1895492445341741,0.37208180817046888
Galaxy82,1694.59,1444.18,-0.014499250974676553,0.25517273114725397
Galaxy83,129.75,1549.71,0.020720368056312694,0.031885368253038116
Galaxy84,4157.1,1824.07,-0.050430711458296987,-0.029297292294060251
Galaxy85,2733.64,3831.79,-0.052808766212554224,0.17818758699529713
Galaxy86,559.13,912.29,0.17055024102712871,-0.089597072440840642
Galaxy87,26.14,2233.41,0.14237285300608793,0.16202731029727957
Galaxy88,2452.36,3250.32,-0.26411024725735571,-0.020804141787399338
Galaxy89,3454.87,910.7,-0.044226348284037181,0.36262035860871711
Galaxy90,3558.01,2973.41,-0.13946974048561864,0.23399528177738937
Galaxy91,1742.76,945.0,0.032583965726612332,0.0549066273328533
Galaxy92,1507.86,2154.61,-0.144921559928085,-0.13721539692498746
Galaxy93,434.13,642.33,0.12468947621155842,0.047609419478231579
Galaxy94,1015.48,977.77,0.11432429361547286,0.10706140421244559
Galaxy95,3288.82,1549.41,-0.22710445677370927,0.12509229020491983
Galaxy96,1702.31,758.88,0.43180715638404021,-0.060646910612895163
Galaxy97,4023.33,4138.32,-0.38173290259644604,-0.019289312669245627
Galaxy98,3519.31,1148.12,0.032137906815126245,0.18239951530680951
Galaxy99,111.9,4128.6,0.2559752989863886,-0.15991938606757308
Galaxy100,3165.36,576.07,0.42808674350813453,0.021214174487228454
Galaxy101,3710.4,1099.82,-0.11573751555234217,0.24741365147172245
Galaxy102,4100.17,1051.04,-0.037928540709301101,0.1959731355510827
Galaxy103,2255.0,3102.81,-0.34365516297315352,-0.19161442316647209
Galaxy104,1599.13,1719.64,-0.12553132723194368,0.05828274303761518
Galaxy105,2421.19,3729.99,-0.27784878099441912,-0.69231843198090637
Galaxy106,735.41,313.19,0.20473636489540137,-0.034128524838648186
Galaxy107,59.39,1571.63,0.26974503987089249,-0.13437207426822273
Galaxy108,3650.93,3699.41,-0.053595471532515898,0.31269459592586052
Galaxy109,2618.73,2258.47,-0.21216341764582475,-0.054521419723624315
Galaxy110,3737.97,3219.45,-0.28335856716834396,0.10071066429204145
Galaxy111,2896.59,1140.15,-0.16893424565122245,-0.014758986658755996
Galaxy112,333.4,3019.04,0.10266087878277207,-0.39267718800948104
Galaxy113,557.76,828.34,0.023590509202918941,0.39113097134341213
Galaxy114,2525.2,1693.56,-0.016958153254780339,0.043651324523922418
Galaxy115,165.46,1170.54,0.084062559590699637,0.22713712367599698
Galaxy116,2586.03,3292.21,-0.048540942091562893,0.25740823304302585
Galaxy117,1992.39,1336.92,0.34125972874471772,-0.11004098300565188
Galaxy118,439.69,3002.99,0.46860891442118885,-0.23674990272308033
Galaxy119,3982.89,3637.55,-0.21940259780274263,0.21735145520964605
Galaxy120,3304.18,199.98,0.3185146822216679,-0.39350732285011147
Galaxy121,1819.18,1352.23,-0.27152611633362034,-0.1293599098782186
Galaxy122,7.44,1488.61,-0.019792017097370607,0.35304184220737761
Galaxy123,2977.12,3733.41,0.12519565388584247,0.14927671874059781
Galaxy124,131.06,4193.54,-0.25895890216369327,-0.25901991478922792
Galaxy125,1245.13,1365.2,0.24220330489475175,0.30499832631708979
Galaxy126,449.78,821.17,0.003272041534642528,-0.075608046213544458
Galaxy127,3735.21,1375.62,0.020994062949508854,0.041720501623167289
Galaxy128,3533.66,3124.68,-0.22657798318052419,-0.087722680730957028
Galaxy129,199.63,2661.21,0.23599603402206282,-0.014346106436543937
Galaxy130,1118.63,3556.07,0.00046752724915396365,-0.051283344634706948
Galaxy131,1709.36,1357.96,0.30129842017326791,-0.15331513352732731
Galaxy132,1028.34,679.67,0.016095262247182551,-0.086400008868235664
Galaxy133,4155.09,3193.06,-0.062731853555184694,0.11282868748704808
Galaxy134,2686.84,56.56,0.0047789213967667984,0.22130772787122366
Galaxy135,395.92,2394.74,0.17711538151292144,-0.2824410654236944
Galaxy136,4195.18,2002.42,0.026408392145500809,0.13390658311072953
Galaxy137,1023.27,3803.49,-0.20549797057819846,0.14895528253464055
Galaxy138,3575.31,2683.7,-0.070099237621180491,-0.22440998166676185
Galaxy139,3911.65,1632.97,0.07707934801483321,0.052132475156929738
Galaxy140,797.79,676.47,0.3483775069787306,0.079592806297790142
Galaxy141,3419.94,328.51,0.037606479400009662,-0.021954361946784684
Galaxy142,2737.31,1939.33,0.15957445844573567,0.23135823935759672
Galaxy143,982.6,268.95,0.12768849259792195,0.42640406517870411
Galaxy144,240.97,1428.66,0.050709553590755518,-0.030377651262100812
Galaxy145,501.39,2164.09,0.025263872061337456,0.11234224923525034
Galaxy146,478.73,886.66,0.46066263351364811,-0.11542242826908131
Galaxy147,2203.63,3396.96,-0.091055058868519057,-0.07350605990459258
Galaxy148,3934.36,2115.16,-0.011239781209671257,-0.065534481641482498
Galaxy149,4139.14,1197.34,0.256107950515577,0.08776672652766998
Galaxy150,3287.92,950.27,-0.30915630526905441,0.18401549287902383
Galaxy151,3800.6,1065.25,-0.35783793504754241,-0.33479289964648845
Galaxy152,3367.55,884.98,0.22474470832559007,-0.22922666880572978
Galaxy153,2801.22,2051.48,0.22015026890393902,-0.12635735184756489
Galaxy154,811.03,3436.93,0.39324122037183007,0.077787227430853451
Galaxy155,597.82,2130.9,0.19079972831550482,-0.2037577952955732
Galaxy156,971.95,1377.13,-0.28773115940580507,-0.14311835607862872
Galaxy157,1528.49,2890.26,0.20567595805739947,-0.062722114661919445
Galaxy158,2933.94,804.73,0.45182849889229448,0.35709786384455011
Galaxy159,3708.17,3887.38,-0.10825682229557308,-0.14836857576030765
Galaxy160,2536.05,2683.92,0.15821720490145696,-0.59243641564233962
Galaxy161,2874.33,2979.74,0.059134249554640292,-0.37520486350439364
Galaxy162,1597.01,251.27,-0.07758565453188189,-0.12642940724875354
Galaxy163,1346.8,2003.2,-0.063089826345315264,-0.23624702280551174
Galaxy164,3160.57,2264.98,-0.26192578376435049,0.12287258194574752
Galaxy165,3557.26,3650.21,-0.018177586291306919,0.33757129089209753
Galaxy166,470.14,1843.16,0.051590715111652627,-0.23715500848670237
Galaxy167,3800.47,1457.21,-0.18190093822730374,-0.065984176234224451
Galaxy168,1850.15,3481.64,0.098624362469814694,-0.097723012466882114
Galaxy169,3028.07,788.5,0.52304977496164384,0.42438692641831904
Galaxy170,2197.22,1791.3,-0.053055184692849811,0.09904128653695593
Galaxy171,266.55,2052.96,0.0122797416696796,-0.0043200968341850082
Galaxy172,2067.25,1555.72,0.28015173163725238,-0.1160786538554739
Galaxy173,1615.46,2188.7,0.19272385896814676,-0.45870640580332311
Galaxy174,754.27,2109.73,0.20357705416659169,-0.11048866023378545
Galaxy175,489.56,3732.0,-0.037687876412452109,0.013402433601255037
Galaxy176,322.12,2624.79,-0.023055371787789714,-0.25021265885782368
Galaxy177,246.99,4038.54,-0.033829999773135729,-0.0018883520178606117
Galaxy178,3341.46,2596.27,0.070909419359540815,-0.083436722701532823
Galaxy179,3279.7,2128.06,0.36286880882356104,-0.20002994981265201
Galaxy180,2068.79,485.04,-0.28983172511562366,0.27443476260416994
Galaxy181,3236.98,216.57,-0.52019981072328625,0.063659823593252118
Galaxy182,1157.7,3339.24,0.1262040274755937,0.0966063430234054
Galaxy183,4044.56,746.99,-0.085067916931047038,-0.37315303882711959
Galaxy184,3068.72,331.96,-0.31434281153493449,0.4506738157005184
Galaxy185,4121.09,2344.49,-0.32285426188511507,-0.15583132297336244
Galaxy186,3475.97,2088.65,0.019397380421434379,-0.086037471548488148
Galaxy187,1585.64,685.25,0.25649818666620228,0.059210547079628438
Galaxy188,907.07,1602.59,0.50881859630871151,0.066223672633765621
Galaxy189,136.23,2463.1,-0.10086848032492648,0.33016003553015111
Galaxy190,4051.11,3171.83,-0.28508265145782341,-0.10770614530276454
Galaxy191,763.57,434.26,0.20280293423983542,-0.10370046084668147
Galaxy192,118.7,1872.31,0.35003048839229378,0.14998706958950059
Galaxy193,3065.27,2814.47,-0.034198133395055071,-0.40120807502482592
Galaxy194,3981.83,1477.11,0.2978470727746525,0.13784312680279701
Galaxy195,2451.26,3239.35,0.45624464392800251,-0.29821696800685704
Galaxy196,2160.89,3767.99,-0.17039481411997451,-0.22596609759638181
Galaxy197,1135.2,2615.87,0.071050325933070063,-0.65844507401628682
Galaxy198,3687.04,2475.44,0.049621730723028834,-0.27291802414780858
Galaxy199,1367.22,1371.16,0.65299061957613969,0.26783461348248166
Galaxy200,1253.68,2258.94,-0.020324930991278051,0.062958270693012061
Galaxy201,1710.54,1175.57,-0.1067660961252464,-0.046702014045192294
Galaxy202,1156.0,1135.3,0.13717096115395669,0.35306007773056292
Galaxy203,1598.11,2530.94,0.3597115602005117,-0.049801306354401914
Galaxy204,132.31,3812.36,0.1594839429786673,-0.2822958280191834
Galaxy205,510.0,2020.06,0.53902720811878169,0.09741131998547542
Galaxy206,43.1,1604.53,0.25984196353036071,-0.085805993026947983
Galaxy207,797.96,113.72,0.21405120637025374,0.64197721868046564
Galaxy208,2286.45,1020.12,0.53064821753305536,0.0064434395342370665
Galaxy209,2568.96,3242.72,0.004981505021834455,-0.48948340653766309
Galaxy210,1172.82,1567.96,0.11673229953205641,0.26663014786693612
Galaxy211,2307.32,4126.68,0.0045020949768987961,0.27087419936463469
Galaxy212,3121.92,3424.78,0.07833055758800439,-0.031424208146367261
Galaxy213,2090.13,2613.41,0.16776492287496889,-0.21172660117437175
Galaxy214,1108.03,1410.62,-0.045425733349034603,0.45567692283781436
Galaxy215,643.97,2196.52,0.26435134018538625,0.33010994761847434
Galaxy216,2510.26,4162.97,-0.20933744253766823,-0.062767164412767543
Galaxy217,2795.0,3957.92,0.09639435222059356,-0.19272730977805136
Galaxy218,571.86,1558.39,0.21386421483578588,-0.0070763217109657463
Galaxy219,3349.23,4121.83,-0.38026188037000835,0.22436212405648137
Galaxy220,35.18,3635.61,0.25354327051868436,-0.31371037243277972
Galaxy221,3944.65,1570.52,0.07043535910185024,0.012596705267470892
Galaxy222,275.27,3704.41,-0.13503259700483344,-0.43029343093116623
Galaxy223,3910.04,3232.52,0.032056836768178859,0.51623634983062172
Galaxy224,1492.78,1433.23,-0.021916645209935887,0.018971208759320731
Galaxy225,482.5,2763.45,0.15471408157733471,-0.32415395959738569
Galaxy226,1736.13,4116.92,0.027340655556078654,-0.23281201857637918
Galaxy227,4041.65,3798.3,-0.38760146881701996,0.33844007015921285
Galaxy228,1251.64,493.35,0.062751837079733488,0.020047348657775271
Galaxy229,193.17,1658.62,0.18970161957854065,-0.054545954394206279
Galaxy230,2248.38,773.42,-0.076321990149493188,0.26129151269605011
Galaxy231,1008.53,1419.87,0.029900737225214441,0.13276195511942582
Galaxy232,1095.34,1983.18,-0.040075706466232347,-0.18404522789979844
Galaxy233,2485.76,2872.9,0.18516035584447352,-0.33296631294841406
Galaxy234,3468.43,2611.26,0.16381312208056925,-0.14872330651199331
Galaxy235,2464.85,1789.98,0.24512851476757011,-0.18142013978428106
Galaxy236,933.03,2830.5,0.43535029266468939,-0.45597098815203707
Galaxy237,4123.98,3107.12,-0.18756563339611287,0.29328871738407286
Galaxy238,2456.82,3241.64,-0.43703437995793792,-0.070759282341432014
Galaxy239,1525.91,3215.34,-0.046480353829147239,-0.31920627289074399
Galaxy240,785.13,629.83,-0.14451455642791639,0.077543458515699604
Galaxy241,520.9,154.2,0.11254985741349385,0.23646089298401479
Galaxy242,2649.39,1999.77,0.21110439157941926,0.22815563156626015
Galaxy243,3966.45,1429.36,0.010459187783871469,0.17654990639808466
Galaxy244,378.86,1042.21,0.063019449291175145,0.00031534829493363309
Galaxy245,970.11,2383.99,0.22511386945474549,-0.19105298121878847
Galaxy246,1808.81,2959.83,0.13727192118785614,0.015062281165681174
Galaxy247,2612.16,3826.31,-0.11769610045613299,-0.02619610001523727
Galaxy248,984.85,1484.55,0.17533676770469278,-0.27852167700218589
Galaxy249,1651.89,2646.91,0.074911828504420269,-0.096238773464059443
Galaxy250,4072.57,390.36,-0.035692465409850854,-0.23559419729595008
Galaxy251,2904.21,586.18,0.030636500691466527,0.20894288027157562
Galaxy252,2409.73,848.19,-0.21136467754470287,0.1352036394088873
Galaxy253,1299.99,3035.49,0.16890072368780432,-0.22207698542513837
Galaxy254,1469.86,1795.21,0.24838727324460219,0.21373528537783687
Galaxy255,2764.15,451.21,0.24817315211402391,0.39331526529847494
Galaxy256,1598.51,1716.29,-0.098096902157008836,-0.16723827310323297
Galaxy257,2532.63,545.86,0.19604374971081939,0.34500736820173655
Galaxy258,3731.09,2474.68,-0.30128439925913431,0.030108809552855713
Galaxy259,2400.91,1743.65,-0.020557491476662054,-0.4894138505419583
Galaxy260,3670.75,962.48,0.047042795449663444,0.18294070442498897
Galaxy261,3396.95,1647.31,0.24077303654540483,0.019830160326392315
Galaxy262,546.83,2171.33,-0.20604891191209893,0.12044260794440387
Galaxy263,1134.26,1134.56,0.12265249895415163,0.0017657342973965914
Galaxy264,1784.27,4173.66,-0.15259154348267362,-0.52247034983376694
Galaxy265,2335.56,2110.57,-0.023211864898953355,-0.21969964715426865
Galaxy266,3467.56,326.98,-0.057099765546556311,-0.29396849194176589
Galaxy267,4148.52,3683.86,0.040453078808008136,-0.0078362084446571764
Galaxy268,3297.45,224.85,0.29435179690651631,0.27355803394060624
Galaxy269,1845.3,1715.44,0.12913546929148351,-0.072029938731872939
Galaxy270,2705.27,2705.39,0.084204383350910031,-0.14851873438343272
Galaxy271,1814.0,2730.4,-0.055169091447777915,-0.074960872760525724
Galaxy272,3111.37,2075.78,-0.071030958573394282,0.15144405325946611
Galaxy273,914.4,1077.29,-0.13422112251909332,-0.12045470225763391
Galaxy274,3124.71,1846.34,0.21712200102634158,0.084457499150224935
Galaxy275,522.95,3868.44,-0.1620865782746222,-0.04898005503856212
Galaxy276,1400.66,3453.63,-0.2808794577257766,0.056896527009388603
Galaxy277,2679.51,363.8,-0.11591387269371078,0.21183675199083124
Galaxy278,1129.71,3867.65,0.24155220253822893,-0.32731843364946278
Galaxy279,750.27,1342.35,0.035639634300275086,0.077957128746948476
Galaxy280,1775.94,2738.99,0.10201035566522389,0.029199454958719645
Galaxy281,1747.88,1461.74,-0.1060636614622886,0.14144708075606821
Galaxy282,418.65,1274.11,-0.13285297067480259,-0.34105937314487905
Galaxy283,778.66,1314.67,-0.18661219238015211,0.058609505150331559
Galaxy284,1323.41,1606.96,0.334728156788759,0.25304211323848647
Galaxy285,909.48,680.24,0.19719927925689804,0.28390378097770386
Galaxy286,234.91,3757.77,-0.0057973735833634632,-0.23377479887447961
Galaxy287,3596.35,1913.46,-0.033556828551448967,-0.37476917695747047
Galaxy288,1066.0,2385.61,0.26906943776441133,-0.19002893266345164
Galaxy289,1470.86,2101.03,0.071764715051489764,0.40242252443971605
Galaxy290,467.82,1125.66,-0.22884508861026284,-0.031565110395618635
Galaxy291,1461.38,4166.11,-0.060701023668011875,-0.15862326488065123
Galaxy292,1558.87,1075.49,0.10037961454680584,0.23474328204021611
Galaxy293,586.86,3692.46,0.059771309234572557,-0.13976547246631615
Galaxy294,4042.71,2348.92,-0.14625190931387885,0.057242533427846791
Galaxy295,70.32,1509.27,0.21478320776762894,0.13967312728579151
Galaxy296,3736.06,25.56,-0.35119382153194106,-0.082222863259027376
Galaxy297,2885.72,3848.69,-0.019797047500429377,0.17745974521939456
Galaxy298,496.96,3756.68,-0.16469824723452453,-0.14147316095430276
Galaxy299,2521.35,3248.02,0.24553254938596508,-0.3383177582162884
Galaxy300,1649.87,1462.57,0.25172153508615092,0.15506620457301712
Galaxy301,1921.85,551.54,0.1195848561689082,-0.080210162179757544
Galaxy302,3587.18,1115.7,0.10925376462587581,0.31572527956472579
Galaxy303,29.54,1481.29,-0.01600783094795491,-0.376501752838934
Galaxy304,2163.59,3531.4,-0.09005601633324184,-0.025512439999461317
Galaxy305,1643.79,2825.57,0.075364220346196636,0.13559080849608526
Galaxy306,1291.99,1964.82,-0.074123476124354964,-0.23500102065606246
Galaxy307,2288.58,3892.54,0.073857701099406009,-0.30764060122083758
Galaxy308,2761.87,3074.16,-0.053766774435781484,0.096914427418993809
Galaxy309,3007.42,4036.73,-0.25927766318720613,-0.19451139394074235
Galaxy310,1222.35,1565.43,-0.071527957976629031,0.21235943856886386
Galaxy311,2035.45,552.25,0.49075807934799026,-0.070108518218830657
Galaxy312,2127.87,2917.14,-0.021157307924170261,0.12889179624710498
Galaxy313,2495.39,264.76,-0.073849729684108925,0.027907120288862969
Galaxy314,218.26,149.92,0.31011698615355759,-0.20650000698750609
Galaxy315,3376.6,1027.95,-0.26686071139082723,0.19194723157770674
Galaxy316,1506.55,1531.18,0.20984045035980009,-0.30639371678698812
Galaxy317,3068.82,1084.79,0.14916688158333946,-0.16184405164472626
Galaxy318,3943.87,199.43,-0.13549699298847143,0.040496256757832153
Galaxy319,6.39,2919.6,0.080124300929022313,0.0059902878409891364
Galaxy320,4055.72,3868.12,-0.36214505637462446,-0.0092058186968945396
Galaxy321,1467.21,729.53,0.073370483601925551,0.010591834849241186
Galaxy322,1807.88,1215.18,0.18616820132574466,0.28004337483058828
Galaxy323,1543.64,2319.07,0.051113537567346184,-0.31491625768700982
Galaxy324,1194.31,1126.42,0.10993357430256007,0.074464740079795977
Galaxy325,1664.65,2805.51,0.21260918043689317,-0.30737654137653148
Galaxy326,1438.68,1815.65,0.29650721408898273,-0.028860162482014021
Galaxy327,773.65,1709.87,0.89364931485410171,0.28505602264249763
Galaxy328,1137.45,728.07,0.061045938929116347,0.40419050899576292
Galaxy329,3552.06,3231.93,-0.66702193089601014,-0.15460719023937963
Galaxy330,3628.3,4049.43,-0.34632090775787294,-0.30933009669498568
Galaxy331,4179.21,3013.37,-0.10630383474334316,0.19496109827673164
Galaxy332,1222.23,1861.93,-0.18151325882446509,-0.12275210677836326
Galaxy333,2156.55,3370.86,-0.02525530235100882,-0.30160256831434984
Galaxy334,3860.89,2334.85,0.053846238967066778,-0.14496691888117352
Galaxy335,3978.75,3587.27,-0.1512383879643649,0.27937511973705964
Galaxy336,2280.72,2516.58,0.1146596753070057,-0.0088489048243762247
Galaxy337,3606.5,3916.77,0.0015651133512751825,-0.30806336762107778
Galaxy338,3469.43,649.15,-0.12712450936622033,-0.16417107994491029
Galaxy339,4052.67,1831.73,0.28888703951989514,-0.46585937084897977
Galaxy340,3733.97,2123.9,0.046990514883942208,-0.13439815616434711
Galaxy341,2578.92,308.46,-0.22528337797138162,0.37911013392588766
Galaxy342,2565.97,2634.45,-0.12553691837682529,-0.12404364547576249
Galaxy343,910.61,3439.45,-0.046868117918745678,0.00022451500294604076
Galaxy344,1150.0,2878.75,0.13511063052238836,-0.32761643770806426
Galaxy345,3069.54,4116.58,-0.45781885689876023,0.0327860583407273
Galaxy346,2282.43,3112.12,-0.15200162913292808,-0.38014195413489305
Galaxy347,3490.26,421.26,-0.067379591843598735,0.25233245850316804
Galaxy348,2128.95,2434.05,0.0048952636285224116,-0.070133642608853838
Galaxy349,4046.69,1240.43,0.15201434579549636,-0.27158324444256332
Galaxy350,2076.1,2182.94,0.070285315373132776,-0.24391185404963422
Galaxy351,1379.76,2896.57,0.062211978002872106,0.11083136254340487
Galaxy352,3164.89,444.93,0.21141523843064236,0.0061550927376977371
Galaxy353,3826.53,2111.11,-0.03931851319564042,-0.33096004481325814
Galaxy354,2772.16,1096.71,0.22764212377142429,-0.15889278782362054
Galaxy355,3919.04,2144.77,-0.5796455983720592,0.27538312949214605
Galaxy356,1834.4,2658.66,-0.15953702613119092,0.053422251956567635
Galaxy357,1547.93,1937.78,-0.27018140371289623,-0.23648735749692842
Galaxy358,3851.54,2410.37,-0.097137428377758447,0.016658470964622994
Galaxy359,1826.83,127.92,-0.055909609947101535,-0.098238582111468215
Galaxy360,3941.99,1846.99,-0.29669645195447114,0.043715619176670203
Galaxy361,1845.33,2424.34,0.066119005785875457,0.27105623907329074
Galaxy362,948.06,4180.09,0.016795566537336618,-0.026269575420412833
Galaxy363,3753.04,474.52,0.16484047203257418,0.12854000504855212
Galaxy364,3690.43,2755.1,-0.10672634914622559,-0.10814200176924835
Galaxy365,2353.17,2400.63,-0.15646094098209817,-0.15590311831704912
Galaxy366,1435.64,2747.66,-0.037191687160924594,0.43540294885680741
Galaxy367,3453.37,2740.18,-0.037176478786844325,-0.060864406304481769
Galaxy368,610.88,2825.37,-0.026595796156574036,0.12179168733989763
Galaxy369,2211.59,3600.87,0.039993322515898308,-0.050705036565777128
Galaxy370,891.06,1658.8,0.10445563974416253,-0.45387743804276454
Galaxy371,4030.7,3614.86,0.166384216316942,-0.22768153688544918
Galaxy372,4091.87,1883.53,-0.0094841324091642226,-0.018565967894177554
Galaxy373,2244.97,56.99,-0.14857820794836721,-0.23119566893925603
Galaxy374,2411.59,4088.06,0.11800677503424935,-0.46725737829883329
Galaxy375,3542.94,2640.61,0.045001884152484489,-0.34552945489166043
Galaxy376,984.53,1715.14,-0.25645236131607174,-0.14365103570320065
Galaxy377,3386.02,367.05,-0.2520523744423902,-0.17427167857556786
Galaxy378,2808.88,2044.57,0.14914095689342405,-0.29691440761807097
Galaxy379,1740.73,2230.4,-0.042776681846942555,0.090690844409347507
Galaxy380,727.22,3538.66,0.40806377566847984,0.32399026422653976
Galaxy381,3324.38,2301.07,0.14128762687839025,-0.26615726672669981
Galaxy382,4127.74,721.59,0.24393031408912735,0.09982208768555402
Galaxy383,3460.2,791.18,-0.026053152711282598,-0.10341110994912409
Galaxy384,693.36,2936.59,0.081535028869632181,-0.18688586201134363
Galaxy385,1939.15,633.9,0.1155626377552962,0.1081118704866508
Galaxy386,543.92,321.7,-0.31703378981268637,0.06008755625522854
Galaxy387,3649.48,2408.73,0.087608536898180961,-0.14048008159379277
Galaxy388,2272.38,1018.92,0.021268294116915748,0.20825143288497278
Galaxy389,463.58,3398.88,-0.039610711673615587,-0.32230507879888437
Galaxy390,909.83,3405.26,0.050236535484513151,-0.057174151668314341
Galaxy391,883.2,1463.57,0.17405337404927615,0.032087870929503687
Galaxy392,970.19,4132.87,0.201910328540158,-0.19676400143946116
Galaxy393,1038.9,619.06,0.010385511564629329,0.062868084822607737
Galaxy394,3204.76,1125.33,0.10920179318748699,0.028139176836985164
Galaxy395,2374.27,3994.02,0.3961346990304363,-0.21758614298863696
Galaxy396,1032.69,1513.58,0.13593642559985727,-0.040180314890729832
Galaxy397,1373.99,1628.37,-0.15651071420294899,0.28947332401783632
Galaxy398,990.74,1234.72,0.34861116747781751,-0.15031644718794532
Galaxy399,1163.99,1232.28,-0.52423513462408378,-0.01399293344474014
Galaxy400,1760.82,2274.23,0.52431672064298218,-0.26103937611621642
Galaxy401,2950.9,3089.67,0.0083276835989294362,0.57353357606267652
Galaxy402,2114.45,1385.71,0.043631502725066079,0.61546596331901005
Galaxy403,3162.4,2013.35,-0.18631914749452022,-0.02514209205998677
Galaxy404,2469.96,1314.57,0.062184471741414851,0.13158657564796183
Galaxy405,1771.78,3477.01,0.04063498680098003,-0.022694013310365746
Galaxy406,2713.44,1692.2,0.10945503076184382,0.19322031918288959
Galaxy407,949.68,3098.35,-0.018465076981348139,-0.24424809891452526
Galaxy408,2582.99,3738.66,-0.24529972630850344,0.088852597457951904
Galaxy409,988.09,1600.96,-0.099452146868090119,-0.041907014582065985
Galaxy410,2516.47,1195.26,0.064600191073288446,-0.004947122500625234
Galaxy411,2347.87,3359.12,-0.58588142104991059,-0.21392462402590687
Galaxy412,625.54,1023.45,-0.12564546556659864,0.16894450399045552
Galaxy413,3745.5,3803.32,-0.12697787622385945,-0.16449010929342642
Galaxy414,3363.78,3128.08,-0.030567011573079991,-0.38618274297973748
Galaxy415,2353.57,882.22,-0.22158428004414216,-0.091472277067444124
Galaxy416,1988.31,3983.75,-0.069269891453990817,0.016110356022888739
Galaxy417,3711.47,965.74,0.23115667669757145,0.34749196101937396
Galaxy418,1351.1,195.02,-0.23031318460512729,-0.092301831972996934
Galaxy419,2260.6,3357.12,-0.22522675644287873,-0.58823420203731402
Galaxy420,357.99,1215.93,0.070629305655920321,0.15105726075512532
Galaxy421,2486.92,1323.52,0.25494034204085181,-0.13811122695630892
Galaxy422,366.69,1479.0,0.25148119095962063,-0.15157430053898771
Galaxy423,1829.51,863.73,0.14365228159494725,0.18370094512295015
Galaxy424,3175.19,3600.78,-0.028283024726156528,-0.28335058761530718
Galaxy425,2658.69,3925.89,-0.14388431747239289,0.14322238025860526
Galaxy426,3594.57,1174.0,0.071115245000742192,0.067104959331578201
Galaxy427,3691.53,2921.19,-0.11637423823368241,0.16537275420261247
Galaxy428,1652.76,1551.53,0.39697175034030319,-0.10154555216707783
Galaxy429,2147.3,1806.63,0.25050683129728613,-0.01413132810322279
Galaxy430,293.01,3638.29,0.05384964258476134,-0.49730950240348548
Galaxy431,1352.54,3853.21,0.22953684838578117,-0.28190133857901678
Galaxy432,638.25,1002.77,0.34590719579186957,-0.47066982081465852
Galaxy433,1522.13,783.37,-0.074776509958620535,-0.24103767391297384
Galaxy434,3478.03,2004.71,-0.062733003068382184,0.08558642787166984
Galaxy435,2470.88,2451.83,0.18117375002159308,-0.21877013023310271
Galaxy436,554.24,2365.67,-0.064272394461938637,0.18644215445160567
Galaxy437,3246.96,2173.05,-0.026228086902375221,-0.66229279461851787
Galaxy438,3643.8,2357.45,0.079463270357469945,0.029838955144835769
Galaxy439,1167.99,3236.63,0.24961378797050163,-0.05232132717598896
Galaxy440,1715.14,1466.74,0.56449282602678896,-0.22500918628155156
Galaxy441,3901.36,1352.99,-0.25637521012731362,-0.037538869384543205
Galaxy442,3357.7,959.99,0.042304934473033559,0.12024527075930795
Galaxy443,2147.95,405.07,-0.125007333886067,0.37018580835192355
Galaxy444,1721.7,4195.92,0.37915038304650822,-0.20273692645847666
Galaxy445,1268.71,3878.2,0.013050331914400921,-0.21111064610973471
Galaxy446,38.78,3367.15,-0.13697554745118595,-0.26830569181219421
Galaxy447,3638.71,3180.44,0.011600331004250924,0.18591751565664841
Galaxy448,3019.66,1789.39,-0.12069932416719661,0.37527669175361134
Galaxy449,1763.81,2029.49,-0.28031198213780506,0.095821409302263447
Galaxy450,1413.3,2361.63,-0.15700496721392213,-0.22360180552809639
Galaxy451,2798.36,1563.57,-0.04370593579048207,0.036819211200345689
Galaxy452,1782.33,2287.9,0.059618752577399362,-0.25308408909083624
Galaxy453,1144.5,3887.42,0.027887184138432941,0.1729847083549764
Galaxy454,3032.43,1001.54,-0.11405215318304943,-0.0083200844638278426
Galaxy455,274.33,2955.42,-0.15118396579166221,-0.011368826104687244
Galaxy456,4148.91,2394.16,-0.19984749071569952,0.27898987365438627
Galaxy457,3961.11,592.06,0.018623416792552944,-0.34582044351695379
Galaxy458,2890.6,548.22,-0.52490606290322284,0.087490679455916973
Galaxy459,2424.02,488.67,-0.019612602303464483,0.062528733382994112
Galaxy460,2987.29,2086.01,0.51156602214934077,0.1821001681904045
Galaxy461,4167.83,3492.42,-0.35908817908265622,-0.17009731692879107
Galaxy462,117.34,2378.96,0.27663294591161125,0.0016055910626338182
Galaxy463,1308.79,2316.62,0.038133294564979908,0.18509067169111512
Galaxy464,1768.93,3653.55,-0.18797914587266024,-0.50467343639982731
Galaxy465,3455.56,3730.15,-0.2463025552804993,0.16781715744542405
Galaxy466,1394.08,2230.58,0.13517188895959911,-0.27104606165306738
Galaxy467,418.66,3992.38,0.42222624133153031,0.35712611801471517
Galaxy468,2576.72,457.96,-0.0072946703285555123,0.1698435707291652
Galaxy469,774.64,3351.34,0.3054528395950834,0.19883686442531312
Galaxy470,809.18,765.91,-0.031560763829747041,0.16344524153935291
Galaxy471,3967.78,1520.89,-0.27746395999679485,0.011021471163332554
Galaxy472,957.61,3525.19,-0.091643309118106003,-0.29133128709112954
Galaxy473,3557.03,2807.27,0.073583030776940783,0.13656273913347022
Galaxy474,40.45,2288.43,0.29871678898225912,-0.38458489955535469
Galaxy475,537.09,515.45,0.22173107326356206,0.37960787385775352
Galaxy476,2421.28,324.21,0.23432165071578359,0.07742792985099832
Galaxy477,2957.15,3909.18,-0.27681171077810873,0.018147012196983517
Galaxy478,1856.3,1744.51,-0.22118547628796195,0.051435053249560381
Galaxy479,3911.18,1848.43,-0.48523732861095537,0.29522960939070741
Galaxy480,1713.17,1948.91,0.19107633709883734,-0.52396964112579347
Galaxy481,3745.69,2423.72,-0.17446293432616056,-0.25856695961316684
Galaxy482,2671.25,679.5,-0.089669344845912227,-0.12177571483199209
Galaxy483,3544.29,1401.29,0.094299058047032272,0.27236990772197744
Galaxy484,3.93,1207.8,-0.029951483060538575,0.00090511520046419533
Galaxy485,979.8,1334.05,0.18441055363614775,0.32297795678481694
Galaxy486,2859.59,3630.29,-0.18226598168470878,0.16580306133354039
Galaxy487,3098.25,862.41,-0.06369071750856159,0.16503859296227794
Galaxy488,1754.72,3009.49,0.10594035240648488,-0.10402601779459658
Galaxy489,1131.25,3092.67,0.1243797000979605,0.011567995711042639
Galaxy490,3504.64,3174.73,0.10257624453753994,-0.1994696852195619
Galaxy491,1714.9,1632.09,-0.38010130627444083,0.18881106844938877
Galaxy492,2049.92,1303.39,0.057686103195278574,0.39320177765606651
Galaxy493,1933.21,913.63,0.1412094780655517,-0.08349387177725498
Galaxy494,3718.45,133.76,-0.37176175906785214,0.32513553918294824
Galaxy495,4041.17,2521.15,-0.011200767735632305,0.37194870958777787
Galaxy496,1515.08,1883.94,0.23294947968800078,0.12132758025171003
Galaxy497,2062.01,3963.46,0.13495178810545994,-0.49935618387394515
Galaxy498,3101.54,1177.73,0.27206270285108214,0.11621838223331053
Galaxy499,3069.26,4068.23,-0.56608378888964339,-0.05152215628938888
Galaxy500,3006.48,1568.8,0.33542821087571983,-0.058035940232884178
Galaxy501,7.11,109.33,0.18560735178974352,-0.18703375642311237
Galaxy502,1879.06,3021.23,-0.03384945777519828,0.035720257576500047
Galaxy503,3268.96,3311.38,-0.21234524512742758,0.058154759783158011
Galaxy504,522.26,251.5,0.50708941255458062,0.14193706036348247
Galaxy505,2701.67,465.94,0.36358201459609574,0.25194083748084056
Galaxy506,1006.37,4020.08,0.095266410727545256,-0.31845330966790497
Galaxy507,2221.58,9.29,0.0553210346136528,0.10560196976417405
Galaxy508,1828.02,1330.16,0.39491568057210102,-0.063332602316752321
Galaxy509,3811.7,988.35,-0.085118798878532936,-0.44946302500975538
Galaxy510,2880.63,3892.17,-0.31245840781142897,-0.29561300937027546
Galaxy511,1060.96,796.77,-0.21022085454147729,-0.1562838520776974
Galaxy512,927.87,3790.81,0.34011555419294853,-0.29005038961671781
Galaxy513,4005.48,1709.09,0.083739347053486068,0.17969334397238465
Galaxy514,2898.86,75.39,0.37220507051565588,0.039023116554861043
Galaxy515,3603.85,501.33,-0.37814906748276284,0.18903739243593964
Galaxy516,2974.38,4146.94,-0.2764861363608821,0.050890208455343602
Galaxy517,732.74,1805.55,0.093222332581114953,-0.2859278254362988
Galaxy518,406.76,1425.88,0.3091339855354347,0.064290051933304324
Galaxy519,1216.52,1735.58,0.14426217101771152,-0.4532818673148446
Galaxy520,4094.23,568.56,-0.14591108414674583,0.20093944491224425
Galaxy521,308.37,1742.22,0.28395604688071374,0.18656504812222105
Galaxy522,2435.15,1393.48,0.27936464529346428,-0.13418917892970078
Galaxy523,2400.04,1566.48,0.12587341899616758,0.13155682251297421
Galaxy524,2587.81,3432.88,-0.17947911489661617,-0.34204722851881386
Galaxy525,347.42,2423.08,0.087524433754656031,-0.077797367213589944
Galaxy526,3639.71,3186.84,-0.24933578159757919,-0.17006638858690706
Galaxy527,2993.71,3986.49,-0.079686010524660969,0.041857870117476687
Galaxy528,166.22,2923.61,0.2194768590905859,-0.10194904743332966
Galaxy529,3310.7,2641.7,-0.098925564088787332,-0.36249415868510354
Galaxy530,1585.58,1326.55,0.34377400395385849,-0.01021473494439077
Galaxy531,4161.06,54.47,-0.18639830966558935,-0.13569954382411703
Galaxy532,379.09,310.77,0.034991626244987709,0.27968082060400001
Galaxy533,3210.8,2424.14,-0.22243375077351316,-0.14274791356025507
Galaxy534,3870.13,3042.22,0.18819956230941262,-0.11676881574057657
Galaxy535,504.96,3706.87,0.15148748791063268,-0.34068372795779678
Galaxy536,49.22,3714.36,0.41187410112034351,-0.1827902941843168
Galaxy537,4195.04,1322.64,0.02065850962408991,-0.13706924869840445
Galaxy538,2235.52,1095.36,0.09296225486344295,-0.29151732477377645
Galaxy539,3736.05,2062.17,0.45515350190098058,0.14977785137293492
Galaxy540,1486.2,2655.24,0.10273492552244602,-0.47056020080137384
Galaxy541,246.44,1073.03,0.17450260343142196,-0.3232148900997549
Galaxy542,2659.86,3335.81,0.44992903660097228,-0.2815272596446865
Galaxy543,3923.45,3432.52,-0.10343170223470508,-0.3310720684394991
Galaxy544,232.83,2646.68,0.36628449988451212,-0.29511294930869569
Galaxy545,270.61,781.89,0.090226498656396259,0.1350762428163319
Galaxy546,2675.21,1316.56,-0.00041287480259155629,0.10001611908472825
Galaxy547,920.98,517.41,0.018117324953793659,-0.014905127667517504
Galaxy548,500.84,503.17,0.038956608310548466,0.15293938317140754
Galaxy549,2042.59,2563.86,0.11022829003088705,0.25554125397155109
Galaxy550,3750.47,1396.54,-0.013588221881772524,0.092344910527038929
Galaxy551,4021.73,1896.64,-0.12829654996341644,-0.30389715652148441
Galaxy552,3006.96,1469.73,0.20819482865592612,-0.044564789069160032
Galaxy553,2541.32,3332.48,-0.082924266461568197,0.021945357542080768
Galaxy554,1443.48,3242.61,-0.22720110455586837,0.0081868854630922916
Galaxy555,1195.56,4185.82,0.23706524437524606,0.1271715290787061
Galaxy556,1699.28,2713.99,0.046994774425752533,-0.072456723969906364
Galaxy557,3127.1,178.71,-0.024771290260412485,0.33315721781010377
Galaxy558,2068.14,2114.82,-0.19480291614931994,-0.2615359015373403
Galaxy559,3487.05,347.87,-0.0017613017567317812,0.073563162158586021
Galaxy560,2120.49,1854.54,0.34229994020453774,0.060223586659438597
Galaxy561,1182.59,208.0,-0.14673984589757222,0.44750425147213374
Galaxy562,3871.94,995.11,-0.20089832239645719,-0.38466712046308399
Galaxy563,329.9,92.77,0.16248800795959001,0.23149361028550774
Galaxy564,1915.09,3083.28,0.0059583790234250533,0.31245121961892713
Galaxy565,506.2,957.74,0.099511082855346114,-0.11322440024098188
Galaxy566,2946.04,820.05,0.032301536008788746,-0.014281156886755103
Galaxy567,28.12,3585.5,-0.1569985711919181,-0.036487675592488028
Galaxy568,2852.96,2155.13,-0.088037737273338773,0.26953614915529156
Galaxy569,3068.65,166.96,-0.12830520438286616,0.052148046417427693
Galaxy570,2482.31,3292.54,-0.074206606156920943,-0.01360451526347442
Galaxy571,3348.7,1636.28,-0.12787845028595782,0.021522236193075528
Galaxy572,1812.06,1315.14,0.13353647962920481,0.1851750349019847
Galaxy573,252.82,2384.23,-0.28253845342686568,-0.22761764976536258
Galaxy574,1907.16,1854.27,0.22527322514849224,-0.088876240493866887
Galaxy575,1843.27,990.39,0.17631517065771179,0.020426866105636016
Galaxy576,3730.35,2653.15,-0.50410170904899387,0.14109370018040945
Galaxy577,4057.47,4075.9,0.3084112671119833,-0.19762355527400421
Galaxy578,1908.01,2414.12,-0.074177358239616187,0.18043370068504849
Galaxy579,937.62,2279.89,-0.22234740363004804,0.017957059920210836
Galaxy580,4099.51,48.1,0.28740440615496798,-0.093583060813180852
Galaxy581,3582.64,174.92,0.14235210006369342,0.024792797133850714
Galaxy582,655.68,588.66,0.28445976828953634,0.22779665418168987
Galaxy583,3960.16,1348.79,-0.12392629733470878,-0.23309123049820449
Galaxy584,3645.09,2615.04,-0.072759291120481615,-0.12808857919963704
Galaxy585,763.27,424.99,0.087337039536115907,0.0668953055962829
Galaxy586,2222.84,76.5,0.24070158730398519,-0.21746029218414004
Galaxy587,1775.06,2265.16,0.40222666700746978,-0.2893291160542783
Galaxy588,3787.5,3647.73,0.10494035741753419,0.021217266772795826
Galaxy589,1643.6,3724.41,-0.0045601644980042856,-0.063761132602167869
Galaxy590,1577.96,3604.14,0.16518563765843369,0.21476560671043177
Galaxy591,3510.26,2103.84,-0.24974885411525088,-0.56939087298421409
Galaxy592,1936.77,2708.79,-0.14523816383846849,-0.0096819696444509495
Galaxy593,2363.71,437.78,0.37369169137673725,-0.14704447958586517
Galaxy594,3245.92,2014.98,0.2296590233562199,-0.031183043262841881
Galaxy595,3118.33,2223.39,-0.047227999484952661,-0.39178215377262687
Galaxy596,266.28,3079.2,-0.20542161884293864,-0.31703578725188786
Galaxy597,4141.65,3484.36,-0.16717701531797857,-0.068959089996774581
Galaxy598,3437.89,2749.68,-0.36891277188644378,0.12872378428173722
Galaxy599,1847.02,2296.54,0.34167973895522141,-0.10472209575866526
Galaxy600,690.75,3089.39,0.19064197343045197,-0.22465661660470765
Galaxy601,1768.69,512.94,0.20058007916117793,-0.1827879860926831
Galaxy602,2902.73,579.56,-0.26385368206614918,0.28344520682862517
Galaxy603,3919.86,3835.55,-0.29893446480692309,-0.19033273993096805
Galaxy604,3746.08,3011.37,-0.13118344008464911,0.056800871164141474
Galaxy605,1886.8,3061.97,0.34269796837769156,0.089840108136889918
Galaxy606,832.93,3299.6,-0.082639230645810274,0.095275029166046771
Galaxy607,3390.59,1602.54,-0.092306015950321202,0.17662144523436191
Galaxy608,1951.92,1836.48,0.13820443317387338,0.15224269599768001
Galaxy609,1467.55,4071.55,0.045998425775827662,0.30647309907392012
Galaxy610,1632.47,1015.18,-0.32961461595227448,-0.1014299705813267
Galaxy611,1331.78,405.63,0.0090930375084308512,-0.24478447860065872
Galaxy612,2881.84,1500.53,0.50347738887490223,-0.095402443404089377
Galaxy613,85.75,3151.69,0.23092923657949657,-0.038622285772949405
Galaxy614,545.43,3375.52,0.17504551768448368,-0.12360952205966247
Galaxy615,2356.34,3416.82,0.019360733711306144,-0.14120185612492686
Galaxy616,3617.92,555.05,-0.40780534726290985,0.15028335230150661
Galaxy617,3348.05,4036.32,0.098121476906396721,-0.015464496966325007
Galaxy618,800.36,2895.75,-0.014757982212397297,-0.33834873150187184
Galaxy619,1506.77,2253.27,0.016871513614356348,0.39399220420166881
Galaxy620,1435.69,1377.74,-0.21193863228479845,-0.095833126129325347
Galaxy621,2228.64,2932.96,0.21905120398193495,-0.47722402772882994
Galaxy622,1231.31,811.33,0.17064381851573993,-0.13196557611363924
Galaxy623,431.02,2662.23,0.34406224982301059,-0.028173397722830867
Galaxy624,2093.12,208.24,0.02057204824160426,-0.051573487685249331
Galaxy625,2409.73,1355.02,-0.031909579641762165,0.21963103054951807
Galaxy626,2413.01,1917.72,0.18425594136828732,-0.13508123457470261
Galaxy627,1151.04,1922.11,0.51793809188232398,0.26806884896370775
Galaxy628,944.09,2716.59,-0.045884947862545433,-0.0086012072123727856
Galaxy629,1980.5,2294.54,0.030898278514990496,-0.070217232116951717
Galaxy630,3493.29,3221.94,0.074418010441859306,-0.0019992574245304706
Galaxy631,2481.04,393.16,0.091381005764871404,0.3147210662694615
Galaxy632,472.35,2655.08,0.17622795532583554,0.018409956171989122
Galaxy633,3372.63,3309.49,-0.16529958563924921,0.15134506757248353
Galaxy634,983.76,2459.72,0.47312030954328643,-0.082728363360296681
Galaxy635,2494.74,3547.91,-0.014784642992286441,0.1066593528433229
Galaxy636,2369.98,3550.13,0.20588753900391732,-0.26531485198708088
Galaxy637,19.79,1990.77,0.18437726548430608,-0.23773883909493662
Galaxy638,3749.55,568.58,0.26977796876957405,-0.31628190371993681
Galaxy639,3967.41,1625.12,-0.27814373286792532,-0.15065645860272847
Galaxy640,2919.69,61.1,0.15854707993642322,0.15024556822406337
Galaxy641,2928.07,2520.72,0.14426075319616616,0.12170498510178437
Galaxy642,1134.12,3212.11,0.08100614166078221,-0.12898457238844496
Galaxy643,2684.66,466.99,0.063880808358951519,0.47979198258761557
Galaxy644,1632.34,3423.29,-0.4465798190311544,0.14972396367531379
Galaxy645,3060.26,1277.0,0.062467570713971438,-0.037357964583129816
Galaxy646,3150.57,3812.19,-0.35518681913457101,0.27355591481421804
Galaxy647,509.93,1010.41,0.13738163736542588,0.1567975434049885
Galaxy648,1926.31,1557.53,-0.13425079166959233,0.22282746385834099
Galaxy649,3122.23,3990.8,0.16779678049780422,-0.32299749272167516
Galaxy650,710.96,358.21,-0.077250813995629025,0.15483808038998748
Galaxy651,2563.3,1715.64,-0.11113215871925547,-0.066408667283688133
Galaxy652,2701.73,286.22,0.30762253434972986,-0.0066461280026918756
Galaxy653,1909.94,1550.33,0.021524835441332046,-0.044629474392744707
Galaxy654,2882.25,4132.32,-0.42790917534105644,0.11217680967322984
Galaxy655,519.69,1209.2,-0.022992745922567004,0.069439056417779685
Galaxy656,2745.29,1318.82,-0.065501301901491588,-0.20654430422733672
Galaxy657,1467.94,2707.5,0.28841368125980538,-0.36646863217152387
Galaxy658,1214.52,3499.08,-0.61099956000116584,0.039918636398520391
Galaxy659,4048.0,2499.76,-0.23465282759389888,0.030621884118401117
Galaxy660,590.12,1026.32,-0.043468193999545518,-0.17045102492550845
Galaxy661,2776.77,4169.68,-0.23286449603267348,-0.035975155374360968
Galaxy662,3454.42,3524.77,-0.26924400976965746,0.31087395572675314
Galaxy663,183.05,2920.78,-0.079735415220789196,0.27981322092882316
Galaxy664,3723.56,4043.13,-0.21446531188338014,0.012068018503455465
Galaxy665,1933.33,2861.03,0.1118410233865101,0.057538499433201107
Galaxy666,2179.87,1669.22,-0.30130261805239705,0.4281832590405254
Galaxy667,3926.84,2673.74,-0.1200336729321472,-0.23466654443319432
Galaxy668,2792.24,2269.53,0.34737371413202506,0.38607561704301718
