GalaxyID,x,y,e1,e2
Galaxy1,2661.58,3185.26,-0.46530378060727501,0.18109970468481934
Galaxy2,1265.68,1573.4,0.13679355826707032,0.028787595423275053
Galaxy3,2394.47,3335.15,0.093108932275798556,0.11906518301987394
Galaxy4,1970.65,510.55,0.37929761710115945,-0.028504202769936926
Galaxy5,102.95,398.91,0.13809345072536372,0.23317656651443919
Galaxy6,2218.5,3602.7,0.050867675812800883,0.079383517351321903
Galaxy7,3146.82,3195.81,-0.16846966777986649,0.089743682337596692
Galaxy8,1092.79,3462.92,0.080535904045948098,-0.17548914572141575
Galaxy9,3671.45,1837.17,-0.20888610858653983,0.2324013758825493
Galaxy10,2826.54,2928.51,-0.30705957871622003,-0.17648880085103666
Galaxy11,4005.55,2549.91,0.18422922922433227,0.080290130752012523
Galaxy12,415.88,1868.09,-0.14036327372044927,-0.077273785440569023
Galaxy13,1127.61,4127.98,-0.2841666405579375,0.19828500732331925
Galaxy14,3359.02,1341.21,-0.65332311362144457,0.22221958160612476
Galaxy15,3716.02,3068.24,-0.16066028687037015,0.27966011438215616
Galaxy16,339.79,791.1,0.21468647975952837,-0.073120336987130136
Galaxy17,1643.92,3979.7,-0.50036423467781521,-0.057013999073364789
Galaxy18,835.18,3284.96,-0.1529901091685601,0.077061037411475269
Galaxy19,1304.25,1026.81,-0.39712347481801402,0.025340425068657607
Galaxy20,3988.74,290.68,0.15584541786101747,0.069353185404278692
Galaxy21,3271.21,1123.45,0.086784415525307551,0.16763835094764326
Galaxy22,544.25,2684.38,0.20206670054862788,0.11077497240801759
Galaxy23,264.48,1764.35,-0.039051085270172745,-0.28454469605897575
Galaxy24,3733.72,1398.88,-0.015171242956573058,0.19600829362969208
Galaxy25,120.02,2055.91,0.21604519769565836,-0.036131171855834088
Galaxy26,3131.59,4104.1,-0.16316468774705267,0.042506223267302939
Galaxy27,144.54,3049.45,-0.072972920387744208,-0.28644596185204563
Galaxy28,3348.22,1798.83,-0.20370026681014639,0.15864850312582846
Galaxy29,1115.04,1750.72,0.28649197564468082,-0.37102226927593973
Galaxy30,3788.48,505.81,0.074261054246167857,-0.066449599847147156
Galaxy31,948.08,1600.35,0.4398989332583978,-0.48834473257616218
Galaxy32,4186.66,3254.16,0.33663807570983462,0.50670996745537533
Galaxy33,3326.72,2274.86,0.074703026063717759,0.20332861978592534
Galaxy34,56.32,162.82,0.20432932263241044,0.22756812900073359
Galaxy35,3779.17,2593.23,0.15013935288695687,0.32017989217754728
Galaxy36,2929.21,3940.1,-0.49667484902733328,0.31844121915212065
Galaxy37,1949.78,3047.54,-0.051235855955557838,-0.23852819990939983
Galaxy38,2084.46,2728.39,-0.31917922881006217,-0.002173543649678325
Galaxy39,4003.92,4121.75,-0.17194850315538823,-0.098886981841278712
Galaxy40,1040.14,3135.47,-0.27257507435103867,-0.33159922541547315
Galaxy41,3588.25,384.85,0.16732865993131693,-0.42271046517552696
Galaxy42,3365.94,1315.03,-0.25558176213461931,0.17338557222928158
Galaxy43,2517.06,1739.79,0.22108032961920174,-0.10079503608464858
Galaxy44,3147.05,191.02,0.12204995431423023,0.15309970791562255
Galaxy45,1294.16,2790.36,0.35558651455775231,-0.26456779439666656
Galaxy46,1490.82,3677.84,0.44767514360561761,-0.35389662233896324
Galaxy47,2452.12,3757.42,-0.48382334456841247,-0.2197571719595868
Galaxy48,2346.96,1478.32,-0.23124081286183246,0.096762181427796801
Galaxy49,1948.15,2663.9,0.041771713318058221,-0.41455665786245077
Galaxy50,2705.17,1076.72,-0.10232669891741014,-0.34800731586615724
Galaxy51,2800.16,2546.22,0.097056889809622265,-0.19595471941248466
Galaxy52,3432.23,1248.16,-0.096342100851743745,0.32264786651033917
Galaxy53,1008.33,511.6,-0.15366713018603712,-0.022235235453921989
Galaxy54,3249.41,139.32,0.10054232723046541,-0.33521823882097462
Galaxy55,562.79,2876.71,0.1439702604947756,-0.035939521043660633
Galaxy56,636.44,3199.33,-0.066556302527676497,-0.07988137645014072
Galaxy57,1522.77,1236.51,0.50439909869252886,0.063985987674891526
Galaxy58,1106.95,1927.05,0.1766693319534485,-0.42912502338750536
Galaxy59,3800.68,2897.61,0.0077098552671666931,0.070233838813656163
Galaxy60,2131.85,675.67,0.15484328853418489,-0.0066333476002484182
Galaxy61,1761.87,176.85,-0.050752340490884562,-0.24916965902939547
Galaxy62,3666.41,870.6,0.10409474889571663,0.17819156565378605
Galaxy63,937.96,2543.48,-0.18368878927876306,-0.22201575824657327
Galaxy64,1492.43,2434.58,-0.21869949944113837,0.30874927840821415
Galaxy65,1413.36,520.63,0.046531879118998781,-0.037009598776556685
Galaxy66,297.62,401.02,0.0013478189681546127,0.38983422967303016
Galaxy67,3210.94,2877.32,-0.12496531822744214,0.55127881340083318
Galaxy68,1651.4,2574.23,0.16574936038965549,0.013747249514334009
Galaxy69,1334.34,1027.54,0.15765253092724668,0.31609662382235199
Galaxy70,3228.03,1347.13,-0.18825541700198994,0.35350056456752976
Galaxy71,878.36,4124.51,-0.13576000392541912,0.14786889595661171
Galaxy72,2212.55,445.26,0.524011026182997,0.12438866905661639
Galaxy73,1330.11,1040.71,0.31619944566271158,-0.68273981551909091
Galaxy74,1156.1,2722.46,-0.29678841295244535,-0.096889177491435677
Galaxy75,3102.98,3852.06,0.11357320083807176,0.1121556727958837
Galaxy76,1776.57,1089.32,0.23497137251339645,-0.086940159990486321
Galaxy77,463.83,788.26,0.3085037235539429,-0.13706608469041714
Galaxy78,454.87,4198.44,-0.24897783842916543,0.061469999242177109
Galaxy79,3626.46,1055.4,0.063812038744144844,-0.098601731343856552
Galaxy80,35.12,1298.81,-0.37251999520828794,0.22137207253011248
Galaxy81,1273.45,2991.06,-0.1081504674803733,0.090185802199994003
Galaxy82,3416.89,2746.26,-0.037092161002149626,0.21443577404558054
Galaxy83,3296.3,3108.91,-0.17985805566296753,-0.051018797405422263
Galaxy84,3295.87,1225.23,-0.039024530112584693,0.066283680688080077
Galaxy85,2457.79,369.1,0.32162708708029764,-0.08063955371137943
Galaxy86,2408.65,2962.57,-0.52348545862030849,-0.16013253497749724
Galaxy87,1482.85,1040.31,0.20940614528505491,-0.23419183547857669
Galaxy88,2149.01,2788.67,-0.22931890200933769,0.17673742337308757
Galaxy89,3425.76,2667.89,0.056944258453065388,-0.11286224425922159
Galaxy90,4177.41,1134.92,0.27846243770323342,-0.14012504486942146
Galaxy91,1378.98,1005.35,0.33321093962363713,0.048649247058478756
Galaxy92,3675.17,2824.39,0.1650119048909012,-0.12457150586149889
Galaxy93,1556.05,4002.4,0.00019124435443393373,0.16462633223785447
Galaxy94,901.76,2822.65,-0.36678259350147357,-0.11345208210907734
Galaxy95,358.26,2651.81,-0.22476692945913646,-0.2069422637390389
Galaxy96,4115.52,1670.12,0.074704088755883385,0.29007723295188215
Galaxy97,1701.87,3322.81,-0.053311261492423531,-0.27346601447217028
Galaxy98,2006.74,409.41,-0.0086121914349119866,0.12502501927606258
Galaxy99,2789.17,412.52,-0.20338036688001551,-0.32619739461474079
Galaxy100,2825.32,964.46,-0.42837376446132558,-0.19199096654260073
Galaxy101,3372.69,3761.84,-0.15943056106077816,-0.11225155721578944
Galaxy102,2398.01,2904.26,-0.43549650938484996,0.14015791504997716
Galaxy103,1558.72,254.16,-0.14657527474777066,0.17509104943396672
Galaxy104,4072.67,3910.22,0.062821783268109554,-0.21232185255225694
Galaxy105,2299.96,3850.31,-0.48132405598448258,0.22365632004018288
Galaxy106,4013.78,738.67,0.13004114797936275,0.22045879159763371
Galaxy107,3661.35,685.54,-0.27103959624102847,-0.14974235873990852
Galaxy108,4064.43,509.21,-0.043758830893475376,0.34565009680899084
Galaxy109,2770.33,1239.82,-0.52501866322507373,-0.064603865957402695
Galaxy110,128.42,2507.74,0.018217347990541775,-0.40360219033955341
Galaxy111,1930.92,1121.42,-0.0066761275187463831,-0.48961272342025625
Galaxy112,2968.38,1335.05,-0.66317034278088849,-0.31211619665115448
Galaxy113,2508.95,2677.14,-0.31873383656329074,0.038697965299164902
Galaxy114,2191.48,1861.58,-0.31061553770618794,0.029792916663748614
Galaxy115,3027.36,1785.88,0.26579854418890625,0.27211763050739102
Galaxy116,820.8,1962.38,-0.37952143005300049,-0.23586595107666586
Galaxy117,64.45,3874.72,0.046431985419466248,0.05714952578836574
Galaxy118,2339.17,699.84,-0.4423868285024164,-0.07265922280863972
Galaxy119,509.44,3757.13,0.33880343048569905,-0.047789638006123486
Galaxy120,3200.98,835.56,-0.10899766425506832,0.0122265584740575
Galaxy121,3353.69,86.73,0.2349107701558989,0.069344499422467093
Galaxy122,1023.82,3110.07,-0.03658692251104731,-0.43239861972716642
Galaxy123,3768.49,3834.44,-0.13549766156123588,0.052488844264598086
Galaxy124,3662.46,2913.27,-0.0600494500930744,-0.23593430262502602
Galaxy125,3993.79,2193.44,0.028899834036643132,0.20253274815074743
Galaxy126,1095.92,3916.3,0.10960909622175455,-0.27360376193091357
Galaxy127,2644.97,210.75,0.027069967607253692,0.0058600300275190795
Galaxy128,1350.31,937.95,-0.046246544729208861,-0.073131497720234417
Galaxy129,3706.87,1225.81,-0.17470835658063205,0.081735272540749429
Galaxy130,3182.65,2007.45,0.08980981678329647,-0.084133490462712443
Galaxy131,334.72,684.01,-0.18657793788685989,0.099421903171393905
Galaxy132,2544.46,3194.54,0.27779499017692588,0.14096696026831518
Galaxy133,3118.26,3371.48,-0.028009393468691052,-0.04107379612105734
Galaxy134,2443.17,899.92,-0.09597973448094925,-0.089518707091780211
Galaxy135,1829.81,481.44,-0.0099382475005133364,0.22546754585812867
Galaxy136,271.09,3563.33,-0.47438468751918111,0.10028406400333206
Galaxy137,1629.31,2846.46,-0.1916150700771308,0.13165363252688569
Galaxy138,1260.46,2957.49,-0.31234430750756098,-0.27136568143350492
Galaxy139,3399.75,186.69,0.28774607093378202,0.23074612717927473
Galaxy140,2076.59,245.24,-0.1213128447553182,0.12669562755604383
Galaxy141,4149.35,3443.22,-0.26351110255739824,0.20838073761426129
Galaxy142,2579.07,1402.48,-0.021041266189003996,-0.057946226314322363
Galaxy143,3520.17,998.3,-0.54265113500467077,-0.032347321979934007
Galaxy144,2572.63,2376.85,0.19492485708275464,-0.34099096379787819
Galaxy145,545.47,1153.36,0.1090422084850162,-0.075931105611601601
Galaxy146,2510.24,3625.33,-0.051751434885639894,-0.16868401239366046
Galaxy147,3124.77,3713.95,-0.5064977844665921,0.16241557854478636
Galaxy148,894.45,371.44,-0.43667129858138087,-0.0075489956523044858
Galaxy149,397.44,1990.04,-0.1388062621698738,-0.42886434827760622
Galaxy150,639.91,3445.8,0.31197251683241545,-0.032351485322823476
Galaxy151,3221.45,3990.46,-0.09064289019534412,0.1225030635276438
Galaxy152,2157.29,3193.86,-0.01068773439340226,-0.28708856463314675
Galaxy153,2437.65,422.62,-0.1120840523467945,-0.15783689801982181
Galaxy154,3939.69,499.61,0.10306602651246188,0.046650242129451909
Galaxy155,2278.31,332.04,0.21754793809673964,0.02092878868698151
Galaxy156,1892.48,2037.62,-0.11217789855196557,-0.36793496437644763
Galaxy157,492.37,690.32,0.1319144514279493,-0.086308706333107679
Galaxy158,374.19,2904.73,-0.1466908469754539,-0.41880406576343454
Galaxy159,3773.63,1995.07,-0.043206558325528457,-0.19491562373775162
Galaxy160,3728.51,1238.62,-0.036003908640479115,0.24246163004297613
Galaxy161,1967.23,844.65,0.45282897513890158,-0.42173729343424959
Galaxy162,3920.64,1068.58,-0.025733546339211075,0.31791118490349313
Galaxy163,1586.05,528.31,-0.017305503668035016,-0.28423581165756473
Galaxy164,212.86,3109.33,-0.091274985601272327,0.1585684455457303
Galaxy165,3734.68,2446.67,-0.38507181258845985,0.0094211076701807145
Galaxy166,800.38,1412.93,-0.18685182443669757,-0.1403486694436207
Galaxy167,4053.45,1573.61,0.065338209597771674,0.02477687256007749
Galaxy168,3957.34,262.4,-0.095475875972629826,-0.14582199466108711
Galaxy169,611.4,2834.74,-0.14603107825705058,-0.50556293900634719
Galaxy170,2292.85,423.06,0.033240407792773152,-0.11396923612780677
Galaxy171,477.23,3995.87,-0.019672943174478152,0.070735820793794674
Galaxy172,3820.52,3179.62,-0.35515180368945531,0.13167740579217962
Galaxy173,2210.83,1615.55,-0.19437978328231034,-0.0028351861257232547
Galaxy174,2810.19,3085.61,0.005655345169833681,0.30783628392329604
Galaxy175,1318.1,860.39,-0.22811796449264243,0.019594833019040719
Galaxy176,4042.47,2268.44,0.044621437024111199,0.34505976503481545
Galaxy177,451.08,4180.35,-0.17755366221983465,0.13358550369725267
Galaxy178,2962.41,2747.29,-0.076424589193327411,0.15421630696724775
Galaxy179,2692.85,1292.3,0.15846965513121256,-0.16247635955271714
Galaxy180,2541.98,2113.41,-0.27106715350919069,-0.14987013878788477
Galaxy181,2129.99,2295.07,0.077443975471150422,0.044139891507211343
Galaxy182,2342.76,2006.36,-0.50363188728141239,-0.67497864063312385
Galaxy183,2804.9,3694.84,0.31460984076288689,0.059858625885181316
Galaxy184,3197.16,1550.45,0.53838538059413232,-0.22501669673072597
Galaxy185,2599.89,3649.27,0.10591502249485005,0.17856599220915439
Galaxy186,1575.46,1876.93,0.0034668309070535926,0.104926597903237
Galaxy187,2557.47,4133.67,-0.44841937073606591,-0.03837564893091662
Galaxy188,1105.64,3104.71,0.18736407691867238,-0.0049706296518527704
Galaxy189,1185.31,2680.36,0.22617354607711804,-0.2897672223948336
Galaxy190,3899.9,1301.43,-0.38612861836795526,-0.064856666207342789
Galaxy191,2805.11,2731.09,-0.17081170040652419,-0.19167513178822718
Galaxy192,871.13,249.86,0.10826589413139573,0.33748597903298655
Galaxy193,2780.34,2894.49,-0.25190654064505119,0.026259304542600004
Galaxy194,1508.7,1134.39,-0.0810234070707469,-0.2684893843413807
Galaxy195,3639.72,2121.6,-0.23278936567896907,0.096226217273420886
Galaxy196,1459.43,4011.19,-0.087646494719948162,-0.29926880945764756
Galaxy197,2999.61,425.02,0.012232980709669494,0.072324152887740856
Galaxy198,960.2,757.39,0.22928914157718455,-0.18767437839432838
Galaxy199,943.11,2443.79,0.038296187067854398,-0.27307595056525524
Galaxy200,1009.08,2116.13,0.19767143045214144,-0.35840456488222783
Galaxy201,1837.67,3052.73,-0.16271120034002795,-0.57689958349047732
Galaxy202,211.96,2322.26,0.06112457768335898,-0.20721053241368154
Galaxy203,1654.45,4082.69,-0.27508467630822042,-0.62575623067402164
Galaxy204,1844.69,927.1,0.51868907975639522,-0.5533433945237497
Galaxy205,1907.63,125.79,0.025884291991128627,-0.28169077210088456
Galaxy206,3386.98,1697.09,-0.18419785934611588,0.20682862722239215
Galaxy207,886.36,1631.56,0.21977784779128196,-0.074931393645649019
Galaxy208,3701.89,2642.5,-0.030298978656040657,0.24197347866375751
Galaxy209,3010.08,763.63,0.090128689405342077,0.065414362637726584
Galaxy210,2665.77,1065.18,0.062590122407510523,0.069828668172836089
Galaxy211,337.6,1708.82,-0.20311764544992778,-0.32504535045232846
Galaxy212,1447.1,1529.05,-0.12204353727554711,-0.22938729882438832
Galaxy213,3467.25,2767.55,0.082315269614152808,0.15443690125877518
Galaxy214,1604.84,250.6,0.21579122641775841,0.025816364824117123
Galaxy215,1249.59,117.94,0.071801202458680602,0.27912924881699075
Galaxy216,2453.5,3968.55,-0.0036926401171015755,-0.049071664691811658
Galaxy217,1707.89,3217.27,-0.13768817676131354,-0.12734833646340252
Galaxy218,989.49,2349.99,-0.060413612341537672,0.19102566237779101
Galaxy219,2708.65,485.82,0.3285920886973705,0.21212196654355947
Galaxy220,682.44,3914.72,-0.10856704990400781,-0.16230575858885976
Galaxy221,3419.23,634.98,-0.24865978922724408,0.054890683811806396
Galaxy222,2045.67,2249.39,-0.11107877956285439,-0.086642233486498119
Galaxy223,3142.22,2673.67,0.101883625983274,0.27148531634189416
Galaxy224,1621.8,2299.19,0.18441560409175883,0.092824711200252763
Galaxy225,2949.08,972.59,0.10158764099035972,-0.04123087544088784
Galaxy226,2596.28,1852.59,-0.044115689541346384,-0.010279789314452198
Galaxy227,2518.82,3894.56,-0.11192460589064493,-0.12989604948582484
Galaxy228,2999.49,448.82,-0.040437095191591277,-0.036598602907169174
Galaxy229,3510.62,2589.72,0.044550651553584925,0.19203341231957977
Galaxy230,2884.03,1498.11,0.037906830978998191,-0.25445632119891376
Galaxy231,651.52,2067.96,0.035847195505903373,-0.40980371709065788
Galaxy232,4167.85,188.7,0.48771234441767569,0.12474214649499596
Galaxy233,2750.52,756.16,0.056108964882443213,0.28799816018511581
Galaxy234,1023.05,102.13,0.095743949063616413,0.13494200237121162
Galaxy235,1661.9,3933.4,-0.3811327548111817,-0.061364214888062221
Galaxy236,1361.21,2458.34,0.16838299324010336,-0.32314756826827551
Galaxy237,3659.16,3358.22,-0.33937797163283612,-0.083502550342121132
Galaxy238,1889.65,375.34,-0.025212895671735347,0.10934136067038719
Galaxy239,2560.41,3845.74,-0.10397441706128736,-0.14752112064760434
Galaxy240,3227.53,1969.05,-0.45658122203692419,0.016425225361040928
Galaxy241,2769.82,2113.27,-0.13238189325720362,0.13631619036162762
Galaxy242,3948.06,1583.64,-0.14621436203574384,0.098557127733571448
Galaxy243,1913.69,3801.21,-0.33787790889943847,-0.011321791270137063
Galaxy244,2402.59,965.44,-0.15579417274736312,0.060078797896080394
Galaxy245,1732.18,1363.33,-0.25293829863723782,-0.26126091009122615
Galaxy246,90.08,3482.26,-0.046774834542665636,0.10816938112363775
Galaxy247,3794.55,3280.13,-0.062261638048465504,0.079648483873814263
Galaxy248,487.86,1051.76,0.075103682451256815,0.10002162005310868
Galaxy249,401.8,2995.37,0.019614602522070035,-0.41624808160750515
Galaxy250,3663.39,1831.82,-0.070187236780983181,0.35212870232167348
Galaxy251,1365.89,4040.65,0.11955040713648372,-0.1886950560378724
Galaxy252,3253.98,363.0,-0.056678364686695376,-0.28049922560349372
Galaxy253,3496.96,2527.62,0.056689977423364069,0.00907747238267477
Galaxy254,2047.08,2613.23,0.19768174678471903,0.32891579319655428
Galaxy255,1716.45,1811.01,-0.01375766027941051,-0.24883737157420172
Galaxy256,2200.13,3161.64,0.25526302526766242,0.030347963690733795
Galaxy257,3657.32,3954.34,-0.18938561133906992,0.12619442298424011
Galaxy258,2961.42,2516.46,-0.19717158128719958,-0.00025208982358613206
Galaxy259,1118.36,3997.29,-0.35582756857150022,-0.31669275669844454
Galaxy260,1021.74,4037.24,-0.20462748781820445,-0.2413044411591827
Galaxy261,3033.57,10.93,-0.09590280176426641,-0.079874789059407036
Galaxy262,1945.34,1620.33,0.20591097122105387,-0.048784460754218301
Galaxy263,3283.6,986.97,0.1101663339755681,0.11203029467831013
Galaxy264,2093.66,597.62,-0.04907296005304207,0.005954382663473437
Galaxy265,3391.1,998.13,-0.22179829041282645,-0.07553639823591668
Galaxy266,3861.34,2906.15,-0.2216145277180516,0.27441500472034763
Galaxy267,3438.41,2907.15,-0.35247132565208511,0.018600169395352584
Galaxy268,1519.33,3449.33,-0.10290980449490528,-0.066895312988579786
Galaxy269,669.04,1680.14,0.30764287435169352,0.0038521577586212441
Galaxy270,47.84,282.92,0.058102278339074095,-0.19345412490197011
Galaxy271,2074.53,505.64,0.2103564596313961,0.29586583508160286
Galaxy272,4056.46,1957.21,0.35438181710378702,0.093183563097209196
Galaxy273,2960.54,332.08,0.40132324210515447,0.35516876989635665
Galaxy274,797.67,564.68,0.12087065050528456,0.16291492789536144
Galaxy275,864.79,2315.92,0.042499496091445231,-0.21087138858048304
Galaxy276,2859.55,1495.07,-0.13136544154020974,-0.15159513317170042
Galaxy277,779.7,2367.45,0.093743965884496364,-0.2055052254267021
Galaxy278,508.53,713.72,0.21506822356831745,-0.22758053711582049
Galaxy279,1665.38,2353.01,-0.12104787529808242,-0.24913137757338943
Galaxy280,1393.63,3972.46,0.092247404270585948,-0.32380763165183951
Galaxy281,1865.01,3663.0,0.21765041275768185,-0.41309518442937948
Galaxy282,3012.42,695.21,0.16523115317013107,0.61614861368952956
Galaxy283,1472.98,2411.22,-0.050700033282149837,-0.33653292402273244
Galaxy284,3506.92,2871.23,0.30799888494974559,0.13055705078626823
Galaxy285,2326.7,2273.23,0.072670986168804935,-0.030820505134421805
Galaxy286,1961.15,2667.79,-0.34244176197099929,-0.13004996502460112
Galaxy287,4135.2,2292.91,-0.057560413103794852,0.15620366541615704
Galaxy288,1554.97,358.66,0.13606963868197122,0.54542366172943413
Galaxy289,2780.51,4157.55,0.016827806826081676,-0.14700635048149441
Galaxy290,1033.82,4146.05,-0.56881834318128943,0.11555275865904899
Galaxy291,958.09,3128.05,0.10724148578686746,-0.019686919630796051
Galaxy292,1724.94,727.44,-0.079019200989542904,-0.23530893916753562
Galaxy293,3484.34,1151.08,0.1008560601308293,0.17689053694054319
Galaxy294,1599.58,2471.78,0.19972419295718785,-0.19932925200950585
Galaxy295,3441.23,1683.29,0.35969717810397583,0.050068185042676593
Galaxy296,2737.93,1710.43,0.011802532050583681,0.16664092482666304
Galaxy297,341.95,2241.44,-0.33273939369059102,-0.25404163202701419
Galaxy298,565.72,2318.01,-0.24342021891209323,-0.43740087032049152
Galaxy299,2769.5,3592.1,-0.08689593581122515,-0.28441902025966997
Galaxy300,3115.56,4131.66,0.19374138779944491,0.26554271145269565
Galaxy301,1936.44,3531.26,-0.18120278114919852,0.084189870096766511
Galaxy302,762.48,3680.38,-0.0011262365498135862,-0.01494492513587381
Galaxy303,105.33,385.55,0.39295963891464109,-0.10992126671516325
Galaxy304,4109.74,3887.42,-0.11590950844648748,0.14681603810581323
Galaxy305,3395.03,3005.49,0.062856776409847104,-0.084183951135129054
Galaxy306,3646.76,3534.22,-0.33770028100070304,-0.41338073347371979
Galaxy307,2321.36,1612.95,-0.27609892678133052,0.07265707442502059
Galaxy308,2398.74,236.8,-0.36906493849925004,0.16363818924364143
Galaxy309,1831.44,3692.95,0.06210731136648226,-0.58160548217961461
Galaxy310,1380.71,1868.02,0.20925087569785286,-0.14853974762445168
Galaxy311,972.04,1681.82,-0.38006185087174038,-0.088952295740626311
Galaxy312,2717.77,1522.54,-0.26072570975221077,-0.089803834001033284
Galaxy313,3395.53,3700.77,-0.57957395092608233,-0.21357484296878129
Galaxy314,3190.58,784.33,-0.4176147459776044,0.35797860077543986
Galaxy315,2782.21,2682.44,-0.035644003020892573,0.49030121726548564
Galaxy316,3078.82,1349.17,-0.089951701966466596,0.42477328069713421
Galaxy317,2155.46,1357.27,0.082095275283245644,0.047758542133345516
Galaxy318,1260.87,3152.75,-0.044599786822752306,0.046415258772240009
Galaxy319,3244.95,3247.08,-0.34036336139223478,-0.1296044059244611
Galaxy320,1194.01,1780.98,-0.3106584914888158,-0.1794961668118796
Galaxy321,1278.68,4054.54,0.48838926583539471,0.17227500515051808
Galaxy322,3795.51,64.82,0.06254137744987226,-0.021670015327785896
Galaxy323,544.69,18.01,0.020298456953816935,0.14096055494108917
Galaxy324,1929.34,1052.87,-0.44167844699679992,-0.28919218201666846
Galaxy325,1515.41,316.81,-0.19170332193513676,0.22546036679207312
Galaxy326,2637.08,2247.2,-0.20929801305868972,0.17144624727815322
Galaxy327,883.89,1484.14,0.0055500171516004587,-0.48984512285785509
Galaxy328,1484.37,2910.22,-0.18407540667961783,-0.28383527245384677
Galaxy329,3974.33,484.31,0.30002590809959795,0.094554982447299527
Galaxy330,3344.77,2275.09,0.20053527909466715,-0.104356351797914
Galaxy331,3819.47,2157.77,-0.28060474870021535,-0.26351461062539944
Galaxy332,342.86,867.22,0.20384788788185443,-0.0062550744018528975
Galaxy333,2234.82,1946.99,0.17249608514396278,0.056452805624619989
Galaxy334,741.32,2877.59,-0.45543876017120755,-0.24766394366971459
Galaxy335,1243.46,2859.8,-0.31751897295558751,-0.38299833121967491
Galaxy336,2757.53,673.82,-0.14063923930775454,0.094121001963294204
Galaxy337,971.7,2663.21,-0.17038158344928911,-0.043884176513075995
Galaxy338,1683.27,1084.13,0.34703291195410052,-0.15977266725580849
Galaxy339,52.91,3045.46,-0.10732065326465405,0.089282309304284407
Galaxy340,1561.26,4033.49,0.018243426080504804,0.18508493607980836
Galaxy341,845.05,438.24,0.048421668619752417,-0.070702229738602643
Galaxy342,3993.2,1220.34,0.18294944882306141,-0.1554120365416107
Galaxy343,163.37,368.88,-0.10071012602232968,0.20002970144296453
Galaxy344,3124.55,923.63,-0.23446411166094966,0.3401732045025882
Galaxy345,3873.94,1301.5,0.23803793326108111,0.15533747035700607
Galaxy346,2990.68,3661.6,0.011285906062240336,0.22812891955755574
Galaxy347,3075.33,3003.41,0.038502373213598201,0.038792781423898803
Galaxy348,3873.75,1062.75,0.18978779165992177,0.091802708832702168
Galaxy349,1783.19,302.73,0.23887281305191818,0.11107466250544835
Galaxy350,2183.2,1782.78,0.11137195786584667,-0.050124622834305688
Galaxy351,1773.89,2721.91,0.0074576645288195187,-0.29130739521610804
Galaxy352,2169.09,86.98,0.23759282414498759,0.047432908941595839
Galaxy353,3718.14,3634.95,-0.17323770343545203,0.0077699995978212921
Galaxy354,3136.06,2876.07,-0.019595125709221922,-0.13804739807693145
Galaxy355,2237.8,2421.06,-0.15769941752866257,-0.23099380049253349
Galaxy356,34.45,2238.58,0.10336318722799899,-0.15009181353558843
Galaxy357,2170.83,2919.97,0.064177243615457152,-0.35691276962719376
Galaxy358,854.21,658.78,0.37551643373106858,-0.11040563660635125
Galaxy359,1748.82,1801.25,0.11505653511425626,0.084900575015330104
Galaxy360,3604.7,1016.48,0.005482115387131295,0.2775245317676085
Galaxy361,2595.27,4042.3,-0.24859723442976639,-0.02691542503401028
Galaxy362,1352.16,43.9,-0.26761211607240493,0.15801099003126665
Galaxy363,557.9,737.68,-0.13889691264898232,-0.24895303658718931
Galaxy364,548.41,4124.4,0.16938391798509794,-0.34681397279112569
Galaxy365,3436.23,3852.68,-0.18473450673374631,0.44293923993299578
Galaxy366,4070.2,3951.6,-0.14308578224107149,0.00018312229839231864
Galaxy367,3175.11,783.78,0.3121808620200488,-0.29850264469690374
Galaxy368,3781.31,3653.35,0.12369652452017052,0.21410806063058402
Galaxy369,2672.78,2062.91,-0.14809114291413425,0.36471885366853823
Galaxy370,3776.17,2098.81,-0.36477806989912376,0.62244240347496427
Galaxy371,3482.43,3116.24,-0.45453606645679123,0.28442703925093715
Galaxy372,3965.62,169.45,0.057734952372969328,0.051883020239285024
Galaxy373,1923.92,2785.77,-0.19510969574170992,-0.21228591837124161
Galaxy374,3385.12,3506.64,0.21336146237557421,0.053556307086277413
Galaxy375,2478.69,758.67,-0.24841941490486805,0.029341482666665614
Galaxy376,2346.35,903.41,-0.069158381909669095,-0.180651084230564
Galaxy377,1840.91,59.17,0.14375770999624971,0.27688477625388219
Galaxy378,2039.86,1089.71,0.016452816658041755,0.40752606075196762
Galaxy379,1497.28,1190.79,-0.38055771918320708,-0.14118236158230724
Galaxy380,1273.61,2976.41,-0.22500070589160726,0.0060238149777905869
Galaxy381,3040.83,124.29,0.024815083910185137,0.29562268557269583
Galaxy382,2906.52,1474.78,-0.30192014230430864,0.00074501803352531454
Galaxy383,2917.16,884.61,-0.012232833337915888,-0.21590611791059328
Galaxy384,1421.92,1835.68,-0.24056537914567497,-0.18539848645098467
Galaxy385,3285.97,1747.16,-0.40310789620567722,0.45601851269111826
Galaxy386,510.26,1844.08,-0.076448547499495104,0.24400054802692475
Galaxy387,3636.12,935.22,0.25897731425770176,0.23952388022411669
Galaxy388,1414.1,1261.98,0.16816215709496113,-0.19423951308138371
Galaxy389,1281.13,2428.38,0.1467628016250519,-0.21953039576577715
Galaxy390,3960.12,1921.54,-0.04502242549154338,-0.020495380119397333
Galaxy391,3875.33,1244.5,0.089629558255820321,0.3236672584294048
Galaxy392,3698.34,4062.47,-0.5843285193672425,-0.072691054665213722
Galaxy393,2444.9,3094.56,-0.053784176607283185,-0.044119666136071323
Galaxy394,3042.94,1887.37,-0.084959198217037124,0.14913363963770909
Galaxy395,2980.85,2480.9,-0.19675866934824279,-0.072595689682422873
Galaxy396,74.04,121.41,0.03704491803927315,0.22102833223622426
Galaxy397,3293.5,2763.41,-0.097887267942211656,-0.012571963662746474
Galaxy398,2516.37,284.81,-0.033125770951646039,0.10096651310771558
Galaxy399,4178.27,1234.74,-0.015963193141103768,0.42494681404961143
Galaxy400,1212.48,942.66,0.081006780532348249,-0.2299334258382319
Galaxy401,2012.03,1148.74,0.092984354061543484,0.18274814653049573
Galaxy402,891.82,2685.83,-0.018537935685569159,-0.48195657870290726
Galaxy403,2683.49,1518.12,-0.046948459074129534,0.10982337102151939
Galaxy404,806.07,272.47,0.1052723161385017,-0.090196378462816321
Galaxy405,3999.93,861.64,0.12650878082748362,0.24279543211025009
Galaxy406,959.1,422.33,-0.037032907611612098,-0.24702246070592815
Galaxy407,46.54,1533.3,0.20327590453334587,-0.14535296326203317
Galaxy408,1287.28,846.74,0.33585104856872561,-0.045262130285370572
Galaxy409,208.9,4025.94,-0.10298748261896078,-0.14521185652958973
Galaxy410,512.05,532.03,0.22570847994608748,-0.017783591314692301
Galaxy411,2437.31,3167.38,-0.39173129419667641,-0.405335694240884
Galaxy412,1930.25,1612.42,-0.074620967030303562,0.16936627808720192
Galaxy413,3029.63,2157.17,-0.61251335049061206,0.29758555013645183
Galaxy414,2889.31,208.3,-0.099675042898644498,0.094622451264694082
Galaxy415,366.66,934.1,0.16457148946593306,-0.19155876620130208
Galaxy416,58.83,3985.75,0.18184892788168078,-0.17706321137970968
Galaxy417,677.87,1910.22,0.022930766094769649,0.041332399127565173
Galaxy418,2390.17,3583.82,0.041625278621744505,-0.13950286993247679
Galaxy419,431.9,89.67,0.20664878019994082,-0.012618012150115564
Galaxy420,1188.85,2931.95,0.034868744596186496,0.38434646386202698
Galaxy421,1037.02,3474.94,-0.16921388755323025,-0.032505809600608698
Galaxy422,2453.22,862.73,-0.0046131980522814905,-0.42286652890363707
Galaxy423,724.85,1571.92,0.020077240596139176,0.24831636568052326
Galaxy424,618.63,1388.1,0.18143223440316528,0.27018865577937939
Galaxy425,1757.34,3828.39,-0.25841260039051955,-0.14251009785969806
Galaxy426,4163.89,2941.79,-0.24724007092639416,0.52110292358574772
Galaxy427,799.21,2447.41,0.034376390511471074,-0.11637279644524548
Galaxy428,3043.45,3087.02,-0.74425171370177523,0.0089947741162928734
Galaxy429,455.86,2972.5,0.38447830787750992,-0.13723364617067083
Galaxy430,518.57,1321.43,0.22862949538430119,0.17445699813690929
Galaxy431,765.7,2648.27,0.0046789158838989771,-0.1987250181348266
Galaxy432,1058.8,1674.71,-0.19005047983477041,-0.10122541222360677
Galaxy433,1133.87,3030.7,-0.21554517203117124,0.062458678556188807
Galaxy434,320.71,773.97,0.59939597972424918,0.43849320822643784
Galaxy435,1006.41,2803.26,-0.20011321547514455,-0.44891969323551162
Galaxy436,4109.68,1226.15,0.11862556655350692,0.12154206830280148
Galaxy437,702.23,1414.12,0.30612746501902727,-0.15181622137423259
Galaxy438,3769.1,2329.98,-0.13686482681375914,0.25021344552210228
Galaxy439,2565.77,967.14,0.025698613577620627,-0.10265554228158229
Galaxy440,3080.61,1758.44,-0.25469710949517699,0.59180107537700499
Galaxy441,1450.89,4191.98,-0.18275404262667497,-0.59140454103121232
Galaxy442,643.27,2858.7,-0.088692981382001379,-0.19014260427471474
Galaxy443,3827.74,1734.54,-0.23038142329368,0.37480342483002671
Galaxy444,158.93,3486.6,-0.12711664308062659,-0.0013992466053825703
Galaxy445,1653.52,3625.26,-0.087710237430535243,-0.2434316145244852
Galaxy446,3755.41,1378.47,-0.23101266354068617,0.31421820923530985
Galaxy447,895.14,549.61,0.06827423025415752,0.15816952384374383
Galaxy448,4177.89,3569.9,-0.43936626591747802,-0.22347696635930081
Galaxy449,1599.58,3402.45,-0.50226895393489945,-0.25019632673040465
Galaxy450,3288.35,3497.35,0.19714018475116069,0.15523488662892179
Galaxy451,2575.11,2144.57,0.10353449453943406,-0.0022008898858200121
Galaxy452,1062.12,3353.98,-0.54563439389460155,0.18889477566313637
Galaxy453,1329.52,2898.3,-0.033173139433826875,0.15694388920470179
Galaxy454,2659.43,2862.17,0.221266551011635,0.046331907365807036
Galaxy455,3585.85,2229.65,0.13216440768243079,0.059787325198857405
Galaxy456,2980.64,304.14,0.01739659184267292,0.20629502683302958
Galaxy457,770.89,3111.34,-0.64622546443225259,-0.46045196853004466
Galaxy458,3952.57,3115.8,-0.098929842895252862,0.23937503904703727
Galaxy459,880.58,3203.8,-0.048674863445036333,-0.0066254607432800761
Galaxy460,2111.16,2381.67,0.2638265771167293,-0.32866098883933625
Galaxy461,1105.24,3910.97,-0.076849288778024202,-0.22964060909205761
Galaxy462,3832.62,10.87,0.5262810263977129,0.23705004091018828
Galaxy463,709.32,554.44,-0.20964819214240513,-0.11017477069687237
Galaxy464,2295.34,2962.44,-0.26114311768470277,-0.35695404255895241
Galaxy465,3807.0,1090.05,0.28815085270340146,-0.063684347983398948
Galaxy466,4187.12,999.75,-0.20278917789254913,-0.13022659024007832
Galaxy467,3235.69,2285.41,-0.3517066664647216,-0.25695269422061667
Galaxy468,2562.6,3871.68,-0.30640397425779753,-0.24759419438887903
Galaxy469,874.49,2631.35,0.043369822159858351,-0.3764217574435002
Galaxy470,3763.09,290.71,0.039382374203645293,-0.09263208976039454
Galaxy471,3979.64,3429.51,0.24079069532411507,0.12251930932443486
Galaxy472,2297.01,934.16,0.15220735984912445,0.15590655625822089
Galaxy473,4144.43,628.76,-0.050673631794701579,0.2943602328429909
Galaxy474,511.0,2101.89,-0.14361172061801281,0.10374553878328538
Galaxy475,1186.46,2971.98,-0.35970792279714459,0.039401123321804454
Galaxy476,2388.02,1440.68,-0.13067196376255011,-0.075469935406617353
Galaxy477,699.98,3441.93,-0.089786032879622557,0.25630673327873865
Galaxy478,1622.47,442.71,0.14412589031865297,-0.069565192346190075
Galaxy479,11.04,2932.42,0.087146902302300683,-0.17865389809930693
Galaxy480,2516.07,3681.93,0.054998597184056836,0.4214564457917373
Galaxy481,3714.66,1084.68,-0.0039569217941681153,0.4105772859954947
Galaxy482,393.5,1681.73,-0.00078153013859019738,-0.34791450740973084
Galaxy483,2090.18,1045.47,0.16363388542128357,-0.05847274840351907
Galaxy484,559.66,1686.71,0.21160087881897155,-0.24594936699542769
Galaxy485,3433.2,421.61,0.25689738217562763,0.25614664636015644
Galaxy486,1695.91,823.4,0.12140919968009078,-0.34179710252646767
Galaxy487,3476.89,135.78,0.0095082196495841764,-0.031142663101284399
Galaxy488,960.88,3660.04,0.19665375437743368,-0.097183525826718645
Galaxy489,981.11,3161.44,-0.26883811893877119,0.26081299342560216
Galaxy490,3485.01,2211.24,-0.61408332862204718,0.22281169107056992
Galaxy491,2088.37,3764.16,-0.28095873573631036,0.37867059737834385
Galaxy492,320.84,1702.51,0.24310978708806649,-0.38131701971904497
Galaxy493,2328.86,3671.72,-0.1047911840034991,-0.048544140711514541
Galaxy494,1229.7,224.74,0.14796626340924054,0.022581652805955824
Galaxy495,3227.11,3772.03,-0.29643013890977077,0.11794980490784736
Galaxy496,2903.9,3060.94,-0.51026389235794711,0.18833953345894044
Galaxy497,3760.48,2303.0,-0.28156832520395425,0.26249051456603611
Galaxy498,1946.77,1734.05,-0.1431367672668882,-0.46215437793263531
Galaxy499,2484.31,3499.33,-0.19873607433309079,-0.14017935397779746
Galaxy500,644.57,534.23,-0.14907566625486954,0.16648582215294891
Galaxy501,2513.68,2455.83,-0.03183379455541005,-0.10190630812753593
Galaxy502,3216.25,3608.5,0.10664781030095663,-0.26146235643121202
Galaxy503,959.19,2686.67,0.097849932867674322,-0.2117205494795468
Galaxy504,3065.97,1412.2,-0.37069659392471777,0.059102927551466199
Galaxy505,3112.16,1312.89,0.13957924848357395,0.26517037077073635
Galaxy506,2956.19,2819.02,-0.22543942868094763,-0.30877556342709694
Galaxy507,3042.32,2737.26,-0.30169465240051113,-0.023662540670849712
Galaxy508,1190.59,2481.45,-0.20568479771342529,-0.24332466273322112
Galaxy509,1363.85,2670.33,0.0023616502762351249,-0.14749175444733709
Galaxy510,4062.28,353.27,-0.074494397128068046,-0.20453038929982945
Galaxy511,685.6,918.53,0.1292313817910401,-0.022332551698939732
Galaxy512,1233.93,3382.15,-0.11282436030419513,-0.20690632380150467
Galaxy513,3189.26,3743.01,-0.15855117451405742,0.26523934088880452
Galaxy514,1090.17,4074.06,0.10682400040280297,0.032178209568674176
Galaxy515,783.89,2021.41,0.18132837720079276,-0.14387351185050096
Galaxy516,4151.94,635.59,0.493385193477555,0.24237369773104667
Galaxy517,457.88,4071.68,-0.041505832132687846,-0.10704378235862166
Galaxy518,1217.12,2211.72,0.20285439919297449,-0.33332094349569874
Galaxy519,803.38,3744.51,-0.19439493910377342,-0.017143078750109869
Galaxy520,3876.58,1815.41,0.057234547883444731,0.2975401082196949
Galaxy521,3604.91,957.59,-0.32521750157070056,0.50436458503563386
Galaxy522,1978.11,3439.19,0.37678206736301617,0.034334541696784585
Galaxy523,2347.27,4180.11,-0.04687478516171778,-0.028578182182527574
Galaxy524,1972.21,2556.16,-0.26724269181998417,0.0099483853999759453
Galaxy525,39.25,3813.2,-0.45135920078605141,-0.18818349010373406
Galaxy526,1117.49,4080.68,-0.095049045634009038,-0.2451576356224284
Galaxy527,3625.16,315.03,-0.073585656964910373,0.17303541828308255
Galaxy528,3775.99,3541.56,0.070342192201323955,0.067351270622486192
Galaxy529,2701.83,718.55,-0.38307192791143319,-0.34469448696778709
Galaxy530,1614.58,2688.83,0.11934860356549128,-0.32804562103238766
Galaxy531,1889.91,3091.81,-0.041799649883215148,-0.30718826018569445
Galaxy532,3511.33,3446.37,-0.37736527996949443,-0.0094098337189489414
Galaxy533,1583.68,626.57,0.13561740196798386,-0.092603427017762571
Galaxy534,219.32,3714.19,-0.16936326155591394,-0.41219168035150405
Galaxy535,1512.7,1599.77,0.074984955867404737,0.14027696247294749
Galaxy536,2031.86,616.8,0.011438981422559752,-0.16208690108928653
Galaxy537,2961.15,2520.02,0.22290380238601987,-0.040067340920721832
Galaxy538,186.17,139.3,-0.068995993719621701,0.082046768174252327
Galaxy539,1128.7,4141.8,-0.24249404670795388,0.042358647675935335
Galaxy540,3475.59,950.31,-0.10815515765062697,0.29522474963841744
Galaxy541,316.79,3812.79,-0.17750177015057941,-0.20459002763034292
Galaxy542,3313.79,3964.41,0.19225621768388898,0.2041316935221914
Galaxy543,2727.27,1718.32,-0.034742195570837714,0.13571840312924704
Galaxy544,4152.28,2715.7,-0.42584560082794537,-0.079151021266591182
Galaxy545,281.88,784.82,0.21135264220851135,-0.4392555486243378
Galaxy546,1289.4,30.84,0.46830790736685846,-0.074844088403315245
Galaxy547,4042.07,2752.44,-0.36391063672685775,0.39464743796374557
Galaxy548,3021.33,3379.66,-0.7477211212855509,-0.58937570393674676
Galaxy549,2023.49,3322.86,-0.010926689374583548,-0.1545994892582119
Galaxy550,1666.89,3700.96,-0.44470558822218997,0.17943290797595368
Galaxy551,1497.89,3545.33,-0.029066694769601234,0.026318445813072106
Galaxy552,617.2,2491.79,0.31290564124031595,-0.18467631925710309
Galaxy553,419.09,191.22,-0.1763848531471531,-0.0087156515639511094
Galaxy554,3087.94,175.87,-0.12987378288775203,0.42697007543420229
Galaxy555,4049.33,1473.1,-0.22720144587306634,0.56407104105140227
Galaxy556,1459.79,1801.96,0.012700174750338239,-0.16620357340025071
Galaxy557,1654.85,3413.58,-0.26953203770083634,-0.13442264597845621
Galaxy558,354.49,459.53,0.23317021934844961,-0.27222707536787655
Galaxy559,905.07,2866.61,0.051039114367517902,0.054065244085863717
Galaxy560,2481.4,265.33,0.19775505498374504,0.17919247916535119
Galaxy561,233.01,594.98,0.35723390196108362,-0.097911306909885656
Galaxy562,839.19,1561.53,0.23019527272376616,-0.32945750234109061
Galaxy563,786.91,1674.73,0.20269437206068222,-0.27742288080701327
Galaxy564,2366.28,3715.6,0.29207122391606311,0.28501389910522312
Galaxy565,2880.47,3170.92,-0.40884893649588583,-0.15090772099896768
Galaxy566,407.87,264.03,-0.021976276198471117,-0.16749849492762181
Galaxy567,2529.53,1540.56,0.10230259038375783,0.23760247434592757
Galaxy568,3713.22,4069.79,0.17777508588062524,0.32912216356135565
Galaxy569,2850.52,3872.87,0.39082681074865039,0.33248413566030344
Galaxy570,2850.08,522.73,-0.47521772689540542,-0.069782625798267425
Galaxy571,3153.86,3367.87,-0.42631164950047273,0.10047520119141801
Galaxy572,2061.45,2459.67,0.098183771136820919,0.44600516276115931
Galaxy573,3295.57,2406.26,-0.1427821254678836,-0.15157978035105177
Galaxy574,838.57,3902.29,0.039667408996708314,-0.33503489649433843
Galaxy575,1620.58,2853.84,-0.19744392483810386,-0.13504092783827648
Galaxy576,347.69,2848.0,-0.099172466805515266,-0.25224913670767635
Galaxy577,711.05,9.37,-0.47023680428404602,-0.14204200376573184
Galaxy578,3870.11,3215.6,-0.21286196443618099,0.52005607454848646
Galaxy579,1908.83,868.7,0.27967811173285206,0.3271405712409724
Galaxy580,1105.32,2127.91,0.1250634750903428,-0.091667446461263194
Galaxy581,2818.26,4167.44,-0.39833887260472167,-0.25723921344039719
Galaxy582,2744.76,3832.85,-0.0010490602013690509,0.01848074426404404
Galaxy583,4008.85,3451.03,-0.18626030824099332,0.31636665380475021
Galaxy584,1037.11,3104.62,-0.14412377292464551,-0.021558796142531811
Galaxy585,1923.72,3296.54,-0.11978490650515722,0.12887083855616732
Galaxy586,2502.31,3437.49,-0.25012488235798613,-0.27063069222270991
Galaxy587,3305.61,405.43,-0.036307966007943976,0.0061342175487211215
Galaxy588,635.22,1756.46,-0.16068285676419353,-0.12183260775068608
Galaxy589,3599.14,3051.8,-0.14145665640314334,-0.28550874270088522
Galaxy590,1762.83,2315.18,-0.18050021550097345,-0.031583776287637366
Galaxy591,2528.4,316.51,-0.33541347205713645,0.0013453557511048028
Galaxy592,630.01,4046.98,-0.12348148252092797,0.079840583357006556
Galaxy593,2479.83,1764.79,0.21661781563059943,0.04733068621788257
Galaxy594,3466.52,2040.22,-0.035141299836787807,0.36097047627990064
Galaxy595,3872.31,1685.69,-0.35416731481654296,0.051071862245075317
Galaxy596,2405.37,2791.07,-0.34701184532817742,-0.098736502821084343
Galaxy597,1410.84,436.2,0.33091739984467006,0.091370040240033215
Galaxy598,2558.95,462.62,0.056418140334920638,-0.21187253960659894
Galaxy599,2234.99,3005.88,-0.28476176053079405,-0.089864683924785818
Galaxy600,4009.36,2187.81,-0.34232432816463088,0.4354932031857236
Galaxy601,907.56,2473.49,0.11532080286532494,-0.077058829112272742
Galaxy602,2049.37,2231.71,-0.026426075747296732,-0.18215342552709105
Galaxy603,3381.05,2238.51,-0.23418538292995,-0.236747720326665
Galaxy604,3602.65,294.55,-0.069132069868722584,-0.081969212625936871
Galaxy605,861.86,870.09,-0.19116974165066095,0.10427205884678839
Galaxy606,2187.46,2471.74,-0.039150415481814874,-0.21704083162518611
Galaxy607,3937.93,674.29,0.01631922706111906,0.073369499407874753
Galaxy608,408.33,1326.15,0.08020020001750422,0.36380355614450449
Galaxy609,4183.48,923.96,-0.0053692093877344416,0.64294102404785125
Galaxy610,3188.69,3910.46,-0.073957117140713527,-0.11900035298088914
Galaxy611,667.02,1595.98,0.026362894687912877,-0.19756524828675714
Galaxy612,264.43,892.38,0.27147443156190665,-0.22773862096978958
Galaxy613,2840.17,2291.54,-0.23892070670204166,-0.19240323758995195
Galaxy614,2512.5,13.27,-0.017357221783633858,0.20388290803410977
Galaxy615,1969.07,294.88,0.12847546195753057,-0.293392244795534
Galaxy616,4069.0,2097.39,-0.023702810653033063,0.17206946880303725
Galaxy617,4150.37,436.58,-0.28939974945301783,-0.11424119828339591
Galaxy618,2080.82,1160.78,0.074161859977138311,-0.14944808285022473
Galaxy619,1560.79,1715.49,0.20430766146921656,-0.3448647689528066
Galaxy620,355.02,2221.56,-0.15196695589368189,0.091814003964121593
Galaxy621,3588.24,1200.55,-0.060782309625892247,-0.23140245297807838
Galaxy622,575.15,276.5,0.11602511099190503,0.40933234273301711
Galaxy623,3802.69,2562.53,-0.21866284449345805,0.04046596931857345
Galaxy624,2087.61,1529.38,-0.25827416381116863,-0.30838596912799987
Galaxy625,2813.36,1709.44,-0.34079988999445865,0.25927032988081772
Galaxy626,3028.67,992.87,0.014751503333517713,0.011394450181181355
