GalaxyID,x,y,e1,e2
Galaxy1,2036.04,2410.74,-0.0030946626860710591,-0.21008550242152105
Galaxy2,58.33,3957.74,0.021008535235379447,-0.2054280795473245
Galaxy3,2585.34,2358.45,-0.030786468157690428,-0.046527028630989398
Galaxy4,2624.86,530.02,-0.074175789433358286,0.16704054454421199
Galaxy5,2523.73,4001.53,0.18830920758223485,-0.62411254296312257
Galaxy6,4173.66,1036.71,0.020699440967973673,-0.35303247611848632
Galaxy7,2721.53,929.51,0.25797110601103301,-0.054754186635337487
Galaxy8,388.28,2308.9,0.036056508513679711,-0.086897968100127246
Galaxy9,165.9,2336.81,0.34765337778300898,0.16871887612400471
Galaxy10,2052.76,2804.89,0.074500973145625538,-0.14510999115494325
Galaxy11,2981.29,2403.65,-0.099936699206074342,-0.31312917869396312
Galaxy12,1511.54,943.25,-0.27554939793945277,-0.12888007519227371
Galaxy13,360.67,4174.46,0.26843148741696748,-0.35479579733731725
Galaxy14,1936.76,2917.84,0.0068340116817661098,-0.52297349668827298
Galaxy15,21.54,798.75,0.15990959890567602,0.37348778209498162
Galaxy16,210.84,1305.11,0.03823830244121354,-0.22999231571817388
Galaxy17,1693.44,3363.74,0.38369219199442506,0.1487187540726741
Galaxy18,1434.96,3511.37,0.017211412350285803,0.071472070777948732
Galaxy19,1793.32,2523.57,0.18947119844010712,-0.09153490823672375
Galaxy20,1590.82,4068.37,-0.24065686433589636,-0.018325117505452015
Galaxy21,3876.74,3126.82,-0.48247977552576293,-0.2171236678257509
Galaxy22,1644.84,2780.56,-0.015820331404287194,-0.26416868286595352
Galaxy23,1459.94,1991.69,-0.087269100494858365,-0.31290859800633869
Galaxy24,2641.32,2217.89,0.26328302289119343,0.092323573370946266
Galaxy25,2765.0,1378.61,-0.14528071034987436,0.091050473640338053
Galaxy26,1224.86,3015.48,0.089304622110641163,0.1006235289707994
Galaxy27,2282.51,789.99,-0.06856343921005828,0.21967786908324483
Galaxy28,3616.64,1067.78,0.10598959685843473,0.21009417995729263
Galaxy29,2987.35,3432.42,-0.014558268387335163,-0.10380230922292892
Galaxy30,438.81,2331.27,-0.07199361771944468,0.24683044504147528
Galaxy31,2667.18,1899.27,0.020505782343467616,-0.21885891446744377
Galaxy32,703.15,3761.56,-0.087414420061355691,0.040760867232296605
Galaxy33,988.82,847.81,0.24311790094998209,0.1744326384940264
Galaxy34,383.48,512.86,0.1893730032904202,-0.19903115825015205
Galaxy35,4151.72,719.03,0.068034286948189082,-0.05797663377243633
Galaxy36,3509.68,3381.09,-0.1989343027575538,-0.019610268101228803
Galaxy37,1715.76,1445.35,-0.0087033847604502945,-0.60410392275124158
Galaxy38,14.47,941.35,0.21382351818196826,0.15229947627690008
Galaxy39,3445.99,424.56,-0.23088715334935531,-0.066139076234123628
Galaxy40,3403.02,3324.3,-0.260169236496471,-0.31121272449836063
Galaxy41,1576.68,117.15,0.1148552323337447,0.13229430859361491
Galaxy42,1765.61,1634.09,0.029772003799401037,0.09127556445441623
Galaxy43,1146.05,587.37,-0.096650290416970513,-0.1353938241715022
Galaxy44,3374.06,3804.8,-0.0079655858567108662,0.28262056397211549
Galaxy45,3742.23,3911.94,-0.086624205117819764,-0.36115503039236557
Galaxy46,1469.11,3879.78,0.043828874986210804,-0.040553512328241337
Galaxy47,3242.94,1930.91,0.35192096485169044,-0.27989420132186715
Galaxy48,2176.71,1014.14,-0.11940247445414923,-0.013277121414604368
Galaxy49,3531.8,1800.38,0.40002594540718628,0.053905227332071315
Galaxy50,2474.21,3597.61,0.3103798161710869,-0.30409314647640689
Galaxy51,3296.16,631.74,-0.25402960135513869,-0.2885630514655983
Galaxy52,3299.58,1063.84,0.01352957318403733,-0.24682686804558451
Galaxy53,3874.15,227.01,-0.55620619257655468,-0.1729663675558166
Galaxy54,977.64,1447.97,0.46614109476097931,-0.032169061709542292
Galaxy55,1403.66,2111.24,-0.17913160328976499,-0.023527059755019696
Galaxy56,935.66,3017.92,-0.047153306590399055,-0.75515014569867289
Galaxy57,824.59,2739.52,0.052975499894624051,-0.35892964186722187
Galaxy58,2589.76,1275.03,-0.16668368976007988,0.058854066527355087
Galaxy59,3859.32,58.67,-0.016042237646157809,-0.0003907448834569241
Galaxy60,2555.45,1886.45,0.29452847478960664,-0.16709486853814456
Galaxy61,1571.52,385.78,0.22026156763600574,0.541050325140642
Galaxy62,1299.03,568.76,0.20122000590579633,0.073173612306254909
Galaxy63,873.45,2147.99,0.054583014439337676,0.09040050935297346
Galaxy64,3396.07,229.66,-0.018689339560295545,-0.2699680612071047
Galaxy65,1355.59,1216.12,0.21699463766861987,-0.0053474712709497343
Galaxy66,382.09,2323.04,-0.42724078218519074,-0.098937805700377746
Galaxy67,3116.4,2156.6,0.51427378420691672,0.020699097938414179
Galaxy68,3478.25,4087.71,-0.27815105259973932,-0.10722082450783875
Galaxy69,30.86,3411.79,0.10072228602092412,-0.093690706300429749
Galaxy70,1108.64,815.14,0.11237855885167075,-0.032474680413137266
Galaxy71,4119.81,730.5,-0.30660240213568546,0.27017480548443751
Galaxy72,3881.01,2958.97,0.057074893545228211,-0.051699752595225454
Galaxy73,1705.02,3912.19,0.015681848012611133,-0.012115536286560952
Galaxy74,52.21,2439.99,0.55269101018943489,0.31242572144924613
Galaxy75,2426.79,3056.52,-0.28567471040644565,-0.21330517101581142
Galaxy76,116.44,4164.56,0.14770348784115828,-0.15510058864229395
Galaxy77,2939.26,762.93,-0.27726651914629646,0.088235779570871684
Galaxy78,3470.72,2023.89,-0.31718410319778773,-0.24510486729302092
Galaxy79,2298.96,2774.05,0.088571105103609077,0.046622423852683947
Galaxy80,1792.09,3593.59,0.04846832953290163,-0.23952768148410616
Galaxy81,3361.13,209.0,0.31166303533183393,-0.038986335072154626
Galaxy82,1674.81,3155.23,-0.22864872569238026,-0.47528893930208749
Galaxy83,2497.08,2548.15,-0.046600921113632891,-0.38013334737039739
Galaxy84,1776.55,3551.0,0.11392398245898074,0.0858765451570144
Galaxy85,75.16,1912.43,0.064008081283691814,-0.0028006307954174386
Galaxy86,1206.05,2219.96,-0.30064360101406307,-0.031524852639202336
Galaxy87,1050.05,2588.75,0.17318255080642028,0.27267625383507921
Galaxy88,3514.3,143.79,0.23814608881109997,-0.49258036167309271
Galaxy89,1060.55,1556.34,-0.0035985065576597253,-0.016859290435309909
Galaxy90,2328.91,1982.14,-0.18174234426578079,-0.17221031431903863
Galaxy91,2780.25,1780.57,0.13371538252654655,-0.26307587742572752
Galaxy92,1452.91,643.93,0.30944639275943753,0.63987306073668626
Galaxy93,938.94,2340.6,0.178616710003315,-0.13276496324344275
Galaxy94,1209.31,306.32,-0.40259318329660387,0.17739869328908253
Galaxy95,325.37,4131.34,0.22426400525483359,0.32824206630153463
Galaxy96,537.96,2579.14,-0.096711495048828061,-0.16975732755680339
Galaxy97,3165.39,2913.74,-0.26934380459576329,-0.16281091754737489
Galaxy98,2087.02,906.5,0.33797721016126991,-0.005659693285690659
Galaxy99,539.42,2878.47,0.30345038231383947,-0.24074819269292097
Galaxy100,3976.54,371.26,-0.24146130525573462,-0.2960537301997539
Galaxy101,2107.03,1615.72,0.44473430956571047,0.067907659886941793
Galaxy102,4053.54,314.93,-0.10647863622048007,-0.10382095948333341
Galaxy103,2008.8,75.09,0.013552780455390809,0.43215532946694091
Galaxy104,3029.47,3638.19,0.22236181474858688,-0.13266301521916768
Galaxy105,2387.41,2265.32,-0.018560936233262479,-0.019652280991090065
Galaxy106,3225.61,2204.57,-0.34087708726604116,-0.2901858762855441
Galaxy107,2327.08,1635.55,0.29010899669965845,0.21205140627165023
Galaxy108,2905.34,3707.87,-0.0488430052360036,0.23648970602150646
Galaxy109,3478.01,1952.14,0.074743532456437625,0.017264473055554203
Galaxy110,2390.5,720.18,-0.0025354336253044368,-0.4160192389543888
Galaxy111,130.9,3280.34,0.12746191584620825,0.044284597420188615
Galaxy112,1894.74,1799.09,0.1542060033456604,0.024844246233034002
Galaxy113,797.76,2027.03,0.1107257167649898,-0.16770770076952446
Galaxy114,1558.76,3422.89,0.029950316735086174,-0.22511989119952763
Galaxy115,1250.87,2469.89,0.21201747966752127,-0.31389798353899034
Galaxy116,2721.96,731.07,0.19429301426152812,0.22316728598108829
Galaxy117,1534.09,153.88,0.15338507110942079,0.40306597545700218
Galaxy118,108.71,1069.43,-0.10988115157067299,0.19691130675699894
Galaxy119,3661.65,4127.56,-0.48606364886658004,-0.25691815293501424
Galaxy120,1629.68,3499.77,-0.31744621474804691,-0.062506638020911665
Galaxy121,1396.44,2347.35,0.31222425163738488,-0.416239164045762
Galaxy122,1806.65,1444.56,0.18826070905285694,-0.26646090930217087
Galaxy123,1801.12,3686.7,-0.28432386424952943,0.024352591874336915
Galaxy124,4043.26,2856.63,0.020170209898946134,0.3398273653599756
Galaxy125,2047.72,286.45,0.19388282814666466,-0.023669151974298974
Galaxy126,2435.7,1945.2,0.32773808697663109,-0.25433720126543458
Galaxy127,2061.28,3686.78,0.084628378216344377,0.038918448053443744
Galaxy128,1742.41,2137.62,-0.10533015926299605,0.035602981316639956
Galaxy129,3752.65,1522.66,-0.11677675571126606,0.068308040232096398
Galaxy130,2774.32,2748.48,-0.072862674577044317,-0.10224840589335249
Galaxy131,3770.07,101.58,0.22861937028761076,0.24969283847532486
Galaxy132,1703.39,4177.99,-0.21599828797614462,-0.11095896181871477
Galaxy133,2589.5,81.24,-0.088919014607279287,0.2415631063061856
Galaxy134,2439.81,1594.81,-0.098229208891978337,0.12915365971329795
Galaxy135,3013.45,2801.61,-0.15022914722267708,-0.27901906281722028
Galaxy136,4192.82,2155.44,0.22137805185506762,0.54544796717769439
Galaxy137,1213.66,1118.28,0.25402987484706885,0.28842661748321968
Galaxy138,2243.55,2370.56,0.0059144261639527823,-0.12949563028041886
Galaxy139,966.66,529.36,0.54851760671360761,0.15736323495047469
Galaxy140,1947.64,198.78,0.29775134170154255,-0.158311920304641
Galaxy141,2187.1,844.04,0.037853826663154705,-0.010614342291078785
Galaxy142,1058.26,4033.56,0.097376854591095435,0.020695759199183289
Galaxy143,4020.61,1948.95,-0.1225857688588699,0.15554493794041316
Galaxy144,2230.51,1553.42,-0.048696878960671736,0.11139445608111542
Galaxy145,1580.73,1986.7,-0.031582013817773286,0.082462075794987183
Galaxy146,1642.11,196.47,0.038524012048876385,0.26391203152308407
Galaxy147,2708.57,1102.22,0.053709946522792207,-0.19046290245678038
Galaxy148,2186.0,3506.8,0.10960802112197543,-0.517716963946383
Galaxy149,3918.05,1365.55,-0.2584104464201174,-0.83957727354530753
Galaxy150,2468.61,2741.71,0.17815679770487095,-0.08322065841244157
Galaxy151,23.02,2420.15,0.085927160086930632,-0.24153578580240687
Galaxy152,1524.37,2981.07,0.20248053470041805,-0.35405936947079936
Galaxy153,1441.76,3211.14,0.13346668035300924,-0.28762634899386097
Galaxy154,1518.59,694.08,0.052880637003633088,0.28439048186260674
Galaxy155,3573.3,2188.93,-0.22697639640393419,-0.29038413746969477
Galaxy156,4040.54,3150.64,-0.075876770929542481,0.12544247465032357
Galaxy157,687.8,1487.06,0.41643711202117883,0.36761944328473289
Galaxy158,1839.06,613.98,0.31812710463837496,0.11874800347344421
Galaxy159,1344.49,2711.75,0.29761534807855816,0.17996128380144627
Galaxy160,1542.44,1753.1,0.12385014477249154,0.30219951187425848
Galaxy161,3264.38,3161.54,0.048505892179890125,-0.25112450301635453
Galaxy162,2228.83,1153.58,0.048578257496868227,-0.12815732082886336
Galaxy163,4115.61,1096.51,-0.12452224507225274,-0.027317924429528045
Galaxy164,448.77,2105.95,0.25434988294514677,-0.17756240007151378
Galaxy165,2887.33,810.22,0.061634707937079328,-0.030444352084789322
Galaxy166,1192.31,1814.87,-0.11201679633696943,-0.1405726353383363
Galaxy167,609.06,4148.59,0.070623368498525046,0.14902914747716497
Galaxy168,483.54,596.99,0.4811710135128931,0.27604466284404244
Galaxy169,4180.24,2036.12,-0.26955595802400933,0.18690914932880681
Galaxy170,1628.35,1029.11,0.16616206580789575,-0.095175146342810213
Galaxy171,3399.57,1422.17,0.33049550568526692,-0.026755376310384063
Galaxy172,4184.51,1017.42,-0.18234784423888123,-0.18040740773710665
Galaxy173,3418.13,1628.43,-0.025973755118928271,-0.21470177924526196
Galaxy174,722.36,2042.96,0.21750496964364108,-0.015897257796858119
Galaxy175,2222.59,4123.14,-0.39496463256330472,0.21884570532038156
Galaxy176,169.87,2758.41,0.22480977298528931,-0.24886971242307718
Galaxy177,157.22,646.64,0.048792255210470495,-0.070953185228341459
Galaxy178,4064.08,644.95,-0.11691514006091892,-0.23601118109698743
Galaxy179,880.16,3340.8,-0.30573336320072353,-0.26536486846273333
Galaxy180,3263.45,3443.13,-0.41078326124756803,0.0054975876905911658
Galaxy181,1928.86,1777.4,-0.32667688021747121,-0.015463230200149149
Galaxy182,3634.51,3352.44,-0.14712047324049196,-0.44457294704605854
Galaxy183,270.56,2495.21,0.25487444018842792,-0.27968388505620106
Galaxy184,3615.06,3909.59,-0.007270747440074804,0.06199623854761286
Galaxy185,3197.91,2963.71,-0.22918355851870165,0.077194300263642435
Galaxy186,3299.68,2417.35,-0.226735800111737,0.050306054393132071
Galaxy187,902.06,2728.0,0.45281834451263958,0.23435428289282068
Galaxy188,3373.46,2907.53,0.076499861846986261,-0.062088340149193066
Galaxy189,3180.31,674.9,0.064333012961972663,0.3851346089421957
Galaxy190,1469.44,3657.83,0.23279031928360408,-0.24945877560156535
Galaxy191,2438.29,3502.3,-0.10085865748440007,0.18491237897824903
Galaxy192,3807.93,2738.94,0.10752091164731714,0.23241536750500064
Galaxy193,3552.58,2523.49,-0.50151153026331952,-0.17212948904372435
Galaxy194,573.76,1772.93,0.28634300673592639,0.15553719238135827
Galaxy195,1346.89,792.4,0.098976227865934019,0.011772970041881922
Galaxy196,125.32,2213.43,0.14999634294306122,-0.17723737293138248
Galaxy197,2621.69,2951.58,0.0074654107649604999,0.13050583017035527
Galaxy198,739.45,3916.36,0.022081890482286513,-0.25120303780655845
Galaxy199,2118.81,2808.47,0.03089873908415168,-0.15984785563716694
Galaxy200,215.64,717.61,-0.082986841058982408,-0.052256292200904414
Galaxy201,1391.58,3241.44,-0.18482910309447478,0.11775245991274946
Galaxy202,2086.29,3258.28,-0.17327593378581602,-0.25892251411663403
Galaxy203,4092.65,3033.34,-0.13713197830558727,0.13930597794921817
Galaxy204,1635.65,1275.07,-0.2888841294361949,-0.27025854496699664
Galaxy205,2594.46,2611.43,0.13601878044658455,-0.30442610342640186
Galaxy206,3532.45,1683.34,-0.2406365500252427,-0.21153747266551826
Galaxy207,1784.37,629.9,0.051675892204217908,0.28549976007293643
Galaxy208,1135.58,1121.29,0.010205821130189835,0.39890004370935289
Galaxy209,2776.91,847.37,0.32635350476792824,0.065199091523854488
Galaxy210,3746.59,2384.39,-0.22441438728214413,-0.15124697403603271
Galaxy211,559.13,2487.47,0.064830700198496335,0.067558141056923413
Galaxy212,1754.77,3952.01,0.058031717135645491,-0.202934820420203
Galaxy213,1898.96,2146.68,0.0094161150855288922,-0.24680556532145062
Galaxy214,2442.1,85.02,0.21874226918567408,0.28586720194254944
Galaxy215,2849.9,1699.35,-0.014887623771788427,-0.036141360658368836
Galaxy216,4159.08,1862.89,0.012094764564235458,0.22775546384990547
Galaxy217,1553.91,3174.34,0.46468970692723455,-0.11356983040786602
Galaxy218,1525.26,2765.92,0.17941253954082689,-0.69660758991422256
Galaxy219,1992.98,4170.32,0.10308315952152305,0.030477062422208379
Galaxy220,1248.82,2118.87,0.11317930800622034,-0.054917344891593979
Galaxy221,917.23,1389.81,0.48119590916478894,-0.17046127856741625
Galaxy222,1806.14,1052.1,0.31962498774063869,-0.057989999391525202
Galaxy223,3909.02,170.95,0.16091149074447586,0.01864029297021658
Galaxy224,1021.8,1798.92,0.12989214034157473,-0.015714728261029164
Galaxy225,398.93,3014.85,0.11306249189084372,-0.027540822398187739
Galaxy226,1328.44,28.6,0.64029477758504194,-0.29951076314090691
Galaxy227,3370.67,1243.53,-0.044042712390391592,-0.41197170444872322
Galaxy228,3047.31,3744.36,0.092150243908531104,-0.31793920187843916
Galaxy229,767.01,1390.36,-0.027507808815227297,-0.082012374955505729
Galaxy230,714.77,2959.35,-0.15217908985765102,-0.25698027790896405
Galaxy231,3726.79,461.27,-0.073505208587027207,-0.18645291245334439
Galaxy232,1118.98,578.11,0.31607269028943152,-0.1151184938949293
Galaxy233,716.52,1615.29,-0.2975266860881044,0.22886268691888267
Galaxy234,4112.18,3004.05,0.13979876092255195,0.28214695886942354
Galaxy235,1519.22,3874.06,-0.0071173462642537743,-0.039622246393482385
Galaxy236,63.81,2844.29,-0.0057981658457599838,0.12251483291782964
Galaxy237,2632.58,4078.42,0.32229643175598216,-0.06359585475953454
Galaxy238,3714.44,4187.17,-0.39998314406532653,0.26390660915339842
Galaxy239,451.17,1054.44,0.052862071965293189,0.36177362716669098
Galaxy240,770.28,314.81,0.28881335025305166,0.37377608294043835
Galaxy241,2677.41,976.85,0.085458728631848363,-0.061665105414933113
Galaxy242,3591.18,1344.43,0.2079652173395708,-0.28211249550492346
Galaxy243,32.58,1040.27,0.2056095342311266,0.13362637047667386
Galaxy244,1840.38,3349.47,0.12028699540445598,-0.43517042869164096
Galaxy245,505.68,3043.27,-0.24160554587741323,0.36265736608759758
Galaxy246,1360.95,3551.18,-0.18413040435923594,-0.38749097254302955
Galaxy247,2716.69,2779.36,0.45714676520306602,-0.036466215842506672
Galaxy248,413.32,2790.46,0.42943866147543092,-0.037266627119514562
Galaxy249,2162.27,3728.64,-0.035126020495878714,-0.18745345356200752
Galaxy250,4194.93,2349.11,-0.30038848288619224,-0.070784228532983648
Galaxy251,1300.19,1884.21,0.052364945783279312,-0.24587964230770523
Galaxy252,3243.9,1231.78,-0.081539512301315675,0.11613901371981714
Galaxy253,767.36,410.74,-0.017624955749353549,0.20582441007187166
Galaxy254,2283.36,506.91,-0.015363500864692181,0.034888374844932929
Galaxy255,1978.62,713.11,-0.093699554981923006,0.31240842370891281
Galaxy256,2238.32,102.32,0.2977037759048472,0.014646002189483087
Galaxy257,2279.71,862.52,0.43178281839337729,0.190101591987139
Galaxy258,1316.08,4130.23,-0.20411026498620374,-0.27634522279450485
Galaxy259,1673.5,2018.47,-0.018871780927329801,-0.04996848876703873
Galaxy260,3052.34,720.54,0.28074320395413271,-0.20940963697095716
Galaxy261,356.3,2017.89,-0.2750270881496979,-0.094335654132586905
Galaxy262,3796.35,1030.93,0.46960141477308692,0.20202353538904302
Galaxy263,82.57,499.38,0.29143578178291896,0.62843958347583562
Galaxy264,3656.75,1306.22,0.050276929334839057,-0.0077299975637664942
Galaxy265,3397.9,2603.67,-0.085091871522252269,0.26813608545441969
Galaxy266,2948.35,2877.93,-0.30956900079325822,-0.024156656104388635
Galaxy267,2053.74,225.99,0.024848253277647919,0.29696572090452678
Galaxy268,361.45,991.15,0.064572819024744654,0.067840668362626838
Galaxy269,609.06,4081.66,-0.11624244828356101,-0.15368649067271792
Galaxy270,60.99,265.37,-0.26124903516567832,0.29120149750033791
Galaxy271,1996.1,4169.17,-0.20988254080999219,-0.046421404410767711
Galaxy272,3426.1,715.44,0.36309678425376019,0.033060344521603058
Galaxy273,1987.12,2844.31,0.1775585621865933,0.070948262264206668
Galaxy274,1358.36,129.61,-0.226531383362643,-0.043558960270239838
Galaxy275,3084.19,2821.3,-0.20736235579409451,-0.031637488373264633
Galaxy276,3146.8,666.49,0.52716874856525175,-0.066835625030022244
Galaxy277,3910.45,3171.79,-0.16171908459931533,0.15453983605642962
Galaxy278,25.83,3305.19,0.016237890870586108,-0.25562080057731162
Galaxy279,1038.85,911.03,0.29604585602612482,0.32203608467582434
Galaxy280,3644.84,4174.58,0.072739310914020389,0.093675392311142455
Galaxy281,1685.84,2507.14,0.31193403484701937,-0.1348919118231269
Galaxy282,3635.93,1599.92,-0.017993410274052796,0.24791937270316736
Galaxy283,3729.96,1904.51,-0.54676422970076,-0.13789405118418685
Galaxy284,1666.75,3477.19,0.19974210592638628,0.012146628717395913
Galaxy285,1908.17,3116.42,0.078462976949534524,-0.065738429412349017
Galaxy286,1974.63,562.75,-0.31423425931258248,0.019967450579018775
Galaxy287,2381.42,2615.74,0.082176581670773172,-0.28219650075124703
Galaxy288,3163.47,814.79,-0.34202801105668346,0.17437024815597754
Galaxy289,4089.92,2828.55,-0.096128870180267098,-0.2057084096868281
Galaxy290,3471.09,1177.11,-0.61235958770262378,-0.23468046163867162
Galaxy291,3683.1,3227.81,-0.15141849585151973,0.22558549088516672
Galaxy292,3752.17,4153.84,-0.16995855227613263,-0.27067378495940947
Galaxy293,2408.78,4128.38,-0.18728426330420239,-0.17246206731989602
Galaxy294,1810.34,2650.64,-0.068696487152153096,-0.28419408637495414
Galaxy295,552.67,2750.63,-0.13328457609577773,-0.20404971093831359
Galaxy296,3946.48,3091.12,0.24986113054743375,0.12937900699876273
Galaxy297,1134.46,3641.0,0.19527262096317199,-0.41995803046253632
Galaxy298,2173.97,1347.57,-0.076971266634020152,-0.22288451908036078
Galaxy299,96.69,2843.58,0.16195892400868295,-0.066158937937040016
Galaxy300,68.86,3325.48,0.34062139681128417,-0.25899937588873184
Galaxy301,3028.82,4169.57,0.3288352301844305,-0.050124912481021806
Galaxy302,3754.42,1468.11,-0.18578516612804979,-0.14580021791707842
Galaxy303,1280.89,2188.95,-0.058847113409831509,0.30929911148319661
Galaxy304,3571.24,338.07,0.016599797510669506,0.16340670332542195
Galaxy305,1022.02,3158.17,0.029391227659167449,0.06069060809781146
Galaxy306,4124.37,2001.36,-0.2623368888725211,-0.0039193945880333786
Galaxy307,3635.47,3773.14,-0.026164826348703429,-0.011877371942264417
Galaxy308,2768.08,3412.8,0.27802056110901524,-0.28785631542742146
Galaxy309,3866.68,3057.15,-0.18599253640501126,-0.62775210712702134
Galaxy310,2023.74,963.22,0.41223113156687446,0.15686682071275634
Galaxy311,786.07,3645.13,0.27442728705073194,-0.023920326710803713
Galaxy312,2524.47,3753.06,-0.17467974057197566,-0.17813154650755081
Galaxy313,3648.68,3348.14,-0.072936265176677617,0.20771850892608573
Galaxy314,3382.14,3445.57,-0.18948144574400913,-0.31123045136982508
Galaxy315,502.96,3267.95,0.12645510929736137,0.0097711270775932557
Galaxy316,2297.88,4161.89,-0.2423001681650018,0.071720850473239617
Galaxy317,9.98,3588.3,0.34857662915419196,0.29269672495630905
Galaxy318,521.79,3327.05,-0.16993530870490292,-0.22545794810691039
Galaxy319,4106.3,2309.07,-0.12589740661350021,-0.17086794597228799
Galaxy320,789.79,2198.98,-0.1843045227221112,-0.34660590907634514
Galaxy321,1401.65,1276.46,0.1541756485488617,-0.086446602487846538
Galaxy322,3465.15,1973.48,0.18729811307145255,0.064394248381727776
Galaxy323,187.52,4042.77,0.056689127640860607,0.10506594927184298
Galaxy324,1000.82,2884.51,-0.20158748978116051,-0.08639475447020406
Galaxy325,1202.4,893.93,0.21918859953540676,0.067774023312839618
Galaxy326,3562.49,1621.29,0.046025159290353113,0.19350541496640428
Galaxy327,4155.5,3601.9,-0.4575629555940931,0.15685137094921023
Galaxy328,2675.17,2024.22,-0.23000707875700963,0.16775791284490263
Galaxy329,90.81,627.44,0.12363324172985773,0.071658345228007167
Galaxy330,1673.48,285.35,0.31817920834879176,0.39814355132289986
Galaxy331,158.52,2663.6,-0.29678497489338607,0.043872197588511713
Galaxy332,2704.0,240.56,-0.038780845390459874,0.32181747198684901
Galaxy333,1052.8,976.88,0.34661845418512938,0.28221974223611646
Galaxy334,2680.48,3669.38,0.17398599890734184,-0.3556909627893331
Galaxy335,4127.23,1801.48,-0.012372825867237092,0.12386875366618236
Galaxy336,2516.54,1695.25,0.07107788722036755,-0.094447482450301906
Galaxy337,306.7,869.08,-0.15866957302408197,-0.10977172076394379
Galaxy338,1856.51,1906.16,-0.17226012332778309,0.043450701614830639
Galaxy339,2632.75,577.48,-0.17275711869107829,-0.013540622202567548
Galaxy340,1280.31,1352.99,0.13762410655801977,0.20898515440120596
Galaxy341,1743.25,2954.67,0.13706398490417493,-0.19264457090650622
Galaxy342,3348.24,4049.12,-0.043109522077204837,0.013804867098380774
Galaxy343,1616.92,2543.06,-0.025200515582690985,-0.08979748157821521
Galaxy344,96.42,4065.5,0.24751030835127474,0.073533804131974495
Galaxy345,1023.37,1357.61,0.44577864976524761,-0.49592088569406345
Galaxy346,3342.21,2881.42,0.045230087109297767,-0.37529915695334637
Galaxy347,1409.66,65.89,0.5143426870683202,0.081678905259195966
Galaxy348,4132.26,1709.52,0.068963010638676769,0.62913269771714475
Galaxy349,2148.2,2953.74,0.21172935408195079,-0.22482156673497372
Galaxy350,340.64,1815.69,0.22121586481894401,-0.044109383493266249
Galaxy351,881.65,2937.3,0.062623801034642934,0.0018982923850183742
Galaxy352,1479.72,690.36,0.42756159788135428,0.033198607870248503
Galaxy353,2538.39,881.68,0.1086275928332229,-0.50477000974439989
Galaxy354,4146.1,2882.96,-0.3286140369608847,0.30241952204772349
Galaxy355,314.55,991.08,0.50249517043737446,0.15805518151389578
Galaxy356,2704.53,1531.46,-0.03496433487295697,-0.26399703218706899
Galaxy357,2117.87,2324.68,-0.037941834558767845,0.10256709910221309
Galaxy358,582.9,2010.25,0.34970471077978182,0.32426093859069077
Galaxy359,460.18,1030.19,0.2302567283820271,0.17083732029604087
Galaxy360,2739.22,3316.84,-0.12853096495215652,-0.21209358343758911
Galaxy361,712.27,3440.9,0.13203278063864618,-0.051467217162952605
Galaxy362,1293.87,2903.0,-0.36140194193866354,0.17982765275448465
Galaxy363,3857.56,900.14,0.20419328831079991,0.22699754960350554
Galaxy364,845.77,2846.59,-0.23217962247773422,0.14989860603331084
Galaxy365,3962.16,576.22,0.085096796000967895,-0.15630057764277794
Galaxy366,487.24,3876.36,0.41782305316904778,-0.18027422665431794
Galaxy367,3888.23,802.23,-0.21344941882731855,-0.18097474200012065
Galaxy368,3323.81,656.25,-0.12845809460168189,-0.05665164189244945
Galaxy369,1598.42,2806.82,-0.094386395195913741,-0.096419911017819049
Galaxy370,3989.62,703.53,-0.14923277841016164,-0.2533779744130536
Galaxy371,1783.3,1328.86,-0.037745275416334545,-0.17182921947168822
Galaxy372,1599.45,4146.14,0.0030510430771167503,-0.34861515396345188
Galaxy373,1038.98,1540.6,0.34298713597761887,0.16883551111892911
Galaxy374,993.84,3085.6,-0.046896506847988503,0.057751690533049016
Galaxy375,3794.97,3499.29,0.09602586084769027,-0.2415244332857745
Galaxy376,404.77,2165.49,0.12015375597649827,-0.018305893022538808
Galaxy377,3909.73,3724.98,-0.12011478508602844,-0.088425282341290309
Galaxy378,4098.22,243.45,-0.11557478836933509,-0.090409528220405627
Galaxy379,3540.59,2679.01,0.15151135640007188,-0.090715121310718946
Galaxy380,2745.84,3253.51,-0.13081370384014446,-0.42121464667597619
Galaxy381,64.63,1899.55,0.45220574470780034,0.0038173542163961113
Galaxy382,274.55,3672.76,-0.057848218370775917,0.051215200312044185
Galaxy383,593.23,262.16,0.26789343435295121,-0.24525631820723562
Galaxy384,3203.27,2152.09,-0.12991707778644804,-0.19245882857754995
Galaxy385,2790.17,4074.38,-0.43627526750108481,-0.14226120622219168
Galaxy386,1689.13,3011.68,0.14460594878583177,-0.17136401878053964
Galaxy387,870.46,1579.33,0.38696751181505157,0.14945937422805822
Galaxy388,1938.54,1366.15,0.05329739338286088,-0.24138049707348763
Galaxy389,3241.49,4067.93,0.31927229480677788,-0.15007020154324258
Galaxy390,1189.8,1449.77,0.33882625645020681,0.1721352649626732
Galaxy391,421.82,1645.39,0.37187339960965254,-0.096913708742067325
Galaxy392,3328.21,2767.6,-0.15983851705563232,-0.52101334773048225
Galaxy393,1845.61,490.59,-0.1564770720378133,-0.014438862166795408
Galaxy394,1670.46,264.72,0.063238935803611035,-0.067688976289619812
Galaxy395,2970.6,3779.09,-0.12134412801626838,0.071114890651143292
Galaxy396,820.49,972.97,0.023139675354560518,-0.049846493183217357
Galaxy397,1683.38,1408.05,-0.06520708615301507,0.1188463969325825
Galaxy398,2380.23,233.88,0.0038372956173957848,0.27410429597468872
Galaxy399,2757.29,4165.77,-0.61901456330109994,-0.05208672834510697
Galaxy400,1493.95,3696.76,-0.23924729385075297,-0.50012348934176476
Galaxy401,2446.54,3745.13,0.56269249104744901,0.089923408707223235
Galaxy402,1038.71,2775.09,-0.061533169759927134,-0.028502188484219829
Galaxy403,3191.43,760.81,-0.2560854574758471,0.16225174458090599
Galaxy404,2489.83,3338.43,0.041071985153047795,-0.15005615946871914
Galaxy405,2841.06,2347.94,-0.063081720409969497,-0.38692757790537924
Galaxy406,3653.74,478.53,0.059740846236419787,-0.38131253782066316
Galaxy407,3811.43,4116.14,-0.014582449894049027,-0.17533447608225233
Galaxy408,173.13,216.44,0.30238968454275428,0.06613274202509653
Galaxy409,3028.17,561.56,-0.26522147871482504,0.37456700050093028
Galaxy410,2510.62,2466.01,-0.13980971987413521,-0.40817744622674934
Galaxy411,1416.75,4119.5,0.1650531663512248,-0.10497804400455982
Galaxy412,1748.18,1681.27,0.04968493131700899,-0.0075004653790542337
Galaxy413,4153.03,3642.97,-0.24684196476350934,0.077032037301730472
Galaxy414,3179.88,1837.89,0.16608299919272232,-0.21592159515689785
Galaxy415,839.04,941.7,0.07155119979373635,-0.34143403891870883
Galaxy416,3859.88,240.61,-0.32870333989192924,0.0607740337047772
Galaxy417,1042.34,96.37,0.33823336505959589,0.32676820634037901
Galaxy418,2752.67,3039.17,0.39549903940637077,-0.16886621829594364
Galaxy419,3902.02,1457.08,-0.24430865204518704,-0.53092831952982167
Galaxy420,778.31,1099.22,-0.080989248100839684,0.070247424959330423
Galaxy421,2393.18,2166.7,0.14921922492581538,0.44802172578279514
Galaxy422,3516.08,1050.49,-0.03926842234301732,-0.49577940248250901
Galaxy423,203.65,2655.11,0.1397405573416273,-0.28684673070088301
Galaxy424,4067.35,2516.86,-0.30808522401439936,-0.055910400004213753
Galaxy425,3667.49,1167.93,-0.42787835618001485,0.31793459228562615
Galaxy426,539.68,365.7,0.50367928774581405,0.3324356460809928
Galaxy427,1843.79,2420.41,0.14478706509113082,-0.38390670577213665
Galaxy428,3756.82,688.71,-0.31848523099901394,0.23041246601333254
Galaxy429,2781.48,1399.54,0.096456104704095602,0.044362837752574352
Galaxy430,3992.33,2754.71,-0.27144060681543841,0.054678619884483554
Galaxy431,1813.79,4009.7,-0.31640884917757084,-0.22507437287143495
Galaxy432,3421.14,2039.35,-0.27579473685118261,-0.19308754893930991
Galaxy433,3390.03,2585.05,-0.41883104331846094,-0.52606433986357448
Galaxy434,1395.02,2454.85,-0.081551216851176223,0.29031566873323056
Galaxy435,2529.25,3861.09,-0.41869612047846344,-0.18727832798705815
Galaxy436,1303.84,1449.84,0.04140042273969638,-0.2423500946135991
Galaxy437,3315.87,160.49,0.097978420904129601,-0.068260834633711714
Galaxy438,549.98,4181.15,0.29590629890370007,-0.38694098651238484
Galaxy439,2569.06,3346.55,-0.072413462587784569,-0.034466124650743224
Galaxy440,59.88,886.91,-0.061165157375468043,0.23221396751410611
Galaxy441,676.83,723.2,-0.04729268995533692,-0.27684557740729165
Galaxy442,2183.46,1417.16,-0.049817859998135899,-0.25742667962185733
Galaxy443,2392.88,488.04,0.052057132086868164,0.23818404310485536
Galaxy444,2338.42,2929.91,0.22016156223878636,-0.15719904346939106
Galaxy445,2771.83,2281.19,0.044064850899311801,0.27919432089667195
Galaxy446,3580.1,3024.52,-0.30435233134823686,0.32805700435342433
Galaxy447,942.98,1100.0,0.077976391800344255,-0.17317659597763688
Galaxy448,1819.25,380.09,-0.27473533096587027,0.050753558409899507
Galaxy449,1312.1,1139.73,0.34591436564136308,-0.034999364320577535
Galaxy450,2108.43,163.39,0.36462394880386439,0.10085063953021758
Galaxy451,4180.23,4112.86,-0.43075818337351757,-0.49640570581273569
Galaxy452,2258.14,1052.34,0.48143055612779562,0.16198970781930244
Galaxy453,1661.69,1867.89,-0.0019877985466587034,0.28514251744969166
Galaxy454,3983.38,2722.53,-0.593980755685388,0.16155135494180484
Galaxy455,1856.76,3392.96,-0.35571683767370504,-0.59585727651462261
Galaxy456,813.64,1851.44,0.16768277408777194,0.2817221855609805
Galaxy457,3462.12,2790.83,-0.37966326650733406,0.015248703869913852
Galaxy458,1097.33,3174.63,-0.23589795199087277,-0.051026181328302875
Galaxy459,41.2,7.18,0.13983164815012522,0.016389604762306012
Galaxy460,2838.43,447.46,0.41943385270018807,0.085137074178850941
Galaxy461,3875.35,1808.94,-0.1115644164485889,0.23420575689723097
Galaxy462,3964.99,2167.26,-0.32077958069974777,-0.024175555520825523
Galaxy463,1089.08,2242.96,0.34129300165962928,0.03563135717209355
Galaxy464,2975.77,1506.14,-0.49071159175171919,-0.029634479494189379
Galaxy465,1718.11,3594.62,0.090655625495371844,-0.17561162521825599
Galaxy466,2315.26,1054.96,0.095762193871515217,0.0048203556423024596
Galaxy467,269.81,4141.09,0.072747091288518112,-0.095654232540749159
Galaxy468,318.55,2490.88,-0.14057568245627991,0.33788965146123606
Galaxy469,3465.93,1309.74,0.39398720732164461,0.31270794904788951
Galaxy470,3271.22,2306.35,0.12863278199226585,0.11251705543834778
Galaxy471,1187.4,1823.5,0.24786904583083652,-0.23409792929617859
Galaxy472,1502.7,1403.65,0.090327715983807205,-0.12575151860392891
Galaxy473,3181.78,1029.96,-0.26800484690940901,0.21958668692683986
Galaxy474,2666.37,1390.83,-0.051977487820528967,0.10988921009303679
Galaxy475,3860.2,3564.51,-0.16488683630674314,-0.029360851410798118
Galaxy476,3816.54,808.33,0.11534242955300741,-0.02075743022096832
Galaxy477,1431.79,237.48,0.19928517818659344,0.18026012986219492
Galaxy478,1787.62,2322.21,-0.030327426200540131,-0.1745651347598329
Galaxy479,2289.66,2901.4,-0.038032896206884145,-0.067322113722356289
Galaxy480,3039.22,3110.07,0.30905456008032106,-0.020144924780827078
Galaxy481,1121.77,1918.9,-0.30881973798349682,-0.42106653013570472
Galaxy482,4104.51,3158.53,-0.20658008776110159,-0.019599038550881527
Galaxy483,935.57,4019.36,0.083986197562787343,-0.085115263010557357
Galaxy484,3525.81,530.17,-0.25435499873557055,0.49334463371478021
Galaxy485,3097.86,1945.3,0.28823548234050816,0.028387276030117564
Galaxy486,3819.21,356.52,-0.12672728442167103,0.2058383943589025
Galaxy487,3723.23,2759.14,-0.46715432301984006,0.16586557666758556
Galaxy488,3480.7,2566.53,-0.19305787142334196,-0.058018804887011083
Galaxy489,2342.3,2840.78,0.050436844539574935,-0.41373383612916248
Galaxy490,1653.71,3933.0,0.17051326306616563,-0.45565469976035
Galaxy491,85.69,1168.86,0.17503721101901767,0.43865463031765928
Galaxy492,2139.39,1115.98,-0.15407083237165706,0.10154167365429571
Galaxy493,3013.69,3993.09,0.099474952743225875,-0.0045016511725445435
Galaxy494,3445.79,2238.88,-0.11552571826574241,-0.032658774352431363
Galaxy495,603.15,3962.83,0.3417687589937114,0.0081549332086905679
Galaxy496,1134.93,1123.66,0.029112984710272127,0.25706961922415889
Galaxy497,6.12,1321.77,0.48902745382771329,0.072376850123715503
Galaxy498,3524.91,1731.47,0.42248363025549091,-0.09804382457393751
Galaxy499,2760.73,448.38,0.27186306208829797,-0.052820723902958139
Galaxy500,2026.72,3011.87,-0.056717364882110592,0.16807123022372322
Galaxy501,2392.56,2439.81,0.2957902635440271,-0.040609545982968051
Galaxy502,1019.74,2888.28,-0.44245267500074381,-0.14644112575293386
Galaxy503,2304.26,1443.07,0.30018491846738682,-0.062864934917502321
Galaxy504,3269.0,3536.64,-0.47337339583013782,-0.32146022052509882
Galaxy505,2070.19,2242.98,0.0075398416331048795,-0.41134232271464266
Galaxy506,2487.63,246.49,0.039361471342053776,0.35347175404615849
Galaxy507,3429.1,3364.81,0.18956425826827786,-0.026351716580730281
Galaxy508,1845.6,1554.22,-0.16916061469737917,0.19060379273903608
Galaxy509,3138.88,4110.91,0.2260103129467784,-0.046780909125404266
Galaxy510,3035.11,964.56,0.15771752659565247,0.2174631714495755
Galaxy511,897.89,3713.5,0.15146466956677637,-0.17054767419747899
Galaxy512,497.01,3949.16,0.076077644707504513,-0.21592271900523813
Galaxy513,990.95,3589.64,-0.012944220363775939,-0.32062489741596112
Galaxy514,2619.99,2443.93,-0.39092203144324655,0.015649735649318236
Galaxy515,1763.32,2052.15,0.56468848561397422,-0.34012563476516511
Galaxy516,1326.48,3497.84,0.20608213730049513,0.22380978223688242
Galaxy517,1870.35,2143.09,0.069860167677505344,-0.021759316673539031
Galaxy518,2301.07,478.08,0.24475401110404313,0.15247342938022873
Galaxy519,874.85,1193.85,-0.017231103225402139,0.021153089468556228
Galaxy520,523.89,1940.55,0.13612713414523747,-0.23079178889580282
Galaxy521,1572.32,2343.86,0.0083177324201205716,0.29898247446070242
Galaxy522,3859.3,3593.06,-0.082999258715932181,-0.022883980595901601
Galaxy523,439.97,221.51,-0.049385722610297417,-0.023295930848158078
Galaxy524,2055.88,4195.36,0.0050577540864533213,-0.2279759635808766
Galaxy525,1774.11,3656.36,0.26291271399580646,0.1411890775843947
Galaxy526,4131.05,2571.58,-0.29262351783217666,-0.031464407385034067
Galaxy527,836.55,4128.6,-0.015691105987284588,-0.14720325015637881
Galaxy528,2682.78,1329.84,0.035155628020039381,-0.11830219790784863
Galaxy529,1015.21,92.26,0.24823236236407761,0.28112513720303201
Galaxy530,3175.59,1490.43,0.19227847155433392,0.1005404602606749
Galaxy531,874.49,404.54,-0.013980032015387361,-0.20589181489136729
Galaxy532,1433.64,904.1,-0.096164583021533273,0.08849096969923137
Galaxy533,3259.98,717.47,0.10563889951477762,0.031302013571656156
Galaxy534,2374.8,1515.92,0.29947440337674902,0.43404599473186822
Galaxy535,3802.56,4066.7,-0.34543958128799979,-0.15155749393427781
Galaxy536,1993.59,3375.75,-0.31265567161474001,0.27431556123879297
Galaxy537,1991.96,275.07,0.38207382783934013,0.01274766076497133
Galaxy538,809.74,1739.87,0.16046253496266816,-0.040081960633538138
Galaxy539,1111.62,1933.52,0.15874414065811795,-0.16972126298573387
Galaxy540,3251.35,2055.19,0.24708297503625914,-0.39657899813612124
Galaxy541,576.39,561.72,-0.15140257279231589,0.14504567028637766
Galaxy542,307.2,692.34,-0.14017936671979994,-0.12621282820039498
Galaxy543,4179.34,2903.4,-0.42661257826040533,0.036570228693217174
Galaxy544,1813.31,3470.19,-0.074326010518171046,-0.25814541583552747
Galaxy545,101.92,4080.37,-0.095802960754687777,-0.20217657472305939
Galaxy546,2521.04,1531.87,0.20866881188138717,-0.2332168058050671
Galaxy547,3091.31,407.66,-0.13283979822842606,0.12491752882940077
Galaxy548,1525.59,3037.26,0.037234854227694229,-0.54015640576063129
Galaxy549,1056.35,3794.87,0.0024929031636337223,-0.1388933620010375
Galaxy550,316.4,143.23,0.19734434461540734,-0.19384789492796806
Galaxy551,3476.03,741.59,0.73845002191156084,-0.080389448487475368
Galaxy552,4119.55,3300.4,-0.091708859800089998,0.15684025845615943
Galaxy553,2656.92,589.06,-0.40534232860412733,-0.035095306210230132
Galaxy554,788.56,7.11,0.11322339213172532,0.12410355344942391
Galaxy555,3288.21,2570.96,-0.095607076429996787,-0.40094203218177404
Galaxy556,1959.87,1263.49,0.31003716358702738,-0.012957946208155081
