GalaxyID,x,y,e1,e2
Galaxy1,389.11,3918.49,-0.30364077982083265,-0.086757830385731802
Galaxy2,3133.92,2079.83,0.17076852993969041,0.20900091155766823
Galaxy3,740.27,739.85,0.27144798920079927,-0.07730732049362149
Galaxy4,3468.55,1674.31,0.22984588289596969,0.21689935006886452
Galaxy5,674.23,3074.22,-0.031002313035392963,-0.10967931608808069
Galaxy6,1334.3,2933.05,-0.12428053281527265,-0.19902170408805808
Galaxy7,4076.73,3786.17,-0.088129855860341041,0.28592000930382655
Galaxy8,1401.16,3860.69,0.043480843844601963,0.24587926860414921
Galaxy9,2619.61,2801.98,-0.19653296865869241,0.18484884194492096
Galaxy10,2733.95,3712.33,-0.45148997541054692,0.029167025922419251
Galaxy11,567.8,1928.79,-0.022723467577462644,-0.33624099893347159
Galaxy12,820.51,1820.87,-0.37907513255059677,0.071034924095223662
Galaxy13,3119.84,3636.91,0.037079328242249437,-0.2274547214079988
Galaxy14,52.89,3826.87,0.12412022398739635,0.046513226712651096
Galaxy15,1333.35,3184.41,-0.10349236303496884,-0.17388964284692937
Galaxy16,3314.41,1130.46,0.031952027120526139,0.05640472085256746
Galaxy17,3585.93,1728.21,0.023096035559015488,-0.050773166740546161
Galaxy18,512.7,0.43,-0.049759212307068632,0.16657766026213008
Galaxy19,2822.69,2891.65,-0.0085453082812737974,0.25004337984041519
Galaxy20,55.67,2033.86,0.16948179352577381,0.10347800287786135
Galaxy21,3887.45,1283.83,-0.0098749153819192026,0.0025818197727504773
Galaxy22,3564.62,3997.0,0.18261718538538235,-0.13825809620408547
Galaxy23,1351.71,1885.12,0.22903219675097014,-0.044275616085282299
Galaxy24,209.46,3192.31,-0.30422025791301388,-0.22419791775998998
Galaxy25,1018.48,903.49,0.21076459312090931,0.079659032745420771
Galaxy26,1283.15,1384.09,0.13050555364894384,-0.055792079782674066
Galaxy27,2725.77,1034.66,-0.10716351392100235,0.041138236067875783
Galaxy28,2648.97,1348.3,0.21160724669515307,-0.12994051479441809
Galaxy29,24.7,2542.73,0.16261838184576891,-0.042897694326841151
Galaxy30,152.57,1938.0,-0.16281316120373079,0.32127024167650303
Galaxy31,3292.87,962.35,0.12488247673070599,0.045118415158355948
Galaxy32,355.57,2732.31,0.090520013381604994,-0.2455889794017137
Galaxy33,3649.21,2514.93,0.30132949203547993,0.58295082352756344
Galaxy34,4152.28,714.82,0.13381170295447323,0.12246512304098675
Galaxy35,707.33,2513.05,0.2809336827311078,0.1272981529543957
Galaxy36,4099.58,2557.43,0.17882372961888654,0.17841032891623626
Galaxy37,1225.67,3068.22,-0.21907248270012453,0.054693667302089924
Galaxy38,2660.37,2409.19,0.066297820069954522,0.40937397614660448
Galaxy39,1427.8,1819.48,0.077268041671599882,0.29716904723248616
Galaxy40,3426.45,1611.13,-0.019537381785640739,-0.25695122464756792
Galaxy41,3484.12,1613.73,0.23799230921836351,0.02423665453365443
Galaxy42,2053.35,2226.77,0.44455186964232973,-0.065789620528881987
Galaxy43,953.18,271.22,-0.084495140678144606,0.48394206610389123
Galaxy44,297.12,3298.12,-0.099708239227025264,0.053578069990034838
Galaxy45,2522.45,1614.51,0.012862684172165115,-0.051172196834424727
Galaxy46,899.06,3799.43,0.0053787468055067345,0.15989992225584887
Galaxy47,875.71,1263.09,0.047960857431990106,0.096197496791473214
Galaxy48,2170.31,149.23,0.074345162700578893,0.28622387629420687
Galaxy49,4161.51,668.42,0.60645055031690043,0.14186381820088151
Galaxy50,1108.36,3093.75,-0.1958818092564078,-0.069504498004910487
Galaxy51,2418.52,2814.83,0.32010323734922735,0.22196010503078073
Galaxy52,1118.9,1717.75,0.15315626312862446,-0.25940358606117053
Galaxy53,2602.43,3024.79,-0.067344236916807271,-0.087301186438210096
Galaxy54,1175.01,3197.54,-0.22361485542911819,-0.42490548483432472
Galaxy55,3676.02,2195.29,0.43108960671742552,0.099474734522394026
Galaxy56,1933.01,3159.87,-0.29519586387758256,0.11594116233445424
Galaxy57,2653.99,1102.53,0.12216637991754423,0.14893422786530303
Galaxy58,859.05,1027.42,-0.084247215921565338,-0.1852673767487624
Galaxy59,878.46,4112.79,0.029954493563299656,-0.0617314445820581
Galaxy60,2666.88,2995.35,-0.43190572602222227,0.3625023248439242
Galaxy61,1772.67,1915.56,-0.47621039957299116,-0.087158497465797458
Galaxy62,3803.68,428.66,-0.028134284417331207,-0.016367251423029375
Galaxy63,1676.53,3861.8,-0.22959425425194435,0.11808214487861228
Galaxy64,4088.79,2401.28,0.00034157080071482715,0.2457057007847841
Galaxy65,3953.27,1299.39,0.29491401413330171,-0.069162581162099848
Galaxy66,2827.66,3574.24,-0.075717004898944784,-0.071582954725183029
Galaxy67,2523.86,3487.38,0.0044374805145861451,0.28059726304601756
Galaxy68,3408.27,1347.35,-0.099027581470781056,-0.20413909219667786
Galaxy69,3235.52,1479.17,0.28811016529402939,-0.22425166012747483
Galaxy70,1570.35,2600.13,-0.062482866719018357,-0.0046310343518893848
Galaxy71,407.14,808.79,0.16862223228836087,-0.14669875783833605
Galaxy72,1100.57,2869.23,-0.19684438043650079,0.3368916836888225
Galaxy73,4050.01,1088.25,0.21482744438395868,0.020905897931229631
Galaxy74,2054.76,610.24,-0.093309421439543155,-0.1889772748909507
Galaxy75,2235.02,2023.53,-0.16333096744950448,-0.10745367683822371
Galaxy76,2174.21,1721.5,-0.11529690217338412,-0.30229912330931019
Galaxy77,2971.39,1531.62,-0.050871812961839513,0.076652913124909433
Galaxy78,2509.85,2107.32,-0.080455440370468811,0.10786693886483832
Galaxy79,355.62,2729.91,0.18590314815761463,-0.10421736449237252
Galaxy80,2929.7,3453.17,0.056653814606159883,-0.10935776356703716
Galaxy81,513.96,1676.65,0.24096491738272943,0.052543340348635947
Galaxy82,3315.77,2775.41,0.021458956982873437,0.26252986244041904
Galaxy83,1702.19,2258.06,-0.25216481692732673,-0.080454583755144249
Galaxy84,1259.38,2147.52,0.029375306909257951,-0.15743928167075144
Galaxy85,4013.95,1234.82,0.16944318689592205,0.13744123911732972
Galaxy86,2170.86,2294.48,-0.24682626279246828,-0.098351448352883952
Galaxy87,4030.71,978.87,0.18815749535069839,-0.11497741891816321
Galaxy88,1611.47,3411.4,0.33765215602184762,-0.27946152374694844
Galaxy89,2175.2,255.73,-0.043898055898141941,-0.29463617227330979
Galaxy90,403.89,1827.01,0.097144792930295265,0.14185606469023104
Galaxy91,3582.7,2852.36,0.022850817094356653,0.053909733236243651
Galaxy92,4187.01,3441.85,0.25135817005901223,0.067528571326136877
Galaxy93,1978.72,2374.16,-0.00037969388967629136,0.13805996529022546
Galaxy94,1327.18,2174.21,0.27711879702176223,-0.079805904919579548
Galaxy95,1919.38,1608.23,0.0098845380315029374,-0.045238612062371966
Galaxy96,3682.9,1659.28,-0.012474801574929612,0.20279278284196275
Galaxy97,2490.43,4130.26,-0.4063917639936262,0.44353112089707547
Galaxy98,3663.55,3148.66,-0.21331995635541653,0.089619216029444365
Galaxy99,2783.16,3569.33,-0.1004574695776025,0.19094123835156318
Galaxy100,2950.78,3285.7,-0.0017272825903411476,0.29007291311333483
Galaxy101,3893.47,4179.62,-0.17194839954264013,0.10729845123929557
Galaxy102,3057.57,4026.9,-0.098471439757168183,0.18433575795004623
Galaxy103,4167.58,2244.09,0.16474780662148822,0.044762129041720722
Galaxy104,1044.83,2939.58,-0.20095612944581243,0.24305036029626362
Galaxy105,2663.96,3798.08,-0.25429237479724154,0.29936021087298503
Galaxy106,2402.88,231.17,-0.078463229637707951,0.078437709355048346
Galaxy107,3342.0,2796.82,0.086718321462262007,-0.1448311161755054
Galaxy108,867.8,2245.84,0.050922502366624656,-0.20519067802420898
Galaxy109,1067.59,2936.69,-0.0026607731510651239,-0.50385572411168456
Galaxy110,2772.26,1502.96,0.024650423790586989,-0.039134700453256829
Galaxy111,3852.82,3221.18,0.19319391173165601,0.31765602568287388
Galaxy112,3549.37,1412.01,0.18209871803385941,0.20662061810805771
Galaxy113,672.75,2873.08,0.061491027505551923,-0.0019405425143319277
Galaxy114,3778.73,4134.61,0.15895175428908148,-0.013892308819145799
Galaxy115,3384.63,1025.44,-0.11760655657565861,-0.3428427968163229
Galaxy116,3385.04,1982.17,0.12247690470850892,-0.10127200311127943
Galaxy117,3319.22,337.45,0.19144767759685261,0.10910656387367462
Galaxy118,1656.9,1144.55,-0.084765279437408386,-0.22591954358198768
Galaxy119,3883.91,3106.63,0.10108165827550661,0.071967714805775032
Galaxy120,2984.78,465.73,-0.17813808276968901,-0.12067813893458224
Galaxy121,181.57,718.6,-0.20556643111740208,0.17742870957224044
Galaxy122,2313.44,1016.25,0.13652064075643716,0.25467862717623624
Galaxy123,3536.72,3472.58,-0.30903114116187064,0.31304636056207163
Galaxy124,4032.18,280.3,-0.0028661657983431177,-0.29415467587697386
Galaxy125,198.26,303.77,0.057453808035801072,0.8621786766353694
Galaxy126,346.18,907.45,0.089744502172100338,-0.063901042505300473
Galaxy127,1561.44,1573.97,0.11961705879106048,0.091796216094796212
Galaxy128,3085.8,3074.38,-0.039733489381714497,0.18181509637095378
Galaxy129,2405.02,2849.44,-0.043378599161651474,-0.17987165263589722
Galaxy130,2046.17,2394.26,0.60531968221649068,-0.14530675361767534
Galaxy131,1781.68,1806.73,0.24448493855486134,-0.13659947396143959
Galaxy132,622.02,3778.85,-0.38636159370550893,-0.16430560001049363
Galaxy133,2710.01,3792.06,-0.30432630503010127,-0.17856230074109569
Galaxy134,2494.24,2852.97,-0.068631779415741875,-0.09328621446405376
Galaxy135,2853.52,2389.43,0.36025527628890675,-0.074843328370195111
Galaxy136,2033.5,2987.72,-0.34099722790914078,0.0004027600068953717
Galaxy137,39.32,3640.69,0.10378464073227131,0.019065881547844055
Galaxy138,915.45,2995.02,0.0084694791851567253,-0.50097610107540003
Galaxy139,2626.01,2565.6,0.0022241350208194732,0.38743311398276764
Galaxy140,4057.82,1232.36,-0.16262372868276856,0.18176841263808516
Galaxy141,1423.35,962.54,-0.18445202268813199,0.49233766863957695
Galaxy142,2851.25,2944.84,-0.38578235403067135,0.51171037592126956
Galaxy143,1388.06,3313.74,0.22244392043159955,0.0012314181326101431
Galaxy144,240.74,3153.66,-0.021588908827492891,-0.33032166514496797
Galaxy145,534.34,1120.6,-0.16829285719726633,0.1972894375120012
Galaxy146,3804.55,3444.03,0.059422271823871123,0.47719793622909867
Galaxy147,2394.0,771.33,0.14845491714828254,0.17162090389312853
Galaxy148,3474.68,2650.85,-0.060941800715738806,-0.080284187485131164
Galaxy149,1858.16,3023.33,-0.6496648260095641,-0.23842127464984297
Galaxy150,3568.48,2751.83,-0.092491804165168917,0.22505334176599398
Galaxy151,73.18,2908.73,-0.16244165362695701,-0.057274673313167726
Galaxy152,3502.93,1880.21,-0.16788715930695272,-0.085041605791505048
Galaxy153,1241.62,1586.07,0.09068316227180731,-0.16846287975682611
Galaxy154,598.72,2944.68,0.15503291860294482,-0.059450001795481017
Galaxy155,769.08,3312.57,-0.064019970817283223,-0.28397986000386066
Galaxy156,4055.54,2400.55,-0.13889851004604409,-0.06464066021189549
Galaxy157,1781.41,3213.81,-0.36736457374278586,0.14307866253082027
Galaxy158,418.77,3226.36,-0.12110371380750497,-0.097065724190156272
Galaxy159,2842.81,1693.44,0.26304177200282297,0.11968849913429284
Galaxy160,1753.59,3899.0,-0.24540051452249279,-0.10747391656677585
Galaxy161,2301.9,1593.66,0.201098545916369,-0.19017577154273391
Galaxy162,2201.53,3678.37,-0.072920606534264867,-0.17158341873023802
Galaxy163,322.53,1588.9,0.24773802778238196,0.16819591315947185
Galaxy164,4120.74,972.87,0.28728268764794612,0.088637329868013495
Galaxy165,3044.98,363.39,0.61854166595610671,0.18725936447470792
Galaxy166,105.12,1065.02,0.18598334359820867,0.2343061142868251
Galaxy167,889.05,2496.35,-0.041035048535636755,0.18938029385720656
Galaxy168,2845.84,1298.87,-0.12587476227594321,-0.034154173946465582
Galaxy169,1510.72,2216.35,0.064104637907942019,-0.074740895662129769
Galaxy170,2982.78,2546.75,0.17595107108014485,-0.11097947187283688
Galaxy171,3607.7,1348.25,0.40110648033189189,0.36331924674322658
Galaxy172,3254.99,3636.5,-0.36283867860006663,0.16981624998317649
Galaxy173,1828.93,2639.66,-0.23502605378409169,-0.47156494595439935
Galaxy174,774.86,1825.45,0.11392436580777875,-0.026914053241370667
Galaxy175,2197.42,999.99,0.24521712890301559,0.24827873838502315
Galaxy176,2997.08,2172.4,-0.052983184155581814,0.12911112214241038
Galaxy177,1136.23,4067.08,-0.22980719090433571,0.056259917286331659
Galaxy178,845.7,1593.34,0.020398849938856656,-0.5562892317220991
Galaxy179,2693.2,3943.19,-0.38042424331233526,0.14631463613970996
Galaxy180,1267.43,1137.34,0.025858366080296569,-0.32826708908696878
Galaxy181,2758.08,882.56,0.01242324958863994,-0.32196086557024761
Galaxy182,3424.85,679.17,0.00048148346703907885,-0.33988173642673669
Galaxy183,207.98,1696.89,0.52296030787294057,-0.14715780508202936
Galaxy184,2236.02,1676.24,0.052447678704824328,-0.38976565964500354
Galaxy185,4069.99,1382.41,0.33436170022273715,0.041956406890280198
Galaxy186,1646.18,47.07,0.14253023127276807,-0.15558171954888739
Galaxy187,3291.71,1743.32,0.067953062179040596,0.046273636463268583
Galaxy188,271.08,1430.37,0.25536649278121615,0.34876708545279905
Galaxy189,3891.98,100.82,0.42737717597204028,-0.087984617276228291
Galaxy190,3688.93,1938.5,0.10790635516507936,-0.18884513500086489
Galaxy191,2278.3,830.74,-0.41887081538523957,-0.20220665796673001
Galaxy192,1456.0,3911.7,-0.62792563056373629,-0.13581223709987306
Galaxy193,2459.01,791.86,-0.071258350299214387,-0.24432327803946569
Galaxy194,3655.25,2224.31,0.39550590042684197,-0.021740059264375
Galaxy195,2944.64,3296.93,0.48957651528581259,0.4912259812163442
Galaxy196,3182.64,1107.2,-0.24670282000651086,-0.58858540525385461
Galaxy197,1746.3,3868.92,-0.25584875840216298,-0.20802929668028552
Galaxy198,579.14,3699.82,-0.029141272255901268,0.14746527758598832
Galaxy199,2185.14,3717.97,-0.079739395239012731,-0.17373044077559111
Galaxy200,2068.74,3472.63,-0.37463216815986089,0.079159627191098772
Galaxy201,3490.16,566.16,-0.15501211891283079,-0.060677854974499831
Galaxy202,689.7,3454.77,-0.12072849365119637,0.0024836437758994356
Galaxy203,419.68,273.73,0.28157231332998944,0.0024076615291949433
Galaxy204,436.96,535.54,0.38417704494777111,0.047326336744691763
Galaxy205,2608.81,3319.04,-0.070467925678932175,-0.14000269833205609
Galaxy206,1121.17,4108.19,0.17450572885697962,-0.029026240357904742
Galaxy207,4097.49,524.0,-0.17261121452359898,0.36993205085076514
Galaxy208,802.58,3858.84,-0.024248988244722103,-0.54283151836429278
Galaxy209,637.1,4119.38,-0.084726516247454364,-0.29972585070623142
Galaxy210,1993.15,2246.07,0.1848128798776221,0.28276568271098285
Galaxy211,1846.3,2201.08,0.098251952500132106,-0.064702376652916685
Galaxy212,572.35,279.09,-0.23822612269463972,0.027961930757915948
Galaxy213,448.55,1223.65,0.35230584033240886,0.19950317284476185
Galaxy214,14.05,1153.45,0.57622484223446913,-0.053630269621117742
Galaxy215,2482.5,1313.57,-0.040303666009190525,-0.092726206390140037
Galaxy216,1607.44,4023.81,-0.23946334605405817,-0.059615909822412903
Galaxy217,2837.82,2620.23,0.079623648615323478,-0.048575296987940692
Galaxy218,2297.54,1334.08,-0.61456891090240107,-0.2550711863721683
Galaxy219,1645.12,1588.31,0.24500342473853187,0.21713141822826909
Galaxy220,3148.64,719.53,0.20432690853799737,-0.21205420023193922
Galaxy221,3191.92,3936.25,-0.098553985862026725,0.071095182239074531
Galaxy222,3035.64,2809.69,0.18786026968241509,0.25709587178094262
Galaxy223,3313.18,2899.45,0.63037536846705877,0.20145104683596179
Galaxy224,2792.79,3271.84,-0.078019806368284095,0.16972004366286628
Galaxy225,3864.85,2295.27,0.084808216184096188,0.1036913528160647
Galaxy226,1202.86,2232.18,0.0178428010682532,0.072514045754929812
Galaxy227,2480.03,183.17,-0.17948416994365846,0.13543402894992584
Galaxy228,2276.17,3829.77,0.052733437338755657,0.14658777489638924
Galaxy229,2087.74,3855.64,-0.16383137842369241,-0.056104366869335294
Galaxy230,2787.39,3058.08,-0.0025743907147589007,-0.14200971109151064
Galaxy231,145.37,1825.13,0.047394245944653787,0.04947589005458293
Galaxy232,4190.94,524.28,0.07878941470091641,0.11356612243974981
Galaxy233,4048.93,666.97,0.04593542711452997,-0.37796692296489703
Galaxy234,3435.56,3262.52,0.30058773891274237,0.4236316161219677
Galaxy235,3308.54,3340.62,-0.25585533238531105,-0.04441694032441304
Galaxy236,3492.74,3974.58,0.41669524238690686,0.31979135496408873
Galaxy237,2850.8,3784.95,0.017619030922621931,0.17530927517949418
Galaxy238,2414.17,3174.53,-0.28425977038112682,-0.036080503201718309
Galaxy239,3784.99,395.84,0.16560999611186641,-0.26441308134399966
Galaxy240,1579.05,3012.24,-0.095822088219104332,-0.013705026266945558
Galaxy241,2473.66,1134.38,-0.70942376662028162,-0.055657240880313444
Galaxy242,3937.19,518.52,-0.079364755632139711,0.10621089656718664
Galaxy243,715.75,3152.43,-0.097698002740848153,-0.1418191380456727
Galaxy244,1459.13,1883.79,0.026764814386389613,-0.13814817917571534
Galaxy245,3028.68,3811.95,-0.37789283618867814,-0.26887579616587887
Galaxy246,1885.71,945.51,0.21506001232441715,-0.18566533828616305
Galaxy247,50.7,3052.62,-0.17131950757115591,-0.25899653691345637
Galaxy248,2189.73,597.31,-0.054629920519203734,0.072260266864260125
Galaxy249,176.98,3806.21,0.21134024027856019,-0.078831448109311877
Galaxy250,3950.02,2725.26,-0.18821803769284559,-0.16924743097101205
Galaxy251,1216.6,506.9,-0.16120012991198318,0.34501038819217833
Galaxy252,2089.41,1783.79,-0.29426508543615859,0.12737567468066835
Galaxy253,1564.61,3077.71,-0.042515441350785887,-0.028503273599880918
Galaxy254,2320.58,1410.98,-0.084037560915542486,0.15284780714173507
Galaxy255,327.41,532.45,0.19418527375772243,0.0082889395490691464
Galaxy256,2015.61,1925.74,-0.052146116361192485,-0.11442186695384957
Galaxy257,599.15,1459.05,0.16552280228210803,0.48357159452638898
Galaxy258,851.54,2697.75,-0.34210256700220865,0.085161399207944466
Galaxy259,2273.6,726.82,0.41153984000420296,0.11996321544571997
Galaxy260,2671.72,1960.59,-0.15579457691695461,0.095024817810214268
Galaxy261,3414.65,2928.04,-0.33099128383962523,0.48171265433540372
Galaxy262,782.52,286.42,0.28594749521146917,0.45622087002594947
Galaxy263,3602.96,1058.23,0.21010605399623075,-0.21585591100884499
Galaxy264,4059.81,1001.91,0.26877907636498244,-0.34009673326337414
Galaxy265,4102.39,3783.83,0.012696166991273766,0.21138371074297377
Galaxy266,3634.54,957.69,-0.068684209070061869,0.19150420452600764
Galaxy267,257.46,4101.71,0.056580353062293573,0.0077114264987596381
Galaxy268,1895.29,2913.33,0.14340088104087909,-0.0069671547519826928
Galaxy269,1318.16,858.31,0.15589649053848692,-0.29721384304667403
Galaxy270,906.65,150.44,0.46375906365568759,-0.33746968558505364
Galaxy271,3850.2,2776.44,-0.069814270031252262,0.41790953483547755
Galaxy272,311.97,1784.84,-0.26218571529547069,-0.065948366598690633
Galaxy273,3396.51,1577.4,0.16327148778580164,0.14764941087954697
Galaxy274,2220.18,3008.46,0.23395200317961676,-0.061916310290894949
Galaxy275,1568.93,2488.1,-0.0070714630232842079,0.24142417549597184
Galaxy276,2813.88,3077.75,-0.39530007162030956,-0.15943254391320408
Galaxy277,1266.35,2687.05,-0.029090711192160681,-0.15824580791432294
Galaxy278,1594.59,2819.04,0.20209380387723033,0.14219825226997346
Galaxy279,422.1,3972.93,-0.28975670807961312,-0.05236577646879842
Galaxy280,3624.47,838.64,-0.55731685193090874,-0.0038507980201353681
Galaxy281,1146.24,139.38,0.20229311862146102,0.17933201610417149
Galaxy282,944.48,1710.68,0.20219761615894127,-0.076826012549066805
Galaxy283,3067.94,3894.48,-0.47126764717982461,0.34447465063152338
Galaxy284,3682.95,2817.91,-0.17340673356267292,0.31362796147046124
Galaxy285,394.06,764.24,0.0070166649818006188,-0.10079271861437371
Galaxy286,1969.83,2797.02,-0.7196780052978814,-0.11823513280332384
Galaxy287,1459.26,942.3,-0.23925401915526789,0.11065712004292834
Galaxy288,3840.92,2586.89,-0.09001972787206583,0.082545407299037296
Galaxy289,4020.73,1062.92,0.41347566257012824,0.024321225766108748
Galaxy290,4046.15,1811.17,0.28392446259597337,0.38123715653886392
Galaxy291,341.34,3308.47,-0.34917685325031006,0.075178319479970113
Galaxy292,2333.38,450.31,0.0053360362022609603,-0.10758483048206283
Galaxy293,577.49,2564.8,-0.38963333747155382,-0.1593963425293714
Galaxy294,1633.71,91.24,0.19893871927880818,-0.24031436501209064
Galaxy295,2090.16,2562.13,0.066833846048595658,0.21494428263375154
Galaxy296,2422.36,3689.88,-0.26647363498683674,0.40120368272361412
Galaxy297,2493.87,2701.65,-0.24681754541701123,0.19185653260843399
Galaxy298,2024.87,536.76,-0.15840590735921825,0.36590174370885087
Galaxy299,666.31,400.87,0.34316768593201247,0.23581530297922179
Galaxy300,26.42,3500.63,0.0052030878316974907,-0.22160789669968189
Galaxy301,1022.92,3552.66,0.27930015523144064,0.016374415615701507
Galaxy302,367.54,2832.75,0.47257770531524862,-0.1929679829257179
Galaxy303,3078.75,1660.83,-0.060951264359362184,-0.048637368983015253
Galaxy304,374.3,1170.21,-0.13729871930086054,-0.26125808371194281
Galaxy305,3507.68,4003.02,-0.0040338007463976561,-0.089682340379619918
Galaxy306,1210.71,347.09,-0.16002589054256605,0.020192083192252575
Galaxy307,2359.69,1866.44,0.085394897266839132,-0.32079888098501308
Galaxy308,617.31,706.18,0.13643837874513462,0.05083920918283194
Galaxy309,4037.93,4080.54,-0.54801555425462578,0.16503289660310064
Galaxy310,1782.33,4124.46,-0.36217107767648526,-0.015374203110817239
Galaxy311,2705.18,461.22,-0.27212801189427849,-0.067187938810827075
Galaxy312,1198.25,1495.25,-0.077067716818569582,-0.16530283532169543
Galaxy313,2150.72,1534.41,-0.028834592302924001,-0.03155695692731908
Galaxy314,3467.71,3997.51,-0.15357162401127505,-0.0011388308128424951
Galaxy315,3708.14,295.55,0.040686178175746851,0.28899750700640098
Galaxy316,1601.43,3705.82,-0.3203057226898085,0.35138284811525705
Galaxy317,2983.22,4071.48,-0.040044795784499473,0.19689579741053764
Galaxy318,653.49,4031.78,0.040914026479747012,0.095624895147498917
Galaxy319,2598.5,752.76,-0.22163430056700056,-0.26436802058691933
Galaxy320,2543.94,1317.37,-0.32547365998225242,-0.024615181236667075
Galaxy321,3938.53,1003.21,-0.1213589193486011,0.0049669374295319146
Galaxy322,1108.26,854.77,0.0092565760169194405,-0.042452325801336566
Galaxy323,1562.49,2572.33,-0.047759471154521768,-0.24105226229156287
Galaxy324,1356.53,1629.2,0.33306805157855063,-0.17035786566851813
Galaxy325,3469.96,3726.66,-0.10506035932274868,0.1292202474241243
Galaxy326,1849.34,4197.37,-0.11342209063242392,-0.20658398986511994
Galaxy327,2835.1,4114.22,-0.21863772216448552,0.10733471794203003
Galaxy328,4150.28,3956.11,-0.5071295314003087,-0.2529307976340629
Galaxy329,1401.43,1922.74,-0.20329401122304441,-0.15709355775829226
Galaxy330,2661.98,3948.11,0.043345636369230028,0.039371149915813107
Galaxy331,1419.72,4133.9,-0.075066698922903491,0.11441039571572725
Galaxy332,3022.08,498.82,0.16950318305159656,-0.15638344320357725
Galaxy333,1140.05,2781.86,-0.038943427846126644,-0.079245983856102514
Galaxy334,1168.37,3022.14,0.29062388969170411,0.07547662461706886
Galaxy335,639.84,1194.86,0.16444166058919646,0.36288176645924408
Galaxy336,3508.37,1499.82,0.2117176362947483,0.063912224547440055
Galaxy337,2577.17,116.18,-0.28938122870926236,-0.10988153085039684
Galaxy338,2851.68,4169.34,-0.013524101442199565,0.10054880889826578
Galaxy339,3972.81,1081.61,0.17489320092226682,0.0019634483367659723
Galaxy340,2140.14,2602.85,-0.41550173244172162,0.051614748748670329
Galaxy341,3614.53,993.69,-0.10042574868275805,-0.17644886845622978
Galaxy342,3411.96,2603.18,0.0047969079005636874,0.38942593685281623
Galaxy343,1500.33,2728.29,-0.22216364332401731,-0.1459922242885808
Galaxy344,333.43,2678.27,0.16228433119797811,-0.60736118827103602
Galaxy345,586.3,863.49,0.24744704684225022,-0.15632557026475169
Galaxy346,3253.95,2976.83,0.14878099266421804,0.23577368079817787
Galaxy347,3198.36,4100.8,-0.072534943848722444,0.43243090808794404
Galaxy348,1132.01,1845.18,-0.14578412386806769,0.34903063765844461
Galaxy349,509.91,3470.42,-0.091892459164465604,-0.30460692703501135
Galaxy350,1320.84,1875.31,-0.19928318071177578,0.11288993424775037
Galaxy351,3666.32,181.05,0.049061608482645326,-0.30432320670123725
Galaxy352,2371.79,2198.2,-0.18254457487119197,-0.2511029223740151
Galaxy353,2657.09,4006.27,-0.065078445533144957,0.25853772138958664
Galaxy354,1097.18,1951.89,-0.059568917356492175,-0.28737231731067703
Galaxy355,1886.84,4010.09,-0.052763733483844444,0.0011509454136623114
Galaxy356,1462.37,404.83,0.28778289382775557,0.43714852666545623
Galaxy357,573.34,3116.0,0.15027945526321584,0.08658922166444244
Galaxy358,273.82,1450.89,0.074664818377629893,-0.28676103708283218
Galaxy359,3974.72,3367.87,0.011824267604722284,-0.11826428679202625
Galaxy360,3050.04,4160.98,0.31131854814891652,0.018486454991729212
Galaxy361,1695.18,1950.06,0.00073231069200646592,-0.025557898221626268
Galaxy362,1870.04,2613.19,-0.095293407456388535,-0.0080853405738160432
Galaxy363,893.54,2528.22,0.087531901723338496,0.1111886558741649
Galaxy364,613.0,134.41,-0.19252656093048043,-0.033995912554276947
Galaxy365,2756.5,3205.63,-0.037360078802201283,0.34368567281076862
Galaxy366,2594.18,2941.81,-0.20881733857551604,0.29835454938556588
Galaxy367,1078.32,793.33,0.23669723497427358,5.9273491581135485e-05
Galaxy368,2559.7,4007.23,-0.32675523495355813,-0.1020231319158051
Galaxy369,2669.73,1003.31,0.14220761661492215,0.081046913361239273
Galaxy370,1179.06,208.19,0.43899835940332377,0.22294197479603667
Galaxy371,698.98,4125.03,-0.33179687292218862,-0.4075830276861836
Galaxy372,464.15,2740.32,0.10581463307820003,-0.11707062039686564
Galaxy373,1333.82,3325.0,0.18325112668558369,-0.029000914832171813
Galaxy374,3896.37,2050.66,0.098678631410656664,0.37685697278439501
Galaxy375,3849.55,2240.75,0.11556704489478098,0.28214822509797949
Galaxy376,1271.63,1663.91,0.5090764195030052,0.23337012937644588
Galaxy377,2120.44,1872.05,0.20011922265899293,-0.0039356244303600241
Galaxy378,1088.78,1076.19,-0.16804845465069465,-0.016113282080863711
Galaxy379,3830.89,219.35,-0.33732054922011467,-0.096970991052775221
Galaxy380,2525.06,3566.51,-0.1526930181315794,-0.13723265788152567
Galaxy381,64.97,1788.55,-0.076717697337358837,-0.33876386110081441
Galaxy382,1197.84,24.48,-0.23152782291269192,0.015154106090915109
Galaxy383,1689.69,3744.48,0.066879471600519574,0.15027124579166989
Galaxy384,2644.55,3233.79,0.020030517172807821,0.098965627971421444
Galaxy385,2857.69,2182.44,-0.075968148991320913,0.12525597622971787
Galaxy386,1844.87,402.13,0.1004817107280046,0.044070632629778589
Galaxy387,474.77,3953.79,-0.24615765960839764,-0.65175413894488443
Galaxy388,3010.04,2437.21,0.14611999894008121,-0.039956260234827456
Galaxy389,1145.69,1546.37,-0.14219559103752133,0.21552020304055869
Galaxy390,4140.27,2382.59,-0.21817492659528842,0.13548915524456445
Galaxy391,511.61,3304.21,-0.095655771803633827,-0.40013288601602387
Galaxy392,2928.77,3172.1,0.05411898332737998,0.54612002541302773
Galaxy393,227.14,1226.84,0.32296942036732157,0.1251220299104058
Galaxy394,127.1,1605.8,0.15919182618886946,-0.023655132627305141
Galaxy395,4089.1,1832.86,0.13532665414010042,0.051206632175265179
Galaxy396,3488.86,2778.95,-0.24439718623493153,0.13252279671965927
Galaxy397,2654.23,2238.46,0.24188170850278112,-0.05455268405899219
Galaxy398,1392.64,2634.11,-0.029520226703021693,-0.0085070473686199993
Galaxy399,3278.14,2379.1,-0.18616853208388909,0.26198588226224417
Galaxy400,2722.71,3859.14,-0.14704287921716258,-0.15156319742601682
Galaxy401,2685.72,3788.73,0.15347246187759447,0.47102008660754802
Galaxy402,2318.46,4099.59,-0.25121556511660598,0.14189207158189945
Galaxy403,2796.75,3302.45,-0.59056738504958373,0.16179205067115607
Galaxy404,3202.5,4092.94,0.15890519631651923,-0.096269299354519
Galaxy405,2735.85,720.61,0.28614468052900122,-0.23191905614257183
Galaxy406,1307.65,1636.61,0.091083668496591053,-0.046753190828790037
Galaxy407,3423.09,1918.74,0.081403214951640282,0.21180118693971395
Galaxy408,1083.04,3679.81,-0.15741841955336056,0.11295351937417646
Galaxy409,2001.78,43.13,0.097956091623071839,-0.42989926933903183
Galaxy410,650.92,2748.29,-0.23721950820597212,-0.095481906805479799
Galaxy411,2020.49,249.46,-0.16357108868504311,-0.19720827082181358
Galaxy412,928.01,3504.05,0.036466356569512207,0.22859207189239331
Galaxy413,3168.3,1020.57,0.095717737523665969,0.081962837999258992
Galaxy414,2975.97,3929.5,0.058711315306803263,0.10771866315675085
Galaxy415,478.86,1995.42,0.28440752582953954,0.0099959338603878289
Galaxy416,1963.09,3266.43,-0.1481245228123455,-0.1443253252798288
Galaxy417,2741.2,2010.32,0.23983935057223008,-0.02596175739417253
Galaxy418,2581.45,3457.86,0.02195146959357977,0.096701514257770183
Galaxy419,3226.73,1809.31,0.015205229160144024,-0.003427465125572432
Galaxy420,3424.02,2952.85,0.092760534425405772,0.40294391637496629
Galaxy421,165.12,2833.57,-0.25890892986607622,0.011333888074939208
Galaxy422,876.29,2686.72,0.016455224933894008,-0.29931082530973729
Galaxy423,2988.97,4019.43,-0.1112787751431205,0.052042160759085215
Galaxy424,306.17,3289.47,-0.074573238433209413,-0.13467715817385664
Galaxy425,1754.18,3062.31,0.08330079830274642,-0.052877911899285146
Galaxy426,1805.56,89.76,-0.15597528592572765,-0.22061170784697792
Galaxy427,3168.41,4099.65,-0.044023322278903737,-0.040408476185950698
Galaxy428,4162.39,4106.28,-0.17543069930645933,-0.019288951454539544
Galaxy429,1386.95,2679.03,-0.2060806530609868,-0.15147715076094778
Galaxy430,3906.16,1020.23,0.15670205671333112,0.11671541140161742
Galaxy431,2698.5,1133.06,0.13544182906409957,0.36692046601469508
Galaxy432,1869.48,3295.36,-0.07977633924903707,-0.010977714921412156
Galaxy433,2033.82,24.69,-0.13325764845310828,-0.49659233014345716
Galaxy434,2166.38,3017.4,-0.37257382609770356,0.28366913740107474
Galaxy435,1733.22,699.89,-0.026029846344295227,0.13454780083310885
Galaxy436,133.44,730.22,0.17179022728015611,-0.12694002459040338
Galaxy437,3521.22,535.19,-0.22055080944930708,0.21408285796020729
Galaxy438,769.42,2623.77,0.062106852078717543,-0.054817469596114318
Galaxy439,3609.68,3295.55,-0.081456772966497754,0.085114762008811629
Galaxy440,2529.37,3676.86,0.14767272298404538,0.093806376174481468
Galaxy441,2447.78,3976.87,-0.11426296714807854,0.22565608448173752
Galaxy442,470.24,1947.65,0.30225326022835408,-0.20320081538179582
Galaxy443,3542.29,2046.69,0.019665374104312836,0.28789310956333164
Galaxy444,3963.93,172.57,0.016415665131737242,-0.22389962156988075
Galaxy445,3484.21,2466.73,-0.12599380886574038,0.50012214266249599
Galaxy446,2840.83,258.27,0.093828547724489106,-0.28757562887770138
Galaxy447,3491.0,4118.19,-0.52466307342550766,-0.24071721704179067
Galaxy448,1537.53,1327.86,-0.22983357682400593,0.2516607627486126
Galaxy449,3713.41,3772.6,-0.0225599164190909,0.251644150778287
Galaxy450,2238.16,587.27,0.076059235603072387,0.035071491401417548
Galaxy451,3733.05,1802.7,-0.40494811312392276,0.33248442926059008
Galaxy452,1750.65,3500.15,0.023473858141636467,-0.44773293225424082
Galaxy453,3025.54,367.79,0.19300598722213841,0.068273306504080394
Galaxy454,3101.2,2123.32,0.24066062684035194,0.27231449448495426
Galaxy455,3815.09,2318.91,-0.099894813829424167,0.14244994325143351
Galaxy456,2158.7,2631.6,-0.24880320844544501,0.034411315302720923
Galaxy457,462.24,3508.13,0.011541443329542253,-0.18043627049187444
Galaxy458,403.22,961.96,0.32900192690897234,0.04338196390795461
Galaxy459,2791.01,2453.74,0.15780124327119496,0.095940337139057391
Galaxy460,957.33,292.0,0.4271677930468295,-0.10010961330475449
Galaxy461,4017.54,3512.02,-0.10629030126805089,0.27819295363863722
Galaxy462,102.02,2381.93,-0.11494021355115661,-0.18352391016870234
Galaxy463,2015.98,2927.56,-0.2117865745108175,0.29874022377862852
Galaxy464,228.99,857.18,0.075801347870962682,0.33584132622490542
Galaxy465,2021.39,3781.79,0.15594908039825087,0.12659139112811466
Galaxy466,1143.4,2390.3,0.18800772431985929,-0.22238604148645227
Galaxy467,1709.57,3196.71,-0.22730255069740785,-0.49415656330915048
Galaxy468,1746.31,145.43,0.065367094432737,0.53702459344033771
Galaxy469,2471.31,476.01,-0.10580572141901373,0.26716199498142956
Galaxy470,1182.5,3519.33,-0.27242526328969713,0.12889274664941303
Galaxy471,527.3,2722.24,-0.025591826858721051,0.05173930288913775
Galaxy472,631.16,1637.63,0.084875066241292221,-0.25507534027129153
Galaxy473,2448.11,885.63,-0.25062392107641085,-0.23288640786292092
Galaxy474,448.68,2048.59,-0.13755292253265922,0.0072544764236712467
Galaxy475,637.55,1232.63,0.28776767850493051,-0.083593882866157904
Galaxy476,3361.81,1185.47,0.13711690153876432,-0.058925410280234902
Galaxy477,3579.89,418.34,-0.081008739507494321,0.041775427698735268
Galaxy478,334.07,2082.41,0.103297055607773,0.0048444086286481836
Galaxy479,1424.06,1471.11,0.01826127609283669,-0.013217112796200553
Galaxy480,2728.62,3305.98,0.12647284964675115,0.15702777713042365
Galaxy481,3056.65,3542.86,-0.02019543553328626,0.032878781102264901
Galaxy482,517.81,2156.52,0.21786686231173324,0.13542729975786175
Galaxy483,2554.48,3598.1,-0.17418478433513845,0.2700731693982858
Galaxy484,30.91,1683.15,0.077977386829794895,-0.13800487345733695
Galaxy485,2831.14,3325.07,-0.11226938604058045,0.13177624064755178
Galaxy486,702.29,2017.82,0.36811163082246889,0.076913218457106303
Galaxy487,2997.88,1373.79,0.29773235548836913,-0.12469983241272246
Galaxy488,988.52,4183.41,-0.18101626172578678,0.54025423458360566
Galaxy489,163.25,2367.39,0.19949082530713119,-0.10685694822218209
Galaxy490,3136.54,891.37,-0.19131947519032988,-0.1571062264432182
Galaxy491,2912.94,1367.55,0.040445970695667188,0.00045897877161863582
Galaxy492,566.11,907.39,0.23819060427022096,0.1793193090451525
Galaxy493,1945.08,1512.36,0.14866305850203954,0.15976194071298488
Galaxy494,1870.8,703.01,0.14266741628035701,-0.29936143304149154
Galaxy495,392.3,4124.2,-0.19270219464446456,-0.12497244001811203
Galaxy496,3309.12,2865.03,-0.33321691935627679,0.43481182116390271
Galaxy497,428.88,3621.59,-0.071561483342103022,-0.48103541772618463
Galaxy498,3925.56,3082.07,-0.038073793843711373,-0.28433709403544927
Galaxy499,3239.46,2570.73,0.077987104384135697,-0.025608175728284222
Galaxy500,133.53,1979.73,0.48155086286747273,-0.048621757452194672
Galaxy501,2537.98,848.53,-0.015334012071673203,0.28835730653994518
Galaxy502,872.15,4130.34,-0.038141630819687883,-0.24110927274203078
Galaxy503,3976.56,2633.8,0.098365894495940298,-0.088256459616547822
Galaxy504,1383.15,824.32,0.090339273198360381,0.35401429296855613
Galaxy505,1515.3,3935.26,-0.19739899360901197,-0.011510683170517198
Galaxy506,3238.01,3405.85,0.13172106278469525,0.070682050129927329
Galaxy507,503.67,1270.18,0.21991406438196678,-0.082212561061645234
Galaxy508,747.42,3429.12,0.10854196944913,0.043919373722805216
Galaxy509,3630.49,3862.49,-0.31980145728874376,0.43237425785301487
Galaxy510,478.19,1389.77,-0.14252388201252392,-0.0567542686226742
Galaxy511,1773.37,2859.69,-0.41124617206568825,0.087187535816879685
Galaxy512,413.26,2723.8,-0.36078594471679981,-0.097991224314855921
Galaxy513,2703.49,46.0,-0.19239189232312251,0.020101595417345158
Galaxy514,3363.0,2638.42,-0.049865281002702565,0.84589142619589963
Galaxy515,173.75,1036.68,-0.14203063180563602,-0.018464540483712454
Galaxy516,1010.62,644.38,0.031185128576041922,0.12604460703891257
Galaxy517,1829.44,583.62,0.11432714954976622,-0.17463071942078051
Galaxy518,762.23,3995.51,-0.35759187368126299,-0.029408347275022687
Galaxy519,1262.13,640.95,0.32502593957945297,0.37922200886061191
Galaxy520,3168.62,2585.01,-0.14842875634221675,0.065290836489252602
Galaxy521,3609.68,2592.39,-0.19729407538965313,-0.092596534348092646
Galaxy522,8.6,2083.58,-0.072308954682915663,-0.15171805495986104
Galaxy523,2475.41,3509.47,0.08474421040361213,-0.0053608037630653166
Galaxy524,3408.22,2580.75,0.30520700305213411,-0.33550585159586355
Galaxy525,934.21,3671.04,-0.18606901797963307,-0.038342744299539266
Galaxy526,1203.72,2756.11,0.23120076282061558,0.083117375359502116
Galaxy527,481.78,2178.04,0.12785223772841289,-0.17289276875274776
Galaxy528,1425.56,126.47,0.34577249612041949,0.15140831847393432
Galaxy529,2338.13,1277.8,-0.13850176321777286,-0.17024570795107261
Galaxy530,3110.39,2690.62,-0.1775197094733782,-0.068829719691564206
Galaxy531,2246.38,3957.06,0.047425352645599134,-0.1330158412901967
Galaxy532,1052.34,1919.25,0.29754481623839679,0.20444772927978772
Galaxy533,4047.59,204.93,0.34454822883999664,-0.16859637278263695
Galaxy534,3352.18,3661.14,-0.39393898812563127,0.052269819743612514
Galaxy535,1439.16,2544.24,-0.17890800873841106,0.18690663736885232
Galaxy536,1974.09,697.42,0.19744885325221365,0.18062512694112709
Galaxy537,3201.23,1162.89,-0.010128465071431364,-0.15766516844038117
Galaxy538,4097.12,4125.79,-0.051629039908463091,0.088177567138991525
Galaxy539,3462.56,1828.02,0.49925065735746693,0.44440015821278978
Galaxy540,1907.6,2225.93,0.098798890574652437,-0.037948616996364357
Galaxy541,2201.48,3221.12,-0.25877666235182295,-0.48866341384710626
Galaxy542,2188.34,3983.53,0.092324680488416161,0.19944455125115707
Galaxy543,3097.72,771.64,0.10276779829193884,-0.020290858875579895
Galaxy544,3322.77,2175.36,-0.10281447320075499,0.27084973260693124
Galaxy545,809.15,2307.05,0.13106040886981266,0.15031470997790899
Galaxy546,59.16,374.51,0.20804273120007086,0.27283221370412369
Galaxy547,4082.1,2514.86,0.27190741492254233,0.29643586053617921
Galaxy548,3381.95,476.61,0.081368974042341002,0.17978837831395836
Galaxy549,3111.91,3319.45,-0.26839854463035662,-0.62566852910942083
Galaxy550,103.21,1124.36,0.28346047713187428,-0.03090000568726152
Galaxy551,3689.92,1778.56,0.07885035072910114,0.046344268352891453
Galaxy552,2307.81,2927.69,-0.10838787754250997,-0.02339241435572928
Galaxy553,2500.47,1797.18,-0.35769344181164459,-0.34854925879758186
Galaxy554,3631.33,2868.14,0.19329884473190245,-0.018219442541455633
Galaxy555,281.05,633.66,0.093811294908890966,0.062701515181034978
Galaxy556,4043.53,1458.91,0.17829584404145049,0.027470998942632181
Galaxy557,1007.44,2704.83,-0.077450329855465794,-0.3784485001898229
Galaxy558,1667.35,675.42,0.3054946075645335,-0.28721549245446099
Galaxy559,3468.79,1890.56,0.31339028659142021,0.1644288939649759
Galaxy560,1777.23,353.13,0.25812498221081392,-0.002622055170729054
Galaxy561,590.5,1487.16,0.34149013679513629,-0.14773338990377688
Galaxy562,1778.32,3885.93,-0.31655082660884826,-0.00040639896640607028
Galaxy563,368.28,580.52,0.15556198738879454,0.56050173834229011
Galaxy564,2627.51,2439.14,-0.16262711362258853,0.068466498899355896
Galaxy565,3945.31,4035.38,-0.066262383576249265,0.24903796614032425
Galaxy566,983.02,531.41,0.21849110944481959,0.24887718391671831
Galaxy567,2443.79,187.47,0.26796687780884582,-0.1724948521925844
Galaxy568,1738.97,132.66,0.087636586180870724,-0.052326183540027278
Galaxy569,1858.05,2850.16,-0.17226612245015147,0.18349143845571467
Galaxy570,2634.72,1352.56,0.10261975990598099,0.09008531704367731
Galaxy571,4123.86,1701.14,0.4221942076242311,0.0020670536525079358
Galaxy572,3020.16,3039.44,-0.20805639532826264,0.060708953603872115
Galaxy573,2149.99,3687.63,-0.18184582294078278,0.20585673670949453
Galaxy574,3873.15,20.39,0.087321243643829441,-0.41771678114794963
Galaxy575,836.38,599.74,-0.10774098972857267,0.13482111606051031
Galaxy576,1831.08,2268.48,-0.24819121777372471,-0.20219332196715042
Galaxy577,283.53,2010.18,-0.11604135677676702,-0.23260487791128615
Galaxy578,4043.15,1546.01,-0.10896830411034919,0.052914616180059396
Galaxy579,1354.07,736.03,0.26455101762351796,0.42188669737605045
Galaxy580,663.07,1038.47,-0.02186793755950181,-0.17715277169494531
Galaxy581,1327.23,1274.25,-0.013165788286824825,-0.081926796816274489
Galaxy582,3814.37,2327.36,0.53007349162096484,0.55102618420969973
Galaxy583,1310.49,2416.83,-0.006624083890836005,0.25155143994060214
Galaxy584,1337.7,1284.68,0.017103889853212345,0.093368877201839173
Galaxy585,2842.94,4119.11,-0.0083250250252583369,0.22648022150168889
Galaxy586,267.16,4086.93,0.22936757108224837,-0.068407808676071269
