GalaxyID,x,y,e1,e2
Galaxy1,4104.66,679.79,-0.19048893237184075,-0.002195771473353092
Galaxy2,1153.34,992.2,-0.099080300547949848,0.0025234197587137575
Galaxy3,3100.67,3194.78,0.057573238913271096,-0.03687573075806895
Galaxy4,2734.1,2002.44,0.10602509115969588,-0.20071435104438778
Galaxy5,47.56,1999.93,0.24427985994292795,0.20577413951920823
Galaxy6,3334.14,1014.57,0.14485428914399229,-0.10438714811474351
Galaxy7,896.41,2390.31,0.5086547798666311,-0.25701325461490565
Galaxy8,2988.38,3508.68,0.027361691023459533,-0.18121867189059113
Galaxy9,680.1,1558.39,0.20038988792590431,-0.048752004868429406
Galaxy10,3749.46,700.0,0.61611579712801201,-0.31650667767537366
Galaxy11,946.27,329.9,-0.32997461400977102,-0.15718776100359111
Galaxy12,2652.26,4065.06,0.15204440495806121,0.071092762826180628
Galaxy13,3467.29,3499.2,0.55629683436328348,0.26638949774585202
Galaxy14,321.14,1436.35,0.15317071136133797,0.025513802867644691
Galaxy15,769.46,3971.98,-0.54265683711862134,0.23650066820485993
Galaxy16,3464.18,3953.1,0.3811177269569952,0.025481979087820017
Galaxy17,243.83,2211.08,-0.19351731700878505,-0.095708730239356721
Galaxy18,888.78,82.24,-0.39605969607655755,-0.22876065225556788
Galaxy19,1509.78,3827.53,0.35484897875821164,0.21831622454569657
Galaxy20,1322.61,3231.82,0.026930419604823841,0.38074478973530679
Galaxy21,417.54,2045.4,-0.12752644945296793,0.16551049152746797
Galaxy22,2994.59,3875.76,-0.13140088988442761,-0.29760873684328826
Galaxy23,1468.22,2297.25,-0.019735575857569826,0.069171843356721219
Galaxy24,954.68,3976.62,-0.20480529188513619,-0.31495219506211747
Galaxy25,4183.93,1404.3,0.072518647207412454,-0.12517099733889828
Galaxy26,2472.48,3279.25,-0.099601244306799341,0.019641641308693447
Galaxy27,3523.02,2083.93,-0.023160094052514402,0.08716602952238918
Galaxy28,3272.37,2666.8,-0.01913129652780729,-0.11443509209309161
Galaxy29,2875.22,2898.91,0.062032152000654053,0.15815920279793058
Galaxy30,2892.82,2216.07,0.076757012049670892,-0.21937673743050867
Galaxy31,282.29,2451.58,-0.19371531447289261,0.0063566457866657822
Galaxy32,3839.78,1745.03,0.27153464756385581,0.27255547739867947
Galaxy33,3379.34,3563.4,0.15428960098829897,-0.038043623942707487
Galaxy34,2320.28,2026.35,0.046766065461165338,-0.099104798675687
Galaxy35,865.93,3084.06,0.094422292204265998,-0.16001599692332469
Galaxy36,1819.77,1138.1,-0.28727227034031627,-0.071821534950092844
Galaxy37,1418.36,380.09,-0.1801570329383036,-0.20930209491328658
Galaxy38,2324.97,2286.61,0.012570983378449224,0.026854898228427154
Galaxy39,1381.36,2712.13,-0.29340616284727417,-0.14719036589687207
Galaxy40,1940.92,714.2,0.34574168076704326,-0.074452139850352955
Galaxy41,2685.03,2231.08,0.25505777696058241,-0.23857128589314502
Galaxy42,1400.55,3832.26,-0.045026773606796161,0.078103668049318828
Galaxy43,4044.23,2730.82,-0.15858680130427813,-0.15450365985981002
Galaxy44,22.19,536.74,0.0080882940972842321,-0.25961656000703315
Galaxy45,3116.43,356.82,-0.012163381740380235,-0.24873239680614739
Galaxy46,3174.31,2809.73,-0.16083963552860692,0.018473346019229741
Galaxy47,3931.38,2605.25,-0.2557399153053328,0.0044322868557413048
Galaxy48,242.32,22.69,0.047823967514347365,-0.13398308939707532
Galaxy49,1653.7,81.18,0.005039418405798593,-0.42329901453498486
Galaxy50,837.71,548.76,-0.15243897366408724,0.18922332335407893
Galaxy51,2011.89,3932.15,0.29121910796761802,-0.077195357638722456
Galaxy52,1180.81,1575.16,-0.44922933171992213,-0.22866821794403902
Galaxy53,2163.73,830.45,-0.46753573179383934,-0.32934585257410676
Galaxy54,786.75,3361.77,-0.15309638026649253,0.28250112991575804
Galaxy55,1717.07,549.59,0.4327597625085981,0.249456492593434
Galaxy56,3397.16,1062.05,0.20555949934546042,-0.23567392217927682
Galaxy57,4046.04,3160.25,0.12343862506167119,-0.075864764115565614
Galaxy58,2380.26,1206.8,0.13320862267984665,-0.24810653201417826
Galaxy59,2179.98,573.91,-0.31342780683365795,-0.25978062728242746
Galaxy60,2598.92,3087.11,0.048648324712312035,0.041372042464407531
Galaxy61,1164.51,1858.54,-0.38808029664072186,-0.36698401801374725
Galaxy62,3389.71,1538.24,0.28644294222737865,0.011502429520171942
Galaxy63,36.66,872.33,-0.41639146703545032,0.22359152891108888
Galaxy64,2545.7,470.9,0.066301164499949897,-0.23408472969949759
Galaxy65,1308.54,2106.58,0.36509223190078427,-0.42968063278435276
Galaxy66,3647.51,2218.81,-0.024529748008022767,-0.13866594948754107
Galaxy67,670.54,1238.19,-0.37922013189568304,-0.42653495110327516
Galaxy68,3087.6,1386.23,-0.12778282940017524,-0.28732567496679862
Galaxy69,2534.47,324.98,0.17142044222949948,-0.44909213964950051
Galaxy70,1205.56,1227.24,-0.27540529727545981,0.070674383389240814
Galaxy71,106.8,4003.45,-0.14367079143066705,0.14996931422285475
Galaxy72,3014.12,860.02,-0.068307650372385537,-0.0041916349522397589
Galaxy73,3790.28,3326.01,0.096743322084334421,-0.026699546206827639
Galaxy74,1555.74,3875.37,0.17277628599493278,0.0035661246161050597
Galaxy75,1502.77,2543.79,-0.26598624374478541,0.16615509007378337
Galaxy76,621.85,1100.4,0.1794744526492266,-0.15849228455920045
Galaxy77,4071.48,2155.05,0.47011436041285132,-0.049144443048320607
Galaxy78,1004.24,1880.31,-0.47543148379784894,0.084851492679231227
Galaxy79,714.33,3546.54,-0.46299906909992361,0.04790628405588393
Galaxy80,206.35,2150.84,-0.23020963827184815,-0.14571226605139551
Galaxy81,26.7,3351.79,-0.01002315581261537,0.059785817705766825
Galaxy82,3735.51,2872.98,-0.062323684538905993,0.043942072562114687
Galaxy83,1674.83,4001.14,0.4268007499005067,0.30191750076016532
Galaxy84,2455.02,2576.04,0.16058499085314432,-0.020636090371514849
Galaxy85,3778.16,2118.56,0.20537704611039953,-0.3192734424142456
Galaxy86,3392.71,4117.82,0.22582854716888012,0.090909974258848988
Galaxy87,1862.76,528.81,-0.055221890475358082,-0.43652154697226675
Galaxy88,1746.29,90.03,-0.057548279470360883,-0.10351955125606602
Galaxy89,4133.9,3771.68,0.15476059384403218,-0.093671602932207457
Galaxy90,3080.26,512.37,0.036777610857225709,-0.21223302807710528
Galaxy91,3553.32,4044.47,0.22928141934201449,-0.25954423566312612
Galaxy92,2456.91,556.81,-0.034951180011989554,0.15799560315464237
Galaxy93,361.3,31.84,0.044485196365074225,0.032089866229392236
Galaxy94,3746.32,2121.14,0.25290160754517588,-0.17461114533131844
Galaxy95,2444.51,2604.53,0.19485319349202834,0.14249854886755936
Galaxy96,1722.49,3418.58,0.11032205911341107,0.10331905895991952
Galaxy97,3885.86,3175.04,0.33705935612886839,-0.05865722894213337
Galaxy98,1325.12,3213.18,0.16982267042257909,0.21917140895521398
Galaxy99,795.9,3792.76,-0.25773002822223468,0.10465929557902999
Galaxy100,3566.23,1453.38,0.18140806625421846,-0.32606267754535589
Galaxy101,937.98,53.31,-0.21264503890669503,-0.064125266496302472
Galaxy102,584.5,2030.72,-0.25267703996428198,0.046639387799573787
Galaxy103,3847.19,2664.14,-0.30315852626602863,-0.023986012395233867
Galaxy104,2484.05,1888.08,0.24927885985387457,-0.50566178590569377
Galaxy105,2847.74,1658.52,0.34461806077897966,-0.22100776124908345
Galaxy106,1140.25,3711.32,0.089206026330408528,0.019417603094780689
Galaxy107,1011.19,1518.43,-0.020520338405275826,-0.10775156336009159
Galaxy108,1030.6,2395.03,0.35493411688543186,-0.14254931544677801
Galaxy109,3630.04,1630.53,0.022823958655660462,-0.059755284314478282
Galaxy110,3143.85,2445.31,0.13917386355045555,0.14660589627762688
Galaxy111,3397.59,3134.7,0.22965036210055445,-0.29397877415550394
Galaxy112,3089.98,322.4,0.29288420746598798,-0.20155911888360484
Galaxy113,2574.56,1142.24,0.12816602260723503,-0.12287690211812324
Galaxy114,1049.86,1702.59,-0.22550183833706555,-0.049947952054453848
Galaxy115,434.92,2322.09,0.0024500450677501506,-0.057750829289856094
Galaxy116,1932.05,92.25,0.086825859995904031,-0.17177411890024466
Galaxy117,1601.38,513.58,0.037882608646405164,-0.35256882620759156
Galaxy118,138.89,3811.49,0.1384549530683058,-0.39542144476794494
Galaxy119,3350.28,1668.28,-0.34910577367370371,-0.21261737120838781
Galaxy120,3544.13,962.78,-0.38730443003610771,-0.089118397488074208
Galaxy121,1119.91,3733.31,-0.26421474310673287,0.17793250591520185
Galaxy122,1482.16,1856.66,-0.22238555659751452,-0.32392567919475845
Galaxy123,937.19,2289.23,-0.18049735107843393,-0.16833609422734391
Galaxy124,368.88,3569.36,-0.012039233543533617,0.27692027889981952
Galaxy125,366.34,2136.36,-0.40207874611836658,0.089433945023797243
Galaxy126,3950.58,2362.84,-0.20098417097372984,0.10438013246630561
Galaxy127,2811.14,4092.04,0.51664689362177096,0.088498628385606057
Galaxy128,341.92,3461.84,-0.096926859111004016,-0.27198156947713048
Galaxy129,932.9,3844.27,0.13255475108903894,-0.18955009513844437
Galaxy130,593.47,2481.87,0.24420313663612231,-0.2304879089763453
Galaxy131,1770.77,1826.87,0.098962391218425622,-0.11155363120193312
Galaxy132,315.43,2133.77,-0.21004884385640599,-0.018799727833969389
Galaxy133,1210.78,118.54,0.35547562948301314,-0.18736821111872673
Galaxy134,504.94,201.29,0.25069858090562069,-0.080001214019347899
Galaxy135,2540.45,2403.63,0.36502207402735709,0.24063044244724291
Galaxy136,1696.76,2185.22,0.016335197423950537,-0.28128942609774965
Galaxy137,253.49,3461.09,-0.17908610255256457,-0.30356227897191662
Galaxy138,864.2,3434.18,0.25579869614565953,0.30945678269227817
Galaxy139,324.08,3382.03,0.016665625056378114,-0.1031908829920137
Galaxy140,1473.77,1385.48,-0.16112132381604816,-0.21502174649896516
Galaxy141,23.34,3328.93,0.20618797680871567,0.061457728949809221
Galaxy142,1043.45,1007.34,0.028685978551055924,0.11363720872087404
Galaxy143,2140.78,2116.54,0.37443777915497956,-0.31495442660105993
Galaxy144,1699.24,2369.37,0.17491112144477344,-0.24178435234437035
Galaxy145,833.07,1304.97,-0.029190166551636046,-0.2061497514890929
Galaxy146,2430.73,289.01,0.18079310361319964,0.24375890458373065
Galaxy147,3136.39,1745.49,0.071786658251563912,-0.1571127376244317
Galaxy148,716.75,2042.19,-0.1305855348873439,0.28747492339008129
Galaxy149,1085.68,3.85,-0.13438325706904539,0.090009869110212012
Galaxy150,3410.26,287.6,-0.27179574654106364,-0.40039399880982746
Galaxy151,4015.02,3233.83,0.05806557574861565,0.15550022101064925
Galaxy152,1494.08,3665.3,-0.1147846644018498,0.16667768386225829
Galaxy153,3553.89,3532.04,-0.19994331709552493,0.38349086239664931
Galaxy154,1810.37,386.71,-0.0697056606084102,-0.34327143514919756
Galaxy155,1763.33,4114.88,-0.30363571823139412,-0.050777788678460417
Galaxy156,1128.17,3480.47,0.10560711528980005,0.20173228460446074
Galaxy157,1842.54,2163.52,0.10522942160633945,-0.64182244967849433
Galaxy158,262.15,1123.82,0.05450358306928707,-0.083151691031059918
Galaxy159,1938.86,4149.95,0.26752714802682331,0.060097011634080461
Galaxy160,692.43,949.28,-0.029688327784049839,-0.014720341043630299
Galaxy161,1814.3,2331.96,0.19256880140762733,-0.17644918506163851
Galaxy162,1169.24,3878.28,-0.1436132783379635,0.6783834056619662
Galaxy163,2694.38,2230.62,0.28208249775450839,-0.31901457977742087
Galaxy164,472.1,2636.79,0.0023016926370680452,0.045326275801636007
Galaxy165,2234.09,1955.97,0.31659000325800285,0.20106784149114948
Galaxy166,2403.32,1289.89,0.37387655613601872,-0.066722924363038449
Galaxy167,3419.25,676.26,-0.26173583799179045,-0.26599574360288664
Galaxy168,3759.55,3403.26,0.18545457342504545,0.021092599630332547
Galaxy169,2019.33,241.17,0.14713465767379885,-0.5908605719508313
Galaxy170,2911.62,677.58,0.034845727177756344,-0.10957279963062153
Galaxy171,721.24,1057.34,-0.15926911244369951,-0.25378960480404245
Galaxy172,80.04,4109.98,-0.17414115957578563,0.13249133126020604
Galaxy173,2511.37,4008.01,0.29045541628212945,-0.13516813058510641
Galaxy174,4104.62,1333.34,-0.032054744970479152,-0.1582636351239522
Galaxy175,1326.69,1403.31,0.018286587864127679,-0.16533323828888757
Galaxy176,674.51,2426.11,-0.092401423494066992,-0.15554370849791382
Galaxy177,2918.39,1710.54,0.041554735021015948,-0.059518469836584764
Galaxy178,319.51,3601.49,-0.577951151950163,-0.23304471728400128
Galaxy179,3510.16,3353.4,0.47540232508703012,0.026028678453857802
Galaxy180,311.68,1139.75,-0.31524305690668386,-0.12406381571757583
Galaxy181,226.34,3864.47,-0.1600122134355732,-0.22607554045115663
Galaxy182,4022.52,2494.33,0.046270609839675236,-0.032990396494739449
Galaxy183,3142.51,3905.61,0.085816072469591553,0.3097475109030462
Galaxy184,1278.93,399.48,0.41990665464620464,-0.4150679297925387
Galaxy185,2062.35,3954.59,0.16238052801563518,0.15056623268821231
Galaxy186,78.04,2278.65,0.12298199749218075,0.025850527981190183
Galaxy187,1268.17,2679.35,0.1406183556766962,-0.33564570209837019
Galaxy188,1422.98,128.51,-0.095910634545834983,-0.078378164923455867
Galaxy189,303.99,2522.74,0.10079471554490591,-0.045082832007927107
Galaxy190,3983.87,2306.14,0.18615674302386259,-0.077713005200496107
Galaxy191,3641.43,1320.82,0.14704645916569917,-0.33198924823365139
Galaxy192,2540.98,3875.24,0.15896386632959542,0.57908554504297083
Galaxy193,3698.67,2800.57,-0.12848057268040064,-0.053647350080653605
Galaxy194,4053.63,3683.25,0.11061026353642908,-0.082140462802384628
Galaxy195,237.88,163.44,0.16914891048030947,0.46706213725243523
Galaxy196,2785.04,2260.49,0.20279246291994124,-0.041189179770001756
Galaxy197,3706.63,1923.32,0.2994122095725073,0.029906837672994319
Galaxy198,214.78,821.67,-0.54178962936863262,-0.10577098640176373
Galaxy199,2978.07,3531.72,0.56284536595183066,0.43141410281158366
Galaxy200,2348.64,3425.96,0.45817136391279623,0.27032598271240138
Galaxy201,4197.62,2922.24,0.31199660601151291,0.17529107342437433
Galaxy202,651.19,1721.95,-0.35299973876093299,-0.14764247704428091
Galaxy203,1611.35,3815.73,0.015598273812678753,0.10818976250513959
Galaxy204,1308.96,1021.48,-0.26853657666780706,-0.32234461440230411
Galaxy205,4181.34,2775.44,0.14389090618859207,-0.75124470648548358
Galaxy206,935.83,1942.91,-0.025215730328916518,-0.03067872805223279
Galaxy207,3129.19,796.6,0.045630023799977458,-0.44567620464706492
Galaxy208,1605.82,812.38,-0.089645942130945594,-0.6827918150397414
Galaxy209,1085.37,1610.1,-0.051550510471050054,-0.030743969028674573
Galaxy210,3820.72,3024.21,0.21846946571033546,-0.53877123100357072
Galaxy211,3248.53,4112.02,-0.079053906403930924,0.42065141638577064
Galaxy212,1429.19,581.82,0.44519882238658837,-0.056214704620327183
Galaxy213,2054.82,2904.76,0.0012871670083825781,-0.17558437047652722
Galaxy214,1825.34,700.53,0.09662443800702418,0.17036144991979119
Galaxy215,229.73,2299.89,-0.20347358984967312,0.003398801345513926
Galaxy216,762.76,2.26,-0.65258161692186056,0.10147125494194192
Galaxy217,702.34,3815.8,-0.22549535401111268,-0.021565165614659126
Galaxy218,419.95,975.62,-0.26808666070391518,-0.064364329434421719
Galaxy219,2668.61,3520.65,-0.38683950457729188,0.4632537809453311
Galaxy220,2006.47,462.24,-0.060012637643269695,-0.33867445823475562
Galaxy221,3307.53,1331.76,0.4719804100654228,-0.3771412722528158
Galaxy222,3908.64,2513.37,0.081869315677830137,-0.15105100962464288
Galaxy223,2732.53,1781.39,0.1850624371925742,0.050150204759658173
Galaxy224,2593.31,95.36,-0.14391377218634091,-0.11557462823283352
Galaxy225,3250.54,287.68,-0.28325752804574617,0.20081891550934458
Galaxy226,391.98,3336.46,-0.10695934555430348,-0.2838971930478591
Galaxy227,665.13,4138.09,-0.088990693731471782,-0.31508509335304835
Galaxy228,1736.02,3767.32,0.081415314842422676,-0.25906326739425062
Galaxy229,3167.08,3593.4,0.102417304694966,0.24977572097473477
Galaxy230,2463.01,3589.16,-0.42413720451602488,0.12379961623700438
Galaxy231,4182.65,1781.87,0.26565666584594405,-0.18785181479744575
Galaxy232,2795.66,1911.6,0.17091599948516134,-0.060027232421811461
Galaxy233,3789.03,3487.41,0.49210598512112236,-0.33229601774141115
Galaxy234,1575.06,4148.47,0.19601936798910286,-0.02998113453737955
Galaxy235,995.22,1879.37,0.15227475350622832,-0.1615005360280346
Galaxy236,3877.46,3651.05,-0.089977117747770813,-0.039329854264414876
Galaxy237,340.69,1470.24,-0.49453018549935779,-0.34164510304372386
Galaxy238,915.59,299.32,0.25762021030337912,-0.35504132179401882
Galaxy239,4147.52,2069.83,0.071844850811746824,0.085887104070833872
Galaxy240,2484.32,3105.24,0.25274450977269924,-0.14032490885416588
Galaxy241,967.49,3244.92,-0.0039600876327450241,0.52796705215020778
Galaxy242,1954.39,3572.88,0.12367225974678478,-0.0073682279071212026
Galaxy243,9.1,1883.22,-0.10952739147572436,-0.21120869344234952
Galaxy244,2565.77,696.27,-0.28151129470526004,-0.28260613656943273
Galaxy245,2591.39,1368.2,0.35532211040296302,-0.049607005299904
Galaxy246,1672.32,478.08,-0.19009267591320589,0.21155022188671596
Galaxy247,1490.88,3513.07,0.14631987194625479,-0.048221927149598512
Galaxy248,961.78,2414.54,0.1797845685915557,-0.025618794122977517
Galaxy249,61.54,1749.35,-0.33965182255629645,0.46875884676690682
Galaxy250,3667.07,3850.54,0.24363292510000401,-0.15882035616552465
Galaxy251,2345.19,215.72,-0.091364429298459032,-0.21522628983341496
Galaxy252,1684.52,2195.63,0.22010865170666999,-0.54560167778550139
Galaxy253,1503.94,403.54,-0.47227284140889414,-0.40561510131390832
Galaxy254,2370.4,3542.28,0.28979273210455503,-0.17711359546302885
Galaxy255,721.68,970.59,0.08164511340264205,-0.29389090168582493
Galaxy256,3829.23,2080.2,-0.16926170956184652,0.0020196604909757249
Galaxy257,3124.58,2260.08,0.51279776049792503,-0.024770632748437313
Galaxy258,364.11,3482.78,-0.12642120983540633,-0.21400282407170945
Galaxy259,163.77,336.83,0.17663177837192151,-0.11073260999458234
Galaxy260,4004.23,3404.7,0.16581575739199433,0.044878935843402454
Galaxy261,832.29,2378.96,-0.15978189377408353,0.042501108018728584
Galaxy262,3996.71,1415.58,0.15553793571633573,-0.011093061492752423
Galaxy263,297.84,1249.63,-0.093726283630166038,-0.084501497489730806
Galaxy264,1455.35,122.28,-0.354845788850215,0.16769439192641808
Galaxy265,3055.8,2091.07,0.14338610237163107,0.33729978537951999
Galaxy266,3756.77,457.2,0.23504210665828656,-0.011669189946968223
Galaxy267,1489.29,2294.33,0.19446997664626467,0.15942694591560561
Galaxy268,1714.11,3384.49,0.32375653716729746,-0.1274126661395697
Galaxy269,924.08,3241.9,0.17187986732517402,0.2852588956903151
Galaxy270,3652.78,1506.85,-0.12564949854458241,-0.26302301412970158
Galaxy271,1312.34,3556.48,0.092655153150509872,0.37858154837693747
Galaxy272,3325.71,1510.72,-0.020729892429818889,-0.42513778047811313
Galaxy273,1651.91,2994.66,0.15131192296332291,-0.10253639217577629
Galaxy274,3529.52,3824.97,0.11424900600543195,0.20065009952756374
Galaxy275,1322.36,1679.62,0.16310469234107214,-0.15971113278554214
Galaxy276,239.16,3051.56,-0.77952839845157351,0.43665718723023261
Galaxy277,1653.43,3183.89,-0.1846792421192657,-0.046192697916680035
Galaxy278,2161.13,1520.89,-0.0043968990255589327,-0.60155927256570885
Galaxy279,4034.18,240.74,0.23964209126308403,-0.042690632716742977
Galaxy280,2669.89,2097.15,0.19580066421812864,-0.031610068771704303
Galaxy281,3927.32,3723.17,0.17424916309365465,0.33448549835734193
Galaxy282,3505.49,2982.31,0.20306777437670062,-0.20680172097426996
Galaxy283,1274.23,2052.2,0.17996334606209891,-0.006407066589732946
Galaxy284,333.1,2785.93,-0.26348988104186188,-0.19486242285602931
Galaxy285,3581.15,2146.65,0.087268500433191079,-0.44370869175434863
Galaxy286,1183.09,395.86,0.037613632037221678,-0.22150973832826767
Galaxy287,511.52,2551.72,0.22927807808919412,-0.015289158228427357
Galaxy288,2609.14,2577.26,-0.16748072564391578,0.052399355753561055
Galaxy289,622.76,709.57,-0.51570208251581418,-0.37431761434286864
Galaxy290,3876.26,2674.8,0.31614724726502597,-0.049889361932558399
Galaxy291,3352.79,4189.5,-0.0019378733567860795,-0.013705108400394933
Galaxy292,3302.98,2259.77,0.15252218324859934,-0.17748225425934577
Galaxy293,140.34,199.72,-0.50699283421432095,0.072851431289750607
Galaxy294,2402.83,249.56,0.046708718934453476,-0.11608312769013106
Galaxy295,884.57,2661.94,-0.14534118734475027,-0.23184653250579187
Galaxy296,2546.29,1645.42,0.26896126669001236,0.082121378051033311
Galaxy297,451.42,2094.33,-0.23372562027468838,0.32883443854241223
Galaxy298,2931.31,1763.74,-0.001748262587021529,-0.14613205106337185
Galaxy299,2564.54,4184.35,-0.13347147091283401,0.10789189735424007
Galaxy300,3161.66,2604.26,0.027921618530155068,0.14272862341657455
Galaxy301,2765.48,1029.76,0.27420545418977865,0.329092083600448
Galaxy302,1137.62,4034.81,-0.11702120055574426,-0.16270760987544342
Galaxy303,2101.94,1990.88,0.26635418482667839,-0.19168312498203866
Galaxy304,1606.97,2443.34,0.077011417655007408,-0.17541659027054415
Galaxy305,3056.7,3380.61,0.0055695790478280105,-0.062570253089861305
Galaxy306,2013.59,2946.14,-0.065883115356497907,-0.074114182433319617
Galaxy307,1891.48,2400.61,0.44413565480586936,-0.3516104476376975
Galaxy308,677.04,1559.25,-0.055305767280334164,-0.10292930565366581
Galaxy309,3078.52,1100.81,0.11696220031055182,-0.065947695067589421
Galaxy310,335.19,363.35,-0.044472703083399456,0.11379844933137152
Galaxy311,3586.42,1862.51,0.42081271766212236,-0.44882350852393721
Galaxy312,4046.77,3449.22,0.3205703918907995,-0.11466285931635536
Galaxy313,445.75,3472.21,-0.036429933072226944,-0.40635380744702154
Galaxy314,1083.43,3583.66,-0.13182047275209724,0.3027960752535227
Galaxy315,2827.47,3965.67,0.17373678700432732,-0.025929065474578322
Galaxy316,1261.4,708.88,-0.041375306611946328,-0.013617723991391495
Galaxy317,2147.45,1953.33,0.50088045042714424,-0.090233775293841717
Galaxy318,3575.47,2785.42,0.24089612832231755,0.041605484264882128
Galaxy319,4180.95,2875.78,0.22972942360954568,-0.28316996857846571
Galaxy320,631.59,1114.93,-0.14207285557325358,-0.11529208113251846
Galaxy321,3836.46,2019.44,0.37704799229712532,-0.35847124287930454
Galaxy322,1366.14,136.19,-0.047573693122653291,-0.034933045067755158
Galaxy323,3245.82,1878.57,0.1301486361752407,-0.16499414171987878
Galaxy324,1510.77,3617.25,0.048471595125320927,0.028440890953338446
Galaxy325,69.92,1565.06,-0.44356906320347822,0.2771931822677583
Galaxy326,967.01,2181.44,0.095423060355420475,0.0078724826314142959
Galaxy327,3294.25,3493.88,0.34130302550328867,0.21727457107222511
Galaxy328,1049.08,700.29,-0.074631494715103164,-0.25835475720093587
Galaxy329,2957.55,3500.86,0.25976011278098882,0.4483999929728899
Galaxy330,1806.67,2668.01,-0.28543926690780397,0.083110458591959327
Galaxy331,2745.04,3651.02,-0.20301211231242661,0.22608400514161497
Galaxy332,970.47,2333.49,-0.1108813629096292,-0.28290370676035548
Galaxy333,1010.38,3074.45,0.11790306306051732,-0.054816396819698
Galaxy334,3958.7,3033.65,0.36104754784006976,0.017564531177646066
Galaxy335,1655.26,3531.98,0.44498266544248244,0.10976470438117826
Galaxy336,3719.26,3363.14,0.020848501950432169,0.11373875976262131
Galaxy337,3119.35,462.31,0.35165765334736404,-0.41211930539194325
Galaxy338,3993.11,1619.98,0.051604055709783714,-0.13676896992352536
Galaxy339,3208.93,3452.84,0.082261957453737933,0.017997832315872955
Galaxy340,810.67,3189.56,0.072155495622268778,0.2490621420314838
Galaxy341,405.77,1299.01,-0.50905086321586268,0.018107029469415975
Galaxy342,2373.6,927.34,-0.25033912046971701,-0.013244720179487773
Galaxy343,4147.8,3142.3,0.30799678987676549,-0.090136356149939201
Galaxy344,2862.05,4162.36,0.10067507705404992,-0.094213030299904438
Galaxy345,579.74,60.96,-0.10224951676978013,-0.14103697921311317
Galaxy346,1344.24,2962.21,-0.099382219536254368,-0.12089434463644654
Galaxy347,2864.18,389.14,0.30055219761872337,-0.17937562087404357
Galaxy348,1603.82,4010.23,-0.50354470346077629,0.10668870395262017
Galaxy349,364.47,1777.36,-0.28916908947037456,0.029863024293711168
Galaxy350,1906.56,473.16,0.081686081752059783,-0.16082168298809388
Galaxy351,2964.32,3423.26,-0.27556465370930355,0.099979592632419262
Galaxy352,89.11,1256.36,-0.084406670334903663,-0.38921424793688442
Galaxy353,261.87,2693.91,-0.095460991642293908,0.31449934623737213
Galaxy354,2463.63,2560.09,0.10881992878522548,0.26170296707021479
Galaxy355,20.93,2354.83,0.074629354434224332,-0.034677929756155079
Galaxy356,2951.74,1071.25,0.08566178129247716,-0.11589638102496336
Galaxy357,2709.73,947.23,0.029501594184508026,-0.47875564097760415
Galaxy358,3895.98,3797.64,-0.14322697391965566,-0.073263436908112239
Galaxy359,3827.24,3223.56,0.28486203657547265,0.43520473580079433
Galaxy360,2012.49,3414.01,-0.27798071669983182,-0.00046362736566844809
Galaxy361,544.13,4125.84,-0.0047540496541606247,-0.12580078233108777
Galaxy362,3601.1,3135.1,0.26188146946939383,0.081093399450259646
Galaxy363,1194.67,711.38,0.1264003540444007,0.25957935804713439
Galaxy364,2772.74,2165.3,-0.33914788015251285,0.39318631401854076
Galaxy365,3826.34,98.28,0.25277418962022263,-0.23220938543003855
Galaxy366,3892.81,3416.66,0.46686234531209592,-0.06011705095534766
Galaxy367,884.47,558.54,-0.044783919014244528,-0.24077246902501875
Galaxy368,3992.86,2054.19,0.10711525557432949,-0.12686449656624826
Galaxy369,1889.06,4086.13,-0.14318415253184777,0.40403412868077132
Galaxy370,1258.84,315.12,-0.40711321285123458,-0.24931078347654656
Galaxy371,2881.62,3044.25,0.47610636160926062,0.22286869063960008
Galaxy372,2059.29,585.88,0.26973209584735314,-0.35372309902965898
Galaxy373,1800.73,1162.36,-0.168273531429668,-0.11115601924574849
Galaxy374,1855.59,2909.43,0.22454483348174104,-0.16925691243566723
Galaxy375,1972.88,1220.03,0.30844875084704521,-0.4076745878649502
Galaxy376,1632.59,1187.12,-0.16530481756128473,0.21377539532494233
Galaxy377,2007.24,1312.51,-0.026842219805693505,0.010687745421572914
Galaxy378,3594.13,155.41,0.60270532023655921,0.028826458120893961
Galaxy379,2876.0,3322.48,0.39937352338741017,0.012829063718094648
Galaxy380,1578.53,443.78,-0.20201753322574043,-0.23484501931234864
Galaxy381,2147.62,395.71,-0.20129820113619368,0.018227931785853385
Galaxy382,2086.37,2005.86,0.042574367851703737,-0.0060971232147358223
Galaxy383,782.73,731.01,-0.19473514585479407,-0.18118405812742988
Galaxy384,1842.85,44.53,0.22530349404852246,-0.42031474957562859
Galaxy385,3783.23,4040.53,0.12949882591957626,0.34724850947740293
Galaxy386,1416.73,2320.35,0.066691803825021073,-0.44286512691422053
Galaxy387,3018.34,3486.78,-0.28288243662736667,0.1446519079786453
Galaxy388,3333.2,3885.08,-0.098923304246298194,0.04159032336424387
Galaxy389,2895.11,2675.28,-0.19519458090897523,0.037767011938060764
Galaxy390,3402.18,2516.22,-0.023774189079300179,0.17424010191436301
Galaxy391,4107.74,3631.42,0.050831580274163318,0.42726018670830562
Galaxy392,81.8,4121.66,-0.1113267729256629,-0.23894204402399291
Galaxy393,166.41,1847.91,-0.30948367101573349,-0.10115950942885502
Galaxy394,527.44,743.98,-0.19336257402519588,0.019079916448690365
Galaxy395,2944.73,521.18,0.32050821618650294,-0.17395586164367596
Galaxy396,3243.97,767.89,0.28711688820250181,-0.31835112624833439
Galaxy397,291.31,1625.24,-0.049247232822335341,-0.11369386878607596
Galaxy398,2214.63,426.16,0.15658460643880531,0.13375904462837343
Galaxy399,2354.75,4123.09,-0.27674956163222969,0.1926346620505022
Galaxy400,1671.49,2231.92,-0.37277176831525027,0.21317771846957398
Galaxy401,1422.77,2868.87,0.086676398847050612,-0.28171612117440453
Galaxy402,918.18,2324.98,0.2065158627416889,-0.42687279395508865
Galaxy403,1218.44,1206.75,-0.54100738003385307,-0.088632938111942006
Galaxy404,3688.19,3760.35,0.3307275967826262,0.10746139404078925
Galaxy405,949.76,3866.77,-0.39609665044478642,0.0018659726153752443
Galaxy406,2342.83,1094.14,0.42736832347580261,-0.40201332560912867
Galaxy407,722.45,1230.83,-0.071240797595385569,0.19191887158109777
Galaxy408,2398.21,3353.14,0.39288175490953736,-0.071133280236919449
Galaxy409,2995.7,607.2,0.15656539824983523,-0.41076599331655383
Galaxy410,2372.68,873.78,-0.20264057745334624,-0.40225585846868422
Galaxy411,2212.13,3822.08,0.29212994566217992,0.35356025359699605
Galaxy412,169.48,555.44,0.12906307277412213,0.49015399838763668
Galaxy413,372.7,1939.7,0.10192905383215975,0.091550901467883722
Galaxy414,1155.04,3427.99,-0.14256897423544368,0.11272577416602621
Galaxy415,3626.04,4191.42,0.15417198970191431,0.0016395838161394061
Galaxy416,2805.57,3854.11,-0.0012529841913187234,-0.22996011111455361
Galaxy417,2082.31,3384.45,0.13078424220145141,-0.032082226135009176
Galaxy418,2912.92,2271.24,0.10259798210030757,0.10948703840685663
Galaxy419,700.17,2493.75,-0.13425154291423297,0.28466478454442457
