GalaxyID,x,y,e1,e2
Galaxy1,1303.19,3345.38,0.10518222617311158,-0.17671439322530513
Galaxy2,960.81,3546.65,-0.26011362155100859,-0.24891986646497838
Galaxy3,1678.56,1340.81,-0.26753653769764241,0.015092380120757934
Galaxy4,2595.03,446.3,0.14735511337619331,-0.14970122346014658
Galaxy5,222.01,691.65,-0.17868570321251892,0.41037217672033122
Galaxy6,1040.63,878.32,-0.19103053491170718,-0.029931274102232647
Galaxy7,321.56,700.1,0.17028572886917151,0.0022436122311103868
Galaxy8,2612.17,617.16,0.099563564256926335,0.038048661289135942
Galaxy9,1865.56,1267.78,-0.21385930190633556,0.18456654327727506
Galaxy10,949.26,2605.19,0.031537187835245041,0.24585194329167229
Galaxy11,2680.88,844.53,0.23070586192163536,-0.037807255278829374
Galaxy12,867.6,1173.15,0.14547038693550235,-0.17901609234390772
Galaxy13,2161.37,1996.01,0.05706804009514993,-0.076723954187387741
Galaxy14,1062.19,788.99,-0.46388941444454879,0.24409849845521289
Galaxy15,2434.62,605.13,-0.24721169287048989,-0.014996792776581254
Galaxy16,3588.85,4013.84,-0.044252188477813453,-0.32004448104070216
Galaxy17,1015.38,871.5,-0.040886396971777123,0.0083285919932210295
Galaxy18,1713.38,2687.11,-0.14052151502549282,0.059608056974652199
Galaxy19,8.5,1513.0,-0.014081154017257621,0.22444873327766374
Galaxy20,237.36,1061.54,-0.07621026431059541,0.21703866637858166
Galaxy21,3070.84,3087.06,-0.04937144156359137,-0.31278451067361024
Galaxy22,1975.7,1781.03,-0.30295251309155491,0.13775046358480592
Galaxy23,3207.7,2356.69,-0.1446381974265035,-0.1426583152135566
Galaxy24,4108.37,2528.49,0.51480505372597896,-0.073002086551010606
Galaxy25,382.36,2027.29,0.084073223562354846,0.10979325114501749
Galaxy26,371.53,2446.03,0.66237302304795309,0.12680583582407803
Galaxy27,2297.29,1229.8,-0.42023740732955933,0.02680020210618966
Galaxy28,3401.47,3803.93,0.12840667768691166,-0.072826175140092514
Galaxy29,820.43,1853.51,-0.046225961237526064,-0.21975934115500051
Galaxy30,3511.08,2695.68,0.014152349289329107,0.33877418391325831
Galaxy31,2947.18,4106.21,-0.2645592078091808,-0.27813522096955234
Galaxy32,2006.74,2172.08,0.0087585069962047013,-0.26013199457453784
Galaxy33,16.07,2568.2,0.31401753250936215,-0.19677510236827903
Galaxy34,248.38,1508.43,0.053908390719707586,0.065046243193047762
Galaxy35,2917.01,282.7,0.3138903705441215,-0.07499146484932015
Galaxy36,779.54,2660.57,-0.010366573131954,0.15405256147019539
Galaxy37,4029.57,1601.92,0.051915363000420656,-0.050646969025747113
Galaxy38,603.25,3320.11,-0.078362116168874785,0.27218706611347637
Galaxy39,3673.27,1318.29,-0.076901247441971216,-0.40726286478673479
Galaxy40,867.29,390.05,-0.20848917858315053,0.32788342913827079
Galaxy41,127.44,61.91,0.080461216324511906,0.14023450589123276
Galaxy42,3396.01,3440.93,0.18717862471744376,-0.044096172120274807
Galaxy43,3013.7,3134.87,-0.32883308932480659,-0.33328649438588465
Galaxy44,259.99,785.35,-0.40111683049306146,0.18942230471668189
Galaxy45,3668.8,3677.47,-0.17554894029798859,0.051057751027124315
Galaxy46,759.71,1964.23,-0.014036998664184376,0.052042153943438446
Galaxy47,2092.73,1254.35,-0.10268086431152043,-0.14495707047245607
Galaxy48,1113.82,1993.12,-0.13817411706431845,-0.33773095691517863
Galaxy49,1178.16,3480.17,-0.33543214684591888,-0.051604828629230257
Galaxy50,2744.13,245.27,-0.021095121715566462,-0.19167841573980876
Galaxy51,4124.22,1782.28,-0.088432139704132134,-0.42651928111347354
Galaxy52,1041.42,2118.86,-0.31097869112599053,0.29161991075678251
Galaxy53,2621.57,586.69,0.1963311011460144,0.18966777021414999
Galaxy54,2725.21,1840.82,-0.24781215573085935,0.057209849894863246
Galaxy55,1016.0,1467.55,-0.049042437895803079,0.12915416805259786
Galaxy56,2493.99,548.7,-0.34538762136306056,-0.16237807523196504
Galaxy57,3822.48,2017.14,-0.16793335871859991,0.16601096217931402
Galaxy58,1537.93,1986.81,-0.082160588706218368,0.44374766667461885
Galaxy59,1630.27,1097.09,0.0073955706888749473,-0.35280049109402833
Galaxy60,3672.8,3768.19,0.0050209493870127242,-0.024824857349758957
Galaxy61,2044.51,1869.8,0.065172249350501532,0.19033828711100861
Galaxy62,2610.77,329.21,-0.10258027875702538,-0.065712990875249705
Galaxy63,2646.22,2750.31,-0.042791793312438056,-0.34923390969081936
Galaxy64,935.46,3045.84,0.3514770603460543,0.23546301905487649
Galaxy65,507.7,1903.11,-0.11436696598313484,-0.25314734982254572
Galaxy66,2259.41,1252.03,0.021339305405298326,-0.039932785732437422
Galaxy67,3808.77,235.33,-0.43035440812358261,-0.018514042732896099
Galaxy68,3742.76,890.23,-0.038153301868595058,-0.20260492237615382
Galaxy69,1920.26,266.56,-0.25905380577237386,-0.26743960397809202
Galaxy70,271.74,1324.74,0.12465749069394572,0.37702624460862788
Galaxy71,2573.8,991.6,-0.036083409717465931,-0.17326007674381091
Galaxy72,3852.15,3431.0,-0.21475353158323768,-0.058343580895823338
Galaxy73,3939.24,439.44,-0.29091187633350285,-0.27423593249145722
Galaxy74,980.84,3301.0,0.44938213060685411,-0.17634382337395599
Galaxy75,1622.54,2931.51,0.036598725125945947,0.16811797741505846
Galaxy76,1892.62,4122.08,-0.15687717778515137,0.11291181934639988
Galaxy77,2415.22,3314.49,0.0090173396408319284,-0.47233797351707785
Galaxy78,621.48,1037.86,-0.024394392492989851,-0.04581010984601272
Galaxy79,2171.96,2914.73,-0.35464017519219648,0.29126577340438553
Galaxy80,932.05,950.28,-0.087741941390117748,-0.022086603144298556
Galaxy81,400.63,3486.81,0.47188849629379265,0.0076831800223883182
Galaxy82,3797.67,2624.4,0.48765678291942277,-0.04716473062837323
Galaxy83,325.08,2215.1,0.09155683176165634,0.03403222073732845
Galaxy84,4193.06,2144.44,-0.027157697963339836,-0.19417049324750649
Galaxy85,2979.84,848.14,0.27107848653193678,-0.37380135760517902
Galaxy86,2760.08,2072.22,-0.068598426532690049,-0.22782489892977137
Galaxy87,2750.78,233.54,-0.12461308556707182,0.17393316232141964
Galaxy88,2973.32,2552.93,-0.25332749818251371,-0.20169500551816885
Galaxy89,1945.16,2715.37,-0.11218892206346245,-0.14190610994935302
Galaxy90,1477.61,881.47,-0.36775510139733403,0.078595412884245042
Galaxy91,2422.36,2148.54,0.043770747886847816,0.043250558811188229
Galaxy92,2903.77,1218.3,0.18112048739214071,0.18633619217377578
Galaxy93,2742.85,2086.36,0.0048726841612453109,-0.056937292011459632
Galaxy94,3169.91,907.13,-0.0061863935354709298,0.18616689300399999
Galaxy95,1554.55,1826.04,-0.31380390904852329,0.26942469823032622
Galaxy96,1527.05,1189.39,-0.063121802852884379,0.077955159171522834
Galaxy97,4122.74,3298.62,-0.06592636163086954,-0.49997931080943786
Galaxy98,942.1,2523.24,0.13162238408776011,0.34197283550223118
Galaxy99,578.44,2020.46,0.3152330891535336,0.57621252299817316
Galaxy100,1742.19,324.97,-0.17597243536978574,0.37534413189106769
Galaxy101,277.65,1517.17,0.061075919006604446,0.014770632758006441
Galaxy102,2954.34,893.92,-0.022800770273836729,0.096682700549486036
Galaxy103,897.45,887.6,0.20756314874903864,-0.031091532656918691
Galaxy104,332.39,2107.28,0.51316603687246742,0.035633785016304348
Galaxy105,3405.49,2971.41,0.14630697543998922,0.28156633380192841
Galaxy106,1892.8,2053.64,-0.15908708911596253,0.074903579848962037
Galaxy107,3709.06,787.44,-0.33384293597282488,-0.30966960734315147
Galaxy108,3755.21,2567.83,0.4715528140069809,-0.20090686742148878
Galaxy109,3577.64,3806.08,0.18159761843517891,-0.19571513544507818
Galaxy110,4142.55,3765.07,0.31550390575164555,0.18183945875138516
Galaxy111,2580.33,3739.57,-0.024439495638055697,-0.054999598265394273
Galaxy112,201.72,1569.39,0.14529373745445812,0.059211853910051931
Galaxy113,561.3,458.93,0.024615268087873468,0.01528475085492223
Galaxy114,140.89,459.39,0.53441625241100688,-0.12246901824056922
Galaxy115,2686.02,3934.5,-0.24446937995239421,-0.15107857648669107
Galaxy116,2317.04,3253.55,-0.24087516731362416,-0.0075409323170139153
Galaxy117,3980.06,3535.38,0.33815772202158678,0.011832474105905683
Galaxy118,4060.56,3721.89,0.014644719044813015,0.025036324088873282
Galaxy119,1112.57,1580.42,-0.6086781143768224,0.060391461957816167
Galaxy120,3814.47,1752.32,0.14491841674913991,0.022763413861433907
Galaxy121,3141.0,372.95,0.00767310234259444,-0.24438122439927557
Galaxy122,4140.65,341.94,0.10465310905989694,-0.32699350082384915
Galaxy123,1794.85,2960.97,-0.22864652546432257,0.58107567916411007
Galaxy124,1471.31,1672.29,-0.39568772085639248,0.30154058779027826
Galaxy125,1167.32,1131.91,-0.11277924565637625,0.073799480060313477
Galaxy126,21.29,1919.52,-0.19109790642272528,0.14772881221128559
Galaxy127,1773.24,62.96,0.15862078125265627,0.24084652427991854
Galaxy128,1309.44,3893.71,0.01030431514645605,0.11796673433704669
Galaxy129,2853.1,519.17,-0.17958140192819982,-0.19356467263586435
Galaxy130,4053.69,2325.23,0.039413688333953062,0.026699640883233317
Galaxy131,3033.81,1263.03,0.082070967604800094,-0.055224624732297459
Galaxy132,3683.42,3366.69,0.18794238288723333,0.088212214980133707
Galaxy133,1522.53,1833.31,0.17653500665159724,0.26218062536298709
Galaxy134,2689.65,1569.94,0.13068156760441607,-0.46622929915703853
Galaxy135,1728.74,1735.03,0.35295307585297675,0.21965976338912518
Galaxy136,1602.01,3203.0,-0.126410011460489,0.14030671848291312
Galaxy137,1788.98,67.39,0.051304701594043212,0.051155706090559624
Galaxy138,4133.43,1096.18,0.060406980434503252,0.15663363683563286
Galaxy139,835.77,2726.58,0.15665491393782185,-0.33830454315853953
Galaxy140,4184.85,3647.95,0.26383163307714019,0.098804546041933561
Galaxy141,1164.04,1701.63,0.07805649499343105,-0.042205600971517959
Galaxy142,1507.17,643.23,0.29998658992398924,0.024983419411805437
Galaxy143,132.62,694.28,0.01312855524688674,-0.23935346121813517
Galaxy144,896.37,2007.65,-0.11864676210575044,0.11851215437785403
Galaxy145,4049.4,592.0,0.089457514483832601,-0.037772347671659628
Galaxy146,1141.64,563.93,0.1414290834089082,0.22076938495281703
Galaxy147,98.03,3729.23,0.11642402556761143,-0.033728679258968115
Galaxy148,3550.62,483.04,-0.22537144260652825,-0.038763481851476447
Galaxy149,1223.36,2102.38,-0.042569458524492808,-0.15839686656035243
Galaxy150,4049.56,3447.98,0.45579043507301653,-0.20743082459619572
Galaxy151,1472.56,1859.02,-0.12211032781850216,-0.066906259629023468
Galaxy152,13.42,2178.82,0.1775333034882412,0.020224155342821237
Galaxy153,812.07,2882.9,0.30042775036274094,0.21344696750143111
Galaxy154,1070.61,2394.26,0.079761896681710437,0.39731968947771035
Galaxy155,4009.66,987.06,-0.17163173259651782,-0.063578550905204478
Galaxy156,2490.61,1539.28,-0.3737986871345656,-0.23689590456324039
Galaxy157,2779.94,970.22,-0.13580615835665025,-1.0909140323346611e-05
Galaxy158,1639.85,144.09,0.080018754231823808,-0.11766518726622729
Galaxy159,2787.61,2231.92,0.17593684475905463,-0.0036004133353890189
Galaxy160,1115.0,560.57,-0.20492957822656288,0.069246642326191765
Galaxy161,3014.48,794.74,0.068739418755534548,-0.22298106097387363
Galaxy162,3854.78,2542.6,0.16829522874397049,-0.20366285865675249
Galaxy163,2256.39,2676.73,-0.1913818866347404,-0.011374313862664121
Galaxy164,2429.42,45.34,-0.077867625418844399,-0.055808916547161726
Galaxy165,3145.08,378.95,-0.12307591920722624,0.065963710441964099
Galaxy166,1909.13,4114.74,-0.19673807088433326,-0.32887252804824763
Galaxy167,3876.9,2243.78,0.16221879309210008,-0.24786724956920614
Galaxy168,771.31,987.75,-0.23885314042591108,-0.095937493660731676
Galaxy169,88.07,426.13,0.17643819281235723,0.15240312091680161
Galaxy170,709.2,2103.81,0.18513839001811738,0.43382030871192784
Galaxy171,1078.27,3284.79,-0.11347030020703991,0.045177736353890385
Galaxy172,2546.54,4184.84,0.022552176648253611,-0.14991653372607966
Galaxy173,91.46,4144.63,-0.040511368407489118,0.022587956484836691
Galaxy174,2961.51,3491.81,0.23324657323573891,0.068012892249952356
Galaxy175,3679.83,3888.48,0.15296867846674697,0.11681267699520115
Galaxy176,1034.4,2154.23,-0.11634889380250915,-0.040850958738161636
Galaxy177,4.28,2045.33,0.31299269161398457,-0.11299782748651577
Galaxy178,3901.93,2623.47,0.088715173055182311,-0.036047965675117422
Galaxy179,3693.72,1122.27,-0.40247525234306908,-0.049941847148018206
Galaxy180,2737.29,1065.78,-0.35337572187499477,0.13486783626155896
Galaxy181,1386.75,708.11,-0.013439072181928385,0.32490711751154899
Galaxy182,3925.4,134.18,-0.24869967993868253,0.26251536631190103
Galaxy183,1600.46,3448.78,0.64450489903054176,0.15216279559346949
Galaxy184,1961.87,1100.55,-0.55608878694566899,0.38909897159929502
Galaxy185,583.37,1756.17,0.1328947973199997,0.24436555734266679
Galaxy186,376.65,244.75,-0.08251747481309514,0.088802821122418302
Galaxy187,2147.29,3612.72,0.038408624981375185,-0.49949757886055524
Galaxy188,472.72,694.29,0.51218832785106461,0.38032599288430602
Galaxy189,758.35,4015.46,-0.049167091068315183,-0.007598854549011734
Galaxy190,13.9,2337.82,0.064493263848743765,-0.029055151990986017
Galaxy191,3645.17,1462.65,-0.058908998354534205,0.081103949711393092
Galaxy192,4069.16,3370.71,0.27698057780119956,-0.10760322216409897
Galaxy193,2160.32,321.84,0.25221853026015473,0.12488471603659858
Galaxy194,883.63,3383.2,-0.31599340919503405,-0.33985088347484171
Galaxy195,3241.51,1067.09,0.015971434023017539,0.16750956181888987
Galaxy196,113.9,3051.79,0.39815188101941729,0.09254314421009921
Galaxy197,1996.04,1965.68,0.033512299206351626,-0.23877897053528829
Galaxy198,2560.63,855.62,-0.30181140345665414,-0.022929017911678624
Galaxy199,3834.64,1211.39,-0.56955502504587185,-0.11414992100673818
Galaxy200,3859.41,908.94,-0.074462937228318191,-0.077068566587272166
Galaxy201,2578.32,3655.73,-0.28156670882975687,0.48924898325692801
Galaxy202,4167.49,3294.34,-0.079363247659379937,-0.177789096751513
Galaxy203,1973.75,3384.95,-0.14752176689428126,0.27234918659343055
Galaxy204,250.18,2009.83,0.17838325692333984,0.4435055223645562
Galaxy205,3278.8,2320.07,0.22546577922921823,0.24127575536088544
Galaxy206,2120.11,1704.73,0.081503546376213237,0.19181030981866237
Galaxy207,1936.94,688.12,-0.12517670688859384,0.38694587520600759
Galaxy208,475.81,2979.81,-0.058523493597116186,0.12043872756280459
Galaxy209,83.39,1104.23,-0.53893294756151644,0.41735640478818437
Galaxy210,4199.9,1139.81,0.51967871960256384,0.058839346858176239
Galaxy211,1833.68,266.9,-0.43186156113008911,0.25082410942795641
Galaxy212,2285.68,2347.89,0.40474763091949695,0.18625336836288905
Galaxy213,3213.34,2962.55,-0.14217596458528259,0.012204198347272016
Galaxy214,2671.86,885.25,-0.35633205779796301,-0.22368759848890551
Galaxy215,2615.1,577.01,0.20830077695481861,0.076557530497993978
Galaxy216,1982.88,2501.2,-0.12054082337928769,0.27689212765089405
Galaxy217,3445.96,1512.62,-0.15268359063512982,-0.20487919669976826
Galaxy218,2290.82,2326.69,-0.14196328289573187,0.070134836295615038
Galaxy219,338.39,499.0,0.0055040205585426133,-0.38153219836718677
Galaxy220,2454.81,1403.36,-0.12803675879835147,0.29762720164468781
Galaxy221,238.88,2018.61,-0.073470459148917477,0.10973106277097254
Galaxy222,1868.82,191.44,-0.18738621969831457,-0.23075901085365877
Galaxy223,146.86,2923.58,0.36709497409581793,0.16011135133855225
Galaxy224,1422.89,2644.7,-0.084814600944604912,-0.010858997704063456
Galaxy225,707.67,1606.47,-0.047881300981550037,-0.23063754740299952
Galaxy226,173.27,1135.45,-0.028896642970253562,0.47136107853937942
Galaxy227,2342.83,3712.71,-0.31996116995609508,0.4416959333822898
Galaxy228,3318.51,3635.06,-0.16807804926422223,-0.17440256712674032
Galaxy229,1158.48,1039.53,-0.25948973950147014,0.41231436153722112
Galaxy230,1710.37,2397.46,0.012229566334635927,0.31304613411187915
Galaxy231,598.83,2621.21,-0.032288389054146799,0.10058616183793247
Galaxy232,3969.89,1358.41,0.17681728356346382,0.042001836909697388
Galaxy233,2325.63,2862.18,-0.091544722967144915,-0.073887769564322039
Galaxy234,396.37,2586.69,-0.065056549680736528,0.15889231245920257
Galaxy235,2674.24,356.46,-0.14407706047320273,-0.20632103132965782
Galaxy236,4164.83,1236.71,0.031494706286000068,-0.2495272710288477
Galaxy237,3852.39,2571.99,-0.01352063165992802,-0.33329671785249415
Galaxy238,3512.38,2359.73,0.16860550518915432,-0.29229144702837201
Galaxy239,2178.84,4055.74,0.20950219792691036,-0.022732392965245082
Galaxy240,632.33,1743.52,-0.22820885220904225,0.31932085558549633
Galaxy241,1616.06,49.68,-0.12432551357915284,0.16653007126225178
Galaxy242,1276.03,2536.14,0.086054372551736383,-0.50078768263542561
Galaxy243,551.21,3817.24,-0.10768213485136618,-0.045926707290029116
Galaxy244,1748.87,64.69,-0.24501813260017752,0.2240852350740373
Galaxy245,908.37,2920.93,-0.054748598653268823,0.34299120699558139
Galaxy246,4018.21,1606.33,0.0064642607467861463,-0.35532969597576441
Galaxy247,3272.65,789.71,-0.17621243289496841,-0.14195199023808885
Galaxy248,1021.95,415.64,-0.22052261055651065,-0.17788520112101192
Galaxy249,3830.54,3691.25,0.22104897809595334,-0.080362257004434848
Galaxy250,3099.04,982.59,-0.35507223690075157,-0.136325075363606
Galaxy251,3067.84,1836.69,-0.08019420323342466,-0.1515011720586342
Galaxy252,1531.72,1379.6,0.047663330062751585,-0.28877181357904369
Galaxy253,1659.77,3783.68,-0.53371556652269392,-0.24881506796069092
Galaxy254,2067.37,1438.37,-0.054895651427201778,0.33704195056398412
Galaxy255,1825.13,2384.65,-0.094760817374903966,0.13682450210723091
Galaxy256,3093.79,1253.23,-0.2135089898299703,-0.12271214029820729
Galaxy257,1685.66,3082.4,-0.25138163370398398,0.044686273510536612
Galaxy258,579.79,3493.13,0.65490456835569055,-0.3374858875157008
Galaxy259,3435.14,3618.72,-0.22268336011004669,-0.1797898860555362
Galaxy260,1342.97,4063.56,0.21573044554722406,0.093652602994261855
Galaxy261,1062.89,2775.73,0.11984052325217392,0.1034127570735302
Galaxy262,3966.51,22.19,-0.24643409613608186,-0.075443465404032073
Galaxy263,1930.89,2288.58,0.34031005635823286,-0.25148268080637737
Galaxy264,3061.5,3321.7,-0.088595094537510438,0.05159782146964928
Galaxy265,1161.38,883.68,0.016275692990591478,0.08031070023561343
Galaxy266,1745.56,1520.46,-0.15031066200079163,0.1044685865161005
Galaxy267,1836.26,3153.59,-0.089130023522598661,-0.15068186823310009
Galaxy268,1030.45,3359.03,0.0020677665690241875,0.051608901214748107
Galaxy269,1811.52,2053.95,-0.31656843657350853,0.29752755597342712
Galaxy270,690.4,2341.6,-0.24654904395966024,-0.012035032224407022
Galaxy271,3403.05,315.43,-0.24581184783460958,-0.37054019922183473
Galaxy272,1033.27,3563.28,-0.17031506938785596,0.30046170072542699
Galaxy273,3246.02,2039.22,-0.11044259183084354,-0.38195661592018526
Galaxy274,1484.01,2891.43,0.082076917898183513,-0.11383364666986351
Galaxy275,2404.76,1800.26,-0.14040193171341259,-0.37024236784622744
Galaxy276,3544.55,410.05,0.36052019409422126,-0.10098961456655275
Galaxy277,1576.0,688.6,-0.096679481749418456,0.11309614761059271
Galaxy278,3676.75,3961.49,0.13469038726282195,0.12929295658891926
Galaxy279,222.05,4052.16,0.48179368172957315,-0.039162920875504756
Galaxy280,1727.39,1327.79,-0.31810265902639223,-0.086571226070881316
Galaxy281,3595.12,301.86,-0.16217269673837378,-0.44287347189824278
Galaxy282,2246.51,2751.01,0.059828237358905995,-0.15191288102862444
Galaxy283,1014.72,2696.53,0.16850844972667317,0.17101745433040952
Galaxy284,1056.52,3544.24,0.061408122281050595,0.13632842782208215
Galaxy285,3634.38,3140.23,-0.00042880455869873102,-0.1568698101933037
Galaxy286,69.23,91.71,-0.097416203506319243,0.071556329405667099
Galaxy287,558.58,3624.83,0.121344900399878,-0.25083323076330344
Galaxy288,360.81,2279.14,-0.011878502281074461,0.37008146387672541
Galaxy289,1278.62,3329.59,0.60147907144935919,-0.14367576074753186
Galaxy290,643.85,3532.41,0.08240530177247149,-0.30832119509958028
Galaxy291,16.85,2816.07,0.35780881957199384,0.26184947673848191
Galaxy292,125.12,1486.62,-0.064788285718897956,0.12575631207845389
Galaxy293,2322.24,2619.53,-0.027876419295622623,0.016493994516776148
Galaxy294,3456.36,14.94,-0.25427822386654536,-0.27646261824925639
Galaxy295,452.85,2015.82,-0.068181397851894546,-0.3458537426696765
Galaxy296,2164.05,3390.91,-0.17242876112548891,-0.097011022494093338
Galaxy297,2975.71,982.59,-0.25929681994071579,0.11056248491635604
Galaxy298,2965.96,462.66,0.0068542745071374367,-0.12930386434877283
Galaxy299,3900.94,745.93,0.017856042060512625,-0.21783224113172078
Galaxy300,1407.77,1288.6,0.010894488260719121,0.27972657548779217
Galaxy301,3023.88,1903.3,0.068520880934559131,0.14094825238674008
Galaxy302,2470.26,3384.04,0.12397414222562134,0.075298090607687773
Galaxy303,2230.5,366.07,-0.44041954732192623,0.020937700323347991
Galaxy304,79.8,3831.69,-0.39690832840751367,-0.061244458618119571
Galaxy305,318.73,3704.75,0.0026112389392590474,-0.46253829457917739
Galaxy306,3940.52,712.13,0.11907056267446904,0.28105537296988148
Galaxy307,286.59,862.41,-0.17609706497459943,0.35164061022159371
Galaxy308,3564.09,3878.38,0.26053675922359926,-0.037781488181171802
Galaxy309,1603.53,3509.84,0.23537479294808505,0.089004911961475808
Galaxy310,2872.91,2787.57,-0.049865130585529362,-0.14842746897220749
Galaxy311,1642.84,3199.82,0.0079957631537089895,0.29697713445967122
Galaxy312,810.12,2431.08,0.3429455082790861,0.087509664436942552
Galaxy313,54.53,3601.56,0.080831722459515462,-0.097914794683493067
Galaxy314,3474.14,2484.24,-0.15602654754433165,-0.26565766023017073
Galaxy315,1906.06,2209.96,-0.051933119624139781,0.34107327720993469
Galaxy316,882.48,1319.33,0.19551045533725142,0.47991912242342294
Galaxy317,4198.09,994.43,0.15762569170913401,-0.29917538444633845
Galaxy318,3096.81,430.63,-0.15909638933944237,0.27904790634210097
Galaxy319,119.41,508.45,-0.2849723109903467,0.010307551826830491
Galaxy320,1383.82,1782.46,0.089771245917184675,0.22563402378597699
Galaxy321,3798.48,3631.0,0.028435739685225864,0.053654709865051851
Galaxy322,493.16,2722.18,0.12240071943378913,-0.39667286697398652
Galaxy323,2509.11,2431.35,-0.30393180752053361,-0.0011707461488679183
Galaxy324,1244.46,3221.4,-0.22240536861547361,-0.36572384888989751
Galaxy325,513.92,2977.67,-0.42676526974662898,0.087136381879915847
Galaxy326,77.97,288.06,-0.054817736915744431,-0.019477138524286508
Galaxy327,380.78,2483.52,-0.046468882622850149,0.27171287382609249
Galaxy328,3890.54,2219.18,0.10189306746871626,-0.43150670463352248
Galaxy329,1537.37,3880.19,0.10402204135831009,0.27044230371982436
Galaxy330,2432.65,2893.02,-0.071458066008709534,-0.19958222885072241
Galaxy331,2444.84,1607.17,-0.38922808958084099,-0.031604361544172982
Galaxy332,973.88,4093.9,-0.38395172073769468,-0.01760357619304305
Galaxy333,3344.21,1223.19,0.071790209553907941,0.11473702086566487
Galaxy334,3177.28,3505.43,0.0147659552992154,-0.15482733542622851
Galaxy335,1294.04,3092.74,-0.079415987480861538,-0.18639047257739746
Galaxy336,1331.01,2389.49,0.051014202614201379,0.14043278646121565
Galaxy337,4050.41,913.79,-0.26032392294093698,0.15899185858682527
Galaxy338,1726.72,1414.27,-0.074821601335609583,0.27646991840116941
Galaxy339,1379.25,1952.78,0.096038427743991156,0.24917260749683001
Galaxy340,2464.51,1736.36,0.23990794929955941,0.3579967632123453
Galaxy341,3819.66,212.65,-0.24527932256256568,-0.21665314193568663
Galaxy342,304.99,3212.61,0.33102367170279812,0.30328222939156146
Galaxy343,452.82,1631.01,0.094636124339829431,0.21844813204751029
Galaxy344,2007.68,576.6,-0.19940174074876996,0.079824234293147805
Galaxy345,2041.05,3446.23,0.11980520694589446,0.39165143895942856
Galaxy346,1480.97,3388.01,0.45595476723600459,0.088730911260733625
Galaxy347,1434.54,2548.22,0.43032972229637012,-0.20397372992371104
Galaxy348,1563.12,132.69,0.064676770211648721,-0.16057910721100316
Galaxy349,3613.82,910.15,-0.12397252758785193,-0.049658648018157739
Galaxy350,3953.35,1760.8,-0.05122299674792162,-0.68418472063255431
Galaxy351,2999.39,2706.31,0.37340731983973507,-0.32621689725630576
Galaxy352,1423.95,438.66,-0.1194828077265957,-0.10805862283816929
Galaxy353,153.47,2465.02,0.28705618204440014,0.19640838931459334
Galaxy354,3084.44,608.51,-0.56604253854768838,-0.14646865574691675
Galaxy355,1234.13,1891.11,-0.034907907997157629,0.46345734219644563
Galaxy356,867.18,2556.0,0.021898982931850823,0.19656536001494476
Galaxy357,1327.15,2318.29,-0.023822605476179808,0.07132715583117262
Galaxy358,3594.44,560.44,-0.32505090107099088,-0.46001521794820344
Galaxy359,2169.38,2367.51,0.33341531547273562,0.27679837175527094
Galaxy360,1421.68,3515.51,-0.08960189641175148,-0.014007496072430126
Galaxy361,1635.9,3743.64,-0.37628606640764517,0.28541221135760153
Galaxy362,3648.61,304.94,-0.073062604929170494,-0.19220657482460202
Galaxy363,2517.4,4194.93,-0.45523229079901573,0.060597875918952243
Galaxy364,4126.6,1045.28,0.12872346353601399,-0.18496332916615421
Galaxy365,3623.34,336.86,0.49212887540907502,0.23528467613543386
Galaxy366,2942.52,2277.87,0.020305527446139351,0.088761586606220577
Galaxy367,1370.34,1555.2,-0.055539157184056123,0.032013402515539455
Galaxy368,1640.37,902.1,0.07830762148130041,0.34463173817449844
Galaxy369,1764.75,2482.77,0.10641832840842741,0.12027473518709544
Galaxy370,3452.26,3648.58,0.30786288590888311,0.21861986449355991
Galaxy371,2498.5,1406.09,0.041851004122306357,-0.13508578712029054
Galaxy372,1722.18,313.32,-0.36061284785262382,0.072859552174088377
Galaxy373,2425.95,3488.74,0.23781631046946725,0.37384700477066279
Galaxy374,4178.04,1253.59,0.28212469413843322,0.21706789846661256
Galaxy375,1538.54,3832.45,0.42657345655261403,0.44901713985747183
Galaxy376,1763.09,3799.86,-0.40522775918052623,-0.0073990565454843584
Galaxy377,1738.15,3714.55,-0.35018010179673592,0.10933925309833281
Galaxy378,3055.66,3363.03,0.12977247217466512,0.090501479013808006
Galaxy379,330.07,148.72,-0.10559547584519932,0.56327650984278554
Galaxy380,3323.19,1290.78,-0.13173401129819978,-0.21708088970244505
Galaxy381,1675.25,7.1,-0.054928814432908785,-0.19043235461022534
Galaxy382,1397.47,345.65,-0.042123139064159695,0.037257502455073942
Galaxy383,1831.84,2296.11,-0.41428532300507814,-0.20086293844104613
Galaxy384,2109.81,2486.95,0.29835676049700721,0.044105836957527213
Galaxy385,3438.44,3124.95,0.14470113090410197,-0.057565869798671079
Galaxy386,3470.79,3554.24,-0.22106598590281948,-0.31208080326607845
Galaxy387,773.55,2337.8,-0.17694064018139086,0.58043713841303268
Galaxy388,499.96,3740.02,-0.15224962656142979,-0.22775404526812063
Galaxy389,2999.52,1107.64,-0.36417380932256077,-0.19445864799670293
Galaxy390,3801.25,2215.17,0.19420399819204653,-0.60686731278464801
Galaxy391,1964.28,2505.7,-0.022795437391049389,0.42398977902343526
Galaxy392,1477.37,679.0,0.097152329411416327,0.22156644763077132
Galaxy393,408.11,1881.56,-0.10039984453654037,-0.087023816910048513
Galaxy394,155.69,3340.76,0.064465138112068235,0.038584406403024935
Galaxy395,1731.52,1233.53,-0.08347946600256452,-0.17164244067744
Galaxy396,212.86,2310.08,-0.55867888840309887,-0.2012504994538955
Galaxy397,3600.69,1774.55,-0.10836676847660975,-0.32690917321745783
Galaxy398,1330.31,2950.79,0.040248188737283828,0.38038320560027639
Galaxy399,3444.97,2162.92,0.024789198987021081,-0.21237349333086189
Galaxy400,2830.53,211.73,-0.23987820078117056,0.1091111035073471
Galaxy401,2521.81,2658.71,-0.36707879028356039,0.1484796080789007
Galaxy402,1735.18,1860.88,-0.33013302942066153,-0.11937139123596087
Galaxy403,3762.24,1258.74,-0.02485714779972676,0.00084002635759133915
Galaxy404,22.42,2853.47,0.20487512468551178,-0.2100513515054494
Galaxy405,1867.78,485.75,0.1571261441822788,0.17670428642081115
Galaxy406,156.14,1784.58,0.082161826300960958,-0.032595814435385034
Galaxy407,1103.07,53.91,-0.16582905830127317,0.18891635838901327
Galaxy408,1573.9,4050.45,0.33109272641556864,-0.2164475924532086
Galaxy409,2548.87,2159.2,-0.021855967103668772,-0.068601260702062183
Galaxy410,1476.25,921.95,0.068578342624896288,0.036554332982849741
Galaxy411,3314.64,67.55,0.032610165607543096,-0.28090001978434942
Galaxy412,445.48,818.08,0.36513235688885654,0.20091584227086678
Galaxy413,634.03,4169.75,0.028783259417699075,0.10957694827191829
Galaxy414,4086.97,3630.6,0.060090367233500558,-0.39428204844828069
Galaxy415,532.21,2857.24,0.067799393815693998,0.51256633313592981
Galaxy416,595.53,2293.97,-0.045235982942938853,-0.34648598525101904
Galaxy417,2289.16,598.45,0.10211415741148974,-0.1646150790148013
Galaxy418,2885.32,2734.3,0.37004195348145097,0.1429963254518882
Galaxy419,2793.91,1756.92,-0.065649827223909149,-0.034382553318070025
Galaxy420,3489.3,920.12,0.11996832390199337,-0.12455225494897673
Galaxy421,1353.87,2257.92,-0.26158458063037338,0.4867633532866486
Galaxy422,1705.45,4057.23,0.22175428313807477,-0.027595440305938773
Galaxy423,3311.8,3486.39,0.20460148455620675,0.21839880467436196
Galaxy424,1020.1,2187.02,0.018114825033302903,-0.24727638575737956
Galaxy425,3581.5,1651.17,-0.11989664040900447,-0.20938867454686372
Galaxy426,3846.3,2880.42,0.19076942711756875,-0.35272741954815118
Galaxy427,2331.92,552.53,-0.012652706329221941,0.22932415476024076
Galaxy428,4036.06,3733.67,-0.0025546832979300715,0.030192951719529577
Galaxy429,3390.09,153.19,0.20508607283066232,0.023916619062890082
Galaxy430,3036.6,1486.78,-0.14552742307485345,-0.042603581163007567
Galaxy431,1191.94,1003.37,-0.09281782333547825,-0.18828968054779183
Galaxy432,1725.29,3335.73,0.34072966776074171,-0.14185329914268982
Galaxy433,1672.61,1520.13,-0.23845184442084644,-0.012008874470797473
Galaxy434,1582.42,2900.09,0.05386250804778888,-0.41011083815525562
Galaxy435,835.92,1966.66,-0.015440566738655237,0.43373813201619071
Galaxy436,1369.32,3776.11,0.10929414609541813,-0.018500800594278451
Galaxy437,463.28,1461.94,-0.17314692982363572,0.31405396742051994
Galaxy438,2537.85,2495.15,0.031359567333628574,0.27508660824105075
Galaxy439,513.95,1691.29,0.03305825191707381,-0.094296016499697211
Galaxy440,660.24,2787.74,0.34844386899343666,-0.25385188809592019
Galaxy441,1978.55,2416.91,0.095681704959488967,-0.17766355640712506
Galaxy442,698.37,1824.99,0.18914168025999809,0.2540628216000983
Galaxy443,2159.73,309.05,-0.077750188588075114,-0.14921806485242264
Galaxy444,4096.24,3892.84,0.48540449434162708,0.38119370382834866
Galaxy445,1356.1,494.41,0.33540956057700932,0.18269099648551756
Galaxy446,3107.56,442.45,-0.49100258665645569,0.04834001919649511
Galaxy447,503.36,822.72,-0.15670142687374228,-0.25122519025195206
Galaxy448,2811.17,901.78,-0.20787141768205558,0.023018767495662076
Galaxy449,2266.13,522.88,-0.10814406791286214,0.16890536795771008
Galaxy450,2853.39,3591.47,0.010386304222313403,0.20538713477676535
Galaxy451,4111.89,545.27,-0.4940744624953462,-0.39221745488578696
Galaxy452,1856.81,452.14,-0.20998118669104737,0.74737817590159838
Galaxy453,3799.65,456.42,-0.25322193542816041,-0.18429636160131255
Galaxy454,3345.36,240.94,-0.077314843957236562,-0.04889706593180318
Galaxy455,49.56,2041.77,0.050571393668171621,0.35004633198678381
Galaxy456,2301.23,2520.67,-0.011858518121369427,-0.13591761944827238
Galaxy457,4194.59,3247.72,0.45498979432634201,0.23405391908683093
Galaxy458,14.45,4167.69,0.48099864491941063,-0.051193598092532017
Galaxy459,313.69,1749.76,-0.15695670197912859,0.14748222076317541
Galaxy460,1009.57,3137.07,0.034290647796429707,-0.12545203340237054
Galaxy461,3310.0,1503.3,-0.065605996277339151,-0.24409612377813644
Galaxy462,2995.3,3731.2,0.034599801465099972,0.18626021927569589
Galaxy463,595.63,3958.29,0.054364660051775815,-0.043388069023590589
Galaxy464,1171.36,3129.85,0.16697063768185061,0.46734021919039059
Galaxy465,2146.1,223.67,0.031271214837828326,-0.26854169059121946
Galaxy466,2602.95,2105.12,-0.44556638564594198,0.14438236198865112
Galaxy467,1873.18,3635.91,0.19882166287424058,-0.45367759272034147
Galaxy468,3152.67,1568.16,0.043447836762300518,-0.0852349743464796
Galaxy469,4134.46,2655.04,-0.44315351397146818,-0.0012322492626894166
Galaxy470,1415.2,1803.69,0.085312959569270805,0.23379346573725501
Galaxy471,25.33,455.23,-0.22603181923070753,-0.018765792354423605
Galaxy472,1349.7,506.51,-0.42862339307655883,0.27232113390191953
Galaxy473,895.03,590.89,-0.33110932395072057,0.30399186906665909
Galaxy474,2129.69,3105.38,-0.55579146942072155,-0.19402201931588259
Galaxy475,1881.58,1827.08,-0.44714943987446248,0.13054139629901737
Galaxy476,3233.45,2347.87,-0.092735402587426199,-0.00341270782000902
Galaxy477,2194.03,2060.0,-0.29230830127380675,0.23253444708292528
Galaxy478,1826.1,972.88,0.03652957796179454,-0.10330400706437076
Galaxy479,19.48,3821.54,0.06869479402934113,-0.16751527095633367
Galaxy480,3378.11,2031.26,-0.35755876574479761,-0.030319307027376535
Galaxy481,1661.93,3248.17,-0.079430543885032553,0.014423819190459902
Galaxy482,611.56,3779.37,0.16246659376162215,-0.31358520271532225
Galaxy483,3594.6,750.25,-0.31295069324135349,0.00097635933798714825
Galaxy484,2927.11,2408.3,-0.19966086267873961,-0.2690545988357379
Galaxy485,3558.99,145.55,-0.1626257409051827,0.16595472295990976
Galaxy486,664.88,2764.03,-0.14582904334754845,-0.12964485363384382
Galaxy487,2648.65,3612.98,0.088653299672792202,-0.037339181061192883
Galaxy488,2320.72,2173.59,0.032788923943428333,0.56896080612237709
Galaxy489,3762.46,1446.19,-0.1983379673602837,0.27442051574247661
Galaxy490,4105.62,661.02,-0.02992518656239896,0.031145229976254712
Galaxy491,643.21,600.58,0.11095839517509955,-0.092488658901193121
Galaxy492,1368.26,3503.11,0.19500384972777127,-0.019948034182366736
Galaxy493,3454.05,2043.55,0.30331770839667699,0.36984709468741084
Galaxy494,1792.73,620.73,-0.45990523921132836,0.20031764548762385
Galaxy495,1046.78,1949.13,-0.25432476610000848,0.549791294385784
Galaxy496,4019.09,3371.97,0.04133085542708867,0.036413220363309171
Galaxy497,3423.19,2916.17,-0.043597522956205698,0.061721301592640609
Galaxy498,3120.27,34.07,-0.29607020240286741,-0.005696571074409254
Galaxy499,2661.23,3760.91,-0.093418665931122191,0.21530586134133589
Galaxy500,419.55,610.56,0.20200468284231313,0.42499896668602388
Galaxy501,1801.15,2919.16,-0.24074878769019831,0.046748518530237287
Galaxy502,3329.6,202.25,0.26030530881960273,-0.25714864514022506
Galaxy503,1724.42,960.84,-0.41318327620888484,0.023252616123647221
Galaxy504,808.59,413.48,0.049221249722500415,0.16863283804069032
Galaxy505,115.38,1742.54,0.27915151035594044,0.25023138164705722
Galaxy506,445.93,1599.52,-0.1177597916602116,-0.21330229028850975
Galaxy507,3799.69,3631.32,-0.075792364202907719,-0.16532046618443028
Galaxy508,1857.59,2423.38,0.24494398944782431,0.41287439250907054
Galaxy509,3855.22,3445.63,0.083847690899381988,-0.16094227012827572
Galaxy510,2848.31,460.15,-0.055238472903362909,0.23342145000279693
Galaxy511,1290.33,2167.55,-0.036791015140138633,-0.025825743087903724
Galaxy512,764.2,1685.19,-0.12887627484864947,0.49578304309395471
Galaxy513,334.75,1450.65,0.1298955169676651,0.26289082751534237
Galaxy514,3924.44,2153.92,0.067066642500968568,0.15241692651553476
Galaxy515,686.04,1850.8,0.20694927870999755,-0.027330120643061423
Galaxy516,1579.17,870.25,-0.05272719647095947,0.27774196737631057
Galaxy517,2464.69,1008.69,-0.079688354781142973,-0.29285249315127682
Galaxy518,1176.6,498.07,-0.25040451066995395,-0.042520814929289524
Galaxy519,3577.06,2030.29,-0.037592551908659934,-0.031975756996199478
Galaxy520,3565.54,1673.68,-0.087195561989886955,-0.1859165528012246
Galaxy521,976.02,3146.19,-0.049077512551696734,-0.39281660701644583
Galaxy522,1532.09,2958.76,-0.10196230406967463,-0.048819309214360396
Galaxy523,609.58,3911.66,-0.025940441491131311,-0.058443610241287192
Galaxy524,1273.76,711.56,-0.20627630942569872,-0.15885367546745249
Galaxy525,775.51,4133.59,-0.3601187092121671,0.22776746585397012
Galaxy526,3286.04,1002.4,0.22885734782767048,-0.095765319314266337
Galaxy527,723.96,1684.05,0.039720032646377544,-0.28452297847390273
Galaxy528,2330.81,1451.84,-0.11535772709839667,-0.25470401903581263
Galaxy529,437.84,3634.11,0.28053198271318103,0.076811131612967654
Galaxy530,638.85,1211.99,0.2709216001540225,0.40825778299686272
Galaxy531,4097.51,3722.32,0.085032342049460918,0.3904397964689556
Galaxy532,4011.8,2589.92,-0.081394984912198182,-0.41296486182794478
Galaxy533,1384.71,907.73,-0.69433042423515956,-0.16371316756992726
Galaxy534,1404.25,3838.28,-0.10820940676472748,0.16211489399814394
Galaxy535,1291.05,3097.56,0.18297247522663243,-0.23100471716555582
Galaxy536,2965.33,2853.15,0.15760661969637726,-0.31722601693819619
Galaxy537,3602.37,1130.84,0.10784805510218438,-0.21045068617945134
Galaxy538,3708.89,3652.68,-0.051700753939208727,-0.26806656354197145
Galaxy539,2172.46,2005.45,0.11219014293981081,0.33333005697126311
Galaxy540,3650.97,1281.4,0.31000415978361434,-0.060115692837414539
Galaxy541,3292.52,1823.39,-0.058692422777496499,-0.32663712843997017
Galaxy542,2188.44,3018.28,-0.15611329313386563,-0.074975419608639682
Galaxy543,1509.59,1695.3,0.059189466934909285,0.11753668480009524
Galaxy544,1555.46,2326.13,-0.17862877437653538,0.17927916428501156
Galaxy545,812.92,2835.89,0.19004546604453143,0.34656759252924008
Galaxy546,1059.33,2617.38,-0.20563404895011711,0.60449809452733261
Galaxy547,2004.45,1235.3,-0.14127108703973326,-0.11536824941405352
Galaxy548,289.66,2588.61,-0.12282654008045545,0.23018517759218143
Galaxy549,3753.61,2769.16,0.17630903234527531,-0.10471759626174154
Galaxy550,3989.76,3958.8,0.20630480715823232,0.10419411455572361
Galaxy551,3889.13,2973.67,-0.079563520348150549,0.13937056287825489
Galaxy552,2242.76,2901.14,0.032206030922845852,-0.20264768624173357
Galaxy553,1604.36,686.98,-0.29375275916784438,-0.16337872774841861
Galaxy554,1731.65,3910.31,-0.096364879995992775,-0.41736887120926819
Galaxy555,4116.81,790.67,-0.55599932312657607,-0.042012512140379057
Galaxy556,1892.98,1604.44,-0.24350948662991734,-0.00078041461316101512
Galaxy557,612.84,3398.61,-0.23460304985158686,0.0058472999977090684
Galaxy558,3727.08,2306.29,-0.11831941322919071,-0.37015946455382309
Galaxy559,968.71,438.39,0.10350819425258362,0.012712702547164084
Galaxy560,3497.34,3941.63,0.32869242769972834,0.13106990197935919
Galaxy561,1430.73,2391.44,-0.14914489950375948,0.37853273386011865
Galaxy562,2010.66,3367.57,0.17850561968042716,0.14787403501177374
Galaxy563,967.85,1149.07,-0.0025854466898958817,0.050255107213892591
Galaxy564,3858.52,3445.26,-0.12743020824256568,0.04196808446580666
Galaxy565,3192.06,3990.22,0.05284750436163535,0.34169589005217738
Galaxy566,2607.8,3358.86,-0.0051526769128146313,0.14138528992060778
Galaxy567,4146.45,3501.67,0.31898933718604766,-0.29522777810693712
Galaxy568,4003.18,1646.67,0.19499584375795764,-0.011333399315613613
Galaxy569,254.78,1134.46,-0.15907069683775596,0.036562037847132911
Galaxy570,1062.25,3137.98,0.32325900856874751,0.45313062060479981
Galaxy571,925.25,2881.03,-0.067515251724180006,-0.25485654871037577
Galaxy572,2949.07,1419.09,0.26587303487286951,-0.17518987393006974
Galaxy573,2255.73,662.35,0.049919542426324293,0.001884021244469482
Galaxy574,761.63,584.19,-0.16289632863866491,0.29326570864563756
Galaxy575,560.66,1254.29,-0.40235413715713575,0.050340700814510225
Galaxy576,2663.63,181.88,-0.079568742116588945,0.21491822329527491
Galaxy577,985.6,2211.41,0.32346052043015028,-0.46173415814100116
Galaxy578,2212.28,4132.97,0.37217508479635264,0.065669158404975864
Galaxy579,904.56,2138.05,-0.33767319401195167,0.37386617723928661
Galaxy580,3363.48,3144.84,0.024541921149852333,0.032649029947307728
Galaxy581,58.48,3390.26,-0.045994556574318335,-0.050181359950629154
Galaxy582,1146.96,3448.5,0.21896623989862307,-0.35691577320394147
Galaxy583,1765.27,2460.29,0.0063934537232454569,0.075336790160473524
Galaxy584,1766.02,3509.84,-0.073896177717732534,0.24461238008642128
Galaxy585,969.47,669.56,0.013965823143759992,0.16020004551853115
Galaxy586,2835.19,2939.26,-0.33381496346161199,-0.3777915603708929
Galaxy587,3247.21,4059.56,-0.20642008407554382,0.24479477616571826
Galaxy588,2461.06,2407.44,-0.2281806130971567,-0.15659230147623196
Galaxy589,2047.43,3122.95,0.032833999457028501,0.26538341899618545
Galaxy590,3325.88,2599.14,-0.056329942350412068,0.045459693332502327
Galaxy591,167.19,1420.59,-0.17570530716381766,-0.2744654867918116
Galaxy592,3094.73,1112.2,-0.30206535559781167,0.095191669458382755
Galaxy593,203.59,3569.09,0.2671502576369929,0.14699283500706639
Galaxy594,421.36,200.89,-0.15010705039875799,-0.12958785042335236
Galaxy595,2606.82,3220.0,-0.23856422511969091,0.1698592894788224
Galaxy596,597.3,2332.67,0.063202856670622629,0.28093036465456767
Galaxy597,52.25,278.68,-0.14137074166351254,-0.055197512047088504
Galaxy598,1687.01,1523.04,0.09213419714450144,0.42788746702806579
Galaxy599,1938.56,2100.93,-0.074603811634897127,-0.31784145879816655
Galaxy600,1974.0,3855.96,-0.22648205402061694,-0.26388315715458521
Galaxy601,621.21,1682.39,-0.23094269886866767,-0.040701216737054902
Galaxy602,1059.97,3567.61,-0.11457346009523692,0.019313834717639027
Galaxy603,852.69,2553.18,0.085084722037840663,0.24532768160443746
Galaxy604,1758.9,3543.61,-0.24265272889069869,0.034328646455062797
Galaxy605,3521.72,2704.81,-0.050493617185815257,0.098502085414269941
Galaxy606,3277.06,3160.77,-0.359699172085446,-0.26985279811308649
Galaxy607,2850.73,3967.38,0.09301809054701099,0.12043107109230164
Galaxy608,1943.64,719.56,-0.62759374331011575,-0.0056545636516372039
Galaxy609,90.28,2218.0,-0.072749862982011082,-0.12218115026926657
Galaxy610,4126.74,1015.01,0.22559180743064217,-0.29404141018257735
Galaxy611,1120.08,2438.42,0.17233563908408944,-0.069886349226945366
Galaxy612,2830.28,522.64,-0.23916212352405153,0.066296037937003977
Galaxy613,1172.11,810.07,0.1461719316122265,-0.26016892022908306
Galaxy614,2637.08,1495.82,-0.18733220907955875,0.19173629100370609
Galaxy615,287.73,2984.6,-0.32145477497979652,0.080248712562922209
Galaxy616,2975.1,3269.5,0.24583015724130189,-0.13134923212020572
Galaxy617,1021.2,2323.61,0.24569606105413522,-0.13336641141849834
Galaxy618,3985.5,3985.28,0.095755309145411929,0.060503243349684918
Galaxy619,1795.79,4103.9,-0.21042870415992776,-0.26291031093633543
Galaxy620,1165.11,3575.3,0.29344557875777877,-0.18171430027080959
Galaxy621,1102.99,3764.48,0.1248198686337022,0.15999114362030825
Galaxy622,584.72,3219.32,-0.22612073526441681,0.30615899981976552
Galaxy623,3051.96,78.42,-0.044935352702224027,0.12624277275439794
Galaxy624,3274.04,3752.53,0.26037185522315714,-0.32760128001583555
Galaxy625,2525.39,72.33,-0.45841020114441811,-0.023298827543124036
Galaxy626,3291.33,4197.99,0.26711338718862299,0.23089860150295932
Galaxy627,1783.8,1515.4,0.0053860690743947059,0.20925898180081448
Galaxy628,299.68,31.49,0.12426740784767111,0.32860378390455319
Galaxy629,3444.69,2047.54,-0.22392520419298967,0.053296111184749528
Galaxy630,3591.72,273.49,-0.11272245261802299,-0.036876262584080249
Galaxy631,2672.34,197.46,-0.53298789871684527,-0.44281385661627082
Galaxy632,3454.99,1564.63,0.53613969345510992,-0.2861029650946868
Galaxy633,2180.39,3240.75,0.48472314526364313,0.22936268243680294
Galaxy634,3592.3,937.05,-0.30810056071274045,-0.30269499677197698
Galaxy635,3573.61,4004.0,0.41549952545036617,0.093431137669253067
Galaxy636,1771.54,3114.05,0.15773420526618726,-0.055781832113938279
Galaxy637,1472.0,3782.74,-0.25913743877660939,0.092696662657373488
Galaxy638,1746.42,2615.58,-0.33054163871339259,0.13608735598221972
Galaxy639,452.84,2683.94,0.14515158545826684,-0.37840420951577269
Galaxy640,3932.51,3369.44,0.07634664171688349,-0.24237056578597593
Galaxy641,3433.53,1156.39,-0.30591698759513419,-0.20426550060899801
Galaxy642,3546.05,3.29,-0.093840016726617306,-0.21175603837408297
Galaxy643,2134.45,912.09,0.067656366409286073,-0.23951564927096591
Galaxy644,1513.07,3946.05,0.18403344407366165,-0.36503069341442451
Galaxy645,2096.32,1336.14,-0.2012886959894431,-0.26734178418633409
Galaxy646,512.91,2994.76,0.10282180297155241,0.18433374375975409
Galaxy647,3356.56,340.95,-0.15417613508198388,0.20745351001831414
Galaxy648,392.42,3512.82,0.10190086628855709,0.091334273228638699
Galaxy649,1340.02,3131.39,0.10480990616228972,0.23920488928774791
Galaxy650,2688.18,1990.52,0.017578717404899191,-0.25015325094379254
Galaxy651,3638.27,3903.37,0.46745431467584242,-0.43944503787044836
Galaxy652,2192.66,3399.78,-0.13610142123614383,0.017420138379734634
Galaxy653,3861.67,1027.17,-0.16160319933862483,-0.0016569371318171655
Galaxy654,862.19,144.4,-0.23158741184258086,-0.07791196381921818
Galaxy655,3721.07,3593.13,-0.15793080239697591,-0.082418425641794524
Galaxy656,4048.65,2054.69,-0.42994108095414191,-0.19218042705260105
Galaxy657,1584.98,3106.38,0.040873994515401878,0.20005241422124562
Galaxy658,2068.61,3475.22,0.13726006410517161,-0.32032014521230834
Galaxy659,3783.07,3271.59,-0.064123473927047397,-0.23324119991171727
Galaxy660,534.68,3990.18,-0.06935302638620508,0.49718134196401748
Galaxy661,1307.17,181.52,-0.068074651957468355,-0.024610375527568423
Galaxy662,2732.85,1852.33,-0.58733847768975245,0.26514424132891956
Galaxy663,428.66,1371.7,0.10457614853657668,-0.27661906065154285
Galaxy664,2613.55,4084.98,0.15187251421716971,-0.23857550494277127
Galaxy665,2193.86,979.06,0.0026093996841005662,-0.20849225216681599
Galaxy666,2604.63,4137.39,0.29285548657237576,-0.24471511996495718
Galaxy667,1287.47,3950.69,-0.018792301034628339,0.21088756673780351
Galaxy668,2835.36,2952.73,-0.090015607660847957,-0.1211707107668747
Galaxy669,1304.65,2899.2,0.12693700371315636,0.12724022086781361
Galaxy670,566.4,2009.78,0.46328015050094551,-0.097261088621494712
Galaxy671,2261.64,3441.51,0.25236408401164001,0.23461368275634545
Galaxy672,3776.44,2872.96,0.26749155582064221,0.15888648060101176
Galaxy673,2732.22,2353.96,0.23039246653519552,0.078003393125212123
Galaxy674,2026.19,3939.72,-0.75041334053174447,0.23776445086426909
Galaxy675,3576.75,2457.92,0.26210465255022575,-0.036363805127635929
Galaxy676,1770.97,2935.04,0.16383191955069726,-0.043243036294744491
Galaxy677,450.9,3404.37,0.14476475948043882,-0.31204953082096526
Galaxy678,3248.93,3274.0,0.46818212671818549,-0.0068655261524630251
Galaxy679,1050.13,2962.8,-0.24928482732650431,-0.01152222827663682
Galaxy680,1561.6,462.16,-0.2299838154126132,-0.010488197189578205
Galaxy681,2947.07,1646.3,-0.41940168379480913,0.078993262021988669
Galaxy682,1304.66,1316.61,0.1643660232670156,0.026414046874163405
Galaxy683,2822.52,3068.74,-0.12395821906869009,-0.1334611673544023
Galaxy684,687.36,1124.72,-0.10110226074342976,0.27315736995310413
Galaxy685,3369.99,401.89,-0.016468367639970602,-0.0091721931755273656
Galaxy686,2145.52,2269.54,-0.34765660934012332,-0.13751368599837521
Galaxy687,3405.47,3876.15,0.4863114561167402,0.10915844674703098
Galaxy688,3047.95,1803.13,0.13664673073945788,-0.29886940659163586
Galaxy689,4017.43,1460.67,-0.29038326879695031,0.33327782559217611
Galaxy690,1713.45,2421.7,0.157862092544374,-0.43992148309259138
Galaxy691,621.2,3735.23,0.086570503661729276,0.48515603593622625
Galaxy692,1010.51,1801.13,-0.089629119600612983,0.7188874422665309
Galaxy693,3872.79,1817.58,0.18591128437011417,-0.64959743271383485
Galaxy694,515.98,442.22,0.042350658137106881,-0.41185938045427561
Galaxy695,3134.34,1991.92,-0.16621992376348946,0.019115897813617083
Galaxy696,4129.05,2897.24,0.26003450978001447,0.085884348472966998
Galaxy697,1888.64,85.46,-0.63582199856760835,0.37014340910744536
Galaxy698,3616.85,3502.14,-0.024103172807700912,-0.31735444967349025
Galaxy699,1072.67,4119.01,0.10349964396473336,-0.25979625580082788
Galaxy700,4038.6,2484.15,-0.10636959871302951,-0.24066246768550462
Galaxy701,2789.05,930.6,-0.47383417718193488,-0.025452395034522249
Galaxy702,2386.76,1245.53,-0.56918814557808883,-0.37751566131079056
Galaxy703,3665.59,954.85,-0.27128032113587236,-0.3197951284017353
Galaxy704,1815.3,1826.16,-0.41366496778946282,0.0092074810578415545
Galaxy705,3650.06,3312.98,0.069315730487055277,0.27078718236017951
Galaxy706,3774.38,1621.9,0.24308381717412511,0.022976477769798248
Galaxy707,405.98,571.32,-0.31641770610009939,-0.044462132241120139
Galaxy708,760.64,2093.21,0.19668399627354979,0.84309306884023771
Galaxy709,1229.82,4083.91,0.26923329736719781,-0.3072130503104038
Galaxy710,3460.69,2076.66,-0.011009355603437188,-0.30639470827319837
Galaxy711,53.34,588.15,-0.034841784636102845,-0.11712790470399723
Galaxy712,236.1,3070.47,0.42994650649839944,-0.18880796115659054
Galaxy713,263.67,374.97,-0.44229496682450054,-0.28170199930972217
Galaxy714,1668.13,2880.14,-0.46329836772183908,0.055876141908813154
Galaxy715,606.9,3012.78,0.44483591397383832,0.12354477472671152
Galaxy716,816.04,2338.39,-0.027271495426746492,0.16870268474894634
Galaxy717,669.84,1260.09,-0.098990890507299215,0.39883305457357404
Galaxy718,3331.24,1685.31,-0.2542424880577564,-0.46754440295729649
Galaxy719,3088.22,3406.88,-0.1172341138161396,-0.16307476175505148
Galaxy720,1074.23,1905.22,-0.23696062219463751,0.14364589343141834
Galaxy721,3484.09,1795.37,-0.13920612183446893,-0.7203670317976183
Galaxy722,2398.83,3537.56,0.45843584366652596,0.14150132040047381
Galaxy723,1830.02,3345.92,0.064846934635407819,0.23745461905413706
