SkyId,pred_x1,pred_y1,pred_x2,pred_y2
Sky101,2031.4,2322.7,3000.7,768.18
Sky102,563.79,1100.7,2656.6,633.59
Sky103,1735.2,2369.1,1344.6,2486.5
Sky104,3086.4,1155.6,784.39,1992.4
Sky105,2233.8,1011.2,1556.3,2764.9
Sky106,1182.6,1944.7,3118.9,2493.8
Sky107,642.29,1634.9,2616.9,1896.9
Sky108,1594.1,1528.4,2030.2,996.75
Sky109,3299.2,1135.5,1228.9,2175.6
Sky110,1358.5,1589.3,2376.5,3550.4
Sky111,2423.3,3115.7,3525.5,2334.5
Sky112,772.89,944.41,2372.5,3032.1
Sky113,714.06,1385.3,1694.6,786.91
Sky114,2067.8,2359.5,1359.1,1530.9
Sky115,2878.4,2603.6,3416.1,2389
Sky116,3015.7,3589.1,3521.6,3424.7
Sky117,3278.5,1504.2,2682.9,1184.2
Sky118,797.62,1932.3,3602.2,2657.9
Sky119,1950.6,906.61,1551.7,1518.3
Sky120,1828.8,1048.8,1722.6,2963.2
Sky121,2779.5,3613.9,2901.4,3274.6
Sky122,1513.8,1665.1,2618.1,3485.3
Sky123,3071.6,659.06,3431.7,432.29
Sky124,1538.9,497.96,2565.9,3274.7
Sky125,2490.7,1807.9,1678.8,2111.9
Sky126,1958.3,1000.1,2552.7,2953.5
Sky127,2149.4,3614,2414.9,4048.1
Sky128,1603.4,3009.6,2715.3,1187.6
Sky129,3705.6,1815.9,3303.3,1469.5
Sky130,966.66,3307.1,1405.2,3288.3
Sky131,2641,3643.4,2017.9,3670.4
Sky132,3466.5,1851.5,243.19,1365
Sky133,2123.6,2373.3,2414.1,2408.2
Sky134,2609.4,2898.4,1996.7,3216.7
Sky135,2097.8,1346.3,2893.2,3491.2
Sky136,875.87,3248.6,2343.9,1557.9
Sky137,2779.1,3053.4,1473,1353.8
Sky138,2349.3,1793.3,2208.2,2483.5
Sky139,2050.8,1976.3,2443,2184.8
Sky140,2379.2,3514.6,1714.7,3913.5
Sky141,963.02,2025.8,528.7,2317.3
Sky142,2012.4,1061.4,2823.6,3067
Sky143,1144.2,2161.8,657.53,2924.3
Sky144,1713.8,3211.8,2729,1025.2
Sky145,2877.5,3278.8,2873.4,1353.6
Sky146,3643.9,816.1,1359.6,2595.7
Sky147,2021.2,2493.1,628.74,1533.3
Sky148,3387,1774.3,2726.2,1289.4
Sky149,3672.5,3445.3,1762,439.46
Sky150,1991.3,3019.5,2081.7,1088.6
Sky151,2788.7,915.07,981.05,2376.9
Sky152,434.33,3659.5,328.69,2844.1
Sky153,2056.2,843.75,1737.3,348.94
Sky154,1560.3,2897.8,1490,3213.7
Sky155,661.84,1463.3,3083.3,1048.4
Sky156,1605,3123.4,3376,3105.3
Sky157,1418.8,2416.7,1830.6,2558.8
Sky158,1371.8,929.37,3002.8,2762.3
Sky159,990.16,2543,613.46,1013
Sky160,917.44,1703.1,1217.8,2530.1
Sky161,1828.8,1260.5,3095.8,3086.5
Sky162,1784.4,2794.9,1189.2,1405.4
Sky163,3400,2452.7,1654.5,456.33
Sky164,3243.8,2913.3,3301.8,2393.8
Sky165,1836.1,2548.6,1152.7,2769.4
Sky166,727.07,2017.1,1134.5,1612.1
Sky167,1063.6,2291.5,3202.5,2393.4
Sky168,2242,754.81,1729.3,3016.6
Sky169,1159.3,2329.9,3092.4,1613.5
Sky170,2273.2,1705.7,2128.9,1292.6
Sky171,1509.5,1055.7,1557,432.2
Sky172,2586.6,1129,292.35,1069.7
Sky173,1319.7,2630.9,1189.3,3101.1
Sky174,2545.9,3346,2379.9,3780
Sky175,1884.1,1670.3,1903.9,2374.5
Sky176,3012.7,2081.9,807.25,1393.8
Sky177,2596.2,1573.4,1426.7,3209.1
Sky178,914.61,1149.6,2429,3207.6
Sky179,740.45,3306.4,1051.7,3784.8
Sky180,2026.2,1968.6,3252.2,3056.4
Sky181,3498.1,1691.1,3577.8,835.61
Sky182,2092.3,547.16,2806.8,548.15
Sky183,3114.2,1241.3,3452.3,2338.6
Sky184,3100.1,1003.9,3920.5,3208.5
Sky185,2373,2578.5,1041,2484.9
Sky186,1956.8,2245.1,1485.1,2167
Sky187,2964.6,2723.7,1297.5,1802.7
Sky188,2005.4,832.57,535.68,949.87
Sky189,1875.8,3647.5,2476,3292.6
Sky190,3937,1445.5,3363.5,1440.6
Sky191,1486,3234.6,2426.6,892.69
Sky192,2636.6,2353.7,1855,2804
Sky193,906.49,3258.3,1017.9,1396.7
Sky194,2151.9,918.17,1737.1,2896.6
Sky195,3565.3,3252.7,3958.7,3602.5
Sky196,1380.7,1769.5,835.1,3068
Sky197,3673.2,3343.8,731.42,1592.1
Sky198,1798.4,317.95,2668.9,3670
Sky199,3405.6,3026.9,2384.9,1180.9
Sky200,2148.8,1074.1,1938.3,3071
