SkyId,pred_x1,pred_y1,pred_x2,pred_y2,pred_x3,pred_y3
Sky41,1195.7,2763.4850000000001,0,0,0,0
Sky42,2852.375,4133.3449999999993,0,0,0,0
Sky43,2100.0,2100.0,0,0,0,0
Sky44,2100.0,2100.0,0,0,0,0
Sky45,3471.1199999999999,586.38,0,0,0,0
Sky46,1425.3800000000001,2963.4299999999998,0,0,0,0
Sky47,2714.875,2100.7925,0,0,0,0
Sky48,1138.6274999999998,922.86083333333352,0,0,0,0
Sky49,276.92000000000002,4094.6999999999998,0,0,0,0
Sky50,2766.9722222222222,1219.2533333333336,0,0,0,0
Sky51,1628.73,446.75999999999999,0,0,0,0
Sky52,1372.9400000000001,3486.3899999999999,0,0,0,0
Sky53,2792.8114285714287,2711.2257142857138,0,0,0,0
Sky54,2100.0,2100.0,0,0,0,0
Sky55,3276.9500000000003,808.11666666666667,0,0,0,0
Sky56,2469.8600000000001,3716.1100000000001,0,0,0,0
Sky57,1549.5211111111112,2935.0966666666668,0,0,0,0
Sky58,3466.0100000000002,396.31999999999999,0,0,0,0
Sky59,2100.0,2100.0,0,0,0,0
Sky60,2095.5433333333335,2246.9116666666664,0,0,0,0
Sky61,2340.54,2364.2375000000002,0,0,0,0
Sky62,3602.7600000000002,519.05999999999995,0,0,0,0
Sky63,3180.7625000000003,3000.1399999999999,0,0,0,0
Sky64,2396.8899999999999,2058.48,0,0,0,0
Sky65,2353.0050000000001,1196.3050000000001,0,0,0,0
Sky66,2253.23,1957.6599999999999,0,0,0,0
Sky67,2337.5999999999999,1313.0450000000001,0,0,0,0
Sky68,2100.0,2100.0,0,0,0,0
Sky69,2394.1900000000001,627.25999999999999,0,0,0,0
Sky70,3109.0999999999999,4185.9099999999999,0,0,0,0
Sky71,2535.2730769230766,3138.2138461538466,0,0,0,0
Sky72,1129.614,2195.6300000000001,0,0,0,0
Sky73,3748.5700000000002,3512.3600000000001,0,0,0,0
Sky74,2363.02,2000.8150000000001,0,0,0,0
Sky75,2042.375,1831.8249999999998,0,0,0,0
Sky76,2272.4333333333338,2431.0266666666671,0,0,0,0
Sky77,3793.4466666666667,2581.2533333333336,0,0,0,0
Sky78,3361.8475000000003,2373.1575000000003,0,0,0,0
Sky79,3970.52,3788.4299999999998,0,0,0,0
Sky80,223.74666666666667,1138.2033333333331,0,0,0,0
