%!PS-Adobe-3.0
%%BoundingBox: 28 19 566 557
%%Title: Graphics produced by IDL
%%For: Tripod@davidharveypro.lan, 
%%      /Users/Tripod/Documents/Work/PhD/Kaggle/ODW
%%Creator: IDL Version 8.0, Mac OS X (darwin x86_64 m64)
%%CreationDate: Sat Nov 10 11:06:41 2012
%%DocumentData: Clean7bit
%%Requirements: color
%%LanguageLevel: 1
%%PageOrder: Ascend
%%Pages: (atend)
%%DocumentNeededResources: (atend)
%%EndComments
%%BeginProlog
save
%+ prolog.ps -- Prolog for IDL generated PostScript files
%+ Copyright (c) 1988-2010 ITT Visual Information Solutions. All Rights Reserved.
%v 5
/$IDL_DICT 40 dict def $IDL_DICT begin /bdef { bind def } bind def /C
{currentpoint newpath moveto} bdef /CP {currentpoint} bdef /D {currentpoint
stroke moveto} bdef /F {closepath fill} bdef /K { setgray } bdef /M {moveto}
bdef /N {rmoveto} bdef /P {lineto} bdef /R {rlineto} bdef /S {gsave show
grestore} bdef /X {currentpoint pop} bdef /Z {gsave currentpoint lineto 20
setlinewidth 1 setlinecap stroke grestore} bdef /L0 {[] 0 setdash} bdef /L1
{[40 100] 0 setdash} bdef /L2 {[200 200] 0 setdash} bdef /L3 {[200 100 50
100] 0 setdash} bdef /L4 {[300 100 50 100 50 100 50 100] 0 setdash} bdef /L5
{[400 200] 0 setdash} bdef /STDFONT { findfont exch scalefont setfont } bdef
/ISOFONT { findfont dup length dict begin { 1 index /FID ne {def} {pop pop}
ifelse } forall /Encoding ISOLatin1Encoding def currentdict end /idltmpfont
exch definefont exch scalefont setfont } bdef /ISOBULLET { gsave /Helvetica
findfont exch scalefont setfont (\267) show currentpoint grestore moveto}
bdef /MITERLIMIT { 2.5 setmiterlimit } bdef end
%%EndProlog
%%Page: 0 1
%%PageRequirements: color
%%PageResources: (atend)
%%PageOrientation: Portrait
%%PageBoundingBox: 28 19 566 557
%%BeginPageSetup
save
$IDL_DICT begin 28 19 translate 0.0283465 dup scale MITERLIMIT
%%IncludeResource: font Times-Roman
423.333 /Times-Roman ISOFONT
%%EndPageSetup
10 setlinewidth L0 0.000 0.000 0.000 setrgbcolor 2220 1408 M 16114 0 R D
2220 1408 M 0 338 R D gsave 2220 880 translate 0 0 M -105.833 0 N
(0) show grestore 5443 1408 M 0 338 R D gsave 5443 880 translate 0 0 M
-423.333 0 N
(1000) show grestore 8666 1408 M 0 338 R D gsave 8666 880 translate 0 0 M
-423.333 0 N
(2000) show grestore 11888 1408 M 0 338 R D gsave 11888 880 translate 0 0 M
-423.333 0 N
(3000) show grestore 15111 1408 M 0 338 R D gsave 15111 880 translate 0 0 M
-423.333 0 N
(4000) show grestore 18334 1408 M 0 338 R D gsave 18334 880 translate 0 0 M
-423.333 0 N
(5000) show grestore 2542 1408 M 0 169 R D 2865 1408 M 0 169 R D 3187 1408 M
0 169 R D 3509 1408 M 0 169 R D 3831 1408 M 0 169 R D 4154 1408 M 0 169 R D
4476 1408 M 0 169 R D 4798 1408 M 0 169 R D 5121 1408 M 0 169 R D
5765 1408 M 0 169 R D 6087 1408 M 0 169 R D 6410 1408 M 0 169 R D
6732 1408 M 0 169 R D 7054 1408 M 0 169 R D 7377 1408 M 0 169 R D
7699 1408 M 0 169 R D 8021 1408 M 0 169 R D 8343 1408 M 0 169 R D
8988 1408 M 0 169 R D 9310 1408 M 0 169 R D 9633 1408 M 0 169 R D
9955 1408 M 0 169 R D 10277 1408 M 0 169 R D 10599 1408 M 0 169 R D
10922 1408 M 0 169 R D 11244 1408 M 0 169 R D 11566 1408 M 0 169 R D
12211 1408 M 0 169 R D 12533 1408 M 0 169 R D 12855 1408 M 0 169 R D
13178 1408 M 0 169 R D 13500 1408 M 0 169 R D 13822 1408 M 0 169 R D
14144 1408 M 0 169 R D 14467 1408 M 0 169 R D 14789 1408 M 0 169 R D
15434 1408 M 0 169 R D 15756 1408 M 0 169 R D 16078 1408 M 0 169 R D
16400 1408 M 0 169 R D 16723 1408 M 0 169 R D 17045 1408 M 0 169 R D
17367 1408 M 0 169 R D 17690 1408 M 0 169 R D 18012 1408 M 0 169 R D
2220 18296 M 16114 0 R D 2220 18296 M 0 -338 R D 5443 18296 M 0 -338 R D
8666 18296 M 0 -338 R D 11888 18296 M 0 -338 R D 15111 18296 M 0 -338 R D
18334 18296 M 0 -338 R D 2542 18296 M 0 -169 R D 2865 18296 M 0 -169 R D
3187 18296 M 0 -169 R D 3509 18296 M 0 -169 R D 3831 18296 M 0 -169 R D
4154 18296 M 0 -169 R D 4476 18296 M 0 -169 R D 4798 18296 M 0 -169 R D
5121 18296 M 0 -169 R D 5765 18296 M 0 -169 R D 6087 18296 M 0 -169 R D
6410 18296 M 0 -169 R D 6732 18296 M 0 -169 R D 7054 18296 M 0 -169 R D
7377 18296 M 0 -169 R D 7699 18296 M 0 -169 R D 8021 18296 M 0 -169 R D
8343 18296 M 0 -169 R D 8988 18296 M 0 -169 R D 9310 18296 M 0 -169 R D
9633 18296 M 0 -169 R D 9955 18296 M 0 -169 R D 10277 18296 M 0 -169 R D
10599 18296 M 0 -169 R D 10922 18296 M 0 -169 R D 11244 18296 M 0 -169 R D
11566 18296 M 0 -169 R D 12211 18296 M 0 -169 R D 12533 18296 M 0 -169 R D
12855 18296 M 0 -169 R D 13178 18296 M 0 -169 R D 13500 18296 M 0 -169 R D
13822 18296 M 0 -169 R D 14144 18296 M 0 -169 R D 14467 18296 M 0 -169 R D
14789 18296 M 0 -169 R D 15434 18296 M 0 -169 R D 15756 18296 M 0 -169 R D
16078 18296 M 0 -169 R D 16400 18296 M 0 -169 R D 16723 18296 M 0 -169 R D
17045 18296 M 0 -169 R D 17367 18296 M 0 -169 R D 17690 18296 M 0 -169 R D
18012 18296 M 0 -169 R D 2220 1408 M 0 16888 R D 2220 1408 M 322 0 R D
gsave 2109 1408 translate 0 0 M -211.667 0 N
(0) show grestore 2220 5630 M 322 0 R D gsave 2109 5489 translate 0 0 M
-846.667 0 N
(1000) show grestore 2220 9852 M 322 0 R D gsave 2109 9711 translate 0 0 M
-846.667 0 N
(2000) show grestore 2220 14074 M 322 0 R D gsave 2109 13933 translate 0 0 M
-846.667 0 N
(3000) show grestore 2220 18296 M 322 0 R D gsave 2109 18050 translate 0 0 M
-846.667 0 N
(4000) show grestore 2220 1830 M 161 0 R D 2220 2252 M 161 0 R D 2220 2675 M
161 0 R D 2220 3097 M 161 0 R D 2220 3519 M 161 0 R D 2220 3941 M 161 0 R D
2220 4363 M 161 0 R D 2220 4786 M 161 0 R D 2220 5208 M 161 0 R D
2220 6052 M 161 0 R D 2220 6474 M 161 0 R D 2220 6897 M 161 0 R D
2220 7319 M 161 0 R D 2220 7741 M 161 0 R D 2220 8163 M 161 0 R D
2220 8585 M 161 0 R D 2220 9008 M 161 0 R D 2220 9430 M 161 0 R D
2220 10274 M 161 0 R D 2220 10696 M 161 0 R D 2220 11119 M 161 0 R D
2220 11541 M 161 0 R D 2220 11963 M 161 0 R D 2220 12385 M 161 0 R D
2220 12807 M 161 0 R D 2220 13230 M 161 0 R D 2220 13652 M 161 0 R D
2220 14496 M 161 0 R D 2220 14918 M 161 0 R D 2220 15341 M 161 0 R D
2220 15763 M 161 0 R D 2220 16185 M 161 0 R D 2220 16607 M 161 0 R D
2220 17029 M 161 0 R D 2220 17452 M 161 0 R D 2220 17874 M 161 0 R D
18334 1408 M 0 16888 R D 18334 1408 M -322 0 R D 18334 5630 M -322 0 R D
18334 9852 M -322 0 R D 18334 14074 M -322 0 R D 18334 18296 M -322 0 R D
18334 1830 M -161 0 R D 18334 2252 M -161 0 R D 18334 2675 M -161 0 R D
18334 3097 M -161 0 R D 18334 3519 M -161 0 R D 18334 3941 M -161 0 R D
18334 4363 M -161 0 R D 18334 4786 M -161 0 R D 18334 5208 M -161 0 R D
18334 6052 M -161 0 R D 18334 6474 M -161 0 R D 18334 6897 M -161 0 R D
18334 7319 M -161 0 R D 18334 7741 M -161 0 R D 18334 8163 M -161 0 R D
18334 8585 M -161 0 R D 18334 9008 M -161 0 R D 18334 9430 M -161 0 R D
18334 10274 M -161 0 R D 18334 10696 M -161 0 R D 18334 11119 M -161 0 R D
18334 11541 M -161 0 R D 18334 11963 M -161 0 R D 18334 12385 M -161 0 R D
18334 12807 M -161 0 R D 18334 13230 M -161 0 R D 18334 13652 M -161 0 R D
18334 14496 M -161 0 R D 18334 14918 M -161 0 R D 18334 15341 M -161 0 R D
18334 15763 M -161 0 R D 18334 16185 M -161 0 R D 18334 16607 M -161 0 R D
18334 17029 M -161 0 R D 18334 17452 M -161 0 R D 18334 17874 M -161 0 R D
0.000 0.000 0.000 setrgbcolor 4670 1493 M -382 590 R D 4034 15984 M 51 641 R
D 3618 7203 M 941 77 R D 7233 6380 M 259 417 R D 3770 7777 M -236 497 R D
6672 16750 M -323 868 R D 15616 1836 M 44 479 R D 4012 3957 M -196 1124 R D
11451 10043 M -537 836 R D 10070 8684 M 511 -329 R D 7539 18176 M 41 120 R D
2394 11773 M 193 952 R D 7420 16834 M 354 20 R D 2306 17388 M 1052 -350 R D
7538 4834 M 294 -75 R D 15081 15678 M 795 -361 R D 7711 4560 M -42 304 R D
15407 2283 M 187 458 R D 13149 4769 M 532 59 R D 8056 5733 M 275 81 R D
12841 13972 M 160 -165 R D 4268 17926 M 860 27 R D 7129 7681 M -158 544 R D
11581 9640 M -157 253 R D 3253 4597 M 35 115 R D 8036 16132 M 269 -136 R D
14838 17437 M 533 -217 R D 4584 2202 M 895 104 R D 14588 3772 M 349 345 R D
12894 1613 M 266 32 R D 13071 8132 M 870 -191 R D 6676 3929 M 153 171 R D
12090 7995 M 144 -11 R D 6941 14389 M -404 583 R D 3176 6480 M 255 -248 R D
15180 17356 M 458 303 R D 12640 18296 M 693 -479 R D 3277 6201 M 233 964 R D
4679 15201 M -379 1011 R D 12894 4020 M -709 929 R D 6444 15090 M 299 -4 R D
3122 4749 M -195 802 R D 15372 12058 M -220 456 R D 4285 16172 M 409 179 R D
6573 9820 M 336 -308 R D 3551 16716 M -350 954 R D 13995 15738 M -234 498 R
D 13926 12284 M 140 478 R D 10069 4280 M 7 81 R D 8361 10226 M 266 -320 R D
15440 16149 M 108 911 R D 15496 7768 M 278 1007 R D 2362 11365 M 108 211 R D
8293 15544 M 475 -288 R D 5512 17986 M 461 53 R D 6980 6147 M -165 880 R D
5680 2533 M 685 156 R D 3855 18257 M 128 39 R D 7948 15810 M 263 -36 R D
12168 12281 M 198 608 R D 14168 5333 M -258 436 R D 14022 12310 M 149 72 R D
13492 3513 M -501 1123 R D 9909 3944 M 42 522 R D 15712 1714 M -178 326 R D
8406 16652 M 261 251 R D 10237 5967 M 360 300 R D 2220 12794 M 561 102 R D
6255 15727 M -413 730 R D 7478 12203 M 212 -145 R D 14026 16006 M -19 1217 R
D 10215 17811 M 164 485 R D 10555 3545 M 197 492 R D 9026 6398 M 303 -364 R
D 12234 9143 M -241 317 R D 9633 9315 M 820 -145 R D 6383 8716 M -23 703 R D
10707 17013 M 328 -62 R D 13366 2719 M -206 741 R D 3709 2448 M -96 422 R D
2220 9710 M 383 -250 R D 3137 4255 M -116 379 R D 8811 2931 M -218 412 R D
12142 10270 M 310 -99 R D 11014 2166 M 99 313 R D 4035 6169 M -115 489 R D
9126 1930 M 384 -284 R D 2642 17964 M -27 332 R D 9749 17963 M 36 290 R D
7416 5392 M 30 55 R D 2220 1559 M 102 38 R D 2440 7597 M 135 332 R D
14390 13312 M 266 95 R D 13555 17314 M 264 -88 R D 8310 17297 M 43 241 R D
12784 2205 M -190 336 R D 9244 5131 M 439 1064 R D 13457 6680 M -59 244 R D
15114 14514 M 208 325 R D 10077 13248 M 403 -404 R D 7136 16050 M 594 -378 R
D 5435 4517 M 636 -134 R D 3447 4824 M -184 727 R D 5189 16098 M 442 -409 R
D 3605 17272 M 302 921 R D 7748 12605 M -38 135 R D 7978 15518 M 373 1043 R
D 14490 11669 M -187 499 R D 3547 6784 M 560 -707 R D 8782 14267 M
-180 874 R D 11970 12082 M 767 -318 R D 13883 6583 M 643 704 R D 9081 9084 M
102 633 R D 9425 1997 M -42 1547 R D 13363 2629 M 326 -118 R D 2772 5226 M
58 1394 R D 4967 18253 M 23 43 R D 9894 8704 M -401 663 R D 6785 14564 M
-91 521 R D 4010 6422 M 254 616 R D 4023 2629 M -172 783 R D 3728 5747 M
604 721 R D 14407 7246 M 697 -256 R D 14160 2615 M 265 160 R D 10502 12887 M
297 1159 R D 6240 14081 M -309 658 R D 7209 12626 M 275 -8 R D 8681 16207 M
389 551 R D 2553 11027 M 690 634 R D 13407 4701 M -233 383 R D 6961 4757 M
525 -467 R D 8087 2669 M 302 22 R D 13398 1514 M -123 325 R D 6175 3578 M
-137 455 R D 13184 1408 M 296 466 R D 12515 11434 M 346 819 R D
15423 13941 M -269 556 R D 9434 5490 M -52 379 R D 2803 4187 M 439 585 R D
2667 4469 M 394 463 R D 3404 4476 M -186 875 R D 13017 1983 M 485 436 R D
12180 4560 M 253 -199 R D 7227 6434 M 455 254 R D 5825 11041 M 810 306 R D
15290 11550 M -117 1543 R D 14315 1636 M -261 574 R D 2577 11393 M
-357 616 R D 8956 17888 M 115 322 R D 12278 8926 M -118 321 R D 3127 8190 M
-37 495 R D 3228 14427 M 170 99 R D 2220 9668 M 416 1058 R D 3825 16500 M
616 -265 R D 3917 11893 M 465 235 R D 11105 15554 M 122 786 R D
11899 16796 M -318 434 R D 11708 14868 M -97 243 R D 7355 15104 M -219 556 R
D 8937 8217 M 704 -286 R D 6614 14314 M 137 336 R D 5430 13665 M 380 237 R D
6847 3673 M -68 446 R D 15267 13569 M 361 -210 R D 11679 8601 M 41 1620 R D
8119 12649 M 228 736 R D 13529 8577 M 474 401 R D 8949 3733 M 437 -183 R D
13885 5675 M 341 269 R D 8540 4239 M 532 -267 R D 9221 2334 M 135 6 R D
10049 11535 M 163 -22 R D 6131 9386 M 289 -68 R D 12128 8865 M 237 -297 R D
11294 14236 M 58 580 R D 15012 12482 M 818 -114 R D 11900 12676 M 148 193 R
D 4797 16331 M -400 1368 R D 2730 17442 M 745 36 R D 4669 9414 M -39 166 R D
8474 8951 M -128 321 R D 7178 8792 M 26 438 R D 10938 6879 M -446 705 R D
3626 10151 M 423 493 R D 5728 16963 M 88 407 R D 12432 13273 M 613 82 R D
15331 7415 M -22 847 R D 14744 10701 M 173 -33 R D 11607 6618 M -472 794 R D
2220 11775 M 480 107 R D 14512 9717 M 297 -299 R D 4277 1467 M 219 -48 R D
9774 10593 M 48 113 R D 8587 2285 M -80 170 R D 6534 14360 M -59 1313 R D
7856 3801 M 488 506 R D 2684 17260 M 150 683 R D 8941 15402 M 193 35 R D
5556 7742 M 152 588 R D 6354 1408 M 36 514 R D 13841 3136 M 379 159 R D
4452 4076 M 530 351 R D 7239 17804 M 479 55 R D 4465 8602 M 67 259 R D
3494 15088 M 259 -133 R D 12510 10264 M 312 614 R D 4706 6415 M -131 1060 R
D 8533 17628 M 470 -291 R D 4512 6503 M 414 1007 R D 11920 10013 M 125 320 R
D 14532 8695 M 521 -221 R D 10140 11433 M 167 1025 R D 15665 15714 M
95 899 R D 5083 12524 M 83 349 R D 3165 14349 M 310 370 R D 9956 1866 M
99 381 R D 4271 1408 M 280 381 R D 12886 9903 M 388 -61 R D 5209 7166 M
1153 -636 R D 8390 6924 M 323 165 R D 6347 10293 M -525 1220 R D
13238 10564 M -11 44 R D 2642 8677 M -8 1020 R D 5362 16094 M 600 -725 R D
12335 17304 M 277 -99 R D 6771 10982 M 276 -329 R D 11292 10057 M -317 532 R
D 11641 1807 M 622 -376 R D 3667 3745 M -136 514 R D 12599 6627 M 86 587 R D
5848 1518 M -46 400 R D 8798 15728 M -442 688 R D 10669 2377 M 385 685 R D
11965 2382 M 406 -248 R D 14331 9676 M -63 197 R D 8709 2021 M 334 -192 R D
15365 1516 M 437 141 R D 10439 2610 M 168 172 R D 13749 10231 M 570 -695 R D
9525 12481 M 153 1281 R D 8019 6589 M 727 -101 R D 5975 4792 M 348 1175 R D
15002 16626 M 238 1216 R D 14674 5769 M 196 315 R D 5524 7223 M 1026 -262 R
D 14343 1408 M -206 1007 R D 15247 2953 M 426 1264 R D 14677 9022 M
-30 670 R D 11288 14686 M 223 -273 R D 13498 11081 M 610 -36 R D
12106 9090 M 35 1134 R D 14362 13359 M 98 803 R D 4434 13634 M 163 219 R D
10715 10033 M 470 -295 R D 5354 17303 M 330 611 R D 9225 9077 M 584 -8 R D
11934 16631 M 36 770 R D 12688 4519 M -89 583 R D 8139 17985 M 850 -115 R D
13856 2452 M -43 257 R D 14901 12152 M 369 366 R D 9107 1743 M 812 326 R D
8313 13088 M 443 -179 R D 14206 14932 M 149 324 R D 5474 12605 M 11 256 R D
13312 10867 M 186 1200 R D 13136 2386 M -26 491 R D 9508 14754 M 15 242 R D
2220 2160 M 311 -86 R D 12365 11908 M 336 -335 R D 3170 16685 M -40 981 R D
4036 12651 M 227 423 R D 14964 17167 M 456 361 R D 6718 7139 M 59 46 R D
7799 17161 M 586 676 R D 9056 1747 M -634 1864 R D 6140 8225 M 396 215 R D
4259 6032 M 130 158 R D 5838 11143 M 464 -583 R D 14916 15570 M 210 -205 R D
15087 14522 M -194 307 R D 9291 10484 M 311 -258 R D 11396 8335 M 129 431 R
D 7648 8587 M -231 596 R D 11350 2494 M -364 585 R D 12590 6596 M 359 183 R
D 6453 12552 M -66 705 R D 4217 4772 M -106 800 R D 12867 8567 M 42 851 R D
8315 14807 M -256 468 R D 6431 5993 M -348 968 R D 13581 6806 M 873 -547 R D
3667 10862 M 420 86 R D 12376 16579 M 639 -341 R D 8432 18118 M -69 178 R D
14880 15967 M 386 372 R D 7702 14515 M 397 11 R D 10832 6723 M -87 342 R D
7684 8546 M 249 59 R D 10712 7559 M 200 650 R D 3306 3940 M 139 -145 R D
7598 7780 M -160 605 R D 5260 2307 M 496 -301 R D 10337 17225 M 531 -425 R D
9050 4141 M 197 242 R D 12303 7400 M 78 -18 R D 6086 14914 M 578 -469 R D
13867 5318 M 235 486 R D 3456 2315 M 689 -173 R D 15614 12853 M -245 659 R D
7470 11038 M 73 -60 R D 14282 9535 M 324 -254 R D 7223 10941 M 528 -393 R D
10028 16841 M 238 -187 R D 10247 10620 M 84 133 R D 12438 13563 M -173 563 R
D 15345 18156 M 118 140 R D 15122 16084 M 90 437 R D 5821 18208 M 99 88 R D
9944 13103 M 752 763 R D 2464 10542 M 444 70 R D 3288 2883 M 302 622 R D
2370 6859 M -14 725 R D 11645 17578 M 143 692 R D 14699 17912 M -77 384 R D
13907 8943 M 454 -467 R D 9031 1408 M 136 394 R D 6731 16080 M 560 470 R D
13315 2971 M 685 -538 R D 11510 4867 M 481 1240 R D 13888 3951 M -418 1013 R
D 8306 15354 M -278 1311 R D 6784 9317 M 367 214 R D
1.000 0.000 0.000 setrgbcolor 5612 6114 M 222 0 R -111 0 R 0 111 R 0 -222 R
D 5612 6114 M 222 0 R -111 0 R 0 111 R 0 -222 R D
%%PageTrailer
end
restore
showpage
%%PageResources: font Times-Roman
%%Trailer
restore
%%Pages: 1
%%DocumentNeededResources: font Times-Roman
%%EOF
