SkyId,pred_x1,pred_y1,pred_x2,pred_y2,pred_x3, pred_y3
Sky201,2055.3456,292.36080000000015,2848.8576000000003,2364.4632,2071.3368,415.8696000000002
Sky202,241.73039999999992,3463.68,1829.3376,1657.1136000000001,3512.1,3492.4871999999996
Sky203,3889.6823999999997,3972.4031999999997,1559.3376,3537.6384,1168.212,1441.9704000000002
Sky204,3028.944,2422.1928,3333.4536,691.7303999999999,609.0672000000002,3410.3351999999995
Sky205,2876.7432,703.0632,72.3288,3712.5768,4135.8432,2058.7296
Sky206,2389.5407999999998,1195.0968,2095.2192,1253.5968,909.3144,674.3352000000002
Sky207,1315.3296,2841.6072,2564.0616,2695.4544,4088.6616,3721.1808
Sky208,3875.4840000000004,910.1856,1677.3600000000001,254.6400000000001,2007.516,3952.4088
Sky209,77.12400000000002,3477.4896,2848.0584,1159.3632,3528.5016,2345.916
Sky210,2557.7904,474.12480000000005,1081.7112000000002,3871.1711999999998,985.2888,1476.4008000000001
Sky211,4017.2016,3600.0696,1479.9576000000002,1322.1984000000002,70.91039999999998,1157.4984
Sky212,3024.0407999999998,2911.5696,3557.2799999999997,2213.1336,505.4592,542.2080000000001
Sky213,1463.1888000000001,368.83200000000033,1250.076,2737.8264,1553.6496000000002,445.22400000000016
Sky214,2295.3072,3374.7744000000002,343.2288000000001,2788.2408,2228.8008,3426.1248
Sky215,3716.832,3919.1304,1693.6248,121.9871999999998,721.1063999999999,696.8928000000001
Sky216,2887.8456,1086.42,2163.4392,2839.224,4064.376,2698.7088
Sky217,3768.5855999999994,2193.42,2499.0024,111.7056,2023.2912000000001,3090.5472
Sky218,3946.6776,2612.2368,3640.8288,1212.4488000000001,253.92720000000008,1859.7576
Sky219,2624.7072,2587.152,1719.0696,1866.9144000000001,2013.492,4159.9992
Sky220,2352.2376,3490.8672,778.7783999999999,3694.656,1830.4752,1009.0992000000001
Sky221,2546.3496,1902.4392,591.0239999999999,130.4544000000003,2520.8112,1904.6712
Sky222,3703.4687999999996,4109.0952,634.4112000000002,1593.6744,4042.2576,822.8496000000002
Sky223,2789.94,4132.4016,3978.0912,1864.5384,197.8824000000002,1817.4864
Sky224,3470.0879999999997,4039.5864,2004.9672,3156.1535999999996,841.5408,4098.770399999999
Sky225,1257.636,1324.5384,1305.5232,1265.34,1468.9776000000002,3645.5447999999997
Sky226,3363.5352000000003,3689.8751999999995,1407.0504,3492.228,3672.5879999999997,2089.5672
Sky227,1873.1928,291.4752000000003,1912.4328,3182.0735999999997,3779.6664,2443.0872
Sky228,3009.7416,811.9775999999999,3046.8576,758.2440000000001,3772.2504,2097.3648
Sky229,4110.528,3115.524,808.9823999999999,744.672,766.2503999999999,2959.392
Sky230,223.6224000000002,1375.824,2924.6952,3740.3472,1996.3056,734.7360000000001
Sky231,2959.3487999999998,3892.692,3741.2544,747.1199999999999,221.89440000000036,3487.2168
Sky232,3634.8527999999997,4147.0176,3823.6296,3956.3903999999998,2213.364,1091.3663999999999
Sky233,292.548,997.0464,2769.7368,494.96159999999986,500.0448000000001,1206.5808000000002
Sky234,3062.388,1560.0,2610.9696,2016.6528,462.45360000000005,3319.5936
Sky235,1414.6392,359.0472,4062.1296,2461.6272,2888.5368,3274.4928
Sky236,314.6016000000002,2115.9408,334.32960000000026,4084.2264,3673.0703999999996,1876.2024000000001
Sky237,1862.9472,3018.5328,45.73199999999997,1366.3704,2828.3664,2886.3624
Sky238,600.8088000000002,826.0319999999999,595.6896000000002,1049.8656,701.0544,1089.7248
Sky239,1155.3672000000001,493.3055999999999,331.5719999999999,2612.2727999999997,2521.7111999999997,2784.0288
Sky240,721.3152,2979.2496,2099.7768,3817.6679999999997,2183.7864,174.43920000000003
Sky241,1549.3152,3092.9952,1766.6328,3202.5648,1581.5639999999999,3302.8248
Sky242,1549.3152,3092.9952,1766.6328,3202.5648,1581.5639999999999,3302.8248
Sky243,1549.3152,3092.9952,1766.6328,3202.5648,1581.5639999999999,3302.8248
Sky244,1549.3152,3092.9952,1766.6328,3202.5648,1581.5639999999999,3302.8248
Sky245,1549.3152,3092.9952,1766.6328,3202.5648,1581.5639999999999,3302.8248
Sky246,1549.3152,3092.9952,1766.6328,3202.5648,1581.5639999999999,3302.8248
Sky247,1549.3152,3092.9952,1766.6328,3202.5648,1581.5639999999999,3302.8248
Sky248,1549.3152,3092.9952,1766.6328,3202.5648,1581.5639999999999,3302.8248
Sky249,1549.3152,3092.9952,1766.6328,3202.5648,1581.5639999999999,3302.8248
Sky250,1549.3152,3092.9952,1766.6328,3202.5648,1581.5639999999999,3302.8248
Sky251,1549.3152,3092.9952,1766.6328,3202.5648,1581.5639999999999,3302.8248
Sky252,1549.3152,3092.9952,1766.6328,3202.5648,1581.5639999999999,3302.8248
Sky253,1549.3152,3092.9952,1766.6328,3202.5648,1581.5639999999999,3302.8248
Sky254,1549.3152,3092.9952,1766.6328,3202.5648,1581.5639999999999,3302.8248
Sky255,1549.3152,3092.9952,1766.6328,3202.5648,1581.5639999999999,3302.8248
Sky256,1549.3152,3092.9952,1766.6328,3202.5648,1581.5639999999999,3302.8248
Sky257,1549.3152,3092.9952,1766.6328,3202.5648,1581.5639999999999,3302.8248
Sky258,1549.3152,3092.9952,1766.6328,3202.5648,1581.5639999999999,3302.8248
Sky259,1549.3152,3092.9952,1766.6328,3202.5648,1581.5639999999999,3302.8248
Sky260,1549.3152,3092.9952,1766.6328,3202.5648,1581.5639999999999,3302.8248
Sky261,1549.3152,3092.9952,1766.6328,3202.5648,1581.5639999999999,3302.8248
Sky262,1549.3152,3092.9952,1766.6328,3202.5648,1581.5639999999999,3302.8248
Sky263,1549.3152,3092.9952,1766.6328,3202.5648,1581.5639999999999,3302.8248
Sky264,1549.3152,3092.9952,1766.6328,3202.5648,1581.5639999999999,3302.8248
Sky265,1549.3152,3092.9952,1766.6328,3202.5648,1581.5639999999999,3302.8248
Sky266,1549.3152,3092.9952,1766.6328,3202.5648,1581.5639999999999,3302.8248
Sky267,1549.3152,3092.9952,1766.6328,3202.5648,1581.5639999999999,3302.8248
Sky268,1549.3152,3092.9952,1766.6328,3202.5648,1581.5639999999999,3302.8248
Sky269,1549.3152,3092.9952,1766.6328,3202.5648,1581.5639999999999,3302.8248
Sky270,1549.3152,3092.9952,1766.6328,3202.5648,1581.5639999999999,3302.8248
Sky271,1549.3152,3092.9952,1766.6328,3202.5648,1581.5639999999999,3302.8248
Sky272,1549.3152,3092.9952,1766.6328,3202.5648,1581.5639999999999,3302.8248
Sky273,1549.3152,3092.9952,1766.6328,3202.5648,1581.5639999999999,3302.8248
Sky274,1549.3152,3092.9952,1766.6328,3202.5648,1581.5639999999999,3302.8248
Sky275,1549.3152,3092.9952,1766.6328,3202.5648,1581.5639999999999,3302.8248
Sky276,1549.3152,3092.9952,1766.6328,3202.5648,1581.5639999999999,3302.8248
Sky277,1549.3152,3092.9952,1766.6328,3202.5648,1581.5639999999999,3302.8248
Sky278,1549.3152,3092.9952,1766.6328,3202.5648,1581.5639999999999,3302.8248
Sky279,1549.3152,3092.9952,1766.6328,3202.5648,1581.5639999999999,3302.8248
Sky280,1549.3152,3092.9952,1766.6328,3202.5648,1581.5639999999999,3302.8248
Sky281,1549.3152,3092.9952,1766.6328,3202.5648,1581.5639999999999,3302.8248
Sky282,1549.3152,3092.9952,1766.6328,3202.5648,1581.5639999999999,3302.8248
Sky283,1549.3152,3092.9952,1766.6328,3202.5648,1581.5639999999999,3302.8248
Sky284,1549.3152,3092.9952,1766.6328,3202.5648,1581.5639999999999,3302.8248
Sky285,1549.3152,3092.9952,1766.6328,3202.5648,1581.5639999999999,3302.8248
Sky286,1549.3152,3092.9952,1766.6328,3202.5648,1581.5639999999999,3302.8248
Sky287,1549.3152,3092.9952,1766.6328,3202.5648,1581.5639999999999,3302.8248
Sky288,1549.3152,3092.9952,1766.6328,3202.5648,1581.5639999999999,3302.8248
Sky289,1549.3152,3092.9952,1766.6328,3202.5648,1581.5639999999999,3302.8248
Sky290,1549.3152,3092.9952,1766.6328,3202.5648,1581.5639999999999,3302.8248
Sky291,1549.3152,3092.9952,1766.6328,3202.5648,1581.5639999999999,3302.8248
Sky292,1549.3152,3092.9952,1766.6328,3202.5648,1581.5639999999999,3302.8248
Sky293,1549.3152,3092.9952,1766.6328,3202.5648,1581.5639999999999,3302.8248
Sky294,1549.3152,3092.9952,1766.6328,3202.5648,1581.5639999999999,3302.8248
Sky295,1549.3152,3092.9952,1766.6328,3202.5648,1581.5639999999999,3302.8248
Sky296,1549.3152,3092.9952,1766.6328,3202.5648,1581.5639999999999,3302.8248
Sky297,1549.3152,3092.9952,1766.6328,3202.5648,1581.5639999999999,3302.8248
Sky298,1549.3152,3092.9952,1766.6328,3202.5648,1581.5639999999999,3302.8248
Sky299,1549.3152,3092.9952,1766.6328,3202.5648,1581.5639999999999,3302.8248
Sky300,1549.3152,3092.9952,1766.6328,3202.5648,1581.5639999999999,3302.8248
