SkyId,pred_x1,pred_y1,pred_x2,pred_y2,pred_x3, pred_y3
Sky1,0.0,0.0,0.0,0.0,0.0,0.0
Sky2,0.0,0.0,0.0,0.0,0.0,0.0
Sky3,0.0,0.0,0.0,0.0,0.0,0.0
Sky4,0.0,0.0,0.0,0.0,0.0,0.0
Sky5,0.0,0.0,0.0,0.0,0.0,0.0
Sky6,0.0,0.0,0.0,0.0,0.0,0.0
Sky7,0.0,0.0,0.0,0.0,0.0,0.0
Sky8,0.0,0.0,0.0,0.0,0.0,0.0
Sky9,0.0,0.0,0.0,0.0,0.0,0.0
Sky10,0.0,0.0,0.0,0.0,0.0,0.0
Sky11,0.0,0.0,0.0,0.0,0.0,0.0
Sky12,0.0,0.0,0.0,0.0,0.0,0.0
Sky13,0.0,0.0,0.0,0.0,0.0,0.0
Sky14,0.0,0.0,0.0,0.0,0.0,0.0
Sky15,0.0,0.0,0.0,0.0,0.0,0.0
Sky16,0.0,0.0,0.0,0.0,0.0,0.0
Sky17,0.0,0.0,0.0,0.0,0.0,0.0
Sky18,0.0,0.0,0.0,0.0,0.0,0.0
Sky19,0.0,0.0,0.0,0.0,0.0,0.0
Sky20,0.0,0.0,0.0,0.0,0.0,0.0
Sky21,0.0,0.0,0.0,0.0,0.0,0.0
Sky22,0.0,0.0,0.0,0.0,0.0,0.0
Sky23,0.0,0.0,0.0,0.0,0.0,0.0
Sky24,0.0,0.0,0.0,0.0,0.0,0.0
Sky25,0.0,0.0,0.0,0.0,0.0,0.0
Sky26,0.0,0.0,0.0,0.0,0.0,0.0
Sky27,0.0,0.0,0.0,0.0,0.0,0.0
Sky28,0.0,0.0,0.0,0.0,0.0,0.0
Sky29,0.0,0.0,0.0,0.0,0.0,0.0
Sky30,0.0,0.0,0.0,0.0,0.0,0.0
Sky31,0.0,0.0,0.0,0.0,0.0,0.0
Sky32,0.0,0.0,0.0,0.0,0.0,0.0
Sky33,0.0,0.0,0.0,0.0,0.0,0.0
Sky34,0.0,0.0,0.0,0.0,0.0,0.0
Sky35,0.0,0.0,0.0,0.0,0.0,0.0
Sky36,0.0,0.0,0.0,0.0,0.0,0.0
Sky37,0.0,0.0,0.0,0.0,0.0,0.0
Sky38,0.0,0.0,0.0,0.0,0.0,0.0
Sky39,0.0,0.0,0.0,0.0,0.0,0.0
Sky40,0.0,0.0,0.0,0.0,0.0,0.0
Sky41,0.0,0.0,0.0,0.0,0.0,0.0
Sky42,0.0,0.0,0.0,0.0,0.0,0.0
Sky43,0.0,0.0,0.0,0.0,0.0,0.0
Sky44,0.0,0.0,0.0,0.0,0.0,0.0
Sky45,0.0,0.0,0.0,0.0,0.0,0.0
Sky46,0.0,0.0,0.0,0.0,0.0,0.0
Sky47,0.0,0.0,0.0,0.0,0.0,0.0
Sky48,0.0,0.0,0.0,0.0,0.0,0.0
Sky49,0.0,0.0,0.0,0.0,0.0,0.0
Sky50,0.0,0.0,0.0,0.0,0.0,0.0
Sky51,0.0,0.0,0.0,0.0,0.0,0.0
Sky52,0.0,0.0,0.0,0.0,0.0,0.0
Sky53,0.0,0.0,0.0,0.0,0.0,0.0
Sky54,0.0,0.0,0.0,0.0,0.0,0.0
Sky55,0.0,0.0,0.0,0.0,0.0,0.0
Sky56,0.0,0.0,0.0,0.0,0.0,0.0
Sky57,0.0,0.0,0.0,0.0,0.0,0.0
Sky58,0.0,0.0,0.0,0.0,0.0,0.0
Sky59,0.0,0.0,0.0,0.0,0.0,0.0
Sky60,0.0,0.0,0.0,0.0,0.0,0.0
Sky61,0.0,0.0,0.0,0.0,0.0,0.0
Sky62,0.0,0.0,0.0,0.0,0.0,0.0
Sky63,0.0,0.0,0.0,0.0,0.0,0.0
Sky64,0.0,0.0,0.0,0.0,0.0,0.0
Sky65,0.0,0.0,0.0,0.0,0.0,0.0
Sky66,0.0,0.0,0.0,0.0,0.0,0.0
Sky67,0.0,0.0,0.0,0.0,0.0,0.0
Sky68,0.0,0.0,0.0,0.0,0.0,0.0
Sky69,0.0,0.0,0.0,0.0,0.0,0.0
Sky70,0.0,0.0,0.0,0.0,0.0,0.0
Sky71,0.0,0.0,0.0,0.0,0.0,0.0
Sky72,0.0,0.0,0.0,0.0,0.0,0.0
Sky73,0.0,0.0,0.0,0.0,0.0,0.0
Sky74,0.0,0.0,0.0,0.0,0.0,0.0
Sky75,0.0,0.0,0.0,0.0,0.0,0.0
Sky76,0.0,0.0,0.0,0.0,0.0,0.0
Sky77,0.0,0.0,0.0,0.0,0.0,0.0
Sky78,0.0,0.0,0.0,0.0,0.0,0.0
Sky79,0.0,0.0,0.0,0.0,0.0,0.0
Sky80,0.0,0.0,0.0,0.0,0.0,0.0
Sky81,0.0,0.0,0.0,0.0,0.0,0.0
Sky82,0.0,0.0,0.0,0.0,0.0,0.0
Sky83,0.0,0.0,0.0,0.0,0.0,0.0
Sky84,0.0,0.0,0.0,0.0,0.0,0.0
Sky85,0.0,0.0,0.0,0.0,0.0,0.0
Sky86,0.0,0.0,0.0,0.0,0.0,0.0
Sky87,0.0,0.0,0.0,0.0,0.0,0.0
Sky88,0.0,0.0,0.0,0.0,0.0,0.0
Sky89,0.0,0.0,0.0,0.0,0.0,0.0
Sky90,0.0,0.0,0.0,0.0,0.0,0.0
Sky91,0.0,0.0,0.0,0.0,0.0,0.0
Sky92,0.0,0.0,0.0,0.0,0.0,0.0
Sky93,0.0,0.0,0.0,0.0,0.0,0.0
Sky94,0.0,0.0,0.0,0.0,0.0,0.0
Sky95,0.0,0.0,0.0,0.0,0.0,0.0
Sky96,0.0,0.0,0.0,0.0,0.0,0.0
Sky97,0.0,0.0,0.0,0.0,0.0,0.0
Sky98,0.0,0.0,0.0,0.0,0.0,0.0
Sky99,0.0,0.0,0.0,0.0,0.0,0.0
Sky100,0.0,0.0,0.0,0.0,0.0,0.0
Sky101,2688.0,3360.0,0.0,0.0,0.0,0.0
Sky102,0.0,0.0,0.0,0.0,0.0,0.0
Sky103,0.0,0.0,0.0,0.0,0.0,0.0
Sky104,0.0,0.0,0.0,0.0,0.0,0.0
Sky105,0.0,0.0,0.0,0.0,0.0,0.0
Sky106,0.0,0.0,0.0,0.0,0.0,0.0
Sky107,0.0,0.0,0.0,0.0,0.0,0.0
Sky108,0.0,0.0,0.0,0.0,0.0,0.0
Sky109,0.0,0.0,0.0,0.0,0.0,0.0
Sky110,0.0,0.0,0.0,0.0,0.0,0.0
Sky111,0.0,0.0,0.0,0.0,0.0,0.0
Sky112,0.0,0.0,0.0,0.0,0.0,0.0
Sky113,0.0,0.0,0.0,0.0,0.0,0.0
Sky114,0.0,0.0,0.0,0.0,0.0,0.0
Sky115,0.0,0.0,0.0,0.0,0.0,0.0
Sky116,0.0,0.0,0.0,0.0,0.0,0.0
Sky117,0.0,0.0,0.0,0.0,0.0,0.0
Sky118,0.0,0.0,0.0,0.0,0.0,0.0
Sky119,0.0,0.0,0.0,0.0,0.0,0.0
Sky120,0.0,0.0,0.0,0.0,0.0,0.0
Sky121,0.0,0.0,0.0,0.0,0.0,0.0
Sky122,0.0,0.0,0.0,0.0,0.0,0.0
Sky123,0.0,0.0,0.0,0.0,0.0,0.0
Sky124,0.0,0.0,0.0,0.0,0.0,0.0
Sky125,0.0,0.0,0.0,0.0,0.0,0.0
Sky126,0.0,0.0,0.0,0.0,0.0,0.0
Sky127,0.0,0.0,0.0,0.0,0.0,0.0
Sky128,0.0,0.0,0.0,0.0,0.0,0.0
Sky129,0.0,0.0,0.0,0.0,0.0,0.0
Sky130,0.0,0.0,0.0,0.0,0.0,0.0
Sky131,0.0,0.0,0.0,0.0,0.0,0.0
Sky132,0.0,0.0,0.0,0.0,0.0,0.0
Sky133,0.0,0.0,0.0,0.0,0.0,0.0
Sky134,0.0,0.0,0.0,0.0,0.0,0.0
Sky135,0.0,0.0,0.0,0.0,0.0,0.0
Sky136,0.0,0.0,0.0,0.0,0.0,0.0
Sky137,0.0,0.0,0.0,0.0,0.0,0.0
Sky138,0.0,0.0,0.0,0.0,0.0,0.0
Sky139,0.0,0.0,0.0,0.0,0.0,0.0
Sky140,0.0,0.0,0.0,0.0,0.0,0.0
Sky141,0.0,0.0,0.0,0.0,0.0,0.0
Sky142,0.0,0.0,0.0,0.0,0.0,0.0
Sky143,0.0,0.0,0.0,0.0,0.0,0.0
Sky144,0.0,0.0,0.0,0.0,0.0,0.0
Sky145,0.0,0.0,0.0,0.0,0.0,0.0
Sky146,0.0,0.0,0.0,0.0,0.0,0.0
Sky147,0.0,0.0,0.0,0.0,0.0,0.0
Sky148,0.0,0.0,0.0,0.0,0.0,0.0
Sky149,0.0,0.0,0.0,0.0,0.0,0.0
Sky150,0.0,0.0,0.0,0.0,0.0,0.0
Sky151,0.0,0.0,0.0,0.0,0.0,0.0
Sky152,0.0,0.0,0.0,0.0,0.0,0.0
Sky153,0.0,0.0,0.0,0.0,0.0,0.0
Sky154,0.0,0.0,0.0,0.0,0.0,0.0
Sky155,0.0,0.0,0.0,0.0,0.0,0.0
Sky156,0.0,0.0,0.0,0.0,0.0,0.0
Sky157,0.0,0.0,0.0,0.0,0.0,0.0
Sky158,0.0,0.0,0.0,0.0,0.0,0.0
Sky159,0.0,0.0,0.0,0.0,0.0,0.0
Sky160,0.0,0.0,0.0,0.0,0.0,0.0
Sky161,0.0,0.0,0.0,0.0,0.0,0.0
Sky162,0.0,0.0,0.0,0.0,0.0,0.0
Sky163,0.0,0.0,0.0,0.0,0.0,0.0
Sky164,0.0,0.0,0.0,0.0,0.0,0.0
Sky165,0.0,0.0,0.0,0.0,0.0,0.0
Sky166,0.0,0.0,0.0,0.0,0.0,0.0
Sky167,0.0,0.0,0.0,0.0,0.0,0.0
Sky168,0.0,0.0,0.0,0.0,0.0,0.0
Sky169,0.0,0.0,0.0,0.0,0.0,0.0
Sky170,0.0,0.0,0.0,0.0,0.0,0.0
Sky171,0.0,0.0,0.0,0.0,0.0,0.0
Sky172,0.0,0.0,0.0,0.0,0.0,0.0
Sky173,0.0,0.0,0.0,0.0,0.0,0.0
Sky174,0.0,0.0,0.0,0.0,0.0,0.0
Sky175,0.0,0.0,0.0,0.0,0.0,0.0
Sky176,0.0,0.0,0.0,0.0,0.0,0.0
Sky177,0.0,0.0,0.0,0.0,0.0,0.0
Sky178,0.0,0.0,0.0,0.0,0.0,0.0
Sky179,0.0,0.0,0.0,0.0,0.0,0.0
Sky180,0.0,0.0,0.0,0.0,0.0,0.0
Sky181,0.0,0.0,0.0,0.0,0.0,0.0
Sky182,0.0,0.0,0.0,0.0,0.0,0.0
Sky183,0.0,0.0,0.0,0.0,0.0,0.0
Sky184,0.0,0.0,0.0,0.0,0.0,0.0
Sky185,0.0,0.0,0.0,0.0,0.0,0.0
Sky186,0.0,0.0,0.0,0.0,0.0,0.0
Sky187,0.0,0.0,0.0,0.0,0.0,0.0
Sky188,0.0,0.0,0.0,0.0,0.0,0.0
Sky189,0.0,0.0,0.0,0.0,0.0,0.0
Sky190,0.0,0.0,0.0,0.0,0.0,0.0
Sky191,0.0,0.0,0.0,0.0,0.0,0.0
Sky192,0.0,0.0,0.0,0.0,0.0,0.0
Sky193,0.0,0.0,0.0,0.0,0.0,0.0
Sky194,0.0,0.0,0.0,0.0,0.0,0.0
Sky195,0.0,0.0,0.0,0.0,0.0,0.0
Sky196,0.0,0.0,0.0,0.0,0.0,0.0
Sky197,0.0,0.0,0.0,0.0,0.0,0.0
Sky198,0.0,0.0,0.0,0.0,0.0,0.0
Sky199,0.0,0.0,0.0,0.0,0.0,0.0
Sky200,0.0,0.0,0.0,0.0,0.0,0.0
Sky201,0.0,0.0,0.0,0.0,0.0,0.0
Sky202,0.0,0.0,0.0,0.0,0.0,0.0
Sky203,0.0,0.0,0.0,0.0,0.0,0.0
Sky204,0.0,0.0,0.0,0.0,0.0,0.0
Sky205,0.0,0.0,0.0,0.0,0.0,0.0
Sky206,0.0,0.0,0.0,0.0,0.0,0.0
Sky207,0.0,0.0,0.0,0.0,0.0,0.0
Sky208,0.0,0.0,0.0,0.0,0.0,0.0
Sky209,0.0,0.0,0.0,0.0,0.0,0.0
Sky210,0.0,0.0,0.0,0.0,0.0,0.0
Sky211,0.0,0.0,0.0,0.0,0.0,0.0
Sky212,0.0,0.0,0.0,0.0,0.0,0.0
Sky213,0.0,0.0,0.0,0.0,0.0,0.0
Sky214,0.0,0.0,0.0,0.0,0.0,0.0
Sky215,0.0,0.0,0.0,0.0,0.0,0.0
Sky216,0.0,0.0,0.0,0.0,0.0,0.0
Sky217,0.0,0.0,0.0,0.0,0.0,0.0
Sky218,0.0,0.0,0.0,0.0,0.0,0.0
Sky219,0.0,0.0,0.0,0.0,0.0,0.0
Sky220,0.0,0.0,0.0,0.0,0.0,0.0
Sky221,0.0,0.0,0.0,0.0,0.0,0.0
Sky222,0.0,0.0,0.0,0.0,0.0,0.0
Sky223,0.0,0.0,0.0,0.0,0.0,0.0
Sky224,0.0,0.0,0.0,0.0,0.0,0.0
Sky225,0.0,0.0,0.0,0.0,0.0,0.0
Sky226,0.0,0.0,0.0,0.0,0.0,0.0
Sky227,0.0,0.0,0.0,0.0,0.0,0.0
Sky228,0.0,0.0,0.0,0.0,0.0,0.0
Sky229,0.0,0.0,0.0,0.0,0.0,0.0
Sky230,0.0,0.0,0.0,0.0,0.0,0.0
Sky231,0.0,0.0,0.0,0.0,0.0,0.0
Sky232,0.0,0.0,0.0,0.0,0.0,0.0
Sky233,0.0,0.0,0.0,0.0,0.0,0.0
Sky234,0.0,0.0,0.0,0.0,0.0,0.0
Sky235,0.0,0.0,0.0,0.0,0.0,0.0
Sky236,0.0,0.0,0.0,0.0,0.0,0.0
Sky237,0.0,0.0,0.0,0.0,0.0,0.0
Sky238,0.0,0.0,0.0,0.0,0.0,0.0
Sky239,0.0,0.0,0.0,0.0,0.0,0.0
Sky240,0.0,0.0,0.0,0.0,0.0,0.0
Sky241,0.0,0.0,0.0,0.0,0.0,0.0
Sky242,0.0,0.0,0.0,0.0,0.0,0.0
Sky243,0.0,0.0,0.0,0.0,0.0,0.0
Sky244,0.0,0.0,0.0,0.0,0.0,0.0
Sky245,0.0,0.0,0.0,0.0,0.0,0.0
Sky246,0.0,0.0,0.0,0.0,0.0,0.0
Sky247,0.0,0.0,0.0,0.0,0.0,0.0
Sky248,0.0,0.0,0.0,0.0,0.0,0.0
Sky249,0.0,0.0,0.0,0.0,0.0,0.0
Sky250,0.0,0.0,0.0,0.0,0.0,0.0
Sky251,0.0,0.0,0.0,0.0,0.0,0.0
Sky252,0.0,0.0,0.0,0.0,0.0,0.0
Sky253,0.0,0.0,0.0,0.0,0.0,0.0
Sky254,0.0,0.0,0.0,0.0,0.0,0.0
Sky255,0.0,0.0,0.0,0.0,0.0,0.0
Sky256,0.0,0.0,0.0,0.0,0.0,0.0
Sky257,0.0,0.0,0.0,0.0,0.0,0.0
Sky258,0.0,0.0,0.0,0.0,0.0,0.0
Sky259,0.0,0.0,0.0,0.0,0.0,0.0
Sky260,0.0,0.0,0.0,0.0,0.0,0.0
Sky261,0.0,0.0,0.0,0.0,0.0,0.0
Sky262,0.0,0.0,0.0,0.0,0.0,0.0
Sky263,0.0,0.0,0.0,0.0,0.0,0.0
Sky264,0.0,0.0,0.0,0.0,0.0,0.0
Sky265,0.0,0.0,0.0,0.0,0.0,0.0
Sky266,0.0,0.0,0.0,0.0,0.0,0.0
Sky267,0.0,0.0,0.0,0.0,0.0,0.0
Sky268,0.0,0.0,0.0,0.0,0.0,0.0
Sky269,0.0,0.0,0.0,0.0,0.0,0.0
Sky270,0.0,0.0,0.0,0.0,0.0,0.0
Sky271,0.0,0.0,0.0,0.0,0.0,0.0
Sky272,0.0,0.0,0.0,0.0,0.0,0.0
Sky273,0.0,0.0,0.0,0.0,0.0,0.0
Sky274,0.0,0.0,0.0,0.0,0.0,0.0
Sky275,0.0,0.0,0.0,0.0,0.0,0.0
Sky276,0.0,0.0,0.0,0.0,0.0,0.0
Sky277,0.0,0.0,0.0,0.0,0.0,0.0
Sky278,0.0,0.0,0.0,0.0,0.0,0.0
Sky279,0.0,0.0,0.0,0.0,0.0,0.0
Sky280,0.0,0.0,0.0,0.0,0.0,0.0
Sky281,0.0,0.0,0.0,0.0,0.0,0.0
Sky282,0.0,0.0,0.0,0.0,0.0,0.0
Sky283,0.0,0.0,0.0,0.0,0.0,0.0
Sky284,0.0,0.0,0.0,0.0,0.0,0.0
Sky285,0.0,0.0,0.0,0.0,0.0,0.0
Sky286,0.0,0.0,0.0,0.0,0.0,0.0
Sky287,0.0,0.0,0.0,0.0,0.0,0.0
Sky288,0.0,0.0,0.0,0.0,0.0,0.0
Sky289,0.0,0.0,0.0,0.0,0.0,0.0
Sky290,0.0,0.0,0.0,0.0,0.0,0.0
Sky291,0.0,0.0,0.0,0.0,0.0,0.0
Sky292,0.0,0.0,0.0,0.0,0.0,0.0
Sky293,0.0,0.0,0.0,0.0,0.0,0.0
Sky294,0.0,0.0,0.0,0.0,0.0,0.0
Sky295,0.0,0.0,0.0,0.0,0.0,0.0
Sky296,0.0,0.0,0.0,0.0,0.0,0.0
Sky297,0.0,0.0,0.0,0.0,0.0,0.0
Sky298,0.0,0.0,0.0,0.0,0.0,0.0
Sky299,0.0,0.0,0.0,0.0,0.0,0.0
Sky300,0.0,0.0,0.0,0.0,0.0,0.0
