SkyId,halo_x1,halo_y1,halo_x2,halo_y2,halo_x3,halo_y3
Sky41,1539.142822,1032.775513,3791.510254,1802.346924,0,0
Sky42,4094.346924,3845.530762,351.897949,4082.816406,0,0
Sky43,148.326416,3938.612305,2920.367432,598.734741,0,0
Sky44,4014.959229,134.734741,4202.020508,3777.856934,0,0
Sky45,2822.224609,1245.795898,553.510132,1940.061279,0,0
Sky46,2970.142822,3674,917.122437,782.46936,0,0
Sky47,3782.408203,551.795898,1610.326538,3988.183838,0,0
Sky48,655.938721,1145.183594,642.652954,1000.612183,0,0
Sky49,4054.448975,1709.551025,1380.326538,3445.449219,0,0
Sky50,3305.16333,1258.83667,3179,1274.612305,0,0
Sky51,855.489746,350.387695,247.795776,3133.081543,0,0
Sky52,3335.224609,3995.673584,1545.959229,317.224365,0,0
Sky53,3644.632568,3775.938965,3818.285645,203.387695,0,0
Sky54,1405.734619,237.244873,2988.346924,3813.734863,0,0
Sky55,3521.285645,872.122437,3448.795898,858.142822,0,0
Sky56,1073.040771,2982.367432,1092.489746,2881.102051,0,0
Sky57,464.285645,3377.16333,3417.816406,3076.959229,0,0
Sky58,2377.959229,2928.571289,714.693848,2602.489746,0,0
Sky59,4168.918457,4015.816406,129.142822,3068.795898,0,0
Sky60,1184.795898,2948.551025,1096.16333,2950.346924,0,0
Sky61,2330.612305,2453.122559,2507.346924,2562.489746,0,0
Sky62,3373.306152,460.979614,942.224487,4170.245117,0,0
Sky63,3254.530762,3192.693848,446.714233,1354.551025,0,0
Sky64,1849.63269,2411.102051,375.489746,1341.183594,0,0
Sky65,3685.653076,119.16333,2908.612305,3157.142822,0,0
Sky66,2550.795898,1256.346924,3045.244873,1320.081543,0,0
Sky67,1720.387695,2235.040771,3902.856934,90.897949,0,0
Sky68,3212.081543,1970.387695,516.489746,1434.83667,0,0
Sky69,698.163208,1382.653076,2343.32666,4124.387695,0,0
Sky70,1647.142822,2648.102051,3083.285645,3424.081543,0,0
Sky71,2691.387695,3206.591797,2596.673584,3201.224609,0,0
Sky72,694.203979,2688.081543,3969.387695,2304.693848,0,0
Sky73,3775.816406,2841.16333,3778.367188,2649.734863,0,0
Sky74,531.857178,3173.387695,3040.612305,302.53064,0,0
Sky75,2399.653076,3759.224609,2291.775635,3742,0,0
Sky76,860.653076,3101.469238,2992.265381,167.673462,0,0
Sky77,4102.775391,1595.979492,68.326416,1955.326538,0,0
Sky78,2743,4174,3753.387695,1318.489746,0,0
Sky79,3244.16333,3905.061279,170.551025,3946.755127,0,0
Sky80,4187.286133,1680.591797,1001.938721,3726.795898,0,0