GalaxyID,x,y,e1,e2
Galaxy1,1427.47,3262.7,0.074544082362933362,-0.090646398367215233
Galaxy2,1395.49,1745.71,-0.31893629602933554,-0.1669202526817703
Galaxy3,732.02,2546.03,0.20405107320255333,-0.024294626807440781
Galaxy4,3237.5,1862.85,-0.5482168461370962,0.23448553692576296
Galaxy5,3332.16,3342.31,-0.18440037972654444,0.16838876220504134
Galaxy6,517.08,1333.81,0.14958287167843459,-0.2593962539819491
Galaxy7,4013.08,3394.54,-0.26980656513971313,0.32726448969021249
Galaxy8,1321.12,406.97,-0.32723449804167359,0.012011466335277284
Galaxy9,1102.19,1526.83,0.21037394353065808,0.1003273046334551
Galaxy10,2600.83,940.42,0.14357212540496908,-0.15959115273513338
Galaxy11,2036.15,748.05,-0.24803579669726356,-0.18677888632337775
Galaxy12,4065.73,1877.19,0.111163202536192,0.22842899752254292
Galaxy13,1113.41,425.38,-0.048902781361428865,0.075523584754362591
Galaxy14,3774.38,3829.05,-0.12181401792792981,0.36260802987962221
Galaxy15,3008.64,1050.55,-0.27935702281917524,0.24669269444110745
Galaxy16,3238.08,2817.86,-0.35739321730211049,-0.017012774921892175
Galaxy17,1400.35,94.87,-0.079851062337171846,0.24905641941912374
Galaxy18,2350.55,2336.09,-0.33471228328090608,-0.17069141281105799
Galaxy19,1030.88,3888.94,-0.1763405625959866,0.055405077097190142
Galaxy20,1942.92,15.56,0.21870339818667478,0.17102914234862626
Galaxy21,3626.72,3603.81,0.14898914209807732,0.58342658208722442
Galaxy22,3683.8,2745.4,-0.55449296649513902,0.15145648072879139
Galaxy23,492.69,1035.56,0.45933605403343936,-0.27868620556554202
Galaxy24,2636.76,11.92,0.22949558115731675,0.42763915317803231
Galaxy25,3103.21,3648.15,0.03984732861370939,0.038627967464094332
Galaxy26,3292.12,477.16,0.44795622152337633,0.54994229034604647
Galaxy27,2924.94,1841.58,0.15910284194466576,-0.081135228090397735
Galaxy28,471.24,1813.71,0.31392894440947694,0.047145479486031344
Galaxy29,4090.14,3474.02,0.091286511749672755,-0.18655677340680105
Galaxy30,1684.93,1161.68,0.2558490399446996,0.18080686205715682
Galaxy31,862.3,3886.41,0.30539539373140528,0.37443683776493575
Galaxy32,4113.73,61.63,0.1424323792467565,-0.51628374777460373
Galaxy33,938.11,3162.52,0.098411623900083803,-0.010800151467985755
Galaxy34,3665.63,3962.93,0.16901624787968764,-0.0033195648918431762
Galaxy35,974.06,548.18,0.29576039809706312,0.0034890612891189943
Galaxy36,882.34,3130.22,0.20318950709430086,0.26716688759710167
Galaxy37,3619.56,3864.72,-0.21360558129409707,-0.22497272758387438
Galaxy38,1231.28,2878.68,0.069749409973441562,0.35904597322768361
Galaxy39,1173.93,2376.57,0.10679006414588399,0.30675604324052796
Galaxy40,3055.23,1076.18,0.037774284807076675,0.087560988549762409
Galaxy41,2625.89,3195.99,-0.37220513405849032,-0.065095541032676785
Galaxy42,2361.43,3800.64,0.18343529343430476,-0.11290184412377618
Galaxy43,219.93,746.13,-0.088411349605832704,-0.042361759256871259
Galaxy44,2163.7,301.14,0.070203306710008184,0.099260366499774558
Galaxy45,2000.13,57.24,0.22310822600989047,-0.14063328513550988
Galaxy46,682.87,2695.03,0.16635390743449233,0.23789459782828171
Galaxy47,2210.88,669.06,-0.0060207048800126062,-0.039443220837825699
Galaxy48,3617.95,247.58,0.13680998950508225,-0.53415002487956753
Galaxy49,3884.81,618.81,0.033606968566672973,-0.059108480463103658
Galaxy50,3003.29,3375.19,0.18534044490358795,-0.034215757522227164
Galaxy51,2194.1,294.49,-0.022529918945193628,-0.28643236306961661
Galaxy52,499.6,1618.22,-0.094795937072283648,-0.0066900933762499698
Galaxy53,1252.14,3818.47,-0.036606917133115029,-0.28508595751870514
Galaxy54,4085.08,2231.9,0.015475649925638019,-0.091338458041665446
Galaxy55,1008.6,2904.58,0.52273641861353226,0.19099020714282677
Galaxy56,21.51,2555.12,-0.51635615430958381,-0.61313018226797711
Galaxy57,3218.41,2938.03,-0.28765368713604078,-0.064012344523822803
Galaxy58,3681.75,989.15,0.23535694616013939,0.51835183303483801
Galaxy59,1716.63,3665.7,-0.045895985223549839,-0.22259121690927977
Galaxy60,2519.12,2387.99,0.078716798117546977,-0.094609010963503215
Galaxy61,1764.8,712.26,0.44849747027096387,-0.22564757310015995
Galaxy62,1367.53,3134.01,0.065094076081169655,-0.28199431459229363
Galaxy63,1326.34,2346.02,-0.21589124075661764,0.11755436310635901
Galaxy64,2147.9,2122.07,-0.27369767542731566,0.18766043153795475
Galaxy65,368.47,2452.39,-0.20033149974006559,0.13753737428221335
Galaxy66,2788.98,526.13,-0.34574891457297779,-0.12261748179282361
Galaxy67,1885.33,3981.31,-0.20419061856104057,0.0057005566415965978
Galaxy68,876.77,3378.21,0.050463796245917403,0.2726803005861107
Galaxy69,1807.25,125.68,0.43137258832871939,-0.064874507204067497
Galaxy70,2443.35,3008.46,0.12458335671345437,-0.090392886533450789
Galaxy71,2507.09,2251.24,0.067841267695628205,0.025890335485843283
Galaxy72,912.47,1556.6,0.0083208045211588047,-0.36102803615275564
Galaxy73,999.01,1871.06,0.072804636999290517,-0.036213762199227395
Galaxy74,3625.42,2834.07,0.036640356597622978,-0.13599716166159609
Galaxy75,2078.9,2459.35,-0.09760559831068169,-0.072471822213463905
Galaxy76,1460.55,3874.14,-0.023208204683391007,-0.31166233701884388
Galaxy77,2846.8,1660.91,-0.28132620728643604,-0.24187915434907081
Galaxy78,1061.65,3034.33,-0.14891741213875428,0.19931108178474721
Galaxy79,672.33,841.24,0.34994463355279015,-0.31784678648862358
Galaxy80,3175.13,1047.33,-0.15941118342621072,0.024594593781442034
Galaxy81,966.27,2367.13,-0.047477227089252276,0.32766736008213876
Galaxy82,2157.15,665.52,-0.37779160992988009,0.16566225274389498
Galaxy83,652.1,374.95,0.088420764379695274,-0.31728437237808388
Galaxy84,3607.45,1718.07,-0.38243090398420676,-0.55915338150144844
Galaxy85,456.9,1498.53,0.13141743165678074,0.078460160557812728
Galaxy86,2038.53,3248.2,-0.08629299054300478,-0.1881856990769589
Galaxy87,979.74,472.07,0.32452759381394347,0.19100341086354414
Galaxy88,548.5,3493.59,0.30676271175791686,-0.17265642748610782
Galaxy89,1742.9,945.42,-0.050810025034267944,0.12107259232831558
Galaxy90,3352.94,991.51,-0.30020803745410329,0.089680029297955016
Galaxy91,95.79,3050.19,0.15180072996851479,0.016127462984305403
Galaxy92,984.23,1169.56,-0.51277006942359316,0.1767925536083495
Galaxy93,2397.57,932.53,0.2418630668442201,-0.54225655683859564
Galaxy94,1800.89,3775.91,-0.14257338036513595,-0.34227428200872106
Galaxy95,2743.47,2797.4,-0.44229294279522324,0.0049518076107455851
Galaxy96,790.51,1907.08,0.00093045573292784706,0.22850578369210892
Galaxy97,681.55,2671.19,0.18168639731994138,-0.085489783912876344
Galaxy98,3687.91,2128.56,-0.087648142210330293,0.092492792889279571
Galaxy99,2131.71,3913.64,0.37003179349125748,-0.22293997089347289
Galaxy100,724.97,324.61,-0.056426154263605241,-0.14908478086773416
Galaxy101,2062.41,21.39,0.56064543016781121,0.10079063500478616
Galaxy102,2282.24,1273.25,0.1212194021295064,0.1714595798213378
Galaxy103,2521.84,2674.86,-0.27792181230112023,0.064955158095434784
Galaxy104,370.68,2394.26,0.16489638627144604,-0.19750688913903372
Galaxy105,4003.34,3868.7,-0.50781249093250658,0.012953007297404364
Galaxy106,42.14,1783.26,0.047527628917409387,-0.0093042332228824437
Galaxy107,251.08,1754.35,-0.11081284922827492,0.1570908481415427
Galaxy108,3583.95,2413.43,-0.20042737374263783,0.0087538049942692611
Galaxy109,2159.72,2401.74,-0.033619375730863342,-0.0093431804736731211
Galaxy110,1335.14,3243.81,0.021704597343025669,0.0046041713028857484
Galaxy111,1357.71,3060.65,0.30808401345261321,-0.12557907975183741
Galaxy112,2007.2,1022.08,0.30638788176273501,-0.38423988385928726
Galaxy113,3813.84,1688.9,-0.50084868723673281,-0.25066058472331576
Galaxy114,3743.42,3569.64,0.022292621424217743,0.27938448587306991
Galaxy115,62.16,839.29,-0.095782067061538578,0.045447097329824916
Galaxy116,3478.87,235.39,0.86362088796809622,0.013432086699162786
Galaxy117,2964.66,2390.87,-0.28059956923826485,0.47358663107736215
Galaxy118,3578.52,3702.37,-0.090421021748607083,0.10857564120111152
Galaxy119,1800.24,1347.02,0.093375225431263961,-0.20152500496517639
Galaxy120,3042.23,1321.84,0.036674943643968644,0.09666713270732237
Galaxy121,1861.03,3313.72,-0.2047459423803335,-0.073194013171473643
Galaxy122,2958.18,2753.21,0.081011298051510583,-0.25045567773970662
Galaxy123,1779.67,1215.1,0.10994994331140043,0.055414713132771243
Galaxy124,3005.15,1323.89,-0.22412089208659236,0.085718513823884027
Galaxy125,704.36,3227.15,-0.24335419560229823,0.23018696924847332
Galaxy126,110.17,2997.49,0.078298092510473039,-0.37576071015698659
Galaxy127,2967.82,3254.86,0.0092814270900698076,-0.0058828018080929632
Galaxy128,815.55,2935.39,0.087936016814760806,-0.2499851150134888
Galaxy129,3905.46,571.94,0.27573908693640259,0.1063183804066416
Galaxy130,2187.52,1203.76,-0.022051206159358641,-0.53654059287702771
Galaxy131,3333.87,3700.45,0.28810864779661377,0.17648809369229215
Galaxy132,1334.68,2314.15,-0.22987200036065403,-0.29324120805173459
Galaxy133,1432.53,2208.88,0.12242038083199788,0.11369868055898168
Galaxy134,1663.77,1338.02,0.3254477209350326,0.32996358260932313
Galaxy135,3630.09,3029.08,-0.11414490465450079,0.041855717739224745
Galaxy136,3313.96,3323.43,-0.38930715177524655,-0.33066198265207436
Galaxy137,2789.49,1101.21,-0.44970924884780317,-0.27626297355088397
Galaxy138,1957.13,1391.59,-0.0065344277403423124,0.34268148693261685
Galaxy139,2102.03,3011.59,-0.16569387616861647,0.11218616759816268
Galaxy140,3025.76,541.2,-0.37580355338372107,0.41667407421856961
Galaxy141,3361.31,3907.56,0.10849468433442816,0.059696792531872787
Galaxy142,465.9,1831.6,-0.20954109324984627,-0.19952450688122192
Galaxy143,1936.12,1424.84,0.10484810260319029,-0.14275364916117977
Galaxy144,3849.84,665.34,0.2852449590005468,0.25196781953819358
Galaxy145,3107.08,1704.34,-0.09350791655037903,-0.1685821052650491
Galaxy146,1434.63,1757.18,0.086548616154686522,-0.65816777564209639
Galaxy147,3465.69,2130.99,0.16816202590839785,-0.24431034210121377
Galaxy148,486.22,2724.25,0.032993651752151361,-0.20811452867615238
Galaxy149,3116.49,3834.15,-0.09163380845235114,0.044537875047908133
Galaxy150,1754.03,2995.87,-0.19092578451065362,0.29700500892793447
Galaxy151,661.41,2717.75,0.1099306528995679,0.067136470844374574
Galaxy152,2247.07,2561.0,-0.061000229273787503,0.18853771662369717
Galaxy153,285.85,4197.65,-0.091629866777417038,0.071229326489191586
Galaxy154,52.67,233.26,-0.18034467888798267,0.12441668471491295
Galaxy155,1172.42,1073.01,-0.32954483896141584,-0.55232293421339118
Galaxy156,3973.86,588.87,0.418096593380612,0.14208702888047836
Galaxy157,3791.7,2550.98,-0.055595691133463104,0.091119817542982137
Galaxy158,1108.16,328.14,-0.2044558199704955,-0.013622328875980187
Galaxy159,3917.64,2322.66,-0.086207916844069907,-0.19899451506368998
Galaxy160,3219.28,4128.66,-0.19598425416585916,0.2426180929862147
Galaxy161,3601.3,906.81,0.23516628394038919,0.30262977112792488
Galaxy162,2178.41,2984.69,-0.41350091654631138,0.39998214100470519
Galaxy163,3690.09,1178.93,0.17302745053507979,0.096349595280921629
Galaxy164,1079.92,2731.02,-0.15412731152943313,-0.11496003754316567
Galaxy165,1846.42,993.3,0.17439494028464264,-0.33180467705194217
Galaxy166,3448.36,1398.05,0.16529414457500874,-0.00082543069327445373
Galaxy167,4126.11,3746.89,0.37984162690957113,-0.040318096385795449
Galaxy168,2158.5,2192.29,-0.075980852993625239,-0.31890589553106918
Galaxy169,512.63,2498.03,0.14491052416028574,0.12072316740092519
Galaxy170,3274.51,1929.46,-0.21202857678885406,0.24718036817619857
Galaxy171,4193.86,4121.61,0.30037158076674614,0.054819993497057629
Galaxy172,1036.34,4125.51,0.041382360648229019,0.03437745715057023
Galaxy173,332.32,1455.97,0.056928665498687588,0.044667253441764102
Galaxy174,2616.99,79.1,0.30289629707557397,0.49109160985102013
Galaxy175,2313.14,771.85,0.18218504447569622,0.0035252175078612225
Galaxy176,2535.97,2585.04,0.064573852185806704,-0.13270643143721034
Galaxy177,3087.24,1666.07,0.18932395160644608,-0.07989585554008434
Galaxy178,2629.9,1540.5,-0.22543332049707981,-0.023985147222280775
Galaxy179,3782.12,1238.69,-0.33851980688256417,0.0072174772017672972
Galaxy180,2592.3,3698.81,0.18975376416450757,0.010279032193140161
Galaxy181,100.26,3958.52,-0.047694681933502334,-0.048980380705364208
Galaxy182,1821.61,2077.7,-0.35877859416365238,-0.11046836412508715
Galaxy183,3706.66,2187.26,-0.30182831770849666,-0.20778084611592246
Galaxy184,2703.92,3986.56,0.084885312980053418,0.15056070748990308
Galaxy185,596.76,1367.39,-0.29584258912066697,-0.10841326488896928
Galaxy186,851.2,974.22,0.3830533019509057,-0.1988930943419987
Galaxy187,1855.08,1556.32,0.24869599771205528,-0.10974395278083748
Galaxy188,2566.48,2030.62,-0.07301176522559133,0.014085386163219402
Galaxy189,3096.84,2541.96,-0.15595961921816442,-0.23084671585464714
Galaxy190,3555.85,1501.03,-0.027512445933019367,0.03994516129667143
Galaxy191,3082.13,597.56,-0.24589566154172585,0.20400761911013762
Galaxy192,3952.85,3669.73,0.066080632899059383,0.18182021137611704
Galaxy193,663.45,2270.55,0.055648681686811086,0.08033446642661364
Galaxy194,750.61,586.05,0.12260243073902084,-0.12343759076921983
Galaxy195,2619.38,3724.41,-0.077034875184134322,-0.31602609711955498
Galaxy196,3152.67,3777.26,0.095210161478353622,0.12418721847589692
Galaxy197,2534.41,872.68,-0.1212040435916687,-0.63368199395257074
Galaxy198,782.42,1048.08,-0.24826296851033691,0.11015588399989971
Galaxy199,2989.8,3098.78,-0.14899134128824076,-0.1688147241138919
Galaxy200,39.82,1661.93,-0.15417573770545637,-0.0297836854589675
Galaxy201,3837.94,1476.65,0.50081503997389909,0.36190621865797584
Galaxy202,1700.71,23.39,0.084648911815619524,0.11818551618743955
Galaxy203,3121.08,3842.62,-0.098393247935275152,0.26412813444764272
Galaxy204,724.62,3080.64,0.13560743827380317,0.3714254845792756
Galaxy205,1788.47,3402.61,-0.089666522884378763,0.090569445788710012
Galaxy206,1045.2,3561.7,-0.84718166321513932,-0.098195453367239116
Galaxy207,574.48,416.11,-0.082383450269817957,-0.18781556262778809
Galaxy208,2122.59,2647.41,0.25235439536404247,0.1509591550084155
Galaxy209,3218.76,3751.44,-0.077560955140813903,-0.20408736238616967
Galaxy210,1587.51,2135.85,0.50267049703668576,-0.078623300312528344
Galaxy211,745.35,3079.01,-0.19435090156374829,0.2915784019241151
Galaxy212,3839.43,3722.87,-0.27571170569825765,0.32525842725913306
Galaxy213,2906.81,2679.69,0.053600215181874189,0.16016077229075826
Galaxy214,3645.19,2927.36,-0.28281393098626878,-0.22475436422511838
Galaxy215,650.15,2414.64,0.025795653789243547,-0.28158703726362116
Galaxy216,897.59,2572.1,0.31442012450971368,-0.18928649907487516
Galaxy217,3415.6,2383.54,-0.17520141718550372,0.068913613540311489
Galaxy218,1898.13,3476.77,-0.17326082777069135,0.029150755945292782
Galaxy219,1160.67,3889.89,0.032194614566578454,-0.39511478469188682
Galaxy220,91.05,3517.93,0.018631701644790968,0.074357619951834167
Galaxy221,515.24,598.28,0.26757618534988625,0.24592326476476176
Galaxy222,1316.77,2449.85,0.094823955699070053,-0.4110419783024053
Galaxy223,68.5,4056.59,0.094249711634859776,-0.20612230221454281
Galaxy224,4045.09,1810.64,-0.24816823595312726,-0.084357760721013308
Galaxy225,423.59,2857.53,0.083129349128885976,0.40729854712516633
Galaxy226,849.59,823.7,0.22546855292293411,-0.011256306234358943
Galaxy227,1200.75,4151.16,-0.29870103862881575,-0.027864504820638184
Galaxy228,3847.94,600.7,0.22634998000791512,0.31553505952283806
Galaxy229,705.69,3675.81,-0.22951742199229183,-0.25160347450289611
Galaxy230,2630.99,1472.66,0.33982842586543494,0.016597617204948609
Galaxy231,416.46,2430.99,-0.10588609075078666,-0.098980113027023933
Galaxy232,2920.98,2117.73,0.0062585116376859817,-0.32102564605963174
Galaxy233,2756.91,3787.69,-0.1871330263015111,0.18807509952613272
Galaxy234,2353.09,587.03,-0.34363230266441558,-0.38945289640365566
Galaxy235,3005.43,3827.74,0.23327474269621629,-0.027955165550268689
Galaxy236,3787.63,1845.04,0.28867838695305353,0.060433661865468634
Galaxy237,3599.33,3020.91,-0.21199835461586453,0.15205516506185879
Galaxy238,363.47,150.57,0.11195791947784463,-0.15278172326619052
Galaxy239,744.85,1120.46,0.32931922926392343,0.43693641623994345
Galaxy240,1540.27,2217.97,-0.23158262877605906,-0.012831033662421221
Galaxy241,3577.89,156.9,0.32178207695374383,-0.44439040630821797
Galaxy242,841.97,2361.23,0.23587042655874768,0.02538972085558186
Galaxy243,289.67,3734.42,-0.19137189369233207,-0.0065141219411598422
Galaxy244,3422.37,946.39,-0.15125968370484211,0.22461448486562988
Galaxy245,2509.18,1375.11,-0.12963223454067788,-0.25246197710256235
Galaxy246,2999.02,3382.86,-0.067919122626880962,-0.038038114184965763
Galaxy247,2232.32,3292.72,-0.22875544683615159,0.14962118883550177
Galaxy248,2076.13,744.5,-0.35544949998715836,-0.049912737616347014
Galaxy249,80.66,603.92,-0.010081550969241404,-0.0065024060119529027
Galaxy250,3193.23,1401.91,0.14125943287675286,-0.0031131338218581342
Galaxy251,2250.13,1054.01,0.23520578104322643,-0.18428746932394219
Galaxy252,1964.81,2780.5,0.17011870719092781,0.14783088847578491
Galaxy253,2161.47,850.75,0.0603243695703286,-0.070581752867464764
Galaxy254,2936.67,4100.73,0.10953482523802785,-0.4460004524645203
Galaxy255,2419.66,1862.14,0.014706920432257964,0.1633989858175561
Galaxy256,1061.13,658.02,0.28692410621912667,0.077445859221506819
Galaxy257,61.97,3827.79,-0.19446601141079981,-0.045472470751007729
Galaxy258,3026.99,1915.25,-0.58142435143656102,-0.065648248991362637
Galaxy259,4017.26,3027.86,-0.10150474124168052,-0.11662155500166108
Galaxy260,2139.38,707.99,-0.37869044940223823,-0.30444872610113138
Galaxy261,1950.43,898.24,0.0036997030842380041,-0.16466909266547725
Galaxy262,587.85,1837.87,-0.068180322290898737,0.05178536098836635
Galaxy263,1847.01,3825.63,-0.12046348946083718,0.25435336846826284
Galaxy264,1962.22,3070.8,0.036453488105067614,-0.23333678941966746
Galaxy265,1998.75,2805.04,-0.067520405567158298,0.18980040014377025
Galaxy266,3965.66,1006.5,-0.12921410107222733,0.2906590014438708
Galaxy267,597.35,2686.26,0.19162737216387266,0.17944235949865978
Galaxy268,2042.68,4132.13,0.49753898548033976,0.065731823826055108
Galaxy269,3474.36,1949.05,0.12109815294941823,0.34064807131182745
Galaxy270,1145.7,201.3,0.28298159962515412,0.19394513670808999
Galaxy271,1609.23,1481.52,0.051504761211126779,0.056675421695264738
Galaxy272,1528.35,2645.52,0.1502672101568269,0.068429005413444335
Galaxy273,4157.77,73.53,0.14658005281136505,-0.47442138471110895
Galaxy274,870.35,3103.55,-0.1279291267364718,-0.15321841706849465
Galaxy275,966.45,349.85,0.098508003337461292,-0.062390397036019382
Galaxy276,3075.44,1797.5,-0.33146043727839997,-0.27537078727140796
Galaxy277,739.92,1620.94,-0.15145503892282519,0.016809359516755537
Galaxy278,3936.3,3250.97,0.027960430324640656,-0.28702099649559892
Galaxy279,159.13,3967.5,0.023294351723967953,-0.062617809415120296
Galaxy280,2192.88,1426.64,-0.079974535893700432,-0.6226028653570399
Galaxy281,777.95,2700.5,-0.31872183694900508,0.042004674812456316
Galaxy282,2018.22,3970.11,-0.13901119866279052,-0.329234607749333
Galaxy283,2154.56,83.81,0.32572189218846975,0.12311762973504359
Galaxy284,3291.47,230.92,0.71623946985373632,0.65922292542602823
Galaxy285,859.35,2403.43,-0.14532952039548444,-0.22054153994565259
Galaxy286,73.55,2145.84,0.022905386517506787,0.029063967242162952
Galaxy287,1996.03,683.6,-0.025818385240825442,-0.17515359430066418
Galaxy288,267.4,1947.25,-0.23305030602056448,0.12159279802821005
Galaxy289,4017.07,2666.26,0.19087964132362151,-0.22299729134032548
Galaxy290,2282.73,422.35,0.3784588701100457,-0.32868598537983584
Galaxy291,1776.42,2036.0,-0.14550381361052972,-0.0056409940621898885
Galaxy292,6.22,1094.86,-0.24116479213260583,0.12896468549541404
Galaxy293,3874.4,2102.19,0.11536232483836699,-0.367811561414713
Galaxy294,3631.0,406.27,0.49740615525717147,0.39765236333718879
Galaxy295,3208.91,739.89,0.013876688725304953,0.39147183286814802
Galaxy296,2407.17,1005.67,-0.16901315438989428,-0.033799440670173569
Galaxy297,3011.41,1031.39,-0.43180828763407497,0.29372466261381913
Galaxy298,3494.91,2856.81,-0.016303886644009544,0.049233386647724385
Galaxy299,10.3,3083.59,-0.086702180891028754,-0.38713319896137594
Galaxy300,3760.9,3660.6,-0.064818733109145862,-0.087433004584696661
Galaxy301,3775.55,3701.82,-0.013707268112075663,0.1392449050145112
Galaxy302,3203.56,124.83,0.071751347177790664,-0.48137446678852791
Galaxy303,3333.13,877.48,-0.19251830246579973,0.33931541670741133
Galaxy304,3747.52,237.07,0.1300565314953824,-0.024202732869141701
Galaxy305,1853.04,2527.77,-0.010486390674434264,0.090309136650335214
Galaxy306,3315.89,3809.13,0.29600666707751455,0.060587551947597698
Galaxy307,1624.55,222.04,-0.04034240229265737,0.10059180499469868
Galaxy308,786.04,3657.36,0.22553823574329876,-0.19256555729050184
Galaxy309,737.51,3798.69,-0.078347452001672965,-0.14640753232654249
Galaxy310,2901.14,2985.05,-0.15801441157849511,-0.12275620119977423
Galaxy311,2333.47,1928.42,0.34826160175191551,-0.10692036693974817
Galaxy312,3766.47,2521.59,-0.020238801886156579,0.025156883341402668
Galaxy313,151.01,3191.43,0.051695680656143259,0.1692864952465209
Galaxy314,3806.07,3826.07,0.035889110716445773,-0.0040211665704950224
Galaxy315,1507.68,3119.63,-0.026635709605006143,0.096460007887259988
Galaxy316,212.56,3509.39,0.28529214819865023,-0.031570469832867362
Galaxy317,2723.2,28.64,-0.27596059418879038,0.65816679381463827
Galaxy318,1606.99,796.1,0.028913431180535049,-0.16555317654171875
Galaxy319,2714.16,1032.79,-0.035495097730408626,0.03501673132575403
Galaxy320,2482.71,1795.93,0.47281494955770964,-0.1851250573867578
Galaxy321,3794.11,2202.21,0.2139709348876157,-0.36471902985683025
Galaxy322,3887.64,2481.84,0.10842451533069714,-0.25807623797076445
Galaxy323,2221.24,3052.73,-0.060470328720406516,0.096287442224803357
Galaxy324,1909.54,1763.39,0.42640051016401381,0.22511014220997874
Galaxy325,2835.62,3195.82,-0.21830394834694261,-0.082822322209589391
Galaxy326,915.88,1472.48,0.13400845286008289,-0.073502355451276521
Galaxy327,2426.96,1659.22,0.009844043936950736,-0.072084644704366596
Galaxy328,1522.08,262.89,0.065637949109129248,0.013462661772614503
Galaxy329,2370.88,908.09,-0.10997628981946493,-0.41582378515908469
Galaxy330,3329.83,3393.73,0.28136222081246731,0.23084228040854252
Galaxy331,4154.04,4067.86,-0.06394611783155732,-0.093624336151941129
Galaxy332,1102.78,3802.25,0.046244821713328339,0.091460497061905885
Galaxy333,1037.73,2342.15,-0.28107195968761123,0.2345399063017507
Galaxy334,1389.58,2816.76,-0.079317800208545564,-0.09679968765466529
Galaxy335,1281.62,2378.8,0.019593302102328496,-0.087261807405691935
Galaxy336,1056.76,3859.32,0.16724220062660633,0.34128628631400371
Galaxy337,2110.17,3701.82,-0.18619380335049474,0.032462914497514407
Galaxy338,787.8,4176.98,-0.033481729744062133,0.24779191404366066
Galaxy339,1972.96,3346.09,0.034707714103426192,-0.14314772597609057
Galaxy340,3325.41,3418.82,0.032363158902945721,0.18676259867182704
Galaxy341,2404.73,1548.77,0.29084568242033865,-0.04427730776648095
Galaxy342,401.86,771.46,-0.22930617232210701,0.087997928214306811
Galaxy343,75.03,1599.03,0.21359545470986849,-0.2729708441761734
Galaxy344,3635.88,941.4,-0.014588761116071901,0.35334338677333116
Galaxy345,284.82,1927.51,0.23419159546321491,-0.10129322389086094
Galaxy346,3391.18,2404.49,-0.050402387616435881,-0.20170756952880897
Galaxy347,146.72,2035.29,-0.29510133589540383,-0.58794559930201362
Galaxy348,2343.95,2124.6,-0.33344413713210613,0.20233801585366454
Galaxy349,3566.17,660.97,0.19598316028872814,0.13957353663207961
Galaxy350,3913.96,751.13,0.075840404268995992,-0.040977143447738118
Galaxy351,2288.74,203.26,-0.068929864926777995,-0.010944770268373226
Galaxy352,1004.9,3128.05,0.34563881072661046,0.33460857743399303
Galaxy353,3277.91,123.89,0.10219040956744085,-0.037880744992034865
Galaxy354,4056.3,1950.34,-0.12069716120273724,0.043771940978136706
Galaxy355,1888.86,4024.19,0.0071803014777187604,-0.044471738019715934
Galaxy356,3893.16,1770.64,0.082948080181833597,0.10877722121095187
Galaxy357,1930.73,2491.35,-0.45485911379642896,-0.6079685693765845
Galaxy358,188.39,3272.51,-0.048766880279793368,0.068730813010602521
Galaxy359,1022.42,2022.23,-0.2267067856541472,-0.18301930617376652
Galaxy360,1680.76,2887.53,-0.17905333985370997,-0.10311954145364993
Galaxy361,3559.45,2383.73,0.18397690567569874,-0.12841866306825173
Galaxy362,3820.12,2861.12,0.002931786509212525,-0.0089488484782396724
Galaxy363,366.75,3982.44,0.12707501909648142,-0.23943995585164535
Galaxy364,2628.12,4103.32,0.092278074285390616,-0.059809161965764482
Galaxy365,917.39,1002.08,-0.036258211426823297,0.056258222052071191
Galaxy366,2331.96,2929.67,-0.56280425244011512,0.16956393108786311
Galaxy367,2913.66,3992.18,0.18855781531616556,0.24650054282501979
Galaxy368,3126.92,2146.34,-0.44144981965294217,-0.10944750383602572
Galaxy369,1368.57,415.48,0.62773552056483439,-0.044093103842966296
Galaxy370,1239.72,924.22,0.15175347421690258,-0.065557866825984745
Galaxy371,2749.87,2131.55,-0.25329842339765907,-0.093497585171036957
Galaxy372,3530.46,2414.57,-0.30272015998655905,0.097575230378335293
Galaxy373,1863.48,737.25,-0.11028110818046416,0.42832617916723709
Galaxy374,2530.38,1794.12,-0.086120250107353941,-0.0072284414189984214
Galaxy375,1868.07,3530.95,0.05328530033389766,0.20706764457317678
Galaxy376,3826.0,4075.84,-0.079591943027210399,0.4727326935219624
Galaxy377,278.89,165.23,-0.087010396124545419,-0.25926323048684996
Galaxy378,3024.28,4144.53,-0.081328959412338503,0.25933739590065846
Galaxy379,397.16,989.83,0.034837634150737366,-0.031609808151301377
Galaxy380,78.03,487.12,-0.063359130321277421,-0.33703830813203789
Galaxy381,2838.53,3404.35,-0.19087464100177304,0.17844753027846241
Galaxy382,991.87,1422.67,0.24933578888280392,-0.20253333894679074
Galaxy383,529.78,559.49,0.33483354098897999,-0.084852168146774015
Galaxy384,267.26,3345.79,0.22999005512444559,0.48749793250821949
Galaxy385,2244.16,1139.76,-0.06924613342078291,-0.15182498857001964
Galaxy386,3182.7,4088.46,-0.13167452449098915,-0.38765483633814085
Galaxy387,2537.38,4106.15,-0.29385381746366201,-0.044260073657608867
Galaxy388,2560.17,2416.21,0.039574699712355249,0.35348183411522666
Galaxy389,3710.05,3201.51,0.14188922141141652,0.088120146132393412
Galaxy390,3353.39,315.97,0.71062729149290205,0.41686729795561261
Galaxy391,537.82,3967.98,-0.22302803179100084,-0.15971879250456525
Galaxy392,3109.99,30.23,-0.56776836401906572,-0.497590050542143
Galaxy393,1862.72,2835.48,0.079750099892465204,0.16286910153223225
Galaxy394,2225.78,3952.62,-0.13630932151737363,0.16345093155144749
Galaxy395,3218.49,881.62,0.027891693311545451,0.23516365966454095
Galaxy396,1181.84,4075.52,0.041981901926097437,0.33213251247857212
Galaxy397,3187.51,1789.59,-0.044962534416721156,0.26356912034494678
Galaxy398,2859.53,531.48,-0.06478641427894849,-0.35980190242884347
Galaxy399,3429.83,2740.26,0.022246256723624902,0.0088824408022906906
Galaxy400,1365.43,535.32,0.51084735378486523,0.091891285067695005
Galaxy401,539.75,2906.57,-0.092464760972890164,-0.025375508732075946
Galaxy402,3316.05,1646.01,0.2166606343466935,0.17993302695248747
Galaxy403,2379.9,639.4,0.13401458223993307,-0.40698231479455094
Galaxy404,3065.8,2781.89,-0.28997569462086076,0.078400283530452294
Galaxy405,730.23,2930.07,-0.15214958980383636,-0.19042487932061641
Galaxy406,3826.58,819.04,0.31475223616384479,0.16132400685915499
Galaxy407,2988.3,3547.73,-0.062966768671149337,0.13584839770024673
Galaxy408,2036.83,293.91,0.32516190853045313,-0.22672895143932575
Galaxy409,3589.43,766.88,0.091766085772808384,0.35199231770761169
Galaxy410,1475.93,830.91,-0.080066153795536069,-0.0022858558267878498
Galaxy411,2360.76,3830.76,-0.24915184866744911,0.309173248261914
Galaxy412,377.94,983.39,0.23570293419593114,0.098023510520182044
Galaxy413,1556.52,3846.73,-0.20672761202520967,-0.037120765806557446
Galaxy414,1472.27,3598.29,-0.029761524748136828,0.39889263887296877
Galaxy415,3766.55,1584.01,0.33865511500465473,-0.0097271098693345048
Galaxy416,3883.13,3378.55,0.15400062451357666,0.24124244993639199
Galaxy417,3181.22,841.62,-0.33166582913904513,0.14750672505643148
Galaxy418,1060.37,3491.16,0.32406243187684663,-0.35245582154903815
Galaxy419,2389.19,3507.41,-0.0024336661083890626,-0.31421148151468065
Galaxy420,257.81,2942.84,0.26225217315360949,0.075016300108037642
Galaxy421,3343.24,2861.01,-0.18463453723587403,-0.075997320948883257
Galaxy422,3869.46,1293.28,-0.17663122232171455,0.2177861733126798
Galaxy423,4171.05,4144.6,-0.0028964065110213266,0.046617236805215123
Galaxy424,931.08,3737.78,-0.053332816474346532,0.11834492083975021
Galaxy425,2011.4,812.59,0.27980316607175759,-0.1906434119859603
Galaxy426,564.12,3170.83,0.082178296808630619,0.078610841390538172
Galaxy427,1137.77,884.17,-0.19337088389703713,-0.19561692803386754
Galaxy428,3959.76,1550.33,-0.22512147512124231,0.032439617917657121
Galaxy429,307.85,1740.87,0.13729998160754026,-0.41075313037538502
Galaxy430,133.87,846.77,-0.0083297706400927568,-0.086510271355070223
Galaxy431,686.05,831.93,-0.049505887329830037,0.038912943460849163
Galaxy432,1568.57,3261.41,-0.041468457238308824,0.33861708412865754
Galaxy433,404.68,2953.97,0.21408306748380801,-0.40203306337534844
Galaxy434,2883.32,3250.12,-0.024749768682159619,-0.11170348360183489
Galaxy435,518.76,1279.45,0.34275802549507745,-0.27547109434361838
Galaxy436,3021.96,2506.06,-0.10714075596136348,0.20502187097058841
Galaxy437,996.22,2498.07,0.085023869952407072,0.0066181504634406502
Galaxy438,1520.29,1447.53,-0.022775047353155081,0.013480828251072718
Galaxy439,558.55,3547.92,0.0001448134724050705,-0.048171021810164902
Galaxy440,1576.9,787.37,0.31401263623161907,-0.10554141281733855
Galaxy441,3312.06,3962.23,0.077218349139004175,0.17538162908715815
Galaxy442,3948.3,3495.67,0.073835694402692401,0.15404365418803256
Galaxy443,3222.37,1324.31,-0.2203284643301639,0.60905268662321188
Galaxy444,11.63,1635.96,0.33755638674717786,0.16867401422939038
Galaxy445,120.58,345.16,-0.035617368847231018,-0.026187624764199603
Galaxy446,2580.41,903.33,-0.15756994436699159,-0.13526913830714504
Galaxy447,76.51,1919.41,0.1639238115196989,0.090538153164623589
Galaxy448,1428.3,2939.47,-0.35548437000702582,-0.1549083237558978
Galaxy449,1807.54,3820.12,-0.09813872312343562,0.06262991916674257
Galaxy450,479.43,4167.55,-0.38829083614108001,-0.093140136448064625
Galaxy451,1380.19,3301.41,-0.023651281403052872,-0.013817136495852311
Galaxy452,2833.26,1713.31,-0.36447157075912229,0.018589870789168281
Galaxy453,1948.07,2328.1,0.2480468850989741,-0.18462072528342377
Galaxy454,928.94,3821.94,0.098403647491894036,0.071334299283363156
Galaxy455,1018.52,1247.33,0.27513602665180642,-0.18525299593311439
Galaxy456,3905.85,2199.19,-0.19217522310286766,0.2800853812120459
Galaxy457,2780.23,3149.89,0.20495298586238719,-0.20869204890943382
Galaxy458,3842.58,1691.13,0.35242417200495263,-0.010105170733062996
Galaxy459,1098.2,938.12,-0.27349039480739062,-0.089849889364850638
Galaxy460,3155.92,3467.44,-0.13947873741763073,-0.024957976080479748
Galaxy461,1361.4,1054.58,-0.35645453196609239,-0.34252996188409218
Galaxy462,4090.57,2475.94,-0.21424931920798079,0.25928832126961054
Galaxy463,2520.26,1331.22,-0.35023380249334246,-0.22015437794301501
Galaxy464,1679.94,3309.54,-0.19913032776919337,0.23744275100651049
Galaxy465,3256.35,1637.43,-0.47458056747572652,0.3481894810675592
Galaxy466,2246.15,2439.4,0.098829374293350439,0.013161197703621869
Galaxy467,2716.84,1415.27,0.18562209601395685,-0.39166869970918694
Galaxy468,1277.16,318.69,-0.036084453088173402,0.022062412918917182
Galaxy469,3288.04,1539.64,-0.48656749452579401,0.1874723542926213
Galaxy470,4067.5,2539.47,0.087811350604754243,0.29003357634611476
Galaxy471,3458.76,2168.7,-0.054633933504868476,0.11087505230090482
Galaxy472,2997.78,2766.25,-0.27090825058356732,0.42337710144832985
Galaxy473,2041.28,1296.59,-0.41115961125276329,0.047114068607211207
Galaxy474,3622.52,294.27,0.65356422563867334,0.23508405654943232
Galaxy475,4106.45,2713.7,0.23126990698406788,0.071569748832118071
Galaxy476,2174.09,2997.32,0.021020000084722087,0.098359792047872319
Galaxy477,3821.95,623.65,0.089778826454877295,0.14113508852280984
Galaxy478,1091.48,490.5,0.45532301684030618,-0.16703276146474033
Galaxy479,968.58,2651.32,-0.087582856668607587,0.023147452409123567
Galaxy480,3884.21,2501.29,0.019364298850728212,0.12207177386650478
Galaxy481,1833.58,645.75,0.26136215961441572,0.11112830558215192
Galaxy482,3570.12,2106.94,-0.042470455470923985,0.13797036444521349
Galaxy483,3967.62,940.37,0.32900771642652049,0.2572793257359195
Galaxy484,482.63,1298.04,-0.098673821077008492,-0.24516244734941295
Galaxy485,833.76,814.67,-0.023581571889744815,-0.0033835597271563572
Galaxy486,2574.9,1693.68,-0.30412606201590847,-0.1164828493209496
Galaxy487,4084.19,3151.25,-0.39237982148566924,-0.19146377961439012
Galaxy488,3386.61,3758.83,-0.10111391670692946,0.2059151059336024
Galaxy489,2534.42,937.93,0.064122214224507396,-0.26740969912869028
Galaxy490,3767.08,234.98,0.0092497556608143738,-0.31253353021222113
Galaxy491,220.2,644.05,-0.12074982184640663,0.015159015312663796
Galaxy492,1517.4,1298.53,-0.06141393879192783,0.26441576227982089
Galaxy493,2610.02,448.83,0.12909878436538808,0.088669765340778139
Galaxy494,3991.68,3624.34,-0.14533655474163337,-0.053444631642228797
Galaxy495,4087.02,2672.36,0.063020004945972499,0.19492741672102831
Galaxy496,1317.57,1734.77,0.099753881206261025,-0.32096531357320723
Galaxy497,3772.97,2303.32,0.17807926748172509,0.1595799400735636
Galaxy498,1152.88,3642.92,0.15140416480139723,0.14355437915139521
Galaxy499,3668.65,3409.8,0.10556504359942459,-0.19255096564140922
Galaxy500,3733.18,1464.83,-0.24716075694425288,0.33547120997579954
Galaxy501,2574.14,3744.02,0.47256099799024986,-0.014497015486945947
Galaxy502,955.66,2576.82,-0.11874503675044586,0.27830323104276
Galaxy503,2637.2,3093.46,-0.39510473083481745,-0.040550621011197253
Galaxy504,3097.54,2038.3,-0.10031121019187766,-0.17840222141588508
Galaxy505,3248.98,754.11,-0.5176300533127608,0.31862350247194898
Galaxy506,2099.84,2854.42,-0.066201191749875349,0.084686663449597105
Galaxy507,1102.6,1098.32,-0.24631281063283519,0.075274808656750444
Galaxy508,853.0,788.11,-0.11295613508179062,-0.097445318676186068
Galaxy509,2634.07,1164.83,-0.25783582675931382,-0.21418142963318537
Galaxy510,2993.64,619.72,-0.21141623624508687,0.064592409136715156
Galaxy511,2413.34,2961.64,-0.22925438529429973,-0.34162795142926905
Galaxy512,4132.67,406.43,-0.12394134023928705,0.35737818537636784
Galaxy513,1676.53,2317.76,0.15307519294952887,-0.24416682201453305
Galaxy514,2881.74,378.03,0.04793046999032724,-0.42089981015985434
Galaxy515,3170.22,1181.04,0.18619024014535607,0.38848786362756405
Galaxy516,2096.94,1833.22,0.25377703017425812,-0.066809339718697139
Galaxy517,2174.84,3269.81,-0.25727858116442792,0.040159869965432436
