GalaxyID,x,y,e1,e2
Galaxy1,686.64,3780.84,-0.40653557171719584,0.43964410172534263
Galaxy2,2232.32,1509.38,0.42173199781397996,0.2214075251326047
Galaxy3,1441.29,2352.78,0.22209181197168612,-0.41857163267784225
Galaxy4,2577.21,2267.43,-0.25584431485511733,-0.41489411732840681
Galaxy5,3301.23,1626.21,-0.23182428797425964,0.63186163147888363
Galaxy6,821.84,3278.45,0.26546013039855837,0.26274401050642476
Galaxy7,2589.1,1557.41,0.16961989130562036,-0.4400094964884359
Galaxy8,2010.85,3603.55,0.3644521671454678,0.044358593472377986
Galaxy9,1363.88,1836.32,-0.37542268931636735,0.2124082340138132
Galaxy10,2876.26,2959.8,-0.091586792792005059,0.25606814749626733
Galaxy11,2157.86,878.63,0.36068888458628756,-0.2191616747264403
Galaxy12,4015.49,4186.74,0.066527442890658969,-0.099427401108884914
Galaxy13,910.84,4186.3,-0.27943535154942489,0.11722860082244158
Galaxy14,978.31,1027.03,-0.006451562633025168,0.15614522002041137
Galaxy15,2088.52,1769.78,-0.28129095137619459,0.066348194514216696
Galaxy16,3405.8,3623.78,0.11293115716921495,0.17879973955973005
Galaxy17,3803.41,539.29,0.33513608575228071,0.13661526429874576
Galaxy18,1214.63,2762.5,0.080028304926891822,-0.24587320430688087
Galaxy19,2024.58,1747.58,0.039268648902084903,0.051043885755777035
Galaxy20,2795.31,813.28,-0.40670873264823831,0.0062467515413683755
Galaxy21,2683.82,55.56,-0.054719444744817644,-0.07883341519408435
Galaxy22,898.16,1147.89,0.33961351846787191,-0.024889207429225478
Galaxy23,515.88,3955.29,-0.38609038394374473,-0.37087171183987772
Galaxy24,3046.54,3553.75,0.071006987176738048,0.31823865911909138
Galaxy25,280.89,4042.35,0.091720853144722447,-0.38468285840263544
Galaxy26,3732.53,1962.34,-0.31261728461450783,0.10029387157798589
Galaxy27,1393.83,460.53,-0.061017093108168219,-0.0034366249938754256
Galaxy28,1064.32,816.61,0.05411230389606024,0.072836757756660361
Galaxy29,1610.27,662.81,0.27753487459807996,-0.096213312138069884
Galaxy30,4134.95,624.47,-0.056203250757623342,-0.30648664672520409
Galaxy31,1519.97,4122.25,0.031099454410958002,0.30630774376314951
Galaxy32,2294.27,1393.01,0.25705869183161928,0.18323943181948898
Galaxy33,2575.81,1561.32,0.24055790298943946,-0.059067994218414258
Galaxy34,1328.68,224.51,0.089993069827220523,0.14496571605862688
Galaxy35,4136.8,3279.7,-0.098737780418593241,-0.13255001706240208
Galaxy36,2918.89,2890.9,0.24454256321884099,-0.13500571078652462
Galaxy37,1103.94,2615.45,-0.075787201842835952,0.038934425282728696
Galaxy38,700.14,3233.16,0.13345252706383828,0.048488930103318423
Galaxy39,1249.81,1222.57,-0.21947945311915065,-0.11631272031848143
Galaxy40,1873.82,843.25,-0.17583863229210972,-0.52037785686105265
Galaxy41,657.35,1180.47,0.16204679308242967,0.022504771513142369
Galaxy42,784.43,3006.1,-0.061706879965369166,-0.088074458692126073
Galaxy43,3801.68,1367.05,0.054876717604670444,-0.1178968887309374
Galaxy44,3087.59,1259.9,0.067938926601187083,-0.13203604965399798
Galaxy45,1452.48,424.65,0.086541821871077229,-0.1369463960329422
Galaxy46,2465.53,1918.42,0.10047868512959439,0.21815534250409652
Galaxy47,3572.08,2560.56,-0.49331128084881065,0.081365241725019216
Galaxy48,1490.54,3294.94,0.16876984042233753,0.13092414105229488
Galaxy49,2896.49,716.46,0.2707776269769761,-0.27847239332527068
Galaxy50,2298.78,2391.47,-0.38052867882743491,-0.19867203315291027
Galaxy51,899.87,4181.23,-0.082136784898765011,-0.16456543621185948
Galaxy52,228.09,2304.11,-0.24235906645630673,-0.12960159428147749
Galaxy53,3936.65,1850.18,0.17077994389217502,-0.030745120842733828
Galaxy54,2493.56,1628.3,0.027892527273121637,-0.022544983201173846
Galaxy55,3670.48,3201.67,0.29372680619347152,0.041297470078726611
Galaxy56,1924.86,2878.29,0.057895946525612821,0.066796019887505942
Galaxy57,184.92,1107.86,-0.21764796251245924,0.40513529732200426
Galaxy58,2396.49,351.12,0.23501049792156187,-0.022926143900384138
Galaxy59,2763.14,3281.49,0.16612141833418451,0.039395857943377223
Galaxy60,2533.79,1735.38,0.027236954552654045,0.19328983011738241
Galaxy61,2956.01,1557.3,0.30382773685048547,-0.042843596835408115
Galaxy62,2276.56,797.14,0.25882832378819964,0.072234580761795106
Galaxy63,2296.41,3884.62,0.23951557946373825,-0.38216799043680016
Galaxy64,792.82,2881.08,-0.068785468327951182,-0.68067326973312203
Galaxy65,538.35,597.05,-0.38216638316999435,-0.19498139688059729
Galaxy66,965.64,930.22,-0.2841431288863161,0.20911374302720778
Galaxy67,2668.41,4031.75,-0.18883577106457955,0.26119968697901935
Galaxy68,3356.9,3632.07,-0.24927056055457994,0.26969236540593478
Galaxy69,3465.79,4181.32,-0.2959151597581362,0.067830544766075265
Galaxy70,3628.3,820.23,-0.0061692061867663628,-0.2325252834597645
Galaxy71,189.02,1718.03,-0.077338816531049168,0.36647158654274031
Galaxy72,2590.78,2829.76,0.20175795254390705,0.10263900475083984
Galaxy73,1453.26,562.56,0.089184970355279322,-0.17482301130782157
Galaxy74,190.37,2962.85,0.10579816020121535,0.25764822796913145
Galaxy75,2928.27,2929.12,0.30365223433697719,-0.13010017821345807
Galaxy76,2468.56,176.69,0.026051773898754123,-0.44245998437546963
Galaxy77,3007.21,2466.62,-0.2100713971570706,0.21779624891573957
Galaxy78,3853.59,3665.19,0.31792479223721432,0.023163701164248401
Galaxy79,3703.48,3001.24,0.24749061037087108,0.061843195881226207
Galaxy80,1652.87,258.49,0.3518382175312163,-0.091874158764071318
Galaxy81,3061.87,3097.82,0.33088766627715749,0.33059636244930191
Galaxy82,1488.59,706.7,0.097202714234323889,0.26154222798880805
Galaxy83,786.43,799.05,-0.073955321772420896,0.10137395813628104
Galaxy84,3372.67,94.32,0.16115722228434085,-0.1357664318569442
Galaxy85,3298.88,1496.48,-0.032990722583695134,0.11379682630039198
Galaxy86,1642.94,3689.12,0.13659234182763627,-0.0059536805110190494
Galaxy87,3930.5,584.04,-0.060620032107246119,-0.19160232995350807
Galaxy88,991.12,3969.81,0.13524149056320156,0.3536684933564026
Galaxy89,211.54,2310.12,0.090879517963482204,0.11326489011003466
Galaxy90,2381.26,1973.34,0.1657918613160746,-0.12702231013695445
Galaxy91,3865.8,4097.92,-0.095209759561851459,-0.56606593418059725
Galaxy92,99.88,3240.2,0.7070775977096182,-0.0093753835475781089
Galaxy93,980.65,3708.52,-0.063601415949176038,0.39845360243330313
Galaxy94,415.54,509.52,0.12883709815848826,-0.18413050394923305
Galaxy95,3968.69,2774.99,0.13222320024644996,0.14283433963547781
Galaxy96,2544.59,3769.89,-0.028746247626844551,0.42516024755967641
Galaxy97,1103.3,3942.54,-0.19307653469105709,0.070312599036698481
Galaxy98,2909.07,1694.02,0.1781194797686014,-0.16401571411782748
Galaxy99,1384.52,984.81,-0.048620635178781443,-0.089619646811893133
Galaxy100,1845.78,337.11,0.049602708285743174,-0.05341966431186522
Galaxy101,2694.08,3190.74,-0.3309558352502564,-0.28488139006960239
Galaxy102,3542.55,4199.2,0.022429195318204684,-0.057948984843456099
Galaxy103,133.98,165.08,0.17350273766312307,-0.26685884389938297
Galaxy104,3827.61,2965.2,-0.36724987136681747,0.19943984742385931
Galaxy105,1702.89,383.25,-0.18810029415876969,-0.18225404489539276
Galaxy106,1193.45,2715.51,0.036800128214991623,0.24183594308291317
Galaxy107,302.37,1126.38,-0.18106279867347658,0.070815199380499169
Galaxy108,779.48,3436.19,0.032065362424371691,0.52084142256702914
Galaxy109,138.57,835.72,0.19906782390617525,0.45153250079681967
Galaxy110,4012.56,3454.43,0.2043671914579957,-0.20197938926297085
Galaxy111,529.66,1771.23,-0.19109672376418466,0.016270621158098422
Galaxy112,2576.58,2029.74,-0.18261666078168642,-0.37478691374574663
Galaxy113,1196.46,1592.11,0.14900638741198752,-0.21082911495209389
Galaxy114,4049.68,3778.27,-0.16826739668553331,-0.042623568485544786
Galaxy115,4132.42,174.94,-0.48195249173992111,0.38530509212752534
Galaxy116,3529.74,427.29,-0.088068571489582637,0.2370410525429317
Galaxy117,1130.63,197.35,0.10205413823353235,0.20751885014448601
Galaxy118,2250.15,2238.69,-0.06501433068631092,-0.23950578826731581
Galaxy119,3877.84,2419.68,0.06282771900209716,-0.0081136879884527481
Galaxy120,1227.5,2275.98,0.13464783807172756,-0.10585133928048032
Galaxy121,2186.55,1452.43,0.45564396610690244,-0.0056673844074445756
Galaxy122,3081.52,1871.12,-0.327845075842226,-0.26803124806302092
Galaxy123,3830.31,3573.41,0.16772486669891817,0.2097838426707854
Galaxy124,4053.83,3538.6,-0.00069939374586980296,0.11682442116042782
Galaxy125,1175.3,1408.92,0.31098019449630587,0.21203701932372251
Galaxy126,2139.12,1778.34,0.24502811275263547,-0.19889882527930139
Galaxy127,3581.02,3248.37,-0.079927086209464857,0.51568949723647617
Galaxy128,3303.74,1451.66,-0.43562466508466802,-0.30001050250031774
Galaxy129,3348.51,2155.23,-0.033092535150079525,-0.12207799263215857
Galaxy130,3007.3,1610.69,0.014979928218471529,-0.15065230436426311
Galaxy131,3370.86,4090.52,0.35383486908563566,0.34102449141578067
Galaxy132,244.24,4095.18,0.22457298613576371,-0.2248503825630922
Galaxy133,2014.41,2313.26,-0.051350448598481341,-0.058119750603849982
Galaxy134,1640.5,268.08,0.35470751619336738,-0.06682575471429858
Galaxy135,2170.48,3273.66,0.19343573077290355,-0.31544217867621349
Galaxy136,2143.42,3374.46,0.021351455753996135,0.27174849040869542
Galaxy137,1825.22,2018.92,-0.30036690786717202,-0.019025228359672894
Galaxy138,2780.04,3277.93,-0.28404540521139904,0.24420691324470847
Galaxy139,1051.99,299.85,0.16701758616484297,0.1389392380001751
Galaxy140,1513.28,3623.23,-0.2677981528318738,-0.081948983893778249
Galaxy141,3836.95,2056.82,-0.18726829962948799,0.34978106670250336
Galaxy142,2979.83,3106.23,0.096672638756311782,-0.11200411266810639
Galaxy143,629.37,1021.08,-0.36762407719785761,0.065024291596698786
Galaxy144,306.39,2432.55,-0.3540648013793517,0.20139375560769587
Galaxy145,4194.54,4185.94,0.23658585158667422,0.0064199753127228351
Galaxy146,1315.85,65.92,-0.33530570073619664,-0.46808125165380798
Galaxy147,1361.55,1730.91,0.05169982660244065,-0.12965794374740491
Galaxy148,971.61,4013.19,-0.021462974914048472,0.021420835994208048
Galaxy149,2873.07,3857.28,0.19565644967629181,-0.33894671860199171
Galaxy150,1949.2,4145.53,-0.380315347594535,-0.062758764313093129
Galaxy151,3255.2,1669.05,0.1558203417912245,0.24322126150292434
Galaxy152,1060.9,2696.33,0.16324038082713177,-0.067126664092330701
Galaxy153,991.23,2185.63,-0.1456909594785763,-0.11432869466763443
Galaxy154,3809.93,2856.32,0.20249247337732271,-0.024979763072510319
Galaxy155,2215.58,3342.09,-0.22478344117603086,-0.090286181096663226
Galaxy156,2030.83,3767.77,0.19476000608745458,0.066483641937659516
Galaxy157,643.3,2534.26,0.038742730729757202,-0.1619854872648693
Galaxy158,200.42,2686.98,-0.29107392826418044,0.74010010513015312
Galaxy159,2191.55,2398.84,0.0069816614202759253,-0.075555258705834211
Galaxy160,2450.89,966.81,0.35460956227550533,-0.17959583443528471
Galaxy161,3043.07,3155.73,0.42736944830396079,0.18085946892113261
Galaxy162,2802.76,820.22,0.15105103245428744,0.26828763988357968
Galaxy163,2823.38,2982.97,-0.38404893827176367,0.090150741399582277
Galaxy164,2522.12,382.33,0.1681804653896084,-0.36294255058521485
Galaxy165,1201.23,608.07,0.088397662890669526,0.29716719683178172
Galaxy166,3352.83,3696.3,-0.075723190212919289,-0.36493132942745238
Galaxy167,1952.4,3223.64,-0.17348161591677763,-0.075528598213174147
Galaxy168,307.69,2100.21,-0.075810654907414982,0.04285078771171684
Galaxy169,3924.07,3722.13,0.38171059140177488,-0.087456655958832008
Galaxy170,1708.43,1577.54,-0.026927522271598177,0.01031787703904502
Galaxy171,2034.75,2012.81,0.31826214781616879,-0.032992753260803642
Galaxy172,520.41,855.59,-0.49544693113881794,-0.12996455019638384
Galaxy173,2668.26,3648.27,-0.29936166454245561,0.14251759194620592
Galaxy174,840.99,2036.04,-0.06868643418867168,0.16448723044931754
Galaxy175,2025.75,1598.53,0.19405882629190996,0.48445192461400077
Galaxy176,3677.33,4087.71,0.18316280223043968,-0.27341533743503488
Galaxy177,784.17,2210.3,0.23653758819960494,-0.4773857266260394
Galaxy178,1031.05,238.13,0.19987267244992818,-0.003183705084528643
Galaxy179,2314.51,2013.2,0.25470185241153709,0.019380061177297264
Galaxy180,3502.45,1674.26,-0.17923797385610438,-0.45051624793065514
Galaxy181,391.21,3419.07,-0.76683613721560029,0.89584442307912027
Galaxy182,1560.19,1091.67,0.34131955219675936,-0.41835487684807771
Galaxy183,3053.63,149.13,0.37012862537384134,-0.29099347194892033
Galaxy184,466.97,2329.21,-0.49219490886280748,0.060493621906288042
Galaxy185,611.4,1887.92,-0.35932115287636057,0.037704317011932401
Galaxy186,2982.12,419.53,0.18024885553946851,-0.26576802601657817
Galaxy187,2160.33,3469.89,0.61512314576141081,0.17230964307525373
Galaxy188,2297.57,1930.66,0.069661644777898921,-0.30611429005479873
Galaxy189,504.15,3650.22,-1.0618228142644934,0.040140942596403467
Galaxy190,1031.14,2251.25,0.16855917532472944,-0.066887247467336014
Galaxy191,3225.2,837.18,0.41824283324319089,0.21237188457749312
Galaxy192,1287.07,859.06,-0.65272484680622012,-0.11689644421753115
Galaxy193,2025.17,1848.03,0.14135302568235122,-0.5482961851436231
Galaxy194,1465.81,1187.02,0.011616107593303129,0.061830372564567512
Galaxy195,3314.3,3359.99,0.31342785069880263,0.29291700201779436
Galaxy196,2076.64,2906.29,-0.16572561407498235,-0.22012445286128496
Galaxy197,424.89,3261.99,0.066767892028397849,1.0828607341312539
Galaxy198,3302.58,659.62,-0.37612639653929525,0.24678666598966423
Galaxy199,3679.45,3837.38,0.012707635171718613,-0.050034341688712042
Galaxy200,4154.41,2255.05,0.0039611219107297813,0.30623414275700683
Galaxy201,2461.64,1684.48,-0.10642607247318925,-0.32987169035942293
Galaxy202,3295.29,4134.96,0.11736016469835991,-0.1201997774019917
Galaxy203,3193.81,3161.44,0.32475858671665458,-0.16700688246889187
Galaxy204,2786.22,4174.18,-0.27275952112617335,-0.19365618501554333
Galaxy205,632.15,1739.37,-0.35959936075331356,-0.33793620395182122
Galaxy206,239.1,3940.52,0.011377619240084069,-0.30768120325918974
Galaxy207,3685.98,103.71,0.25508041036657236,-0.44479423622658554
Galaxy208,3716.96,2631.91,0.088830314024046286,0.17972990052149548
Galaxy209,1796.69,778.09,0.043274602292376903,-0.1527339876451726
Galaxy210,1783.28,1175.46,-0.12658878017160413,-0.16561909754153942
Galaxy211,1767.93,1601.67,-0.21166321149637443,-0.096197783303506715
Galaxy212,1050.63,3391.23,0.53886541634811536,-0.14557271798955687
Galaxy213,3829.95,1527.8,-0.28237212498889785,-0.16090418033946424
Galaxy214,2329.12,2157.6,0.042628613187948611,-0.19469228103668951
Galaxy215,3879.2,1788.21,-0.14364798158577879,-0.24221455727710153
Galaxy216,3279.06,3743.33,-0.075530739618426601,-0.23332964221151026
Galaxy217,623.28,1815.74,-0.42800906794832749,-0.35596473759873104
Galaxy218,1963.94,471.0,-0.3499770860165955,0.020001264694756674
Galaxy219,1670.45,3184.45,0.06647349926692428,0.49907372943183026
Galaxy220,3428.86,1883.9,0.23085434623121404,-0.23919682911334475
Galaxy221,4143.74,805.13,-0.0042062742896996873,0.0022686859242116511
Galaxy222,2049.47,3726.41,0.20055838571731499,0.095863439146393462
Galaxy223,4028.98,2578.62,0.2769185911201727,0.04929061469694157
Galaxy224,310.44,2080.63,0.10204678362215461,-0.10658666970053568
Galaxy225,3163.1,711.78,-0.31831912375287402,-0.38133550637242425
Galaxy226,847.28,472.03,0.21398205503505902,-0.14306891007941919
Galaxy227,2644.12,1068.15,-0.093101560912705883,-0.17300381935110454
Galaxy228,2030.78,801.01,-0.017815973747081368,-0.016076581749365673
Galaxy229,3186.83,3344.32,0.03352154034628934,-0.017312280454542278
Galaxy230,658.38,1493.3,-0.20219599489150425,-0.37890026048936887
Galaxy231,3212.67,749.64,0.20901927726049296,-0.25083026247486173
Galaxy232,1761.6,3255.13,0.13991427667297365,0.24165668886276881
Galaxy233,980.41,2557.57,-0.046282512955241134,0.093792628363555119
Galaxy234,1201.79,1137.28,-0.24365568474485605,0.096039500624411175
Galaxy235,2855.66,149.95,-0.0067993105528364808,-0.18387146055087353
Galaxy236,166.11,3301.42,0.66713846104582419,-0.0044235632960596405
Galaxy237,1685.72,495.45,-0.34895979766895219,-0.59528315362195883
Galaxy238,1842.85,449.16,0.034623602426009363,0.026074690391162669
Galaxy239,1663.99,1487.94,-0.21608463360783114,-0.042071671485808745
Galaxy240,2259.26,2813.25,0.011523814682554326,-0.31217204361013529
Galaxy241,3815.65,905.42,0.19400642806421642,0.085986259551453337
Galaxy242,1016.0,494.05,0.30654562734288826,0.10502436240884085
Galaxy243,2934.0,1581.1,0.05073565925118078,0.15066982015010383
Galaxy244,3339.05,2515.27,0.093959844476004542,-0.23125192982675119
Galaxy245,2015.87,2799.91,0.35006597870545492,-0.12814668316969291
Galaxy246,3118.78,1391.35,0.12943468080694362,-0.00644954551975567
Galaxy247,657.5,96.43,-0.62560565370099364,-0.29957056608314975
Galaxy248,1099.74,906.61,0.17700410577074582,-0.060790683497987261
Galaxy249,2100.73,4147.6,0.25623588008593967,-0.21230950420187225
Galaxy250,3127.09,3288.31,0.10183736190249364,0.32106566634018535
Galaxy251,1051.9,635.4,-0.46468281144837636,-0.23901059058542859
Galaxy252,2618.93,4183.22,0.34115284965800352,-0.1904320858632185
Galaxy253,3694.11,2449.0,-0.02443509661752799,-0.072017657593055395
Galaxy254,1910.61,3728.84,-0.1440989354070539,-0.23935766895847291
Galaxy255,1913.8,66.82,0.34473048126958494,0.029168345654396598
Galaxy256,2813.1,2219.47,-0.080832498207097439,0.10271556858790372
Galaxy257,1884.88,3026.85,0.073586804627915267,0.42744268182144285
Galaxy258,3774.34,1807.87,-0.38658834265331932,-0.13817349163752912
Galaxy259,1274.38,2387.19,-0.098466773900172833,-0.18226780947727592
Galaxy260,4104.21,2.25,0.10093951376360071,0.25087022762894373
Galaxy261,897.74,2725.59,0.10929603716274176,-0.47791156045856914
Galaxy262,2495.25,46.74,-0.14181987084911241,0.045637234709918713
Galaxy263,1209.23,40.37,0.060454258547998171,-0.42404558146254118
Galaxy264,3513.88,2133.11,-0.28680472525481471,-0.24788452010058631
Galaxy265,359.35,3177.76,0.60566587583876763,0.97630246884422478
Galaxy266,3624.07,2514.85,0.16656114345689682,-0.1819351792234345
Galaxy267,1367.52,740.72,-0.22336608112639539,0.071354490338740958
Galaxy268,1171.56,2620.4,0.22652641427484249,0.024405624444169022
Galaxy269,2628.53,4006.62,0.23756586342387057,0.13732819875565372
Galaxy270,796.07,1652.29,-0.37103486119715923,0.14951424137517666
Galaxy271,3241.78,1050.55,0.021254254571805121,0.087210996576627689
Galaxy272,2467.51,1621.19,0.24375138393150153,-0.19600821723498563
Galaxy273,2860.27,2032.41,0.28500964964295372,-0.33152350424490462
Galaxy274,1242.56,1886.97,0.010401942778513661,0.17349452881429797
Galaxy275,2795.06,2866.95,0.059748802174697031,0.3475436668032113
Galaxy276,1466.09,342.96,-0.24279474616328806,-0.1896181000419162
Galaxy277,3426.06,2574.07,-0.0580759631063162,0.40688985159749474
Galaxy278,3713.3,1556.21,0.24416834804732399,0.12189088079060789
Galaxy279,929.76,2960.06,0.15873632293056272,-0.060998119575667656
Galaxy280,1714.05,2135.85,0.031248066260600442,-0.050956853459342782
Galaxy281,736.23,644.86,0.025170313557204824,-0.10726047171288383
Galaxy282,741.73,2275.45,-0.18886567651858605,0.020745101390957671
Galaxy283,3726.6,1536.84,0.14072550388643848,0.29935791746671853
Galaxy284,3365.67,1753.14,-0.10202577516592345,-0.01346878785640801
Galaxy285,747.03,1776.83,-0.58362908344599329,-0.46917289115003524
Galaxy286,2364.29,1980.96,0.023720395282055273,-0.1320644159892535
Galaxy287,238.19,2791.32,-0.24458838907988098,0.26759663519100252
Galaxy288,1030.6,1258.03,-0.27963460944126839,-0.40484690424319397
Galaxy289,2778.24,824.37,-0.2030834759296242,0.23890048559916061
Galaxy290,903.56,583.37,-0.028287662810959763,-0.40740025849999811
Galaxy291,2873.37,3384.78,-0.067317793922068547,0.39503551438083506
Galaxy292,359.08,1823.66,-0.03621296953574607,-0.32551201763724169
Galaxy293,2053.79,1792.89,-0.12838719743319332,0.15299879509956826
Galaxy294,2331.29,2307.11,-0.12360318895975138,-0.03557247977565408
Galaxy295,3424.32,3272.09,0.29649545688311224,-0.040850737384609391
Galaxy296,21.65,2432.96,0.17193040157552722,0.43404178366837143
Galaxy297,1746.36,2732.45,0.21600161017585687,-0.10784311694946026
Galaxy298,173.04,276.92,-0.23953398167218573,-0.21812913881790719
Galaxy299,988.47,272.6,-0.26327666586304499,0.25423570297562925
Galaxy300,519.65,1512.01,0.040487603341511524,0.11268496919757467
Galaxy301,3278.01,2074.52,0.043026980183013257,0.13329965009641206
Galaxy302,1127.92,925.96,0.08062939988423691,-0.2373522104738926
Galaxy303,401.28,3266.33,-0.087512832594087042,1.1594092825830105
Galaxy304,724.35,3128.11,-0.11610675609036386,0.37890203602682793
Galaxy305,724.34,1050.17,0.089597462966375691,0.068462787904547504
Galaxy306,3017.9,1868.88,-0.044732730954428292,0.34022521358652158
Galaxy307,303.94,815.47,0.12981934158707631,-0.28981276195920302
Galaxy308,907.29,3959.78,-0.10021458058285483,0.10235750324121276
Galaxy309,1773.22,1129.99,0.022864649090334116,0.2911094325953888
Galaxy310,1501.75,2748.31,-0.011560593851581535,0.0091649502933930649
Galaxy311,1582.56,415.28,0.34163361188671187,0.047410229562019152
Galaxy312,2040.8,2212.23,0.0090097678347560162,-0.14122879142572153
Galaxy313,3025.63,552.12,0.08692071021170189,0.45717006832699947
Galaxy314,3413.21,3755.12,0.3811622040322955,-0.17074921958438585
Galaxy315,4161.91,4195.46,-0.3103533924325379,0.2829768678910124
Galaxy316,399.77,4041.9,-0.13222976186824345,-0.21118444768497507
Galaxy317,3379.25,638.41,-0.030517660295659547,0.016730152078164036
Galaxy318,984.42,1158.4,-0.052136210669518256,-0.044445737023492887
Galaxy319,1521.99,1394.69,0.058428303134102112,-0.0061773887533317778
Galaxy320,1179.38,210.51,0.023050548021272224,0.0078447861830345939
Galaxy321,2624.87,1326.58,0.14886265802379506,-0.43423621930219125
Galaxy322,3185.0,1605.12,-0.039438095607478331,-0.2057655553433525
Galaxy323,2373.58,1150.49,-0.81368219509656281,-0.017842840222374673
Galaxy324,841.55,410.74,-0.034313168399010198,0.20524861664085767
Galaxy325,1372.5,3281.8,0.027034358408094289,0.32130854759707594
Galaxy326,936.44,3320.83,0.10648173132577263,0.34076653307910598
Galaxy327,2030.5,3214.72,0.42468525655198741,0.30816455153122663
Galaxy328,2934.18,1922.68,0.016148678745904095,-0.054783552553768905
Galaxy329,2583.24,2570.49,-0.014740577921859122,0.18669886109391992
Galaxy330,2925.17,4047.77,0.096715582733757063,-0.030935342690601809
Galaxy331,3698.71,2515.74,-0.25304295615954125,-0.0063892979522781612
Galaxy332,1007.48,2509.86,-0.071402238015759123,-0.26192083642789221
Galaxy333,522.93,1142.39,-0.16475022319974314,0.14705306934001966
Galaxy334,1366.39,980.57,0.0030586525953956445,0.1702545231680192
Galaxy335,1309.24,3510.56,0.14930244000082354,0.19574541352001709
Galaxy336,2681.62,771.43,0.37559269062153,-0.19251069838820925
Galaxy337,1218.41,2654.17,0.38457453339478431,0.19141223229890075
Galaxy338,608.99,2494.29,-0.0011173429762896536,0.044022780120933913
Galaxy339,593.57,3953.94,-0.046465617020805206,-0.43550241854231853
Galaxy340,1208.65,3603.56,-0.18822546740911858,0.59382135468482433
Galaxy341,2456.24,2657.03,0.36113508363524283,0.27575530511754059
Galaxy342,2225.55,3402.66,0.15186297592103234,-0.070883963371693698
Galaxy343,2030.34,2712.97,0.21247083215605994,0.18930407573730457
Galaxy344,3925.45,82.19,-0.24049001419895707,0.016010272492054826
Galaxy345,2064.07,379.41,0.1969856226304863,-0.053771364584666595
Galaxy346,3997.68,2125.12,-0.18158559009600128,0.0340514059875952
Galaxy347,1091.65,3196.06,-0.13495976733596665,0.13694651727176849
Galaxy348,361.49,1522.83,-0.098457329664969173,-0.20092000509578176
Galaxy349,1699.95,2669.39,0.2869486353280265,-0.17398295276488215
Galaxy350,3630.29,2396.92,-0.11359709221419352,-0.39614283915389503
Galaxy351,2058.39,616.3,0.074229298936281218,-0.03803502328524172
Galaxy352,4059.73,166.16,-0.078173664299917497,-0.041500457968226892
Galaxy353,2910.74,1983.16,0.5093709385923717,0.12501371652629573
Galaxy354,2593.29,3669.58,0.2109191853177407,-0.055716272610176837
Galaxy355,142.77,2507.48,-0.31091525744582954,0.31766134248885147
Galaxy356,1562.02,2006.11,-0.034496705945827127,0.2883086784961979
Galaxy357,1943.82,2889.03,0.2095200544079647,-0.0014974860445582105
Galaxy358,1472.83,1302.28,-0.23794454111719607,0.25591678165708209
Galaxy359,2527.47,52.41,-0.15766570096260829,-0.02585443907612836
Galaxy360,3218.08,683.17,0.32381024013584347,0.037230552592301881
Galaxy361,3305.85,1400.78,-0.064105807743222887,-0.12434237593993228
Galaxy362,2644.76,947.65,0.16221421905352343,0.3401561676478137
Galaxy363,1757.65,3036.32,0.41860729939662555,-0.42783320295061134
Galaxy364,3262.48,3447.66,0.35555329755203324,0.39632658662915882
Galaxy365,2839.91,4075.13,0.18168736415073317,0.034837340541529781
Galaxy366,3834.68,200.85,0.23874843805321838,-0.1021044001263491
Galaxy367,2401.07,2440.87,0.163823642728959,0.074892634806608127
Galaxy368,187.53,81.21,-0.37869937237155671,0.26015489798780306
Galaxy369,1163.81,2626.4,0.17781800982231233,-0.15866833044513262
Galaxy370,3277.2,1475.15,0.076881839171303937,-0.017960939110390914
Galaxy371,1043.57,877.69,-0.01815397588505234,-0.14902411951157196
Galaxy372,920.15,115.01,-0.083329188789193917,0.2923818829851586
Galaxy373,1763.02,2446.56,-0.4527607675920533,-0.21568459112794519
Galaxy374,3401.6,2934.23,-0.15485358285799733,-0.088747215605515517
Galaxy375,3788.97,2591.6,0.15445694347082395,-0.020543134595260953
Galaxy376,3094.03,3922.84,-0.041697813757802418,0.64242104839051206
Galaxy377,3064.35,493.21,-0.14877842335430699,0.0027365084861746547
Galaxy378,4153.16,3756.97,-0.12091777612022556,0.19870087905499825
Galaxy379,2050.99,327.53,-0.20996252935904919,-0.30779181776561293
Galaxy380,1852.36,2594.95,-0.38970526100736502,-0.027908519894804057
Galaxy381,857.8,2199.1,0.036979050349948403,0.08192393193437536
Galaxy382,3231.25,461.15,-0.14774877427953817,-0.11179068559215642
Galaxy383,606.14,2731.68,-0.19705948535951384,-0.36042718263042794
Galaxy384,3514.39,1415.28,0.00065253746506482163,0.34074225079525655
Galaxy385,18.07,3997.24,0.2114612975058964,0.0041033330515218291
Galaxy386,3441.8,2617.96,0.14764692577565111,-0.023917103778421323
Galaxy387,254.23,1527.02,-0.34824071556979785,0.026186862188766542
Galaxy388,3876.42,3076.09,0.16653768100263483,-0.14685316134176807
Galaxy389,1048.69,3981.74,0.22175037293096655,0.23685505793384806
Galaxy390,1392.51,4044.32,-0.086142354989037773,0.051522660428605704
Galaxy391,3161.13,3024.25,0.26759995766753664,-0.004892572502938496
Galaxy392,2216.27,2540.14,0.12585493086121932,0.034438622351236514
Galaxy393,2926.19,2189.29,-0.098673880390091895,-0.16225508752699591
Galaxy394,1984.2,3745.9,0.3812739950906136,0.089964231675797313
Galaxy395,4109.73,1287.94,-0.020238784858363515,0.049335899182434868
Galaxy396,3262.26,3937.01,-0.20685415382017314,0.3042375606731762
Galaxy397,2043.06,318.64,-0.13264179034136248,-0.41381077129811705
Galaxy398,1026.35,3677.0,-0.45340216158471169,0.093999617025938148
Galaxy399,3773.59,1113.86,-0.47462804252901125,-0.26342887104617113
Galaxy400,1747.35,1727.94,-0.31130465232905435,-0.12082572116089568
Galaxy401,1703.77,1445.42,-0.14631544929005788,0.059796674043522291
Galaxy402,1089.65,1690.04,-0.23610204609779689,0.11084054499417142
Galaxy403,115.46,3976.57,-0.10004557511791229,0.013111261370349486
Galaxy404,2345.86,3636.95,0.29313165469644897,-0.44072736113203909
Galaxy405,1684.67,1483.24,0.086826636412301289,-0.059553119363334087
Galaxy406,2572.05,1893.08,-0.010379595690037005,0.17058756391384294
Galaxy407,3237.08,581.92,-0.14076157437388337,0.22148839376116816
Galaxy408,3356.95,4148.89,-0.34552398087654257,-0.57529581308505295
Galaxy409,857.22,1259.47,0.29952787043021756,-0.097433182536786636
Galaxy410,2434.6,3221.5,-0.16240586594705098,-0.05175031606492092
Galaxy411,148.53,3265.02,0.6228956316824934,-0.32702320662532047
Galaxy412,3763.56,565.57,-0.077867457333668622,0.18189688961842121
Galaxy413,2534.4,3270.21,0.13822867743501127,0.25653805582061873
Galaxy414,3967.16,701.7,0.26655562078783102,0.15984701744966823
Galaxy415,3458.66,3681.61,-0.078197886844377271,-0.63810388933283724
Galaxy416,525.01,2442.35,0.10105833548698373,0.12185073167117014
Galaxy417,1816.76,2165.58,0.19299096229924961,-0.33819795297651323
Galaxy418,87.03,2662.44,-0.13399011106661174,0.31394972886754624
Galaxy419,2670.69,826.78,0.048328789222884951,0.21083449711969413
Galaxy420,660.51,285.51,0.076435469541411422,0.13328603103227285
Galaxy421,2994.83,4148.38,-0.090586431782258919,-0.10538538113808582
Galaxy422,242.67,1897.52,0.059913359046566389,0.049176075328887084
Galaxy423,723.99,2662.62,-0.064175468533320096,-0.13748685870258451
Galaxy424,760.57,933.07,-0.10819949670459535,0.31940618461091053
Galaxy425,192.79,1937.51,-0.39672339570738346,-0.073622110571546273
Galaxy426,1870.76,2416.51,-0.057011542121755909,-0.016374959409974646
Galaxy427,405.98,865.92,-0.13042911687354675,-0.082892808336377508
Galaxy428,1301.99,2974.33,0.30726512187063459,0.058320799763277129
Galaxy429,439.21,518.21,-0.087452755450869779,-0.083707647977031646
Galaxy430,825.69,3029.01,0.21970634803646169,-0.40559471140008541
Galaxy431,101.71,2260.3,-0.09733668899180134,0.47472706973799328
Galaxy432,946.14,2941.64,-0.066703207978824508,0.19171073349111173
Galaxy433,2038.43,3569.05,-0.015329307658579372,0.082827737145786992
Galaxy434,2747.89,3053.03,0.019444710485364045,0.13974340586750517
Galaxy435,1544.38,1498.39,-0.17284596717878487,-0.090397696208290704
Galaxy436,1523.02,2234.41,0.33246164555105318,-0.075817869863104903
Galaxy437,577.43,1351.51,-0.25983333512261253,-0.023872978237073256
Galaxy438,509.05,3468.02,-0.43445807554467997,0.78148439568594175
Galaxy439,669.0,3437.44,-0.53131749934868111,0.6738941822881761
Galaxy440,1518.76,2338.09,0.092275209539049441,-0.030924657906071656
Galaxy441,3029.8,1071.64,0.23815481623044543,-0.27374501407286034
Galaxy442,1934.93,1502.27,0.28286107691208745,-0.20416741614211228
Galaxy443,793.48,3666.94,-0.38005807460980268,0.24196672820011064
Galaxy444,4041.55,1697.08,0.092388088212184347,-0.34414525396583368
Galaxy445,2986.71,1517.74,0.21396679866790036,-0.13227007765696341
Galaxy446,3918.92,3823.34,0.38065372473339126,-0.054743307367741842
Galaxy447,1570.56,1194.88,0.14308889870362493,0.47137593325492277
Galaxy448,3761.8,1637.34,0.23705255167101685,0.024414348145862755
Galaxy449,792.71,1287.89,-0.49718627287223721,0.0079552753896627165
Galaxy450,1548.37,3478.85,0.02606163991443769,0.3842065367335219
Galaxy451,3692.78,608.65,0.0043722125028268152,-0.1789381083115571
Galaxy452,3729.81,211.33,-0.11676824565775554,-0.3140237983890759
Galaxy453,4013.25,2424.46,0.056086044173684742,0.19742314070651973
Galaxy454,3169.33,2313.52,0.07424752461600112,0.165079077578276
Galaxy455,3039.58,2986.45,-0.16229380095306245,0.12267715877200672
Galaxy456,49.67,3369.93,0.82184677234116299,-0.62692823666180053
Galaxy457,3879.85,2852.34,0.19815172472835618,0.029905063360965267
Galaxy458,143.26,3060.93,0.98066973152287229,0.13753268269229307
Galaxy459,2246.8,2022.67,0.072355999005345215,-0.18374086186774094
Galaxy460,3107.89,3722.34,0.041562682167736273,-0.24955407059845658
Galaxy461,3408.35,2973.34,-0.23066552044148186,0.0033266704500375006
Galaxy462,202.37,2690.32,0.097416929669251251,-0.015774218936585566
Galaxy463,668.13,1284.99,-0.49184168264897271,-0.19851758337494746
Galaxy464,801.21,3413.98,-0.32653834455396324,0.46716952945163803
Galaxy465,3148.25,1334.89,-0.1964591957610502,-0.13781546682783716
Galaxy466,751.37,3071.85,0.28633492590929066,0.25206435742758165
Galaxy467,3905.62,822.24,0.077154444464928085,0.078581376552598378
Galaxy468,860.06,874.55,-0.076472137204846316,0.21660050828428973
Galaxy469,2229.28,49.49,0.038510731135152333,-0.039934986360775963
Galaxy470,1735.63,2027.92,0.11399859130970712,-0.025656822314674782
Galaxy471,2795.21,1146.48,0.05191673561135414,0.076345712376466715
Galaxy472,2227.33,1014.34,-0.17970726307679141,-0.27817804006524371
Galaxy473,156.83,881.71,-0.30574360410587192,-0.058223006433350828
Galaxy474,1711.84,3366.23,0.39807959814301019,0.13327160552899198
Galaxy475,325.57,3119.47,0.14611974134538919,-0.27627046149222206
Galaxy476,1746.0,2108.13,-0.20577886602772111,-0.008983939813458075
Galaxy477,3931.44,311.6,0.10750616925306755,0.27065119863224796
Galaxy478,1020.52,2629.43,0.15096394585706666,0.12994089857310409
Galaxy479,1053.39,674.51,0.1832505328888345,-0.11734910834888665
Galaxy480,3794.71,2818.92,0.038449262858227973,0.0085778104005685227
Galaxy481,2562.65,2506.62,0.24838256528570918,0.22000510459060454
Galaxy482,1845.59,2340.46,0.29797584408880334,-0.044485741152428634
Galaxy483,2235.95,727.25,-0.033896334727134589,0.085992748977680847
Galaxy484,3805.26,3961.17,0.23637900137771881,0.04972922357591078
Galaxy485,4011.63,3147.64,0.11927986081991789,-0.33578479123483712
Galaxy486,2617.91,1698.47,0.24149466551024903,-0.38978799172478218
Galaxy487,1463.51,626.66,-0.0797027656698958,0.0051371278299568307
Galaxy488,1595.17,1184.16,-0.11984692793046972,-0.43444380906988506
Galaxy489,4041.76,4122.82,0.026946462652011682,0.10771442466589136
Galaxy490,1620.39,3215.53,-0.11945157713877383,-0.047086859703493814
Galaxy491,1177.53,2071.56,0.073922216418014941,-0.082340330260253045
Galaxy492,922.71,366.29,-0.014919612143854122,-0.26910571120093835
Galaxy493,1726.21,1232.51,-0.043513048937359945,0.24453795226346189
Galaxy494,3759.65,1318.93,-0.3154786295789514,0.13412661290808223
Galaxy495,2033.46,1585.48,0.14629240876937355,-0.091071592252119055
Galaxy496,3674.11,2909.13,-0.13531144689467828,0.11205497201082736
Galaxy497,2742.24,467.08,-0.038845817305910808,0.10889634480875933
Galaxy498,2795.71,182.57,-0.067122885496257154,-0.19112449703253845
Galaxy499,3069.52,1685.94,0.43167433089712903,-0.17850895042014925
Galaxy500,2138.61,161.75,-0.12687658338543606,0.25502931542823037
Galaxy501,911.12,3511.91,-0.22701137436824245,0.46049515795682305
Galaxy502,3369.09,2887.16,0.12403072431458775,0.075441600857693997
Galaxy503,2905.73,3248.86,0.24778328195441562,-0.22414997066675088
