GalaxyID,x,y,e1,e2
Galaxy1,314.5,4157.88,-0.28917513987803939,-0.02550913797595529
Galaxy2,110.66,3342.89,0.32474905646516178,0.042107786026784125
Galaxy3,2878.53,897.42,-0.33109889053566444,0.10895425179984744
Galaxy4,1178.29,2788.3,0.14990628259461738,-0.066422106437278555
Galaxy5,4131.03,3351.67,0.09062218619754632,0.33565020046008437
Galaxy6,1208.45,758.31,0.035838705007809363,-0.0029144120880121582
Galaxy7,2474.8,574.77,-0.074778329886517086,0.056306840040653977
Galaxy8,99.64,4058.45,0.19969054093092492,0.06193014945953474
Galaxy9,1849.61,438.74,0.14925945407600549,0.061311500033164365
Galaxy10,890.8,3431.06,-0.24830697146263842,0.15957985888660103
Galaxy11,2816.14,3788.74,-0.026771607225126878,-0.15399055470404666
Galaxy12,3206.65,820.15,-0.12049228460065306,-0.067625653325405266
Galaxy13,1755.62,3132.98,-0.35641704324341689,0.077712307975751432
Galaxy14,2534.32,2865.68,-0.05621417433437452,-0.38868674916316281
Galaxy15,3750.52,1056.56,-0.068418157740053803,-0.00084920909510133313
Galaxy16,1513.75,3145.85,-0.019431901973254555,0.031489326467798145
Galaxy17,2082.38,906.3,0.17667522222964291,0.28128232079334092
Galaxy18,1007.64,2791.2,-0.013552722172985719,-0.26633726533402874
Galaxy19,3880.13,816.59,-0.38786103434328123,-0.26953501402846342
Galaxy20,2458.34,674.12,-0.24403450261725612,0.3350206853636537
Galaxy21,3078.3,2441.27,-0.27549482730180369,-0.071362893365928798
Galaxy22,510.61,1452.18,0.17138271882409439,-0.041171475274121017
Galaxy23,473.62,2393.15,0.051769851902908087,0.18887317892014649
Galaxy24,215.14,2677.51,-0.24445661809546754,0.2149661900268984
Galaxy25,1646.27,2051.58,0.25752041137465365,-0.1523384546944202
Galaxy26,1755.25,1088.45,0.11527718550760259,0.24709346279023137
Galaxy27,542.55,1018.27,-0.083032479957100572,-0.42570373842265896
Galaxy28,2505.14,3515.48,-0.18692414697870369,-0.067094360404105893
Galaxy29,2761.55,2018.54,0.066582310701179662,-0.18161972098964574
Galaxy30,3544.34,929.67,0.10165224490240943,-0.069743192431704265
Galaxy31,565.29,2832.35,0.014414223720956444,0.097483709801917312
Galaxy32,4145.79,990.2,-0.09073540321483381,-0.26119420956807948
Galaxy33,534.88,1538.73,0.14054000511070064,0.057610339432978802
Galaxy34,57.39,1852.05,0.057420004268047081,-0.17337855722403528
Galaxy35,155.69,2256.83,0.31545923731857717,0.12217345463699852
Galaxy36,3182.89,3043.0,-0.44613698871709129,0.22282639050658815
Galaxy37,4016.36,1264.15,-0.030890876881953189,0.23461664638489055
Galaxy38,2427.74,1674.05,-0.2628918589137918,-0.091051451278251427
Galaxy39,4013.64,1127.3,-0.09366974545745041,0.21149439889113686
Galaxy40,621.47,2445.57,0.23918607584078286,-0.42370457989798138
Galaxy41,498.58,1440.49,-0.10588433464969081,0.20952077721602153
Galaxy42,3233.1,3126.36,-0.096817921330303147,0.12749859161778401
Galaxy43,398.49,258.55,-0.14500556895187938,-0.070546360749022541
Galaxy44,3128.95,1913.18,-0.24347023272918128,0.38670548086383277
Galaxy45,2316.63,1980.17,0.0011191460137154607,-0.235439208155442
Galaxy46,470.34,2674.5,-0.12149103325830347,-0.21218831056698473
Galaxy47,2646.96,3221.25,-0.1620236484189119,0.010893198736358828
Galaxy48,2971.76,2476.58,-0.13562075812417937,-0.10103755513117407
Galaxy49,2100.89,226.67,0.27905637896226587,0.065507267567466637
Galaxy50,4121.64,1059.17,-0.020366992320291988,-0.029342679547172873
Galaxy51,3696.53,151.47,0.044470075407433474,-0.057749383919993721
Galaxy52,4059.88,35.02,-0.32023611785051598,-0.062279683545785197
Galaxy53,3790.88,3550.39,-0.10996859784496336,0.057939118917550339
Galaxy54,2542.73,2941.02,-0.21983180452994389,-0.059929229751801205
Galaxy55,841.11,1524.09,0.41506386291590047,-0.15699848864012456
Galaxy56,2058.13,1433.44,0.31369790803923503,0.072202311336151528
Galaxy57,3584.73,1412.91,0.39985911565117299,0.18620126220675107
Galaxy58,1471.84,3127.47,-0.039341582914566645,-0.23182643830648494
Galaxy59,3831.27,1794.74,0.45853766539555652,0.048410491032016473
Galaxy60,2131.13,811.53,0.07354836778719076,0.075096717967808119
Galaxy61,1890.02,1509.48,0.28033675415837567,0.07784762965938713
Galaxy62,257.6,1927.81,0.22282301289723033,0.169271142990506
Galaxy63,1846.0,1877.18,0.18649814165166953,-0.013291480385941773
Galaxy64,294.95,2622.66,-0.020495326446393958,-0.29776202893440457
Galaxy65,2028.7,4047.98,0.19868032716214956,-0.35535291633056204
Galaxy66,4027.73,2538.4,0.071346844508060961,0.55959936423453649
Galaxy67,2970.36,3533.02,-0.31266590576266073,-0.009788918069444371
Galaxy68,523.92,2230.0,0.26367263016711412,0.16831025378031517
Galaxy69,372.67,4177.24,-0.097163009691150867,0.1557656214943883
Galaxy70,1157.99,51.47,0.075481733793561712,-0.19468253800409743
Galaxy71,889.05,4070.6,-0.053252701845339569,-0.19106999830144922
Galaxy72,2144.25,3908.95,-0.31700509524756076,-0.45145105441928279
Galaxy73,2975.55,2326.36,0.14613146929808163,-0.24993882777126089
Galaxy74,3044.11,1112.68,-0.19389515340835758,0.16217598647103579
Galaxy75,4077.71,1325.77,0.36633626357539451,-0.42195666533861698
Galaxy76,2324.01,1893.48,0.40658478502023487,0.086214698544105323
Galaxy77,156.87,2251.61,-0.23972086178409652,0.15655738212767065
Galaxy78,2391.21,2316.54,-0.13519903202344088,-0.23476917344522674
Galaxy79,154.21,2295.9,0.1991285067843947,0.47170143619185745
Galaxy80,3486.1,3753.69,0.11256706718701845,-0.11743986047171676
Galaxy81,1317.17,1050.09,-0.19478480216742286,0.057117707695331366
Galaxy82,1940.67,2275.86,0.032407315450591841,0.14575403120964292
Galaxy83,1858.27,1656.25,-0.057236336427952172,0.048450462896687953
Galaxy84,3709.51,2292.83,0.062644947040395929,0.031651501909134377
Galaxy85,3094.44,1829.64,-0.58585261068944938,-0.05346507712153456
Galaxy86,2852.19,143.53,-0.31351306137120943,0.36683559673769162
Galaxy87,3301.18,2683.4,-0.28777275882081438,-0.084419067551443697
Galaxy88,1939.77,485.35,0.16632047241401951,-0.037991796647928039
Galaxy89,2908.42,1651.62,0.10741511260998383,-0.13432614850599878
Galaxy90,3194.33,3445.64,-0.13019464943410258,0.19848186908759943
Galaxy91,1398.79,2637.39,-0.1597115369890317,-0.063739151214994974
Galaxy92,2702.42,685.62,-0.22976849218908962,-0.15055226218266221
Galaxy93,566.24,1343.93,0.27998539618135948,-0.4227551741321845
Galaxy94,2918.57,2789.49,-0.17965289954605262,0.12438776795047779
Galaxy95,3761.69,150.44,-0.27806127216515392,-0.11104862526583333
Galaxy96,945.83,309.68,-0.079541918752251084,0.29140178831287472
Galaxy97,4040.82,48.07,-0.10222881102742606,-0.15199485998409032
Galaxy98,2849.54,3440.75,-0.32339848662592097,-0.53099315893465837
Galaxy99,2256.84,679.69,-0.11174313704577928,0.33656917641684281
Galaxy100,4038.47,3450.68,0.23513531456114362,0.31516108090889672
Galaxy101,2411.85,3169.57,0.0046693072035839805,0.11052278979154918
Galaxy102,196.36,1020.68,0.1518008509941573,-0.15414123540015698
Galaxy103,2011.33,2344.25,0.067569957644412246,-0.0627987148180775
Galaxy104,983.38,30.02,0.036381914480704561,0.20215535967126647
Galaxy105,3194.08,3922.72,-0.2101693477459215,0.18547746671853924
Galaxy106,3004.18,2595.54,-0.50631308848920376,-0.47392992483366808
Galaxy107,2198.86,895.77,0.065157123359363689,-0.22004617822215009
Galaxy108,266.28,2649.12,-0.022105846412999702,0.1065490350966776
Galaxy109,11.17,1670.22,0.4729619121765305,0.061940312532979484
Galaxy110,3371.6,3695.11,-0.1138935750753842,0.11764466833474552
Galaxy111,2725.71,2267.41,0.21399257853541032,-0.24061334005197832
Galaxy112,4023.05,2858.74,0.24331417340683781,0.45338386992328017
Galaxy113,2333.27,876.51,0.034905881421626574,0.064411813981324145
Galaxy114,2347.49,4127.7,0.24106404923557573,-0.22372472031489743
Galaxy115,3491.16,548.56,-0.032404265000410437,-0.023412746955574187
Galaxy116,1946.54,1611.07,0.24380332121998249,0.070887886206928638
Galaxy117,967.76,4156.68,-0.10446698194305731,-0.11511404408521439
Galaxy118,1292.88,516.75,0.22963656228646778,0.080419502000535659
Galaxy119,829.84,3183.48,0.15496138029658077,0.19380046121780103
Galaxy120,366.61,323.83,0.42571807382497795,-0.156266953657799
Galaxy121,3384.22,2124.06,-0.20926689684861136,0.016326570626795767
Galaxy122,222.23,3486.26,-0.086544801376947991,-0.27313507751932581
Galaxy123,4026.21,994.81,0.17054965074000206,0.36311522081577663
Galaxy124,3030.83,2170.23,-0.57763337555431915,0.061799870028441145
Galaxy125,3710.56,1343.08,-0.017890002840485197,-0.35166067849941107
Galaxy126,3608.02,168.08,-0.11526042866387631,0.10276840659901887
Galaxy127,2218.4,2314.39,-0.25384197025269029,-0.15462892319674035
Galaxy128,797.72,3475.45,0.046720407278007713,-0.027067549828261768
Galaxy129,2020.62,1519.52,-0.056329064354280117,-0.1430992279878871
Galaxy130,3082.73,4153.41,-0.41192241870217272,-0.19114880737429216
Galaxy131,375.77,155.38,0.50825793529187735,0.16749832095101586
Galaxy132,184.43,1479.62,0.26648088099481176,0.11306976019880231
Galaxy133,3014.49,3040.85,-0.14677643593007636,-0.23636646835107394
Galaxy134,4196.01,1440.3,0.34074703993627298,0.23502677829470969
Galaxy135,3371.39,2197.01,-0.13739802342656038,0.6755837907400013
Galaxy136,79.66,1358.27,0.041745209649781893,0.055714309674820675
Galaxy137,771.25,1450.12,0.27488778359873695,0.069446375938620852
Galaxy138,368.32,3713.46,0.11714598953948514,-0.24426989492800735
Galaxy139,3148.51,37.05,-0.23530993304467357,0.13457427748878129
Galaxy140,4042.29,3034.32,0.13974359141863352,-0.035383248756596847
Galaxy141,1235.54,3379.12,0.10733090852269597,-0.22905526474385091
Galaxy142,3921.56,3807.51,0.10477354228538284,-0.22617846182958268
Galaxy143,1628.23,1203.09,0.46565617537658532,0.19880924542640174
Galaxy144,2558.08,754.5,-0.22752841949179958,0.47513482744833929
Galaxy145,3014.23,2331.36,-0.25860325746021012,-0.16289866597718269
Galaxy146,4137.93,496.74,0.24741970707096569,-0.24981106431043376
Galaxy147,1814.22,1973.05,0.18029832470210477,-0.20929738885356336
Galaxy148,2420.4,2782.27,-0.39546393347133879,-0.0097950930139093506
Galaxy149,1204.48,3220.37,-0.17556787114519457,0.11943720600152784
Galaxy150,713.87,4161.33,0.043932124306154209,0.0049476401635447781
Galaxy151,2333.59,92.09,-0.29452468343782101,0.30750844332329508
Galaxy152,2767.83,714.67,0.10677516938312206,-0.31416493386841005
Galaxy153,27.94,3021.69,0.065101242701403578,0.24582565506641488
Galaxy154,2303.01,4146.36,-0.041880008397349192,-0.069407230681577226
Galaxy155,1692.21,1301.24,-0.018487267709185934,0.24413087071833511
Galaxy156,2705.85,3469.24,-0.33474019523206466,-0.3749743627621146
Galaxy157,1805.32,325.33,-0.016532917306854772,0.46535291964892433
Galaxy158,1499.48,3964.28,-0.15740457132614141,-0.083544919515889854
Galaxy159,2446.51,1851.65,0.1136778139933918,-0.33688766059836989
Galaxy160,799.24,2382.12,0.42837007671450422,-0.25393460356824582
Galaxy161,2133.81,3341.31,-0.16181928515964561,-0.56045150227422347
Galaxy162,596.69,1049.97,-0.44181117792098379,-0.48535691562340272
Galaxy163,1021.57,692.32,-0.1731640306786858,-0.10972578455166168
Galaxy164,3107.83,3536.86,-0.21526052644581134,0.023313650294507118
Galaxy165,2305.21,403.8,-0.15133795286956425,-0.036830440237553191
Galaxy166,2165.37,816.86,-0.060012053084465881,0.087832340124126357
Galaxy167,2052.38,1040.57,0.16766310090739076,-0.055534328827959084
Galaxy168,3148.52,3358.73,-0.010941427049641239,-0.036947696619212225
Galaxy169,1637.33,682.83,0.018319103514966129,0.26930937567010782
Galaxy170,138.91,3620.99,0.14103997784758845,-0.12546985555805043
Galaxy171,264.62,4140.79,-0.35954457578101762,0.12446513512497742
Galaxy172,851.01,545.52,0.023855396301857991,0.14969132450474976
Galaxy173,2586.74,3739.99,-0.14875658844339859,-0.0020359947615449722
Galaxy174,1891.62,3224.59,0.25598513828994801,0.26680618523132638
Galaxy175,3687.54,963.33,0.1040541360950105,-0.1556060196782732
Galaxy176,3056.7,1208.04,-0.27456829956037543,0.14605078234693586
Galaxy177,267.81,4091.15,-0.15151706637379592,-0.034342831245069115
Galaxy178,4141.07,2826.01,0.033928717514842811,-0.0071706422418153504
Galaxy179,1115.57,1142.06,0.25737514136465367,0.17388380606604981
Galaxy180,1372.39,1872.7,-0.14266814884406623,-0.3558934476680643
Galaxy181,1650.4,1673.67,0.11275631856565634,0.27514649615524445
Galaxy182,4011.52,317.06,-0.027693630454907393,-0.45788560055788896
Galaxy183,1292.78,1339.84,-0.04549570907240727,0.14991111803536322
Galaxy184,2415.26,466.63,-0.16518193975553047,-0.030148674263857006
Galaxy185,718.82,1489.08,-0.14135498126996723,-0.11709146327269926
Galaxy186,3482.44,1344.03,0.32603501166328752,-0.11339102696439105
Galaxy187,688.97,841.77,0.23732185707784459,-0.068934619547702719
Galaxy188,1791.39,2420.99,-0.15409134973363864,-0.31329403710191772
Galaxy189,2653.41,2829.26,-0.087978401407262485,-0.39589218227103889
Galaxy190,218.2,3252.26,-0.21518280397495679,-0.30055080309416915
Galaxy191,3543.47,180.36,-0.20077783300980404,0.40191083424864305
Galaxy192,573.62,3603.8,-0.03561353018060763,0.15366791158887805
Galaxy193,3284.75,4045.06,-0.23437005470825978,0.027728479982485715
Galaxy194,556.04,3090.0,-0.10086377123396753,0.24480256205187387
Galaxy195,2582.39,920.25,-0.080909661095863117,0.14977184149529035
Galaxy196,3836.78,1010.61,0.017016677342814063,-0.53802798827428733
Galaxy197,2589.3,3903.44,-0.087566592956825104,-0.36336114412133658
Galaxy198,373.67,1919.46,0.3515998292628334,0.15582707006998919
Galaxy199,3133.89,787.32,-0.2500505946228434,0.2431860708173533
Galaxy200,1770.15,1879.09,0.28902868844372015,-0.091371723970980812
Galaxy201,1267.79,523.79,0.076218730249016931,-0.18643090601474399
Galaxy202,3636.41,895.83,-0.17864082385381302,0.039948906637316151
Galaxy203,2788.1,3229.35,-0.21326997687127502,0.062400646576021852
Galaxy204,3517.44,1611.57,0.08008257603543939,-0.056431683796854759
Galaxy205,1152.58,3400.01,0.12975375074614434,-0.32170012043373153
Galaxy206,2095.44,3175.52,-0.32462497569032578,-0.21955029878531845
Galaxy207,1336.1,1311.54,0.57155553884813748,0.030493582524183556
Galaxy208,240.75,2507.67,-0.10991390576432303,-0.1406917877033026
Galaxy209,2510.02,3786.83,0.15880447298544459,0.37577613846160124
Galaxy210,1096.84,2874.23,0.12168035489072823,-0.0039810614757525287
Galaxy211,1479.18,50.66,0.11891840503766488,0.56210070005445456
Galaxy212,612.17,2459.27,0.3039806983891612,0.095759249213819495
Galaxy213,3877.09,3181.88,0.24604598465844726,0.30855613150440092
Galaxy214,1160.81,1760.36,0.27513045224066696,-0.22990262105600073
Galaxy215,1892.37,2209.34,-0.0024820037301346437,0.13024983173093238
Galaxy216,540.05,771.44,-0.2341770379104493,0.28315279521863762
Galaxy217,3587.32,3635.28,-0.1740422758915858,0.015482398132806476
Galaxy218,1828.37,744.96,0.26235679910997162,0.22254140687105994
Galaxy219,2931.81,1048.87,-0.12357965064050863,0.43461380488572177
Galaxy220,2977.81,591.66,0.088808689698766596,0.050916031510307699
Galaxy221,3738.58,1188.7,0.10144373530731753,-0.09419918249528958
Galaxy222,2537.11,3.04,0.10035810750751942,0.16978807798546713
Galaxy223,3907.64,2924.18,-0.41544949343986004,0.045697033715821317
Galaxy224,1441.0,661.39,0.045097653675667183,0.24696657825390694
Galaxy225,65.88,1298.98,0.33265284587795696,0.15218461051487583
Galaxy226,1066.75,2000.67,0.13403327060496312,-0.35530985190705294
Galaxy227,899.47,1818.05,-0.095144936917074222,-0.26320522938587582
Galaxy228,3752.58,3010.3,-0.31739655856392818,0.013919409283752029
Galaxy229,2995.67,2065.98,-0.43697293071932841,-0.086363263115704789
Galaxy230,2032.67,608.98,-0.20948629422269019,0.35108658375143292
Galaxy231,1719.6,88.45,-0.37537075073164894,0.17357268617954505
Galaxy232,650.26,3110.67,0.15838120330777788,-0.1202987122160824
Galaxy233,3265.91,2768.59,-0.057011336967028925,0.052477179449184612
Galaxy234,987.99,1256.64,0.59998591131388146,0.16341950753176601
Galaxy235,3074.87,604.4,-0.51909627208294129,-0.18923058079971888
Galaxy236,1093.92,3601.2,-0.091923554466098054,-0.097049319590397434
Galaxy237,2809.16,523.23,-0.44122899034322993,0.011113004283810207
Galaxy238,2714.63,4014.76,-0.044242898898024144,-0.19809902289342921
Galaxy239,1282.77,3855.82,-0.11316897252160135,0.053951041030993144
Galaxy240,2095.83,1764.95,0.030757111929200193,-0.39420708024214118
Galaxy241,2359.17,1171.52,0.06792866576503738,0.13930306935124723
Galaxy242,3307.65,2735.27,0.086427222856819197,-0.12951023408037848
Galaxy243,132.02,1109.02,-0.031499318049005243,0.014592809112040294
Galaxy244,1614.43,1620.42,0.58138187309683431,0.13695164425148454
Galaxy245,4076.59,3148.9,-0.0039735895046511538,0.08752695040457284
Galaxy246,1532.16,1263.27,-0.058146913498572705,-0.13512166526021949
Galaxy247,3214.57,692.69,-0.20686374061612187,-0.16348635377815851
Galaxy248,3749.46,1182.1,0.25506161842227415,-0.069545759786600686
Galaxy249,1603.36,1063.21,0.14978572629191564,-0.048612638851397855
Galaxy250,1723.35,69.88,-0.045777803791629448,0.0049437189293469186
Galaxy251,2475.91,3593.0,0.2600648813167139,-0.23429051192375627
Galaxy252,3743.05,955.25,-0.031540483356563023,0.15657516953752043
Galaxy253,2712.06,681.3,0.076693460706499988,0.39879271597389909
Galaxy254,961.67,3394.85,-0.19986512139629026,-0.12300931001048158
Galaxy255,3784.09,3033.97,-0.27896511094127308,0.049498239918057768
Galaxy256,2872.7,655.89,-0.35959661453187797,0.041738239953990897
Galaxy257,249.45,3062.48,-0.45352810413111055,-0.11654582401866545
Galaxy258,3513.86,2165.43,-0.18856144001773126,-0.34979658709710387
Galaxy259,1597.18,863.83,0.1556975765028431,-0.094333071952486552
Galaxy260,2271.16,2655.92,0.30345871814022241,-0.32909400972262781
Galaxy261,3931.73,2309.25,0.12713799987836552,-0.093912420658360363
Galaxy262,3963.75,3439.25,-0.18429475953298843,0.14664178161737407
Galaxy263,1576.24,876.38,0.087391390585320666,0.21137573540155316
Galaxy264,1636.92,1137.84,0.47663288672723525,0.051098973712714289
Galaxy265,2611.37,3524.12,-0.61518273728181339,-0.36326331642041021
Galaxy266,1855.58,4026.93,-0.087637990653233785,-0.45720560564524848
Galaxy267,3612.5,1695.83,0.17494553840474703,-0.0042967112441680277
Galaxy268,251.65,1630.87,-0.16561563445073385,0.045649784700414114
Galaxy269,3654.77,4055.1,-0.15161810252789765,0.19636372483146111
Galaxy270,1859.38,1527.32,0.41535727355802188,-0.41326411741433522
Galaxy271,3532.09,879.95,-0.011676844758682581,-0.38921314829072207
Galaxy272,253.69,1881.46,0.2744298422805565,-0.19491801725628904
Galaxy273,742.97,1300.61,0.0051691594733121737,-0.089643993274408806
Galaxy274,1121.78,772.57,0.070467834069176616,0.092893489092650966
Galaxy275,454.03,341.0,0.11716601563673056,0.013745094537178863
Galaxy276,972.94,2986.2,0.21205933488249981,-0.14613558280100841
Galaxy277,3602.86,4172.65,0.091826109103526482,0.22428338050869132
Galaxy278,1367.07,1988.95,0.0043382662860196042,-0.15359914196032934
Galaxy279,3965.97,3960.36,0.21961140902217513,0.071142856773265539
Galaxy280,544.76,554.48,0.33425773442181511,0.0054646955534517413
Galaxy281,1672.38,2912.57,0.16823824621502279,-0.39798845415069645
Galaxy282,3134.98,1209.7,-0.19266391711255751,-0.32240321858829318
Galaxy283,1562.86,1501.88,0.10718557301475212,-0.019501588779581084
Galaxy284,583.95,2336.45,-0.33413371531052416,-0.39344792249812521
Galaxy285,1678.52,2128.12,0.32259694913986525,-0.41089969477491339
Galaxy286,3504.74,494.41,-0.48399154085921514,-0.14887739819722345
Galaxy287,1445.83,3812.71,-0.036593812776869523,-0.15697666720165504
Galaxy288,816.37,4085.78,-0.15043823113036664,0.13001824939284679
Galaxy289,3332.37,644.19,-0.077102962350556442,0.081915419758297164
Galaxy290,3682.79,1943.56,-0.32319760819594312,0.51511152330183341
Galaxy291,1439.31,2264.54,0.2252533398079502,-0.3449548738906304
Galaxy292,1170.22,2013.26,0.029484683715064727,-0.54936773318559573
Galaxy293,1652.23,1610.69,0.0062865055119729341,0.14848559255319588
Galaxy294,867.77,488.4,-0.19587191677441868,0.56365944574441795
Galaxy295,970.02,3956.28,-0.14480685685006384,-0.071124386263997322
Galaxy296,3441.19,3734.64,-0.079058645783843931,0.14385121207494467
Galaxy297,1926.75,3473.1,-0.20134118064007556,0.22442976884407734
Galaxy298,1877.43,2100.08,-0.2473615220046394,-0.093326413188653659
Galaxy299,3701.46,779.04,-0.16192167601358914,-0.22818178806624248
Galaxy300,1073.16,735.7,-0.021950722284297772,0.24130526012560072
Galaxy301,663.65,1641.62,0.15368714821863186,-0.21648266583718431
Galaxy302,707.75,2613.11,-0.35488449959739221,0.25846714427678574
Galaxy303,2927.34,4088.48,0.2583913511130243,0.36203707177437716
Galaxy304,1352.99,3992.35,0.10693835639395954,-0.033301437377948773
Galaxy305,74.1,4150.09,0.49687701549359986,0.33563214882193521
Galaxy306,1097.47,1039.66,0.17665685841068909,0.058001166289440541
Galaxy307,414.6,1565.55,0.39382671114719636,-0.36375279484384293
Galaxy308,3196.36,1177.38,-0.24223878928785608,0.09688245100734677
Galaxy309,2115.3,2733.04,-0.10839818213780361,-0.063756830982270196
Galaxy310,2966.57,2960.07,-0.049253896341394349,-0.033824911644163923
Galaxy311,1415.79,3647.06,0.12923221722804515,0.11553327261946444
Galaxy312,2809.81,2104.06,-0.24875228109561204,-0.23618205015216143
Galaxy313,3910.95,2174.58,0.16992323292635106,0.30554828011527141
Galaxy314,1665.56,2599.69,0.037023124533711094,-0.51932537741122287
Galaxy315,1329.85,1968.16,-0.28375665667526928,-0.15829717800354082
Galaxy316,1195.49,822.46,-0.30043715669677834,0.07252561090638085
Galaxy317,3588.12,1594.34,0.15225721879372278,-0.39850643958616566
Galaxy318,397.03,1062.98,0.25268323458414882,0.10525452950731454
Galaxy319,2341.18,2849.96,0.079134163640197319,-0.67186938583053946
Galaxy320,4038.3,913.08,-0.098236173292693546,0.089292833399259364
Galaxy321,995.94,563.76,0.04091965363402264,-0.087388912335914171
Galaxy322,988.21,1759.27,0.15402059214037755,-0.35601768264453082
Galaxy323,2075.27,3320.53,0.099056281236377899,-0.026159705272825143
Galaxy324,460.09,3247.04,0.013663876999563247,0.04197638639855733
Galaxy325,3611.07,56.62,-0.25867003051472204,0.013321760674855035
Galaxy326,2597.37,2108.6,0.028953557362496475,0.15960732063718758
Galaxy327,949.19,1840.02,0.18340925184230394,0.4291018096783506
Galaxy328,376.67,4169.17,-0.19962856978329938,-0.18953601606098081
Galaxy329,3639.8,437.81,0.013975529581517071,-0.2621688863339785
Galaxy330,3870.83,1143.34,0.25732960136433447,-0.26353791107455865
Galaxy331,1562.55,797.81,0.38880066882573888,0.13912810508347653
Galaxy332,2471.57,2033.61,-0.21298485899627945,-0.096486912124965157
Galaxy333,3488.57,2968.61,-0.31297703808052779,0.097909765120364492
Galaxy334,2524.24,1475.63,-0.0044604196141110886,0.075995814558297889
Galaxy335,1337.58,2292.19,0.093284268954842375,0.27009623076869815
Galaxy336,3449.35,2218.09,0.048794128980304441,0.48779958687170122
Galaxy337,845.92,4013.27,0.18082566623624025,-0.10811481747877552
Galaxy338,2079.86,1001.65,0.067284604707306142,0.32889799160848227
Galaxy339,3178.63,3089.5,0.16504700699483318,-0.21976544031152109
Galaxy340,227.57,1441.86,-0.16853183047321463,0.065743259696438502
Galaxy341,202.87,2430.95,-0.0091164566630161786,-0.14034622838328167
Galaxy342,2455.24,569.96,0.24064589552523191,-0.033530965773286209
Galaxy343,93.26,2537.85,0.34737791356712827,0.1856284489105145
Galaxy344,682.86,360.99,0.1803958833356869,-0.082168062377144968
Galaxy345,338.48,2128.04,0.23366525506672359,-0.64185414647463468
Galaxy346,529.06,3500.54,0.10939313509665034,0.0095113007356430329
Galaxy347,569.43,361.31,-0.050529443879227448,-0.050698002417772059
Galaxy348,456.63,1541.74,0.31485728867059126,0.11380130376577265
Galaxy349,2969.89,735.91,-0.2537552298927882,0.14616078509697603
Galaxy350,944.16,2063.43,0.42278315035841241,-0.044515674374410237
Galaxy351,3826.6,3151.07,0.16371923954356565,0.14591177978558489
Galaxy352,2949.38,3116.86,-0.18797406636534006,-0.34016514055865638
Galaxy353,69.06,3637.07,0.14144411759203238,-0.21222313945763738
Galaxy354,3255.28,2366.63,-0.26674742026929571,0.072551736789933818
Galaxy355,3856.85,1430.71,-0.18612874472791391,0.047544780729320363
Galaxy356,2939.94,2432.82,-0.66872267130872143,0.0060268503719895783
Galaxy357,2221.55,3078.82,-0.15074573896631743,-0.26663911903666337
Galaxy358,1426.27,2409.51,-0.16348034434394315,-0.0011816719270262288
Galaxy359,3029.34,3042.88,-0.30590529744325368,-0.19656988515522061
Galaxy360,2885.58,2186.04,-0.35027520938070661,-0.024342431246068552
Galaxy361,3451.79,2905.22,-0.018215743600173195,0.28973662267916828
Galaxy362,2942.95,2554.83,-0.11648860763605305,-0.10838672754535728
Galaxy363,1216.32,2361.38,-0.044436717342459159,0.23636403939575037
Galaxy364,4005.87,780.53,-0.048746369843972182,-0.26476380726998316
Galaxy365,3726.75,2304.84,0.15693367994518859,0.36880504705309952
Galaxy366,1167.4,3795.31,0.23725987722118835,-0.1657383959249546
Galaxy367,2386.31,2053.99,0.14775023422095684,-0.2537233690211802
Galaxy368,2389.21,3916.39,0.1947407416755193,0.019388470536985974
Galaxy369,2563.34,1186.86,-0.1890661332110925,0.37826241557914286
Galaxy370,3542.69,3219.23,0.35226857362100172,0.02079325240397488
Galaxy371,1148.77,3300.49,0.5707129236551779,-0.11635729285534725
Galaxy372,3894.3,294.81,-0.20801735252195622,-0.38721306812078454
Galaxy373,4168.03,3757.28,-0.077952680956251116,-0.1111353130313875
Galaxy374,2815.65,398.13,-0.65369606906784949,0.1170628592664657
Galaxy375,3438.09,1238.31,0.17510170110413037,-0.54431035639207326
Galaxy376,4144.29,1171.36,0.2158970747233441,0.0022667109777471939
Galaxy377,36.45,3354.01,0.03107555753282347,-0.17883700510385964
Galaxy378,431.48,2322.66,0.10401949488014059,-0.026173917022417458
Galaxy379,2516.37,2975.61,0.12445284235643914,-0.19259246655017537
Galaxy380,3067.85,2997.46,-0.11069162169999323,0.056217677587112949
Galaxy381,1293.81,3044.03,-0.29574955275590953,-0.19969584807296867
Galaxy382,1281.58,2901.66,-0.12275387036129233,-0.038113828762206037
Galaxy383,93.41,594.08,0.032597609094802596,0.056047055908769031
Galaxy384,3822.36,3136.85,-0.17472539222318864,-0.15645876498929256
Galaxy385,3425.93,1955.2,0.26062403129714973,0.90539266031357601
Galaxy386,1428.2,2236.88,0.25324306259670826,0.018308693577472432
Galaxy387,2971.57,523.56,-0.4988081482527702,0.25303987736655797
Galaxy388,725.92,2124.13,0.012134990081122662,-0.33088333128888614
Galaxy389,3717.76,211.25,-0.0072267908152624238,0.083616477062712719
Galaxy390,220.95,2657.04,0.154114541985715,-0.14858579969242972
Galaxy391,119.18,1528.89,0.19917718003733131,-0.29839173388976964
Galaxy392,3515.62,1130.86,-0.022873970336772284,-0.11332271240277667
Galaxy393,3342.35,1249.78,0.11910076567944912,0.076071419550929387
Galaxy394,1350.88,1432.6,0.35988117598236791,0.1867557422474021
Galaxy395,3175.53,2948.69,-0.13805940636531189,0.064465035789907782
Galaxy396,3012.48,3234.28,-0.20673240865504905,-0.32652373501393206
Galaxy397,946.02,3190.68,0.098596181710354641,-0.30094494923623955
Galaxy398,2723.92,3198.71,0.20122825198991554,0.048015042816232562
Galaxy399,987.96,1496.12,0.19645338635638224,-0.32091284823314831
Galaxy400,1013.6,1042.45,-0.21529854650523211,0.62866599535019119
Galaxy401,3440.41,432.4,-0.2418733302800041,0.084751138189053693
Galaxy402,2314.31,54.6,0.073368077747743662,0.27250586003735683
Galaxy403,2200.16,1906.44,-0.006493515592517568,0.13157345694099334
Galaxy404,604.4,1807.19,0.15990698566422071,0.016017861493716326
Galaxy405,2227.27,2240.21,-0.18599107227339579,0.022197468787098412
Galaxy406,1352.95,822.77,0.44282056290920557,0.41809031803864116
Galaxy407,3917.38,4018.16,0.001096512452966783,0.055635333387867511
Galaxy408,1027.43,1493.74,-0.070847505473563471,-0.12874840544974064
Galaxy409,3701.64,3639.47,-0.27684354660623733,-0.096151847875208266
Galaxy410,2550.84,1913.3,-0.03002789247144623,-0.15825476198927854
Galaxy411,207.1,3440.93,-0.44761531121203574,-0.12911627540817125
Galaxy412,3452.16,887.79,0.087120953547721175,0.12179917883379882
Galaxy413,779.04,2121.15,0.095852995483000594,0.16271256468275325
Galaxy414,2040.03,1391.25,0.39843597704492967,-0.121863184245841
Galaxy415,320.56,2073.76,0.35019446289141121,-0.081571804613021576
Galaxy416,1742.12,3636.29,0.025547796995024873,0.15705895974753376
Galaxy417,2359.59,574.8,-0.20279473116206348,0.066002663268575262
Galaxy418,1793.97,3592.64,0.29460605941693757,-0.25474304678445275
Galaxy419,1596.01,3025.83,0.16498742699895655,-0.00065695455961897742
Galaxy420,1096.53,3860.0,0.22731190132057311,-0.092981077282755439
Galaxy421,2348.71,2160.49,-0.13211453815072494,-0.51264442255343745
Galaxy422,3650.59,3292.14,-0.0091177041462175007,0.078519340237423838
Galaxy423,1110.84,980.53,0.10759045924825712,0.11736845215399003
Galaxy424,2638.65,3487.49,-0.076415248791105644,-0.086515572903847426
Galaxy425,1298.67,1269.45,0.48720547465537123,-0.10817366015673541
Galaxy426,1756.84,829.49,0.28701519221864719,0.051653206236231292
Galaxy427,782.56,1188.38,0.14220889918497104,-0.24619146839444686
Galaxy428,3449.39,837.54,-0.085147534463512073,-0.40955184354917917
Galaxy429,3026.45,1698.58,-0.15973270615030005,-0.11298953572206655
Galaxy430,1929.7,3679.79,-0.5088169053949787,-0.46850368488958882
Galaxy431,3145.6,3711.04,-0.14340748109489013,0.0030103511882239829
Galaxy432,121.04,3459.47,-0.14930382316702734,0.1304779613479895
Galaxy433,3036.77,170.45,-0.17317776664897805,-0.17062222918584108
Galaxy434,3905.5,1986.3,-0.0189611135870216,0.18717458869835141
Galaxy435,3094.07,2164.71,-0.40619112029776366,-0.295553250505598
Galaxy436,178.87,3812.03,-0.077719423091210271,-0.16372771466075534
Galaxy437,1378.53,2480.21,0.018211088011474169,-0.35437974508038572
Galaxy438,294.73,4097.96,0.18990012919292493,0.17961226817601994
Galaxy439,1603.47,1912.62,0.31319971744547787,-0.067119570164142023
Galaxy440,1887.19,1086.38,0.41752237684412075,0.017894914248371349
Galaxy441,1718.69,2681.31,-0.1267302473143298,0.30289755794006135
Galaxy442,1088.97,1775.51,0.18412295126732886,0.0051291815842296473
Galaxy443,4053.88,2222.94,-0.0084074569101751789,0.34632235088029195
Galaxy444,0.78,3942.81,0.4089652152525205,0.12027095721958841
Galaxy445,411.25,382.61,-0.0050486626739375401,-0.026951607260597518
Galaxy446,2691.05,835.73,-0.050518998449236324,0.13552105588729516
Galaxy447,664.5,2754.49,0.054330189450376647,0.29358889960558332
Galaxy448,416.13,3044.62,-0.09747681084993802,-0.47092711362109108
Galaxy449,1733.74,3053.38,0.072297306547428414,-0.016614239242907836
Galaxy450,588.53,3062.82,-0.33740963045237571,-0.40545112338076639
Galaxy451,784.98,3522.07,-0.12738162410138137,0.034806520058844631
Galaxy452,1927.54,1408.95,0.26341685433095618,0.2037164176634238
Galaxy453,2911.35,53.86,-0.16088441187008368,0.042171004687513433
Galaxy454,3957.72,1495.62,0.36970191996596413,-0.42979803436367203
Galaxy455,1830.71,283.35,-0.33237486677460759,-0.056316757744172163
Galaxy456,2670.51,507.32,0.35471099962226404,0.33040125721711211
Galaxy457,558.79,3497.7,-0.13064046073639254,0.012676680609105956
Galaxy458,3809.27,3556.44,0.095956409057224398,0.3674345737202615
Galaxy459,3594.06,814.13,0.20920321426794863,0.053655791814240905
Galaxy460,2339.52,948.74,-0.16022758701770137,0.10045973018865481
Galaxy461,1108.06,594.53,-0.097762338512323244,-0.29029538673209138
Galaxy462,1577.92,2149.38,-0.20660445384633114,-0.061626111502257358
Galaxy463,2304.93,3072.35,0.13210588840921492,-0.043869543885633355
Galaxy464,3616.38,2628.74,-0.29204411260897134,-0.13805480413330259
Galaxy465,2777.55,692.11,-0.082579791006261644,0.40722220018870736
Galaxy466,279.38,66.74,0.073068860292041377,0.32190807821988654
Galaxy467,2849.99,3519.82,-0.049347734379519975,-0.19100855912239345
Galaxy468,3340.97,4081.48,0.15804997529121667,-0.12110363049900233
Galaxy469,1473.97,2116.3,0.34647533557224147,-0.073332929980167189
Galaxy470,509.56,126.42,0.084487551868994898,0.20763959181788189
Galaxy471,75.04,289.49,0.17184742416977508,0.041240625734533333
Galaxy472,2155.73,1761.89,0.47121835840102111,-0.30234263310943105
Galaxy473,343.73,2438.41,-0.16880796976140644,-0.26941654937041426
Galaxy474,2426.38,2261.58,0.077263540494177232,0.11166304829971674
Galaxy475,2627.93,2230.93,0.1608617439857879,-0.28423051603379462
Galaxy476,1119.42,2461.06,0.08253886776300047,-0.12196543294025006
Galaxy477,3832.24,2299.01,0.26035377419220651,0.058562183374507942
Galaxy478,2849.69,2883.8,0.38001292302312772,-0.48640398641634364
Galaxy479,541.72,2661.44,0.21889762153440176,0.0020933023221325064
Galaxy480,310.82,2687.61,-0.23130468743810723,-0.1713785283572502
Galaxy481,1816.61,1752.27,0.26153639085963443,0.065512434516277251
Galaxy482,3291.6,3825.55,-0.25838160610126903,-0.0097945260357283903
Galaxy483,2055.57,467.6,-0.10007913137545085,0.20411865913628807
Galaxy484,1616.82,164.77,0.067658825148577628,0.12238753568950875
Galaxy485,1714.03,2892.06,-0.18692966063474892,-0.33458790178816622
Galaxy486,2490.68,3986.75,0.075481724901835176,0.074884048414291693
Galaxy487,3098.44,1702.62,0.10157792667468946,-0.13508993571725228
Galaxy488,1796.65,3397.39,0.26145715791401475,-0.18711098812460372
Galaxy489,3062.81,1767.55,-0.020462241557625327,-0.055410939895048528
Galaxy490,3513.87,2015.78,-0.2189611649083516,0.33234346160909983
Galaxy491,1273.19,3656.62,0.073810745299880381,-0.086106050354547894
Galaxy492,3610.77,4031.92,0.013610323200771338,-0.25050216763973782
Galaxy493,3411.62,3083.73,-0.21438499326167881,-0.074421366857995844
Galaxy494,1751.2,1479.31,0.15554918262441797,-0.17102423083761503
Galaxy495,86.15,2905.57,-0.083703863500685732,-0.12380028656177003
Galaxy496,3806.25,192.23,-0.054739909507316824,-0.0046301339576791944
Galaxy497,1846.7,1807.39,0.20789319331041645,-0.21223951314690831
Galaxy498,1429.31,1048.95,0.1777283937453159,-0.0079138022017289228
Galaxy499,1553.36,1609.44,0.13804656486902073,-0.1000577286058789
Galaxy500,1620.57,1417.72,-0.0030601962963202334,0.1685638363692866
Galaxy501,1636.85,729.14,0.080115503684275807,-0.024224381958331237
Galaxy502,874.37,1144.7,-0.33958579561339614,-0.044092525002620259
Galaxy503,110.91,252.46,0.42232569795298885,0.1571388963512132
Galaxy504,3289.15,3313.54,0.091044521090010683,-0.032184375216466818
Galaxy505,1085.17,3636.48,-0.39523646786681083,-0.17034069305185937
Galaxy506,1126.15,1099.53,-0.19014022725358878,-0.15436341651797009
Galaxy507,397.19,181.08,-0.19817974633497737,0.065378240639684934
Galaxy508,2346.68,2774.17,0.091302780525086058,-0.30105403657204721
Galaxy509,2873.52,2260.8,-0.13153906441447538,0.21913315994350777
Galaxy510,3745.84,1719.7,0.22873575392061851,-0.22835893732016319
Galaxy511,1978.91,3803.53,0.19486992922742596,-0.1363869951901813
Galaxy512,3868.05,2179.59,-0.0012969584834535489,0.30839241099326653
Galaxy513,687.65,1894.27,0.34856897424898714,0.028682735612480581
Galaxy514,1323.32,3678.29,-0.31367297868668925,-0.08003510072525831
Galaxy515,2045.51,1324.19,0.04979872591885437,0.26385237486118662
Galaxy516,3142.78,2993.13,0.17681671399966101,-0.035218025989639495
