GalaxyID,x,y,e1,e2
Galaxy1,1454.18,3905.1,0.097753741626168691,0.007557864160932376
Galaxy2,2340.13,3222.92,0.075063697236441657,0.29706545066704149
Galaxy3,2438.84,2724.15,-0.089505270973202725,-0.080216572057025592
Galaxy4,1611.0,695.07,0.30833221387001647,0.19879556834417739
Galaxy5,2339.03,2313.06,-0.030378480141164774,0.09679591774825097
Galaxy6,1366.64,2881.67,0.23588410335297999,-0.12486188953203275
Galaxy7,1292.26,3387.69,-0.38100274220865327,-0.071139841541149232
Galaxy8,2202.0,4059.07,0.12854890175474074,0.083863944576463623
Galaxy9,1313.07,4181.79,0.16489720293386903,0.17376140988515948
Galaxy10,3058.99,637.2,-0.12362727995868578,-0.051692122301504849
Galaxy11,2866.92,2472.61,0.076168767603182932,-0.099630439706330204
Galaxy12,155.18,3242.68,0.21242975789247245,0.0049664951966208711
Galaxy13,3145.72,2145.59,0.1949056609255031,0.1904677482218945
Galaxy14,2303.74,3070.46,0.043951010814169467,0.023038128142491343
Galaxy15,3080.59,2255.86,-0.22644212490695553,-0.069645112927279151
Galaxy16,997.42,2268.66,-0.012672887174932354,0.046107680601906564
Galaxy17,1721.54,3496.7,-0.12739945322392107,-0.09068449689678991
Galaxy18,2032.34,3659.01,-0.18230447189078847,0.1126613760923674
Galaxy19,2645.24,927.2,-0.30130538666730622,0.2136217259298758
Galaxy20,3718.46,2621.45,-0.13650600074700975,0.047327508567343919
Galaxy21,2127.98,3507.57,0.14198078927793478,0.26006859465929383
Galaxy22,4013.68,3747.94,0.17732273138498694,0.38889313391867647
Galaxy23,2585.7,1155.23,-0.23172166748355383,0.20362303483470304
Galaxy24,3285.69,672.47,-0.11697295300743574,-0.23561260788787919
Galaxy25,3577.37,2360.94,-0.3295288630994066,0.014807904570602118
Galaxy26,1940.78,272.94,-0.013984552946440267,0.1715569919079733
Galaxy27,2909.0,3380.06,0.22776829638993293,0.097313647314277149
Galaxy28,10.76,797.25,0.054432089020371263,-0.17205852174535102
Galaxy29,608.64,3302.14,0.37963868617858954,-0.56330473353555166
Galaxy30,2087.79,2424.2,0.021552654146869361,0.25173227944534393
Galaxy31,1650.63,2302.78,-0.081552457831132671,0.20197939099912243
Galaxy32,3093.51,3641.88,0.14061480062203369,-0.11852867668128902
Galaxy33,80.98,2236.56,0.027833802581408461,-0.1333071064036819
Galaxy34,291.6,4009.26,0.09324723006537812,-0.04726998216885217
Galaxy35,3942.29,3750.37,-0.1735113884154463,0.24984520785860204
Galaxy36,1145.28,1694.39,-0.38880417026076991,-0.0043853744889026103
Galaxy37,1054.75,719.88,0.20810796307717155,-0.1328447166944805
Galaxy38,3123.12,2718.94,0.15762930796934679,0.10671802837635189
Galaxy39,1706.72,2895.05,-0.4305822708658858,-0.11978176528023543
Galaxy40,3201.4,1194.93,-0.52267366542083049,-0.40996866897046463
Galaxy41,819.95,2515.96,0.042150228488491294,-0.25409726025527901
Galaxy42,1446.86,2254.17,-0.0018621139762037553,0.24143903273348316
Galaxy43,273.02,3256.33,-0.19324932562641661,0.63299857069911103
Galaxy44,4171.46,2174.94,0.19755046877287077,-0.036381285000850208
Galaxy45,294.93,3655.27,0.12796474922266765,0.28649653212379234
Galaxy46,2818.94,4198.17,0.09791797159810009,0.070150272855650314
Galaxy47,2098.61,756.43,-0.11118513780438069,-0.062118691455840078
Galaxy48,269.97,1637.81,-0.22879920117387559,0.20994210805027352
Galaxy49,2276.53,2848.38,0.07467709327590509,-0.02243853247965906
Galaxy50,2384.9,1141.03,-0.26160783566296458,0.11194418765736895
Galaxy51,85.6,1147.41,-0.13336273048980365,-0.21340283518948883
Galaxy52,3773.38,3869.42,-0.085149064608928182,-0.018096248317534466
Galaxy53,2333.77,2692.51,0.13166616519777249,0.17980823141982519
Galaxy54,3340.8,2272.97,0.26181738986928504,0.23887433843258496
Galaxy55,240.93,2443.87,0.19282701839979965,-0.18711061031606405
Galaxy56,439.65,1633.7,0.27796514877186657,0.1524710807843789
Galaxy57,3925.1,534.24,0.24477035455169949,-0.1314855020534248
Galaxy58,1768.56,2070.06,0.087429300612753835,-0.17852085293338016
Galaxy59,744.63,2088.26,-0.36449078366482196,0.16554799044771937
Galaxy60,4144.57,2415.2,-0.11268423554608226,0.10017623093115097
Galaxy61,2701.38,2062.33,-0.25815989997029032,0.39550516044046596
Galaxy62,3969.65,2425.56,0.14448457300737227,0.26639636375206088
Galaxy63,771.48,3319.5,0.49970860529919348,0.09448986518279226
Galaxy64,3862.84,578.14,-0.29291101061653868,-0.28632985262665983
Galaxy65,2456.17,3252.95,0.40752749716899761,0.25144380099817681
Galaxy66,353.98,1632.79,-0.31388812627639523,0.096423518437954714
Galaxy67,3620.24,2197.58,-0.55994162715117246,0.019799409238746717
Galaxy68,3830.75,3095.08,-0.12527151399847122,-0.3460029848816496
Galaxy69,3943.13,1598.62,-0.13109812836535817,0.041677533609288477
Galaxy70,2941.8,148.24,0.11353026640131708,-0.030818390352163071
Galaxy71,3000.2,3520.62,0.47904208289847827,-0.27541762204815823
Galaxy72,389.82,3293.74,0.14978432300087974,0.18036909162310205
Galaxy73,395.87,1595.44,-0.046002010276969367,-0.12800823669086203
Galaxy74,2634.99,74.32,0.20605708555778285,0.065832020292462962
Galaxy75,1918.61,714.52,0.30528430551028773,0.17971093766869525
Galaxy76,2829.28,2236.78,-0.18118740151105023,0.22135942906275302
Galaxy77,2319.82,953.58,0.064228292393360406,-0.27993716914188549
Galaxy78,500.2,362.39,-0.30464487443068511,0.13611185177650534
Galaxy79,1087.75,3042.86,0.14986441902960151,-0.0036566341877091457
Galaxy80,3819.04,4141.03,-0.34961549111597312,-0.03079558180037538
Galaxy81,1522.86,2096.16,-0.15518059779669011,0.36491000089908487
Galaxy82,948.56,1665.7,0.022410303293709834,0.27196593028185001
Galaxy83,946.79,1083.85,-0.24341332827816184,0.16393380386747836
Galaxy84,4147.81,2126.1,-0.1594754470132983,0.026212569351871384
Galaxy85,3043.17,572.28,-0.081850263957438121,-0.03336804098007707
Galaxy86,1216.38,1488.23,-0.29139862435912084,-0.064461643594545953
Galaxy87,862.86,981.71,0.011028360878516537,-0.14770802745951245
Galaxy88,3124.41,3899.15,-0.35055744913144843,-0.59509601030201731
Galaxy89,123.41,817.76,-0.13642905844049227,-0.27701787956933777
Galaxy90,2290.06,3821.17,-0.062945140798986554,-0.038420696320461079
Galaxy91,832.74,414.04,0.25072641208646423,-0.080308062259414614
Galaxy92,1527.58,1315.02,0.085349586973671537,0.16531131840681337
Galaxy93,2007.18,2001.16,-0.04319609134805296,-0.47757466560697115
Galaxy94,2925.09,448.66,0.059594252791145483,-0.04894044965493103
Galaxy95,1691.03,1958.76,0.036843129192392507,0.2847884985261514
Galaxy96,1776.94,672.42,-0.33609165691922671,0.058800678435986985
Galaxy97,988.36,2075.76,-0.14078895795698487,0.27949200679058539
Galaxy98,126.2,1308.49,-0.40413096992424252,0.14360248275476234
Galaxy99,692.49,1348.65,0.11584334706343409,0.23763845913034204
Galaxy100,2738.11,2568.9,0.056029735882273231,0.25352269751351297
Galaxy101,556.45,3144.46,0.14694422910799221,0.14731933907664041
Galaxy102,2792.75,2682.81,-0.51604509594325199,-0.10233616278519228
Galaxy103,357.73,933.43,-0.5405992178388821,-0.045265901044949715
Galaxy104,3403.07,41.84,-0.0098857185338656339,0.29211383382663436
Galaxy105,2728.36,1634.43,-0.1626356102452941,-0.14071953230023074
Galaxy106,1910.32,2665.66,0.22823280647653654,0.054612521140306299
Galaxy107,1027.07,1397.85,-0.10128677742353423,0.2193799681199782
Galaxy108,387.14,3444.18,0.053892478226131288,0.139853236964011
Galaxy109,2756.16,15.97,-0.32530133633500469,-0.24008705403558386
Galaxy110,325.73,272.39,0.32683309353961698,0.020098123386251984
Galaxy111,1807.14,3666.92,0.20504828097159217,0.3215864222361694
Galaxy112,2381.49,3885.46,0.18561918077538636,-0.067288384609588789
Galaxy113,1624.12,1094.9,0.13706681704231993,-0.14328067586339679
Galaxy114,3367.13,3706.46,-0.23663667857311921,-0.44952203087869141
Galaxy115,2930.33,1366.12,-0.15878314264777921,0.2429540948081258
Galaxy116,1706.82,1529.31,-0.074650414989145014,-0.11217110488446234
Galaxy117,2308.61,1153.82,0.55061938291051871,0.033127694260841528
Galaxy118,3927.18,3693.48,0.0082851321720879834,-0.05294915023229313
Galaxy119,1216.07,1534.81,-0.31923368583140643,0.12511765818069026
Galaxy120,4012.16,4057.59,-0.13658358524216002,0.24217776472925912
Galaxy121,2461.68,607.76,0.069167454068578438,0.3716097077598754
Galaxy122,1546.53,2810.42,-0.027790657612900865,-0.46320485163463576
Galaxy123,3735.58,1169.58,-0.13596559252142415,0.11754820280107048
Galaxy124,1224.16,3867.41,-0.20424011589981106,0.058188344128992563
Galaxy125,1166.24,427.39,0.109773666467335,0.45494731698181762
Galaxy126,985.74,2661.66,0.068433678219277538,-0.012953949239900661
Galaxy127,1681.43,1838.89,-0.38087006204399176,0.20932413100652625
Galaxy128,3836.43,1950.11,-0.011088405686816905,0.3410437262033188
Galaxy129,720.64,859.02,-0.042516927246825008,-0.21076502450521106
Galaxy130,603.58,1903.17,0.12809383008726494,0.15211654423430865
Galaxy131,3706.32,3265.99,-0.25417721636802848,0.080844722678039327
Galaxy132,2079.56,2793.69,0.091168826102100128,-0.051176485668315716
Galaxy133,3770.94,3239.6,-0.26367919125180073,-0.22787028979342189
Galaxy134,2942.84,2883.45,-0.35833559486359656,-0.21092243927972604
Galaxy135,2277.93,1732.37,0.073206255804071335,-0.014888147060152457
Galaxy136,445.54,523.46,-0.13453287854894466,-0.17444373199445262
Galaxy137,2159.79,2250.24,0.40667460718028198,0.4368941954096599
Galaxy138,751.98,2003.71,0.10976722877254341,-0.1843797680605381
Galaxy139,2489.45,2038.73,-0.083643446843440938,-0.019283629111302519
Galaxy140,2099.86,1187.91,-0.044970109712342783,0.26395323418240224
Galaxy141,3104.01,3585.88,0.16986823423895481,-0.26221929379111175
Galaxy142,184.18,725.9,0.030552660384519273,0.16190298760023714
Galaxy143,2436.8,757.85,-0.018192846233829552,-0.098835874629963932
Galaxy144,4050.37,3397.23,0.354671863376742,-0.3934997863272709
Galaxy145,2298.35,2320.29,-0.073430896202813928,0.24365022236046449
Galaxy146,3235.05,2498.24,-0.10941706723141895,0.24395552187663247
Galaxy147,2228.43,1456.7,-0.10170706684041289,0.06291846860088543
Galaxy148,4102.32,369.16,0.14293736619047567,-0.52206584136794021
Galaxy149,1741.29,351.25,-0.024409690245007332,-0.080442573351731356
Galaxy150,3364.45,2318.96,0.015576985723847442,0.34736436518035496
Galaxy151,178.45,684.07,0.46625860832455551,-0.1838165781386604
Galaxy152,3545.72,1217.7,-0.40969954870110398,-0.26838557879302127
Galaxy153,2560.56,1433.82,-0.31634539775466691,0.20043222259506591
Galaxy154,4081.09,2018.58,-0.084923069523955549,-0.068250097644885793
Galaxy155,1132.4,875.57,0.093526299420109218,-0.18057818176871451
Galaxy156,2655.35,193.79,-0.45124541890901554,0.47089873976506813
Galaxy157,2284.99,633.39,-0.090530639400012422,-0.022846250443501373
Galaxy158,2908.28,2420.84,-0.10614525538078676,0.79021497770381988
Galaxy159,278.02,881.88,-0.041532172896751075,0.26124551729173928
Galaxy160,3894.07,84.46,-0.19851508282521779,0.062966967293183476
Galaxy161,1720.3,3163.57,-0.023072230342691485,0.1499082670896473
Galaxy162,160.57,2837.38,-0.10803787544112053,0.22042419002074065
Galaxy163,1193.77,1648.78,-0.068670239264921967,0.019471975212432054
Galaxy164,16.29,1341.95,-0.1049471778457938,-0.20792397760435544
Galaxy165,4141.33,3248.87,0.14392127302951985,-0.12198968599454221
Galaxy166,3384.17,3778.99,0.19633972463505894,-0.19231794805997912
Galaxy167,609.1,3652.55,0.44414802810124981,-0.25626297468606224
Galaxy168,1941.34,3076.3,0.28966062638208645,-0.00088936764363522353
Galaxy169,241.77,966.13,-0.26714892967060949,0.067599539980279677
Galaxy170,2017.68,475.07,-0.22049613859517131,0.057230733101056308
Galaxy171,1308.84,2450.96,-0.13946474760387628,-0.049096751451663104
Galaxy172,458.04,2605.91,-0.22413593774585611,0.55484079954467813
Galaxy173,1418.13,1244.64,-0.19448042631663537,0.27971316757165648
Galaxy174,2433.58,29.82,-0.11044342938456442,0.048426873240626875
Galaxy175,1289.65,202.05,-0.20926620852117733,0.091508805440740068
Galaxy176,1448.0,1176.73,0.17849836712120001,0.29082961690757708
Galaxy177,3785.81,2992.58,-0.19114556710300049,0.42722278468301816
Galaxy178,2205.11,3297.21,-0.0043604069760187492,0.10398717044818492
Galaxy179,2351.48,3335.64,0.21001986369167075,-0.060959507208147294
Galaxy180,748.31,3258.01,0.18713281715167851,-0.067890880795727096
Galaxy181,643.06,2286.52,0.11550850949164018,0.16939874935344285
Galaxy182,1732.43,1930.35,0.32315891931634505,-0.01010317031736517
Galaxy183,3430.82,3693.69,0.10225622348738275,-0.071681589658693479
Galaxy184,670.27,1768.79,0.011695834680045286,0.39039341792631971
Galaxy185,3489.4,52.17,-0.2383287430949326,-0.21541672994341504
Galaxy186,1113.11,32.98,-0.057004017910361353,0.32848189161340641
Galaxy187,879.64,2447.62,-0.00018913418811149219,-0.049579910433377561
Galaxy188,3733.88,426.58,-0.091649574522877086,0.052540734800602076
Galaxy189,3969.08,2436.99,-0.079380995453325442,-0.27851145133289062
Galaxy190,909.05,339.5,0.19416846091465895,-0.047746404597087615
Galaxy191,2563.9,3469.32,0.27005052127855445,-0.39720187203068863
Galaxy192,3699.74,425.16,-0.31053103051103892,0.14410092583379208
Galaxy193,268.37,1790.88,0.078708547092777248,0.11203565621494074
Galaxy194,320.5,263.6,0.25579951052518407,0.0048667268057294988
Galaxy195,3152.1,1868.78,-0.14614613197942342,0.34231292212182202
Galaxy196,2222.8,1030.94,-0.19519265622252188,0.11167024704069553
Galaxy197,2028.82,1128.41,-0.17154033216240411,0.083514889151608915
Galaxy198,2563.31,2726.68,-0.086278584468507641,0.21868901649392353
Galaxy199,3686.34,2205.1,-0.087570307077741355,0.096134326205948362
Galaxy200,3115.52,4053.49,-0.15879689932783686,-0.15415749989303867
Galaxy201,824.75,3947.7,0.31772733494000954,0.16624659188137406
Galaxy202,2818.71,1932.98,0.26422669863296816,0.37023402287922746
Galaxy203,425.0,1804.32,-0.056019313294592789,0.050086215240838505
Galaxy204,794.41,3442.12,0.016065726047865367,-0.030262436408984766
Galaxy205,3591.41,1391.72,-0.63202383307989285,0.43008560167883553
Galaxy206,1931.06,3833.3,-0.14025223310532253,-0.25919046209797142
Galaxy207,1040.21,704.18,0.06765716129417064,0.15503662275725222
Galaxy208,644.7,810.07,0.2823726326862761,-0.098908007041757423
Galaxy209,3451.2,2865.33,-0.4530280021387818,0.093407745653819291
Galaxy210,2413.5,3340.67,0.06278000946725229,-0.0041247380248781267
Galaxy211,2901.48,800.95,-0.16021025878241885,0.24981505612250932
Galaxy212,1488.97,1691.45,-0.21327483717965559,-0.067664685405710537
Galaxy213,3152.59,2615.54,-0.10547982960806471,0.017275601731336437
Galaxy214,3001.49,1012.91,0.050813104512369561,-0.084061036046422691
Galaxy215,2175.44,291.42,0.030921488779927855,0.25518567745855453
Galaxy216,410.7,3819.11,0.23799088606485047,0.14845045416040423
Galaxy217,4016.18,993.1,0.234432088931257,-0.14625909302140966
Galaxy218,1236.92,825.11,-0.23465409163966006,-0.29417939694058448
Galaxy219,1102.86,1818.81,0.0014645082403932919,0.20051759286125781
Galaxy220,3157.87,2676.87,-0.027578409303622403,0.65916421196658592
Galaxy221,631.7,955.94,-0.091742716449228254,0.092052294978181168
Galaxy222,1201.2,3548.17,0.24969802390821019,-0.18748991985425589
Galaxy223,3324.99,1134.55,0.028268113700913824,0.15204447113516023
Galaxy224,533.8,220.58,-0.32017518748896984,-0.13880558865207498
Galaxy225,2458.26,1248.74,-0.016876797590462157,-0.18042384299597081
Galaxy226,1405.86,3234.83,0.26299753231533823,0.22834585189805243
Galaxy227,276.31,473.21,-0.13755502688838622,0.028532068201003801
Galaxy228,1701.84,948.82,-0.21194725211491303,0.13575405277295061
Galaxy229,1524.3,3401.53,0.17048026885564632,-0.10444497891492069
Galaxy230,2890.63,1742.35,0.19347238356426266,0.27406715885176369
Galaxy231,2976.9,1470.74,-0.1972070541109926,0.13649394125731118
Galaxy232,3065.44,1532.64,-0.074011600976667133,-0.1118664177297721
Galaxy233,2047.63,3942.64,0.01218733054915766,0.02903531681880174
Galaxy234,3123.49,2531.12,-0.33154779379661803,-0.05272117039872265
Galaxy235,3581.6,3201.74,-0.27756134850558006,0.23410918741258502
Galaxy236,279.03,1276.97,-0.25826910507320855,-0.1270884323654142
Galaxy237,2759.85,631.77,-0.092575592032074855,-0.22616246738644061
Galaxy238,2228.71,973.7,-0.080773323223276891,0.46651562133295965
Galaxy239,3792.34,1188.92,-0.038288714445472036,-0.16430920876591937
Galaxy240,1973.56,1946.69,-0.43484496142458617,0.30626672117767817
Galaxy241,2155.38,169.77,0.047536174624167607,-0.015332676752095722
Galaxy242,1463.88,596.51,-0.20802866478003681,0.11101385902187821
Galaxy243,3303.76,2816.1,0.38142248367283133,0.51954421736349388
Galaxy244,3538.44,2963.28,0.10283758244810454,0.50676214480467219
Galaxy245,352.54,2241.52,0.047867473918258421,0.17141278052423436
Galaxy246,591.21,2856.83,-0.061962953001970397,0.033182586589790994
Galaxy247,473.54,3666.07,-0.46970363859658854,-0.020944883103391741
Galaxy248,3604.62,974.75,-0.0904541016035324,-0.14094864850080058
Galaxy249,3757.61,2304.25,-0.54707195544721143,-0.035516756555814773
Galaxy250,3335.68,101.99,0.10855513996421305,0.092513695475947941
Galaxy251,3781.99,684.03,0.16869716034235982,0.12346999873964701
Galaxy252,2426.58,1321.99,-0.05059559662528753,0.19489160755256923
Galaxy253,4098.86,1497.68,0.13460283668282302,0.053118542178227569
Galaxy254,1100.52,903.78,0.054364995223441626,0.057991292534620126
Galaxy255,2258.87,1117.16,-0.012884013261166744,-0.21879152313931363
Galaxy256,2840.33,1752.32,-0.45147704226961394,0.088100812481960764
Galaxy257,3324.48,862.63,0.28600114561849976,0.1764888054887894
Galaxy258,574.89,1596.31,-0.48527390550412902,0.32577500719589969
Galaxy259,780.9,3576.66,0.14550274496761165,0.59596533590413514
Galaxy260,2219.91,2899.0,-0.10042253148866223,0.0030500585407398639
Galaxy261,4191.37,1623.99,0.17620338498753871,0.050529395919898412
Galaxy262,389.38,1936.95,-0.062772349014393269,-0.35511547509085273
Galaxy263,1378.86,1165.92,-0.20912799108123756,-0.05110698228160683
Galaxy264,1749.46,3828.57,0.13427451728267614,-0.42041526056151324
Galaxy265,1999.68,592.85,-0.36609033526247436,0.26616470949875282
Galaxy266,2354.15,1496.14,-0.54440955320727591,0.020890279195764125
Galaxy267,1933.18,2155.75,0.37504977143953322,-0.049563088754078971
Galaxy268,839.53,3312.25,0.16763050349191028,-0.10798537457311702
Galaxy269,1216.0,3645.42,0.15724220293623056,0.018327432551550504
Galaxy270,3347.53,1029.71,0.056649047653015525,0.13000751580631312
Galaxy271,1762.42,1041.27,0.094463641108255558,0.34709317076556828
Galaxy272,1538.92,1833.0,-0.28398250897640986,-0.12346560460592838
Galaxy273,518.36,1475.09,0.4133508325391485,0.35887077289268599
Galaxy274,3955.8,3552.94,0.097421769512602063,0.057296802675494085
Galaxy275,3511.15,2950.03,-0.048001336363886593,0.21620518396530164
Galaxy276,212.28,1542.3,0.10030949127277258,-0.020927214133712957
Galaxy277,30.91,3030.73,-0.11971586691638295,-0.0049117890123926058
Galaxy278,3135.23,3724.3,0.018786148796456958,-0.21005803260799183
Galaxy279,115.73,1387.71,0.3335428521153041,0.22158406646634404
Galaxy280,756.77,1759.19,-0.026013214304525432,0.053252814019979701
Galaxy281,3964.56,887.7,-0.26170075017064542,-0.088688881003579703
Galaxy282,3150.57,628.3,0.28493430181724921,0.08269415993123104
Galaxy283,2369.7,1150.8,-0.078417332287298844,0.30057337257770184
Galaxy284,873.87,3875.61,0.24158727937295493,-0.25453859479477947
Galaxy285,1874.67,1423.98,-0.014066201599441962,0.050371792200634674
Galaxy286,2518.57,3151.36,0.54534586223074255,0.0069458012354071397
Galaxy287,1737.86,625.42,-0.18168218366392994,0.036258432154965575
Galaxy288,2531.74,4030.82,-0.22127032897496052,-0.16811800003832233
Galaxy289,1717.69,1683.35,-0.3230091021909563,-0.36699944575909338
Galaxy290,2955.49,2570.59,0.088895164193306217,-0.01150214039627942
Galaxy291,748.36,1226.37,0.26984655030028326,-0.14262905089019781
Galaxy292,3786.82,3542.27,-0.23481030485239104,0.32246442205146281
Galaxy293,3793.75,4185.11,0.049365146922939307,-0.0077468470546417992
Galaxy294,2956.9,4045.88,0.18795241041939464,-0.50988266980224495
Galaxy295,1476.27,4027.62,0.14041573522701592,0.096794635323087852
Galaxy296,1208.4,484.86,-0.3267643073578238,0.40094761313626992
Galaxy297,4122.7,565.9,-0.0051707407525163201,0.0013269638280137622
Galaxy298,966.66,3828.87,-0.069533744865022132,-0.030401576340266346
Galaxy299,3813.5,2506.01,-0.37828517006636087,0.41549761556781295
Galaxy300,3209.14,3259.29,0.011957178527245038,0.081588391391558199
Galaxy301,2329.42,3472.77,-0.16189146990042036,-0.21514017046714207
Galaxy302,2702.75,3807.66,0.23003362327594443,0.63797329041567508
Galaxy303,2764.96,3772.39,0.055017441367416042,-0.026183565195027958
Galaxy304,1541.19,384.38,-0.0088771347452307071,0.37261757225141956
Galaxy305,878.43,3377.77,-0.053560879210197643,0.41438924397694754
Galaxy306,980.32,2921.74,-0.021971338634865195,0.059337695880074426
Galaxy307,852.71,2776.32,0.047353608287043408,-0.27260398061504815
Galaxy308,2559.97,1307.63,0.10172496614810614,-0.30444491357208664
Galaxy309,923.49,66.76,-0.088040168922215584,0.24196818338078557
Galaxy310,2113.27,610.73,0.13502496090589428,0.060148831225098343
Galaxy311,1256.18,552.01,-0.017791288078678337,0.44494607348934201
Galaxy312,881.76,4048.31,0.17444397630193761,-0.29516879858709499
Galaxy313,3099.46,977.51,-0.19448091554183095,-0.008681241053278263
Galaxy314,3165.97,1243.92,0.074488633795708817,0.077352348571769911
Galaxy315,2624.9,2349.53,-0.25433887921062881,0.34203774782613178
Galaxy316,263.5,997.65,0.15665638729572373,0.11399945083672118
Galaxy317,3753.81,1285.56,-0.11412442781262649,0.021880806820405236
Galaxy318,2668.77,86.44,-0.10857591765117219,0.10037254416784989
Galaxy319,76.64,1249.86,0.26646631238488222,0.28966813662381663
Galaxy320,283.91,3063.05,-0.1697023810082891,-0.055394721037116963
Galaxy321,1154.8,2162.47,0.099156449757915668,0.12673522289554895
Galaxy322,1806.65,1122.19,-0.48090051924332555,0.026162323318338593
Galaxy323,2341.83,3886.52,-0.18567965131295841,-0.080568319017336465
Galaxy324,3581.11,1906.39,-0.22596953441696244,0.04546591568823892
Galaxy325,2159.56,2252.41,-0.10418269324905036,-0.16370729081766236
Galaxy326,2137.54,2529.23,0.24827968916521009,-0.30209616597934197
Galaxy327,2935.83,1182.73,-0.29225652743318792,-0.33228134951888288
Galaxy328,2024.68,3667.52,0.037305861749298203,-0.074003424690519973
Galaxy329,1502.27,3154.32,0.19509111731292639,0.18838123726474096
Galaxy330,1673.82,2383.02,0.0037193379713811453,0.19596365132933369
Galaxy331,3641.49,2106.92,-0.098461608396053252,-0.31560293965498754
Galaxy332,3058.08,1977.89,0.059701899131839334,-0.011104756750340949
Galaxy333,3476.93,4113.18,0.070983357118509838,-0.22222992581933448
Galaxy334,1668.7,1125.26,0.39491445619646481,0.23794503930442054
Galaxy335,2760.94,3547.4,0.22102380043961575,-0.042728419020429856
Galaxy336,3960.09,107.84,-0.11676435574937193,-0.13833530291039731
Galaxy337,2744.63,2392.72,-0.032902941054239791,0.21804005853821185
Galaxy338,886.07,1201.54,-0.051299534308442113,-0.15642811055226952
Galaxy339,1553.72,2337.52,-0.006573714540870898,-0.031277898623066652
Galaxy340,2626.17,2363.15,-0.081366183356129967,-0.12397141340443713
Galaxy341,2198.71,2775.88,0.55212832321766192,0.078821869218098806
Galaxy342,3174.53,3714.51,-0.002420101306238126,-0.14295187277465207
Galaxy343,3877.8,211.44,0.043167010456099122,0.17491706533567633
Galaxy344,3239.14,343.52,0.071726849695616365,-0.07610938986516802
Galaxy345,1798.48,1664.3,-0.38646167000348031,0.60215520387980526
Galaxy346,3499.59,318.08,-0.4311304828180611,-0.082208227080722701
Galaxy347,1360.27,2615.79,0.17381233178514341,0.0015884677301586242
Galaxy348,3570.08,1656.81,0.12333774444781942,0.29989791675553479
Galaxy349,2112.36,2349.18,-0.0089713515085898463,-0.018862326053965012
Galaxy350,684.28,1775.66,0.12494357322223651,0.37886877532136537
Galaxy351,493.58,3618.9,-0.1824780660009504,0.22521458286233045
Galaxy352,3945.85,1828.21,-0.35382147077383491,-0.09844749211147702
Galaxy353,2296.51,1597.89,0.14637834538605193,0.027771869455275003
Galaxy354,2088.57,1769.0,-0.11325487978842796,0.36996865399856838
Galaxy355,3325.16,1933.58,-0.18665177738739031,-0.08148354877360775
Galaxy356,279.26,4035.16,-0.22216162177792018,0.072859979800138849
Galaxy357,2778.29,3927.16,0.36746037592455622,-0.33054515918550709
Galaxy358,3452.09,1739.98,-0.32253953808548741,0.33620236532548414
Galaxy359,996.42,1923.38,0.05932185183559141,0.20083011492222136
Galaxy360,3103.33,4045.58,-0.18160721651534992,-0.49348116137017239
Galaxy361,760.52,1039.96,0.11779195610019506,0.41195190447875207
Galaxy362,1866.69,2510.36,-0.065460360020522357,0.28917512730627909
Galaxy363,2459.86,3099.93,0.46524636958514431,0.056116965196204037
Galaxy364,3627.02,3214.76,-0.0038758380988080932,0.36463319334464916
Galaxy365,1705.7,3266.19,0.16155489574912785,-0.12006818348198643
Galaxy366,3941.06,2660.06,0.18599259763587728,-0.13708545305981401
Galaxy367,3790.28,2068.56,-0.13370768341275702,-0.2670077094152703
Galaxy368,1166.28,1250.9,-0.24077716607624222,0.10317178395610127
Galaxy369,403.57,94.14,0.0084283430823790216,-0.12172427743612987
Galaxy370,2193.2,2564.21,0.055879030404485316,-0.12484814845423542
Galaxy371,3826.62,1213.43,-0.016723288672211276,0.20010259981828782
Galaxy372,3513.61,990.09,-0.017421548742646772,0.26184107579717231
Galaxy373,1286.72,2562.33,0.14897819256625933,-0.23432641441950933
Galaxy374,311.24,3569.93,0.39594841643148615,-0.17781029067153614
Galaxy375,3987.59,4114.76,-0.0061797832774865835,0.3033766222613577
Galaxy376,2623.72,1515.99,-0.029843872591106796,0.20842405381372731
Galaxy377,3020.27,377.78,-0.2672051761584105,-0.66697981099653347
Galaxy378,3510.8,3796.29,-0.36218857918180036,-0.42413364912279355
Galaxy379,2379.21,2734.78,0.018529522974493826,0.45260326554836156
Galaxy380,2979.29,1464.04,-0.3054772884218816,0.12684310839072063
Galaxy381,2783.22,1348.13,0.080945216569393935,0.26876797865126711
Galaxy382,800.1,743.75,-0.34291275156104539,-0.26061477899996416
Galaxy383,2647.01,370.44,0.19500709545899328,-0.25297117972652844
Galaxy384,436.9,3257.87,0.13083485301630213,-0.28829325989279558
Galaxy385,2816.82,949.85,-0.17103701784344699,-0.18499193956943055
Galaxy386,1023.18,1475.52,-0.064585213387043497,-0.12819711013761115
Galaxy387,3850.8,2596.37,-0.11061302364490894,-0.17775017619178474
Galaxy388,2739.6,17.09,-0.048604191176897682,0.28531845672418343
Galaxy389,769.11,1067.14,0.24238407555857364,-0.021980873830099529
Galaxy390,1798.06,2489.29,0.21571870607061777,-0.11462782682760624
Galaxy391,3578.46,995.16,-0.019497290826112151,-0.374617490547488
Galaxy392,3523.45,2594.68,-0.19342011722199731,0.33999907414057595
Galaxy393,3275.59,1951.99,-0.16534386484129304,0.28697515535496054
Galaxy394,158.47,3629.24,0.035733807222307901,-0.15003129399932186
Galaxy395,2789.08,1326.72,0.089272236808235553,-0.28220066740574934
Galaxy396,3415.43,4101.42,-0.14890945227278654,0.25195071057841745
Galaxy397,3911.41,1849.14,-0.27140306674236825,0.10532019256706392
Galaxy398,2144.01,2922.67,-0.047219322564527433,0.021491213174988491
Galaxy399,1154.73,2523.16,-0.10569791766432919,0.022055757191075817
Galaxy400,4166.52,1049.53,0.074102940987909122,0.028144513656934406
Galaxy401,527.04,2732.48,0.065059814244612019,-0.14530658890483594
Galaxy402,3348.67,1891.74,-0.022719432344856155,-0.072402634711406844
Galaxy403,3290.0,1724.49,0.22326289374923142,-0.10919542580965858
Galaxy404,3966.83,3127.31,-0.21197819247587152,-0.55434321590120772
Galaxy405,301.0,1504.14,0.12090511682574699,0.13219214086168923
Galaxy406,3479.15,2349.1,-0.24147555148345667,0.12839891341781731
Galaxy407,1663.5,2151.39,-0.074415345160885854,0.085184221668172605
Galaxy408,2593.91,3886.69,0.43858709808343121,-0.26671983586170228
Galaxy409,1055.35,385.54,0.41369116405972878,0.084448717411056584
Galaxy410,1129.74,69.88,-0.14471251536418905,0.19316539863702142
Galaxy411,292.39,4086.63,0.21174825072809225,0.04330004279400175
Galaxy412,397.89,2997.28,-0.16435321464638186,-0.27294593293123531
Galaxy413,3309.61,60.48,-0.20652333465440653,-0.433528136939756
Galaxy414,42.51,2623.5,0.18652270213098276,0.28142252300639381
Galaxy415,3990.55,2041.09,-0.38103279790346811,0.078881839183172181
Galaxy416,474.58,1769.34,-0.20700539922004141,-0.35031913248178093
Galaxy417,1841.45,3335.18,0.0088436045056802803,0.11756278349121345
Galaxy418,3486.93,1150.57,-0.28738913798780508,0.069569797092626534
Galaxy419,3088.59,3678.46,0.20422387370942038,-0.31383202870899762
Galaxy420,3500.49,3855.95,-0.20692994896414924,0.18388891414361164
Galaxy421,546.0,817.85,0.0042471235745721253,0.072420956884893195
Galaxy422,546.21,540.99,-0.20606992624124598,0.0082065208080824154
Galaxy423,3701.66,2786.04,-0.11381593046593733,-0.60553187500791561
Galaxy424,3587.01,3868.73,-0.16861977911824888,-0.13258450140969655
Galaxy425,2738.1,3537.69,0.27103075621258155,-0.13662370109527799
Galaxy426,320.04,567.81,0.16512462918672,0.01901640707525137
Galaxy427,2095.63,1119.66,0.36318582446891262,-0.015179209483446213
Galaxy428,783.72,3309.46,-0.007951166614141858,-0.23689337587332709
Galaxy429,3564.2,3116.23,-0.19178786023103284,0.5006234512316835
Galaxy430,560.07,1723.22,0.38163913427847124,0.071339912695195989
Galaxy431,3599.08,3513.63,-0.15396683706577552,-0.042308304487153392
Galaxy432,1221.08,725.17,0.055727361664962526,0.073108288386289105
Galaxy433,2738.67,3305.06,0.035674690744546961,0.050106582074687253
Galaxy434,4033.43,2417.84,-0.075577969837688636,-0.19291619607867896
Galaxy435,1878.27,3567.43,0.2720226548868887,0.19793805238821388
Galaxy436,4086.61,3886.91,0.060597226064166287,0.14246687072606998
Galaxy437,923.03,1625.55,-0.098349326150474814,0.19457778677679793
Galaxy438,2182.15,2781.22,0.41924068727910557,-0.11490066766061532
Galaxy439,3129.42,2924.69,0.26426485182065151,-0.11565321613807922
Galaxy440,2261.79,2785.93,0.35654111143187162,0.10934190301991417
Galaxy441,559.61,1254.16,-0.0072931234513079826,-0.32513644477410164
Galaxy442,665.98,2100.09,0.13773979698433064,0.12087337620677541
Galaxy443,1422.01,132.01,-0.026838499297521249,0.32665255972004092
Galaxy444,1456.0,1749.16,-0.1934549313875325,-0.32517056667463906
Galaxy445,4162.23,2792.07,0.048110592911728325,0.012690174317246117
Galaxy446,663.08,4036.17,0.028817766527356757,0.0098236722974132384
Galaxy447,4022.67,2999.26,-0.012216785706561942,-0.13485409080838931
Galaxy448,2903.68,637.64,-0.024926987802840722,0.12708852948023247
Galaxy449,3504.81,1862.34,0.046270942384147751,-0.19166078366487871
Galaxy450,3560.5,1075.08,-0.0045948015059620873,0.07387348505253151
Galaxy451,1120.83,1087.64,-0.32142257625022363,0.18113508403173353
Galaxy452,2609.7,2466.68,0.32760479438523904,0.23767610333089534
Galaxy453,898.52,3890.91,0.5455545132775973,-0.014188978742287552
Galaxy454,3747.89,3977.24,-0.38446070818751343,0.31003674468993775
Galaxy455,1494.25,298.05,0.053796093078570043,0.096833523042516537
Galaxy456,1633.27,2105.96,0.35681962708401649,0.047968018305072121
Galaxy457,3543.3,279.08,-0.278685456625346,0.18156380101242517
Galaxy458,4191.31,1150.68,0.19204252239196146,-0.047504764992314756
Galaxy459,551.54,2658.63,-0.14720358550131096,-0.066608831656382428
Galaxy460,1010.48,981.22,0.43470921489034381,0.30028155271493495
Galaxy461,651.32,3088.19,-0.21946359417032379,-0.38548594330562874
Galaxy462,584.76,4031.77,0.09212557288679557,0.021319215973612651
Galaxy463,1740.85,3219.25,0.27245886310915313,-0.27673261482682471
Galaxy464,2554.25,1551.03,0.19950072928637638,0.13015582506043533
Galaxy465,3373.27,3908.15,-0.24946397735041131,0.16017929925838109
Galaxy466,2874.9,535.42,0.19359397763583952,0.00081505307646477509
Galaxy467,2383.88,1602.44,-0.25834309060804134,0.17820980333551711
Galaxy468,1238.26,3488.71,-0.035955580520046188,-0.10139162734716684
Galaxy469,133.88,391.08,0.06344085414275473,-0.064450427644189734
Galaxy470,4180.66,194.8,-0.12852435098449594,0.089475983587033986
Galaxy471,1954.89,1349.1,-0.19875623107061455,-0.15577262506305189
Galaxy472,229.83,3563.79,0.2727152618614197,0.26637474131638184
Galaxy473,3929.1,1537.37,-0.23226106128162183,-0.28637464072493835
Galaxy474,2659.88,2578.99,0.10388330579472568,0.35209326120743833
Galaxy475,1879.65,3267.86,0.078350240773804078,0.30180614614174894
Galaxy476,1619.81,173.16,0.089466037501886753,-0.01047427520359949
Galaxy477,723.69,719.34,0.032971683517476855,0.34503955341633846
Galaxy478,804.61,3295.06,-0.13735344681476819,0.018597215091260513
Galaxy479,1171.38,1951.63,-0.1575228818988158,0.0060009917033580634
Galaxy480,2220.67,2817.58,0.092223555519538702,-0.10357387788853062
Galaxy481,3429.41,1421.63,-0.49154991049243685,0.13555881626466981
Galaxy482,2017.68,1050.59,-0.1862236739311017,0.06937058214531408
Galaxy483,3822.94,3737.33,-0.41266385098552094,0.10548627097930094
Galaxy484,3954.84,3259.84,0.13381556457768282,-0.16203869716703639
Galaxy485,957.51,3617.82,0.18902971884813202,0.050025381377625744
Galaxy486,2020.32,174.75,-0.45786808365518494,-0.099100775640699523
Galaxy487,2210.73,1069.75,-0.32258260438352376,-0.18464992303826436
Galaxy488,2856.99,969.48,0.088694789628462084,0.064975110098489344
Galaxy489,2344.02,2819.09,0.10881211174348519,0.079686201211379759
Galaxy490,1907.82,2492.48,-0.20351384011555468,0.12924845606355712
Galaxy491,1185.04,3804.23,0.16666594257740969,-0.049755349148942966
Galaxy492,1247.35,2643.98,0.22966874762609729,-0.33432018478798808
Galaxy493,1473.13,710.97,-0.22757713781763589,0.20695108195726863
Galaxy494,1980.66,3712.99,-0.054074314568401421,-0.55112997972100608
Galaxy495,61.76,622.09,0.10007625503635052,-0.04025219481783205
Galaxy496,2924.03,2953.32,-0.019864515928626925,0.38641094063987957
Galaxy497,3934.53,615.72,0.15750354744048051,0.38052668177517224
Galaxy498,2482.97,1445.12,0.33009516063688699,0.12593790860703488
Galaxy499,2880.42,3573.72,0.0026576701874204689,-0.16151599414785375
Galaxy500,3146.43,1651.63,-0.33879175939672668,0.18120727854962576
Galaxy501,1319.37,2094.63,0.021586787722695192,-0.010002959868768105
Galaxy502,4129.14,4172.45,0.12115156974798702,0.36784720906421536
Galaxy503,2526.69,2792.66,0.24524942316614962,0.12940501061291423
Galaxy504,3464.83,3071.87,-0.36650829016777164,-0.025135538128475687
Galaxy505,4008.78,176.44,-0.43027170911609358,-0.12157617518521099
Galaxy506,2298.58,4021.72,-0.37483777324309464,0.0097729005146914294
Galaxy507,1351.27,1715.92,0.14717522289830781,0.10476992445373208
Galaxy508,3810.97,1931.79,0.0220260662688265,0.039430409296150479
Galaxy509,2421.42,2531.48,0.25935496686496684,-0.27993575646903801
Galaxy510,1073.69,943.08,0.042640669905140399,-0.45639077688267549
Galaxy511,1393.0,2227.37,0.04143811637500705,0.11489111684436434
Galaxy512,2651.41,1801.17,0.17499766401981684,0.29046275618704498
Galaxy513,3344.84,385.35,0.11799450627153994,0.00700425367787718
Galaxy514,3849.95,1326.13,-0.13489606137972304,0.33633030552238752
Galaxy515,853.6,547.18,-0.2460541199827905,0.18235329677795048
Galaxy516,3471.48,2793.41,-0.085539213175404388,0.64717649023727497
Galaxy517,3290.33,987.74,-0.058267765630956987,-0.33750515344153564
Galaxy518,2045.36,2143.16,0.28634431899135832,0.15800705343334992
Galaxy519,3269.3,3204.79,0.15375520178912452,0.24373313671512845
Galaxy520,4024.91,4045.69,-0.59589141851453975,0.28009224768264829
Galaxy521,432.62,1866.18,-0.003309833653597577,0.012500423069934742
Galaxy522,1682.38,251.44,0.3360354380637457,-0.12052899963414143
Galaxy523,3290.42,1141.88,0.23692133532562976,0.14244146526675419
Galaxy524,1422.66,3283.38,0.23687987665748617,-0.045597889680834863
Galaxy525,4108.92,3451.74,0.45155007406512571,0.041761312016799265
Galaxy526,2170.59,2058.47,0.30264167510519424,0.13379558334626965
Galaxy527,3442.61,4049.55,-0.68040340398066956,-0.29962355805260354
Galaxy528,3875.73,128.14,-0.12489783547577707,0.22108128827148485
Galaxy529,209.89,2743.16,0.39857307099071743,-0.0076531086618504343
Galaxy530,971.43,2550.92,-0.11754321152413397,0.11719799092683816
Galaxy531,1758.5,4181.46,0.029989801853412726,-0.11542698336362531
Galaxy532,2651.51,64.15,0.11384596814984099,-0.52615534882975246
Galaxy533,4043.56,1680.76,-0.16306299231745483,-0.0040394955686640158
Galaxy534,1727.36,217.73,-0.10902542999398666,-0.10441277411510136
Galaxy535,634.61,3838.02,-0.0047523635216715349,0.31067472493083503
Galaxy536,897.11,4159.26,-0.034879015646588726,-0.34201422145228916
Galaxy537,866.59,889.9,-0.047474923517206578,-0.087317715192215845
Galaxy538,1290.29,2429.32,-0.18635686646742958,0.17824268242051255
Galaxy539,3080.94,3555.02,-0.1794072044316955,-0.27518260309338693
Galaxy540,3431.56,540.36,-0.25060100651350936,-0.3174011263202931
Galaxy541,1912.68,3855.7,-0.17760868120086939,-0.029830021092526256
Galaxy542,3819.09,4036.89,0.045353050823178698,0.46652495819773426
Galaxy543,4025.47,913.17,0.051960398728469998,0.23114616137531097
Galaxy544,154.41,713.97,-0.057823788565332435,0.14250769103114402
Galaxy545,3607.47,1516.98,-0.44872847464582688,0.15183913377094976
Galaxy546,3009.12,2230.27,-0.58382205212256089,0.51068864144601422
Galaxy547,1241.38,2652.0,0.014120891337436839,0.21197275639150512
Galaxy548,652.81,168.02,0.1824010531097838,0.10327494163836236
Galaxy549,1258.24,3664.05,0.36160977636660097,-0.052681075035710116
Galaxy550,391.11,52.07,0.21370264758328625,-0.16421707842230879
Galaxy551,3546.51,570.04,-0.061554408047908585,0.066982861578513686
Galaxy552,2631.94,4114.67,0.33421787442384204,0.015691508155152217
Galaxy553,3181.17,3336.72,0.24571889670228836,-0.05448482432130787
Galaxy554,720.46,2215.34,-0.22082432953978215,-0.12903431602993948
Galaxy555,3404.11,1879.18,0.032657137394669383,0.18355415733546887
Galaxy556,1967.17,2614.81,-0.13944551812530614,0.18156356758182141
Galaxy557,3736.28,3386.49,1.5417906864498738,-0.056017433983910958
Galaxy558,2984.9,1695.19,0.23971617786234084,0.023005324403156571
Galaxy559,3495.01,897.13,-0.098532605286113545,-0.15656411203640161
Galaxy560,3807.65,2092.25,-0.079469839518351321,-0.17965051458504214
Galaxy561,1559.49,185.27,-0.36077833453943381,0.20950955253150594
Galaxy562,320.9,736.13,0.25274853554558474,0.015549056411418218
Galaxy563,1062.82,689.76,0.0291254389551889,-0.014740243654919855
Galaxy564,1753.86,2769.5,-0.061338093429669602,-0.083867153535582176
Galaxy565,2853.3,510.91,-0.054846616800231805,-0.2384639232843451
Galaxy566,612.66,488.36,0.17612738867989697,0.10700265428740993
Galaxy567,3403.12,1775.55,-0.23937671424655765,-0.10715274024537025
Galaxy568,830.14,946.57,-0.21123382065751573,-0.08094309187296958
Galaxy569,1922.81,3817.03,0.10325411559661037,0.14867127833087362
Galaxy570,3519.66,3126.25,-0.17664360215158459,0.24723754677963394
Galaxy571,2026.88,376.71,-0.12612143098550593,0.088297912857264987
Galaxy572,843.33,2581.69,-0.29962485893638846,-0.31601934706492929
Galaxy573,3758.07,3660.11,-0.31399101090213766,0.13725369871383472
Galaxy574,2917.83,3432.66,0.42791530036773318,-0.19758606974069037
Galaxy575,3149.91,54.67,-0.070616164156893313,0.19087443826984812
Galaxy576,3372.04,3808.18,-0.25660755080464326,-0.04142637805305982
Galaxy577,3096.47,2892.46,0.49112125203681201,0.21211679758885615
