GalaxyID,x,y,e1,e2
Galaxy1,1363.14,3341.68,-0.10090465048555318,-0.24684156544981778
Galaxy2,3765.29,382.66,0.20275016181069971,0.26909782769851948
Galaxy3,2585.88,3266.57,-0.14145594662869929,-0.029404722261971272
Galaxy4,3033.78,614.47,-0.055754535888116595,-0.086013943565489415
Galaxy5,4046.6,3423.65,0.054997081505312947,0.28411070841683372
Galaxy6,3802.6,944.35,0.20940862079581773,0.20353964347269241
Galaxy7,519.3,4145.13,0.17321120418668673,-0.24018512474127224
Galaxy8,1873.43,2034.6,-0.14895234397885004,0.015217018451918841
Galaxy9,3010.8,2894.18,0.094107560827437362,0.39306259398638088
Galaxy10,3050.36,326.14,-0.048984136820216587,0.16127131334280945
Galaxy11,215.34,3568.89,0.27789602742445002,0.2069935920212537
Galaxy12,2985.01,1756.37,0.15613132992168008,0.21029449173481315
Galaxy13,159.39,2040.37,0.27601110653197114,-0.027581839581146423
Galaxy14,2136.43,1635.47,-0.21650162121534391,-0.049066050776316594
Galaxy15,529.48,3934.79,-0.023577909268627479,-0.25404265801425624
Galaxy16,3858.02,321.97,-0.063005530015386418,-0.059858173150750912
Galaxy17,2073.39,610.07,-0.16716581900739319,-0.37214998758640389
Galaxy18,947.13,2390.23,-0.030470842324662434,0.050837772375046886
Galaxy19,2475.28,1199.47,-0.46119017346803948,-0.045287742264970732
Galaxy20,1435.42,1400.61,0.21785497487081995,0.28587507217623587
Galaxy21,2853.26,421.76,-0.30911147053514726,0.18519352587846682
Galaxy22,3926.31,406.51,-0.10120226240786756,-0.47506413874198938
Galaxy23,2347.37,2969.62,-0.024035016531063547,0.12750675146685309
Galaxy24,2892.11,1474.19,-0.016601722045694864,0.098533028578046578
Galaxy25,964.63,2955.88,0.058278266497092737,-0.0094954785164274857
Galaxy26,354.57,2410.57,0.41327933627625391,0.045942014846165086
Galaxy27,1277.52,2591.86,0.18933819604027746,0.16233499679464014
Galaxy28,3962.67,3761.59,0.094004084561501153,-0.26607923127760785
Galaxy29,3017.03,1280.44,0.16594996290718733,0.063959549643344354
Galaxy30,1606.68,3770.53,-0.019931387354196334,-0.070538086599232233
Galaxy31,3502.4,2692.33,0.31914780538130999,0.098536402960058472
Galaxy32,3799.0,2580.23,0.062563972013932892,0.18303900705989212
Galaxy33,795.29,116.41,0.20668391887804943,0.22202029195097303
Galaxy34,3851.0,2722.38,0.41494635757488618,0.14765560000858702
Galaxy35,3927.16,4191.83,-0.19921300782081569,0.30547271758660122
Galaxy36,248.13,1829.9,-0.29258248184556623,0.088751424507734766
Galaxy37,1538.23,2790.32,-0.58124371551640697,-0.11512208270657337
Galaxy38,3756.05,3204.22,-0.04063560728904448,0.23907392605488698
Galaxy39,336.29,1268.08,0.4012203586616081,0.053548053546382597
Galaxy40,2.76,2354.4,-0.034782588268291365,-0.15062652853213226
Galaxy41,435.56,3228.67,-0.058321771266346328,0.058386489026446942
Galaxy42,3656.44,3088.07,-0.23779849881586479,0.10188227869124894
Galaxy43,1837.79,318.75,-0.23882987160755137,-0.071265197935327901
Galaxy44,3826.37,1236.61,0.42281159151902037,0.056737159524541378
Galaxy45,396.3,1558.47,0.08702987693888431,-0.094728195670219936
Galaxy46,1538.16,396.15,0.030582695843225122,-0.084834323253862837
Galaxy47,530.37,1503.66,-0.10732979785785293,0.10761961818308313
Galaxy48,3381.97,1755.25,0.17644775946577063,-0.10169865339476235
Galaxy49,2300.2,1127.65,0.075228297190698012,-0.159577401675872
Galaxy50,2466.87,103.82,-0.020231450017604916,-0.17509115873572509
Galaxy51,968.57,1020.11,0.29263409192514056,0.14123152990930765
Galaxy52,1210.38,1721.11,-0.011307914100543021,0.0033109861153282072
Galaxy53,1989.45,343.11,0.41234950886762733,-0.16777031534908154
Galaxy54,3897.65,2390.96,-0.05272468418428411,-0.14589423968663981
Galaxy55,3560.05,2168.66,-0.32010527581327625,-0.0082572094379772601
Galaxy56,1042.76,4152.6,-0.11989772934821881,-0.40500618187474091
Galaxy57,3933.6,1281.85,-0.36373132858052315,0.188234654574753
Galaxy58,2738.53,892.36,0.16155420989194785,0.25383405155366751
Galaxy59,3645.97,3794.6,0.35442135038390615,0.22625904565592103
Galaxy60,3982.85,2112.55,-0.11592110255636393,-0.13301912509290084
Galaxy61,1049.66,2207.06,0.5044511560861018,-0.22677271589123923
Galaxy62,2342.8,142.77,-0.17831667899061357,0.034021634681727218
Galaxy63,1885.49,3981.92,-0.041643839067081037,-0.022350237102697137
Galaxy64,1814.48,512.6,0.34345543935832701,0.13599114800898723
Galaxy65,3700.08,878.31,0.0013252800545762722,-0.27962551992957857
Galaxy66,2214.8,395.14,-0.32904472476713054,0.27274649263678857
Galaxy67,66.7,3269.33,-0.029955083349370339,-0.23105021590820163
Galaxy68,2727.92,3481.96,-0.2354042771885469,-0.021873001715440127
Galaxy69,3683.36,1586.76,0.26192258854831646,-0.048076810463946532
Galaxy70,3449.25,3665.44,-0.11369123802016813,0.2016478455960786
Galaxy71,198.07,3335.87,0.0014048960256371618,-0.038187988895436106
Galaxy72,4144.13,2926.27,0.019614216574129331,0.031658485995175414
Galaxy73,3215.76,1222.01,-0.31845360360659924,-0.28987630033924405
Galaxy74,3865.75,3203.73,-0.056229443834194689,0.079382072014831578
Galaxy75,2343.58,3332.66,-0.075077301711888908,0.24739694913852023
Galaxy76,3445.71,2092.93,0.037986019696357287,0.00018194014605746149
Galaxy77,1120.87,62.12,0.27940510157023218,0.1079081909613905
Galaxy78,2269.54,4031.62,-0.15916359082859766,0.21215063005597495
Galaxy79,3901.9,4109.39,0.40911955670692729,0.016074237897737167
Galaxy80,1123.64,2830.42,-0.24769008034649775,0.091808100293559791
Galaxy81,3857.97,3468.49,-0.12414853154650818,-0.018792232358080405
Galaxy82,1458.16,1720.49,-0.0043217622467813244,-0.194011249193909
Galaxy83,3407.43,1148.46,0.42574118934110694,-0.17089423227460229
Galaxy84,3613.24,119.52,-0.080693669159161513,-0.44880888459439283
Galaxy85,2852.44,3152.04,0.31812100774513624,-0.1611359677057565
Galaxy86,1921.3,1128.43,0.10957385281300955,0.094490080048652295
Galaxy87,1177.73,982.46,0.56696923344030348,0.43274757117476703
Galaxy88,2848.68,2113.24,-0.16434342952151931,-0.2433781117047705
Galaxy89,2007.15,1777.54,-0.58333361106662429,-0.15209083593578654
Galaxy90,662.09,4064.88,0.18031463336931269,-0.026461905583967313
Galaxy91,806.68,3551.45,0.38044019623505004,-0.084889023753602216
Galaxy92,793.3,3498.18,0.01533313576273785,0.30612447503370249
Galaxy93,1874.39,3201.08,-0.21477408397495146,-0.038547599303918517
Galaxy94,3440.54,269.07,-0.4409891930305741,-0.1609053541315878
Galaxy95,2974.38,299.13,-0.077823339817763501,0.14263462777765246
Galaxy96,2734.63,3085.45,-0.13044335413916247,-0.087775971554982346
Galaxy97,270.1,2780.64,-0.30882571786699403,-0.12990922374293629
Galaxy98,1974.79,1384.21,-0.22079882365562942,0.079091909029833318
Galaxy99,104.81,3363.52,0.2886462672299045,0.20666407333255721
Galaxy100,667.66,2759.1,0.2026690599416488,-0.11131657292874626
Galaxy101,1678.68,602.91,-0.4041247226237964,-0.077708960525992007
Galaxy102,458.82,3141.88,0.02037857058936856,-0.31677912018774929
Galaxy103,4049.81,4014.83,-0.35058865142417384,0.4364446971024088
Galaxy104,2898.08,2593.81,0.31995467869790473,-0.077494944871498911
Galaxy105,500.12,2073.87,0.20081059982451294,0.10125889313989776
Galaxy106,986.01,3803.66,0.085135631720152719,0.014508187293084035
Galaxy107,4118.21,1522.44,-0.10999488280802641,0.014926386338093858
Galaxy108,137.71,594.62,-0.097164588167186455,0.165284786401246
Galaxy109,3809.1,861.06,-0.060387670257954731,0.021170134285967784
Galaxy110,4149.19,2931.5,-0.04090538860565493,0.12026690241770101
Galaxy111,1115.13,2467.27,0.014490620760996054,-0.021561388639226325
Galaxy112,4096.94,2579.88,0.10205756834315557,-0.016516882295139104
Galaxy113,1768.88,806.55,-0.49312506778730553,0.0082569501417190799
Galaxy114,2848.5,4189.2,0.069615609017591784,0.1767496624101888
Galaxy115,3066.27,1773.84,-0.32609200692785456,0.082072191177911341
Galaxy116,2253.89,26.5,-0.21098389474365764,-0.1728892174869521
Galaxy117,3431.36,1923.41,0.33260952898024021,-0.20150958921645939
Galaxy118,1877.39,1504.48,-0.051775603258611691,0.010155018620222223
Galaxy119,4048.15,4110.35,0.18209010483832072,0.091843503534906668
Galaxy120,2761.16,420.86,-0.12690428194291681,-0.054571552901569592
Galaxy121,2357.25,2812.77,-0.2222893053612813,0.2934368458971095
Galaxy122,3285.0,2025.1,0.024913126173986555,0.16135185300224467
Galaxy123,2279.31,2696.7,-0.36301988121025341,0.35296616896435212
Galaxy124,512.98,1695.85,0.037702764168784139,0.26349398917866018
Galaxy125,2763.54,2385.66,0.22015844693393347,0.19479151211433657
Galaxy126,1584.91,1183.43,0.20088435570545879,0.19434350068638659
Galaxy127,3684.94,1361.87,0.11966545624469867,0.0023246637374882834
Galaxy128,1316.5,3351.88,-0.43213383561677471,-0.28359462960483373
Galaxy129,2665.6,2021.61,0.028784103403746542,-0.28311722543896783
Galaxy130,2448.45,3249.47,-0.012790075347955454,0.038855259239127679
Galaxy131,365.62,2795.3,0.0048929014542690302,-0.11814645237000276
Galaxy132,1053.15,347.79,-0.17984595172252515,-0.14796030288909395
Galaxy133,1683.22,3337.08,-0.17701276192676207,0.083484100747861029
Galaxy134,1289.34,3919.47,-0.18769422076673323,-0.0032914774411103853
Galaxy135,1810.95,1052.06,-0.30233378864713034,0.21205935917441954
Galaxy136,3423.31,647.13,-0.21119280627022755,0.068292660977897823
Galaxy137,1828.6,3065.67,-0.31495970230214382,0.053777500712778745
Galaxy138,400.84,3045.74,-0.0072631894939491626,-0.20708393261858424
Galaxy139,3962.81,596.31,-0.26108879279846187,-0.039933428203382443
Galaxy140,2089.87,94.07,-0.18140096364042391,0.0091383503650894135
Galaxy141,1942.09,1200.18,0.25457420422844923,0.24702340430481379
Galaxy142,1153.6,83.49,-0.29354369383228385,-0.067165456820395666
Galaxy143,3125.04,1246.24,0.066120773974607874,-0.09395170414110704
Galaxy144,3592.7,2202.67,-0.0080387638660874561,-0.13840295211326148
Galaxy145,1422.16,2156.14,2.7355509839177561e-05,-0.52163786382725763
Galaxy146,952.2,318.66,-0.099171157363459883,0.29135617417574666
Galaxy147,361.42,2437.84,0.44187473007885381,-0.25106560850623177
Galaxy148,134.23,1721.4,-0.038769640170194436,0.23964829425707598
Galaxy149,3452.66,455.74,-0.029040208295034502,-0.015147665791392165
Galaxy150,100.13,3173.6,0.52956372155839226,0.19185049877033483
Galaxy151,124.9,556.34,-0.25921247736884623,0.12558136860016936
Galaxy152,1300.62,2969.9,0.3074405182281934,0.046535880839828569
Galaxy153,3543.06,1383.66,0.17133473400171584,-0.0084617182359536247
Galaxy154,2579.88,1935.68,-0.24312885436680909,0.24008406124671047
Galaxy155,2419.3,1143.26,-0.10040733501894172,0.029406563444667855
Galaxy156,2092.0,2668.43,-0.027046011043718232,-0.18479066322262941
Galaxy157,1084.56,4011.34,0.036782387263501234,-0.15282948046522424
Galaxy158,3026.52,2057.61,0.12919152363673797,0.054646190722821897
Galaxy159,2421.81,3849.79,-0.16461888112337567,-0.038462952907962845
Galaxy160,352.36,2258.36,0.39067755753161432,-0.0015398756340008896
Galaxy161,1779.78,1236.11,-0.088395973352028659,-0.043405943827158067
Galaxy162,69.35,1211.31,0.15036341876904527,0.19365095188468062
Galaxy163,2904.52,3520.17,0.36061071519791144,0.25535343406688771
Galaxy164,1247.8,1432.47,0.1158703145585068,0.15548979712362765
Galaxy165,2144.89,1566.74,0.42712662119007244,-0.41143266466671302
Galaxy166,3861.33,3522.3,-0.24198918556810789,0.15308666625868556
Galaxy167,2376.28,968.19,0.19305550206388944,-0.19588490155029464
Galaxy168,83.17,3660.48,-0.0084908049468189438,-0.17817321073162434
Galaxy169,2915.92,1040.16,0.10557162134254457,0.10016223972047886
Galaxy170,977.36,807.51,0.024043103340482267,-0.3804974274213585
Galaxy171,3807.17,1150.78,0.29091192272931871,0.20028843535371615
Galaxy172,2847.59,2976.99,0.091925156729001256,0.29039909208584835
Galaxy173,3211.94,3696.46,-0.21724842107977546,0.20603620602927392
Galaxy174,2712.16,186.57,0.16040561671415582,-0.1827476791567664
Galaxy175,2967.1,3876.77,-0.18950384064415715,0.14368378586330394
Galaxy176,3219.5,3550.27,-0.27083678873365707,0.061527050186610116
Galaxy177,184.08,2369.97,0.05789067031054175,0.19410186306829286
Galaxy178,911.2,3287.25,0.18780098682954072,0.14618391629525279
Galaxy179,3620.54,3674.49,-0.15488291519167732,0.42906253739617345
Galaxy180,1058.81,2028.0,-0.26336568491349865,-0.089708818197797788
Galaxy181,2625.87,3306.02,0.27550659145609879,0.021825035082020092
Galaxy182,2656.58,812.87,0.17701104306489732,-0.21889918058892432
Galaxy183,1558.63,3913.14,0.2441773342727307,0.13210335055974612
Galaxy184,3681.98,969.11,0.19385023911978813,-0.18847122754564233
Galaxy185,2816.92,891.34,0.39203024812979426,-0.25801292821209887
Galaxy186,2694.71,13.39,-0.13450772087823898,0.15761983282304853
Galaxy187,468.76,2200.8,-0.0085540604283810551,-0.27561746908789231
Galaxy188,2975.82,2707.87,0.13218559400362156,0.22270732107443464
Galaxy189,1808.33,2068.47,0.02080438904987314,0.03311957807064321
Galaxy190,976.07,3301.03,-0.13048314507943695,-0.031539580156331903
Galaxy191,1000.83,3137.98,-0.067615430884923736,-0.56723686133889661
Galaxy192,624.0,3158.59,0.43362989344668135,-0.20798373985447952
Galaxy193,109.06,490.51,-0.16452473603477177,0.23749574888439734
Galaxy194,3531.96,2905.52,0.22269877057534918,0.11328175403388552
Galaxy195,2945.22,3218.87,0.21900583081569999,-0.23923568367219028
Galaxy196,803.67,944.18,-0.094624504943764093,0.11388221947757179
Galaxy197,1038.98,57.77,-0.20552575343861856,0.031246103912908343
Galaxy198,4128.3,2307.97,-0.31014325552966227,-0.26641236986613082
Galaxy199,4042.77,419.29,0.22198425912384778,0.2719593688197951
Galaxy200,2842.83,2677.69,0.55426070137074357,0.2579394741165576
Galaxy201,703.17,181.03,-0.0092506621094950968,0.054895340556510235
Galaxy202,293.84,3717.62,0.158416539503655,-0.10553101000539614
Galaxy203,4038.33,3194.21,0.13298475686243916,0.27742303428992987
Galaxy204,1764.73,3946.09,-0.27245411938505371,0.012517615094050319
Galaxy205,3810.34,2648.96,0.29744928896388317,-0.19951937241606937
Galaxy206,2198.02,4074.39,-0.31482432759784323,-0.26690355862468262
Galaxy207,1384.85,2905.6,-0.085945772038567778,-0.63453383375400696
Galaxy208,1916.2,3701.13,-0.24639207753481945,-0.23009013836238582
Galaxy209,1383.54,641.37,-0.26470768859021576,0.066190255570638692
Galaxy210,3533.88,1986.28,0.1949444280264766,-0.085707324578274624
Galaxy211,4120.44,2978.07,-0.068761615697500833,0.066936729440618944
Galaxy212,3678.45,2942.66,-0.30276558916944074,-0.23817263824506704
Galaxy213,1232.27,1518.43,0.21240324317925452,0.15876460666166226
Galaxy214,814.09,3098.41,-0.2592789920386992,0.021647227862745422
Galaxy215,1120.84,4135.86,-0.41640402144504107,0.010995655134823035
Galaxy216,2759.6,3131.83,-0.34532616007759948,0.31132912660276912
Galaxy217,1861.59,476.58,0.034687211898736109,-0.39732032630122416
Galaxy218,289.56,2109.23,-0.42859529427451004,-0.2631288421059178
Galaxy219,303.82,1699.83,-0.049682009155669588,-0.054994191210425349
Galaxy220,1149.26,3315.36,0.12880020515736931,-0.16472033969294148
Galaxy221,1487.33,3847.39,-0.11697833827535846,0.047361244616148032
Galaxy222,1573.14,1680.12,0.049332599600445934,-0.12625226433061154
Galaxy223,1806.57,2746.77,0.18839013245971206,-0.082017810231823945
Galaxy224,812.22,2927.76,-0.074523230644482227,-0.28825763412837302
Galaxy225,2849.0,403.26,-0.15889329308103275,-0.055648918913189044
Galaxy226,47.21,3455.18,0.083122026504782204,-0.23178461129407973
Galaxy227,785.34,2003.67,-0.095773885317809476,-0.4173001368436936
Galaxy228,184.38,1340.87,-0.053800786937123299,-0.21169245601790837
Galaxy229,1703.47,3027.52,-0.27060829118186314,-0.22145485172514057
Galaxy230,1403.56,262.55,-0.14790981418958821,-0.0032035768410325766
Galaxy231,3506.47,3392.65,-0.0015369509010770294,-0.074688705149962259
Galaxy232,2773.72,2470.88,0.13419123064973443,0.23158036239587187
Galaxy233,1363.03,3000.22,0.43067862349596014,-0.56486300578316506
Galaxy234,3695.82,3788.08,0.0025280839234266654,0.37641012087380799
Galaxy235,1828.18,3155.86,-0.42705307314609053,-0.15122296414771685
Galaxy236,3735.23,456.19,0.2283841228536134,-0.33249760591152522
Galaxy237,3753.26,2489.97,0.081844650376045533,-0.15088110332959664
Galaxy238,3450.37,1513.55,-0.013385484080707444,0.19054561598158193
Galaxy239,1811.75,638.26,-0.082226148491509013,0.023365353808752438
Galaxy240,1018.54,3978.5,-0.35222025501161897,-0.20449349487761562
Galaxy241,3183.43,762.83,0.059702827095170267,-0.044451244022966199
Galaxy242,1935.13,832.03,0.046361764955564322,-0.19948977345806282
Galaxy243,3844.1,1867.59,-0.078165359372882381,-0.075636132081462887
Galaxy244,1015.15,1495.86,0.16256160693103,-0.056997043379656998
Galaxy245,1457.08,1938.43,-0.089936368045079984,-0.19295431498676849
Galaxy246,3501.22,1375.16,0.30462693153156051,-0.070159436321460919
Galaxy247,3832.36,829.03,0.14584799239736085,-0.1955610245437206
Galaxy248,3981.15,3170.32,0.29143793032716142,-0.10380857309628852
Galaxy249,371.34,531.67,-0.34674370624036494,0.09628762999991089
Galaxy250,875.27,1657.85,0.16286496359396266,-0.3341697914952772
Galaxy251,3210.46,2187.37,0.16071893073847338,-0.45032086626247081
Galaxy252,1257.17,2387.96,0.31594531708490642,-0.21053801195734848
Galaxy253,2771.1,2288.58,-0.0038727194240545659,0.0012168703656627866
Galaxy254,1863.26,1572.97,-0.11052621194230422,0.15189751207117186
Galaxy255,549.63,2067.27,0.10176382359491891,-0.19050614755628628
Galaxy256,2585.47,1428.17,-0.0019852016530217398,-0.24940908564187797
Galaxy257,2960.82,1824.11,-0.21307608383625454,0.066140500429022836
Galaxy258,4050.66,2404.11,0.067107569893278138,0.4340464511056098
Galaxy259,3684.33,1359.48,0.10507969684293667,0.033114224499553119
Galaxy260,2050.07,3747.26,0.10775382289102065,-0.41476546732228764
Galaxy261,311.86,89.05,0.14036568464799351,0.47840976106079725
Galaxy262,578.67,3846.6,0.050681587357338617,0.10322046047327646
Galaxy263,3029.19,1306.42,-0.17604141771357534,-0.19508392253929688
Galaxy264,454.7,148.81,-0.0074393444077477718,0.07437705799845315
Galaxy265,4197.48,506.73,0.11812162626190127,-0.04810782338345488
Galaxy266,3387.65,211.5,0.31407958268440589,0.064874653556766054
Galaxy267,3878.68,2555.29,0.098553679440984199,0.27979432210875194
Galaxy268,740.34,1890.37,-0.39425379228807156,0.12121099128211221
Galaxy269,188.54,4079.4,-0.44856254252273237,-0.26294239286190968
Galaxy270,648.32,324.56,0.012940178267320312,0.0087635258245885861
Galaxy271,4036.07,3916.79,0.14810762170113201,0.043202131259074281
Galaxy272,627.03,3572.29,-0.16102209580890745,-0.06145450661954413
Galaxy273,1338.73,3066.42,0.22328420382322062,0.030716323563874548
Galaxy274,1069.98,3101.22,0.28678310112156991,-0.32218208431098827
Galaxy275,3522.04,3640.88,0.29155914206238781,0.27285047549054231
Galaxy276,3122.82,2555.22,0.2072229640571332,-0.086047988794835939
Galaxy277,2629.7,550.9,-0.13360447373742887,-0.19359544041411531
Galaxy278,3946.09,3983.81,0.14894190871027377,0.12997558872888854
Galaxy279,1949.98,2800.91,-0.2369547177738216,-0.12420249311587848
Galaxy280,3622.09,441.1,0.39493409441146143,0.036964880177519754
Galaxy281,1875.66,4095.9,0.01428817125027726,-0.29730759996445777
Galaxy282,2046.33,442.12,0.10940160076539066,-0.090930271249185984
Galaxy283,1083.11,3051.92,-0.21547377969038353,-0.099611216770858407
Galaxy284,1441.62,1212.52,-0.26662403298886955,0.6670508865569047
Galaxy285,3341.71,2769.6,0.053702555642739853,-0.030158158519203976
Galaxy286,194.11,2748.81,0.15283100724990908,-0.050941300913970707
Galaxy287,1465.32,3486.34,-0.071325319958664785,-0.21523141005435448
Galaxy288,347.91,1385.05,0.11732975319724577,0.27521699438012542
Galaxy289,3419.85,3049.5,0.049939905592058229,0.52465629741017794
Galaxy290,3648.66,2597.6,-0.04875005549926742,0.3914185696967637
Galaxy291,1227.37,496.13,-0.36885340737985384,0.096971162776801373
Galaxy292,1281.79,2973.7,-0.14973205242919335,-0.23241464724686273
Galaxy293,2399.93,2846.0,0.2076818356540541,-0.30824184749053923
Galaxy294,218.1,2887.93,-0.33125961936936943,0.16944045933991952
Galaxy295,2867.11,1687.84,-0.20228869867238436,0.09296471769114778
Galaxy296,2901.33,1389.16,0.056532751759853783,-0.10174605072023327
Galaxy297,1161.31,1078.58,0.07855720272334879,0.12167668749771597
Galaxy298,2986.7,1653.32,-0.10477540684273165,0.19703639670180029
Galaxy299,2042.65,4082.96,-0.043417643309424353,-0.088889501610209642
Galaxy300,2449.8,4070.0,0.093994377287089342,0.12292458797028419
Galaxy301,341.86,3702.51,-0.12987071255899155,-0.59969851944554164
Galaxy302,1501.56,2355.73,0.02949848196690355,-0.056742249576488102
Galaxy303,754.84,2772.03,0.22294866116512141,-0.038628231266800553
Galaxy304,1082.79,1120.3,0.12304038989481637,0.44662477748758533
Galaxy305,3143.1,419.91,0.04241750301643793,-0.54953660660755088
Galaxy306,3000.02,1927.9,-0.23769092667870823,-0.20548269217563575
Galaxy307,2068.86,2343.81,-0.08977318935802947,0.084327191565719911
Galaxy308,363.22,2405.39,0.080182474990242114,0.046750336569790912
Galaxy309,81.44,1264.3,0.17675113037673962,-0.054292041174343914
Galaxy310,2763.23,2936.76,-0.14600515065100592,0.11716300346479332
Galaxy311,2.67,1001.51,-0.045235532369730089,-0.00056424537188128066
Galaxy312,1975.98,1211.15,-0.07714216032881463,-0.15926023322972327
Galaxy313,1257.46,3585.9,-0.038720437282947176,-0.20681196341431007
Galaxy314,3594.32,549.34,0.063707624826667475,-0.16422534628834631
Galaxy315,4065.21,684.38,0.26542645988176128,0.20383046328342433
Galaxy316,3760.92,1640.18,-0.14181299498094785,0.33281397822248315
Galaxy317,3582.24,944.95,0.022456366969406186,-0.14242932505674305
Galaxy318,4196.25,1238.69,-0.15778337218225452,0.026770317229395948
Galaxy319,2801.93,522.08,-0.25201394775174529,-0.21947674994407187
Galaxy320,1287.24,2301.24,0.13716749039411819,-0.75991447262595724
Galaxy321,2821.99,1379.02,-0.12241585265258351,-0.33563988566238839
Galaxy322,1452.58,137.85,-0.3547835642999338,0.087593805508257919
Galaxy323,2384.88,3442.62,-0.18423707233997183,0.26481583390619062
Galaxy324,1938.34,2924.25,-0.42801064100459951,0.027919806043704948
Galaxy325,2658.03,2888.68,0.057312973210706192,0.069135399988242696
Galaxy326,3562.52,3514.64,-0.26490295571700506,0.040638154076004532
Galaxy327,3894.98,369.18,0.18538557325767049,0.12425340205384361
Galaxy328,3350.71,1572.3,0.13544099987153257,0.081171636781434464
Galaxy329,4131.03,438.99,0.17899618611618559,0.092987011440415199
Galaxy330,597.61,1542.8,0.15029435535903027,0.25552254549229453
Galaxy331,3650.28,626.57,0.1149008118322398,-0.15961745509459119
Galaxy332,442.74,1042.43,-0.20145638044142611,-0.11031701078740164
Galaxy333,574.59,2949.28,0.43562022857848048,0.080705080203031104
Galaxy334,1317.55,3522.73,-0.037780399935984893,0.42414790047440182
Galaxy335,2005.4,82.05,0.098350735661002414,0.22283342258428351
Galaxy336,91.04,2287.54,0.14224031969148423,-0.027242368194188623
Galaxy337,2467.45,3593.55,0.13376168499882599,0.097261092817502698
Galaxy338,2753.96,1769.46,-0.11344110215800809,-0.24312262208079416
Galaxy339,3715.71,146.52,-0.024190735859913295,-0.085390585029882296
Galaxy340,2585.42,638.38,0.15287728688799529,-0.048318458862587871
Galaxy341,1833.35,225.56,-0.30787842386697167,0.42351896731465255
Galaxy342,3995.27,4182.14,-0.34013846714211676,0.18216875639923119
Galaxy343,1373.11,2307.27,0.44810590235510001,-0.12464144131333876
Galaxy344,3969.65,2030.96,0.33874864402800975,0.25301189194759521
Galaxy345,666.59,1255.92,0.069909866506516996,0.20343841610187929
Galaxy346,2823.32,1058.26,-0.30991711200830913,-0.14951851260772953
Galaxy347,17.06,150.24,-0.21233293688119467,0.20878269670674804
Galaxy348,759.41,1869.84,-0.25763299661821382,0.25426081433176162
Galaxy349,3211.67,1167.14,0.088038316287026991,0.54872042578013724
Galaxy350,1240.06,3722.22,0.1264093898869964,0.16581305263768853
Galaxy351,153.28,3754.78,-0.15703438590583332,0.12164652889395998
Galaxy352,1785.83,96.2,-0.19237644079430383,-0.22109532425246059
Galaxy353,3804.44,3378.76,-0.097636357522923017,0.1995894580037344
Galaxy354,3972.43,1468.47,-0.01222565409597208,0.38192066451850304
Galaxy355,619.31,3576.59,-0.15701588264473468,-0.022638530265179799
Galaxy356,3669.67,4025.68,0.022921942262709081,0.21736702735795196
Galaxy357,2070.11,1584.44,-0.11047724122119595,-0.24154985482292227
Galaxy358,234.08,3249.3,0.29521625519439543,-0.0084464741397834164
Galaxy359,3162.19,3675.23,-0.05493847705259975,-0.060630918770641112
Galaxy360,4144.27,3516.37,0.086077197088845744,0.046797382206709412
Galaxy361,216.39,2428.99,-0.15695234055518167,-0.38883198554118564
Galaxy362,580.38,1252.93,0.10559654832003616,0.074896895863327095
Galaxy363,3904.15,36.91,-0.1066738520826505,0.011380863414376066
Galaxy364,3572.63,716.88,0.14473752898655379,-0.1846632165167417
Galaxy365,306.19,1170.93,-0.022547058149072791,0.12932291623953676
Galaxy366,3321.02,1714.34,0.20878817423064486,-0.01764685209696959
Galaxy367,3460.52,479.5,-0.11277087758070492,0.048599298798285034
Galaxy368,735.28,2079.44,0.11871747255369028,-0.12401984581603583
Galaxy369,1477.57,2888.9,0.24204385336947709,-0.13862859269371783
Galaxy370,3105.31,386.52,0.057883894175148803,0.055618637018151063
Galaxy371,2853.08,3148.6,0.13041285900688132,0.049716504619399582
Galaxy372,3058.06,3271.29,0.018891139391171471,0.27401551905319821
Galaxy373,3133.7,2068.37,0.28216353517451742,-0.054960421040566254
Galaxy374,1563.59,1296.25,-0.03683011001400617,0.095268309121304129
Galaxy375,2743.13,1521.07,-0.11764533164283619,0.076809594195077935
Galaxy376,3104.91,2353.64,0.10875301623363905,-0.10759713572077373
Galaxy377,3463.12,2654.53,0.14469180551171604,-0.10732773339029
Galaxy378,2718.77,2008.83,0.11975854582321999,-0.052442614827167874
Galaxy379,3882.33,1863.04,-0.25390465149181174,-0.14239480971956969
Galaxy380,2577.12,876.2,0.36200073514603309,-0.27361930958304387
Galaxy381,2397.87,208.19,-0.1773993104014282,-0.13121869176703049
Galaxy382,3037.53,3151.48,0.057540515894031287,-0.019227168609380674
Galaxy383,2732.41,334.62,-0.29276575786128567,0.17329056691689043
Galaxy384,1588.75,2700.49,-0.32296397570876839,-0.22106983081786141
Galaxy385,2008.36,123.39,-0.008594571858274197,0.32684632684175974
Galaxy386,2128.5,3628.93,0.08504323255086918,-0.030520218313100051
Galaxy387,1380.3,3602.43,0.26924850541601159,-0.1630639894679039
Galaxy388,1707.33,2448.63,-0.22622686340759837,-0.25210485281355
Galaxy389,1653.26,1598.54,-0.080068826293380205,-0.051156899257742916
Galaxy390,2234.43,3257.74,0.11708823315127395,-0.10628508091740772
Galaxy391,3700.84,1073.16,-0.043835361230560685,-0.040802474259817617
Galaxy392,2700.79,1261.19,-0.090157880254617892,-0.26630292880768386
Galaxy393,578.47,3874.92,-0.083763501529070916,-0.153041877941758
Galaxy394,2255.85,2604.72,0.023408794444750025,0.24328868452111063
Galaxy395,2616.58,2392.96,0.32183730362519047,-0.13164933142731028
Galaxy396,1814.08,3621.05,-0.090776245603172698,-0.066110707442804006
Galaxy397,1571.4,2011.69,0.40011248867272542,0.022055531834880605
Galaxy398,158.27,1771.9,0.046383928298021099,-0.22764208049582857
Galaxy399,2307.68,3434.09,-0.17901718103723882,-0.10268025758021221
Galaxy400,854.86,4153.44,0.037485921509324727,0.13707800803172787
Galaxy401,3910.06,166.27,-0.0086929252862358412,-0.19629082360916567
Galaxy402,2950.82,2596.85,0.10276101316335549,-0.12417847612833785
Galaxy403,1623.86,3761.95,-0.50502119899846187,0.19003065896372989
Galaxy404,738.84,2547.36,0.34059936595175411,-0.10477097239450818
Galaxy405,3610.29,1037.7,-0.084877767527841652,-0.3026249952468909
Galaxy406,3135.86,2747.69,0.31491315534654934,0.055324095019683606
Galaxy407,1846.45,2147.83,0.33037000974373226,-0.11135683185251427
Galaxy408,3316.95,196.63,0.018953487254098331,-0.011531628789790652
Galaxy409,3965.5,3312.19,-0.2119858970548662,0.41285071024022607
Galaxy410,189.03,2274.68,0.20602887517110274,-0.26688072833542237
Galaxy411,881.74,3226.95,-0.038557941053891841,-0.064626590645004617
Galaxy412,1930.37,2578.86,-0.40812601446318714,0.24508391821899317
Galaxy413,3282.71,1606.17,0.046979183689035753,-0.10964054573218181
Galaxy414,2683.35,3572.66,0.1461003000181488,0.31582663542961825
Galaxy415,4194.78,1885.17,-0.14815997611695589,-0.023626145649021178
Galaxy416,816.29,603.21,-0.30915137747689853,-0.23690177742816013
Galaxy417,1011.6,239.32,0.07716425930715215,0.20021761882709099
Galaxy418,2778.42,4087.63,-0.32404472587330024,0.14782569215170419
Galaxy419,2474.59,3175.99,-0.17108793418057172,0.093402548317879405
Galaxy420,843.35,3956.29,-0.2813467426868006,0.028895330222672266
Galaxy421,2722.4,2244.43,0.26017898878713103,-0.12573009218384798
Galaxy422,4146.85,260.7,0.21884512825179639,-0.023397893120824978
Galaxy423,293.08,1463.85,-0.21085562645216355,0.37405289400795605
Galaxy424,2471.28,2629.97,-0.14389406484941678,0.0023224677027528506
Galaxy425,3069.18,3379.87,-0.090258907582058706,-0.032954656550772482
Galaxy426,2292.51,3122.88,0.10304846550756475,0.19308200125639874
Galaxy427,834.59,3861.61,0.48387700223664837,-0.0068393440610884093
Galaxy428,1962.92,2577.42,-0.064956575472930489,-0.091188066491578179
Galaxy429,3526.78,1440.73,0.32874272621213807,-0.25465026895485565
Galaxy430,2991.11,3485.49,0.087628839567301137,0.53877499890806813
Galaxy431,1149.74,642.3,-0.10433697234050329,0.16890799139517312
Galaxy432,53.75,775.8,0.29309647113071718,0.16061544436050731
Galaxy433,2240.61,649.9,0.046891037099627247,0.10904889347833639
Galaxy434,1408.58,3964.25,-0.029204040281802346,-0.20201608932750276
Galaxy435,1064.08,813.2,-0.016428534487703664,-0.1225751787809275
Galaxy436,635.08,1008.39,-0.19296808533792992,0.55580029170738654
Galaxy437,171.64,2798.84,0.21396317735361209,-0.21333797612257666
Galaxy438,1436.48,1680.41,0.082940263139438766,-0.34740103987460819
Galaxy439,3463.44,3314.05,-0.11396488974297067,0.13274421839980333
Galaxy440,3589.71,181.41,-0.010469306254919156,-0.1955428734794234
Galaxy441,4123.13,2925.53,0.14041203576077263,0.16591219946348634
Galaxy442,2553.6,2690.83,-0.08952051275639035,-0.014824864081539046
Galaxy443,3577.21,530.0,-0.29357623948582956,-0.14429302391839741
Galaxy444,1629.8,1916.69,0.27124526699390406,0.31744212309135189
Galaxy445,4142.55,2143.78,0.023933392276395293,-0.10863981583242355
Galaxy446,3808.54,532.07,0.22900949975510745,0.11256666519361691
Galaxy447,4074.25,3699.87,0.051759937177078448,-0.32244029753804937
Galaxy448,1378.52,1057.25,0.24299199338249283,0.16772205599081857
Galaxy449,3318.58,2952.97,0.36038630925014337,-0.3143623957190762
Galaxy450,3177.8,1824.69,0.010934872731144935,0.022981521564091931
Galaxy451,4118.47,2316.38,-0.068613734302690688,-0.014562590865090742
Galaxy452,3046.41,2486.21,0.11129290604980725,0.2627422644231861
Galaxy453,2462.49,1461.65,0.6916268911039174,-0.22934967520772975
Galaxy454,1671.02,3550.74,0.088238084209507461,-0.28225260987798251
Galaxy455,1110.58,3833.96,-0.13965921190722641,0.20536271777557186
Galaxy456,1153.91,1297.95,-0.35051652739649097,0.25230842510680773
Galaxy457,3774.16,1084.63,-0.17481841896070707,-0.15897023714940248
Galaxy458,1067.54,2523.68,0.20806591927550447,0.058928440505871676
Galaxy459,3501.32,1895.19,-0.065212899035439365,0.54393154827716639
Galaxy460,3377.5,3432.32,0.0031696863933511968,0.27690983552956216
Galaxy461,3423.76,1194.16,0.1695239702435834,0.20009473143302531
Galaxy462,2904.65,1865.75,0.030776856012682596,0.2538156523613963
Galaxy463,4182.73,634.32,-0.12366096461434259,-0.082922854901928161
Galaxy464,320.17,3350.2,0.30621745580399284,-0.018346633015373606
Galaxy465,2954.19,3461.44,0.3096025674975949,0.089190850085798898
Galaxy466,1472.16,743.86,0.07746284644787868,-0.11252287274264855
Galaxy467,3977.53,2144.27,-0.049351251943524577,0.49815097362617122
Galaxy468,2553.27,3413.01,-0.1800465783078333,-0.15149895896170656
Galaxy469,1287.26,4072.34,-0.091524123817120995,0.018602220998064217
Galaxy470,1066.6,571.63,0.31101974323107229,0.20058654542345217
Galaxy471,308.36,3289.46,-0.046084177920537962,-0.28889982049224316
Galaxy472,2815.3,1154.21,-0.19283355208279673,0.15217926967752354
Galaxy473,1613.21,822.52,-0.38445583107923864,0.58762959507627377
Galaxy474,3885.81,2670.18,-0.19693612960571397,0.29658033533186795
Galaxy475,2396.46,1519.06,0.065445061982065511,-0.37591450601143195
Galaxy476,2080.58,3854.95,-0.39347309246812412,-0.024710321459665629
Galaxy477,3776.66,623.6,0.15359953172061158,0.16862576449754291
Galaxy478,2081.47,3994.78,-0.026324418295175747,0.05379324807977675
Galaxy479,4022.94,3194.75,0.076108533144808241,0.24061508778484508
Galaxy480,2748.53,1421.71,-0.16160091644629301,-0.11485017336732092
Galaxy481,2092.12,3589.64,0.0059424722763858906,0.18118713224284647
Galaxy482,1157.27,1184.36,0.45844936422191102,-0.17060555228960117
Galaxy483,752.09,1375.56,-0.044678808570148054,0.32096854977201117
Galaxy484,2814.02,2388.69,0.10804211249073901,-0.16181393017649731
Galaxy485,2598.06,1513.4,-0.10670310226430901,-0.33020338676723027
Galaxy486,997.28,2176.61,-0.27548643752912705,0.17439165600968987
Galaxy487,392.71,2774.45,0.35798066403757922,-0.28013789642843517
Galaxy488,1512.25,2555.28,-0.10957634013957862,-0.0079861437081086839
Galaxy489,133.97,2542.56,-0.03981077146555359,-0.030797416737433775
Galaxy490,3214.01,672.94,-0.18954622525061626,-0.42948912200305023
Galaxy491,1290.11,2723.41,0.26800244477098401,-0.4121217630872413
Galaxy492,3916.16,3572.51,0.078747784305008076,-0.20536055815839033
Galaxy493,2177.88,588.62,-0.073354789366028558,0.13613625561408682
Galaxy494,2325.68,1635.69,0.00086329970037518633,-0.070687810138726326
Galaxy495,2004.77,3564.43,-0.34721189083053339,-0.031938941189734518
Galaxy496,704.16,248.9,0.17932362659711484,0.075681651896121263
Galaxy497,1800.2,2382.41,-0.30107496365347414,0.099434504014908942
Galaxy498,2412.93,3617.91,-0.14687146562312375,0.052448137405465667
Galaxy499,1143.94,3513.64,-0.0014323467539038709,-0.046181433868376837
Galaxy500,3347.04,360.35,-0.14420293494435305,-0.153674063996937
Galaxy501,3509.88,902.08,0.29735111260125618,-0.11319483213565533
Galaxy502,1253.28,2894.54,-0.20566387655540566,-0.10167944884321865
Galaxy503,2656.38,272.53,-0.080165742927014699,0.12789810253282224
Galaxy504,860.76,2631.87,0.14638105474593568,-0.259833524322508
Galaxy505,921.79,2858.61,-0.080154223844179653,-0.015621375045570152
Galaxy506,840.35,3563.3,0.29074024344812915,-0.35458991850845678
Galaxy507,2098.99,201.74,-0.23271144681357786,0.29363057829220435
Galaxy508,11.36,355.36,-0.17693517400802222,0.042190969913807212
Galaxy509,1132.0,1421.83,-0.055028255563470727,0.098373189860260349
Galaxy510,1993.53,2658.75,-0.29787359807234837,0.28763860742106745
Galaxy511,1408.37,2740.47,0.39416118486203461,-0.014106175386648767
Galaxy512,3878.66,4176.77,-0.16346058476987324,-0.27696525082772988
Galaxy513,2265.1,462.87,-0.4424018636823126,-0.35113701684319909
Galaxy514,2924.33,629.46,-0.22838574157688482,0.27473371398501312
Galaxy515,328.0,2544.4,-0.20376312324552134,-0.28005719607897739
Galaxy516,1690.91,3658.67,0.20833757725281082,0.21514040950961305
Galaxy517,2600.57,1421.19,0.19351440573661671,0.00015597698422981088
Galaxy518,3745.13,3547.87,-0.068308075003863863,-0.18073420508622273
Galaxy519,1476.1,1268.78,-0.17974822739620078,-0.061748550200409869
Galaxy520,1307.15,338.11,0.18367203713118985,-0.042870971865909296
Galaxy521,1754.2,4165.58,-0.081598280067984891,0.067545795353064375
Galaxy522,3345.35,2956.52,0.31215573473166935,0.32687311088155269
Galaxy523,2593.2,3881.98,-0.26374035008293129,0.12281317359691712
Galaxy524,2811.85,619.0,-0.10989905476484772,-0.33365340594660864
Galaxy525,1419.35,2432.35,-0.37346535954798055,-0.0049742015917642601
Galaxy526,2938.26,1616.6,0.19739380136992046,0.33286475845105157
Galaxy527,760.39,570.72,0.28670660533453496,0.2884012235600048
Galaxy528,808.67,2724.85,-0.10786708783884537,-0.46634251171523894
Galaxy529,1875.78,828.19,-0.569174254103468,0.10302936737588139
Galaxy530,2864.03,168.71,-0.031212445001220668,0.092581731859295607
Galaxy531,1007.84,1882.7,0.34196782596410669,-0.31229557391888219
Galaxy532,3080.81,1198.88,0.52078694756653154,-0.24774707958921213
Galaxy533,2077.53,26.41,0.027965241943968627,0.078682767841726522
Galaxy534,1051.93,1727.92,-0.011192092856895874,-0.0077593781802156037
Galaxy535,1293.6,3521.38,-0.0057237190605159,0.0067853960636150845
Galaxy536,1991.98,2267.76,-0.19579120560457022,0.16663574530301645
