GalaxyID,x,y,e1,e2
Galaxy1,4071.02,827.93,0.28537397234059919,0.4272946928233336
Galaxy2,814.01,3668.68,-0.33513492761453773,-0.28799322654501341
Galaxy3,2198.91,2841.57,0.068997350823643722,-0.2457283925161062
Galaxy4,2327.31,4060.47,-0.2514060773872378,-0.075525301840106224
Galaxy5,4096.04,531.49,-0.098012483042057813,0.072072164605760242
Galaxy6,3707.92,2731.98,0.62138235977881129,0.17111636545111469
Galaxy7,379.93,1734.28,0.12245421720338245,0.35742730315130811
Galaxy8,4195.35,3508.68,0.22002309146184618,-0.33219655911046564
Galaxy9,683.56,2577.58,-0.085719962542804881,0.067260724337790567
Galaxy10,674.42,256.31,-0.475874374047138,0.0032755562816683681
Galaxy11,637.01,2284.59,0.050715584488340459,0.064729880067719625
Galaxy12,2977.09,4053.9,0.49262431892153014,0.16321337609472425
Galaxy13,2187.69,2074.05,-0.25411123240397676,-0.21318761779993106
Galaxy14,3448.1,95.14,0.013052734085357613,0.312455025466984
Galaxy15,908.18,2738.92,-0.50387502989187349,0.18389715273009866
Galaxy16,702.81,1798.96,0.032838474969492229,0.13700214097812491
Galaxy17,564.85,178.97,-0.086474400442111007,-0.085473043436759238
Galaxy18,991.52,2885.39,0.048852408603396139,0.10534435623843408
Galaxy19,3108.16,611.77,-0.35302968871779566,-0.23952626960844317
Galaxy20,4180.06,3939.83,-0.35695717636265922,-0.53558015839178552
Galaxy21,3845.1,3300.76,0.053515502005406751,0.23311939700753229
Galaxy22,3952.97,3047.59,0.25421946060515249,-0.028794177450268812
Galaxy23,773.52,3074.06,-0.060852073599434287,-0.12068886824118429
Galaxy24,3041.84,1798.81,-0.062121181627899341,-0.12680869083741433
Galaxy25,2879.21,3783.06,-0.11266165538585932,0.54321241483400318
Galaxy26,347.98,2558.09,0.41242934407740023,0.41463531753034422
Galaxy27,19.83,2486.1,0.14661966297692919,-0.17247357436177324
Galaxy28,2089.39,2186.03,-0.17215174235613695,0.080404370822967142
Galaxy29,970.13,3084.07,0.03537841217484633,0.44412153539015115
Galaxy30,916.16,1289.85,-0.0014577235315497983,0.039990087419677044
Galaxy31,2221.06,1223.86,-0.084489058108290382,-0.13235419138267984
Galaxy32,828.32,1031.42,0.326404428105528,0.010628638321127835
Galaxy33,1597.8,3524.24,-0.29869546175114875,0.0062490762902755459
Galaxy34,1215.81,2749.7,0.0223056696215162,0.16604660338865604
Galaxy35,2689.96,1976.67,-0.30064931096253666,0.057638091726932822
Galaxy36,1078.29,557.81,0.3288817600816587,0.18317821968125092
Galaxy37,1840.74,3310.97,0.20697219199583916,0.078080697325044662
Galaxy38,123.32,2084.23,0.24913249874903665,-0.025477455834848672
Galaxy39,1497.38,3330.05,-0.52414049190420908,0.045782988012348202
Galaxy40,3314.5,2370.86,-0.0061697587732218451,-0.44628426568917745
Galaxy41,3298.79,493.03,0.1437089554005487,0.21056374786389395
Galaxy42,880.82,2724.94,-0.0015335273181124737,0.051491433792386521
Galaxy43,3648.58,2186.04,0.14132925597076298,-0.12608887231347862
Galaxy44,3783.27,1062.74,-0.051856399387314456,-0.42960304463910631
Galaxy45,612.46,3864.6,0.1143708122442067,0.044365998191943312
Galaxy46,1107.08,447.69,0.44125607545232126,0.10021427883167748
Galaxy47,3792.85,2443.52,0.018484099202880966,-0.024832735167216929
Galaxy48,3729.5,499.6,0.3813838418960292,-0.042456419079518783
Galaxy49,976.0,3635.87,-0.085891679916634475,-0.17824925698686955
Galaxy50,3995.16,1512.67,-0.40233721441600623,-0.61103620850589713
Galaxy51,3404.73,669.37,-0.23165416540208084,-0.40388212650176847
Galaxy52,2242.67,4040.8,-0.40378757247183283,-0.44357523923545683
Galaxy53,3006.69,1322.82,-0.17422950275241839,-0.56775766786751347
Galaxy54,1953.39,1995.96,0.2043856843682437,-0.14922812735634663
Galaxy55,420.09,1264.92,-0.16110116955705661,-0.13866315195360751
Galaxy56,2537.86,937.41,0.02962220891210926,0.19384895453162512
Galaxy57,1079.32,3184.0,0.36840205777804536,-0.0077475709308653384
Galaxy58,3675.18,3778.71,0.4662748322670815,0.042815250193645418
Galaxy59,2898.12,2790.97,0.23293779779743107,-0.16215494264526614
Galaxy60,1314.76,120.8,-0.16915093463642517,0.11547291682443346
Galaxy61,1302.98,2821.3,-0.034936970950421781,0.30215999177291752
Galaxy62,1709.35,3283.15,0.014287324678991631,0.068551357988626382
Galaxy63,3609.52,2203.69,0.35167785106653204,0.024021619981699369
Galaxy64,366.35,2353.15,-0.1652734786570417,-0.013476612586451109
Galaxy65,1885.94,4148.25,0.25736509348274073,0.56243032922470093
Galaxy66,3915.49,750.17,0.17248860594383425,0.31462685505110077
Galaxy67,2541.57,1938.47,0.0042196466578230257,-0.52594608017377431
Galaxy68,960.1,3241.15,0.289994863059853,0.23390029854355504
Galaxy69,1952.68,1307.08,0.1873822217591038,0.097627522160454533
Galaxy70,1534.17,1374.5,0.065657553868336244,0.040928417496819365
Galaxy71,1731.32,2447.55,0.013916860701793737,0.1337843040404651
Galaxy72,3586.78,445.79,0.40778896755302291,-0.6571644625070957
Galaxy73,2544.69,1578.73,-0.0046489095425164065,-0.41439107849190859
Galaxy74,156.81,2578.7,-0.047174695692489249,0.036020466647739321
Galaxy75,789.86,1414.63,0.20785293612532751,0.20661115938345118
Galaxy76,761.09,3207.41,0.00085526925204176818,0.26864992436111007
Galaxy77,3172.76,1627.71,0.0064069356587681614,-0.078115762573868514
Galaxy78,2122.54,1609.3,-0.19027743307090414,-0.061868224388730499
Galaxy79,1004.2,255.26,0.083552547730608273,0.027854943627837289
Galaxy80,498.19,1834.26,-0.012754659275121594,0.022222836706376148
Galaxy81,1032.29,2196.45,0.044487908913479812,-0.11261702021481154
Galaxy82,919.54,3427.5,0.22267865538319589,-0.015717719284849663
Galaxy83,2902.6,3047.97,-0.059112648461161627,-0.2561843077710938
Galaxy84,92.24,764.11,0.37262902410181625,-0.17294378241272193
Galaxy85,3198.72,3139.76,0.018563708430162196,0.16589390822502134
Galaxy86,2786.11,2742.57,0.16666931274968513,0.032746279464948111
Galaxy87,2969.34,336.11,-0.12248068228842827,-0.30443166044606063
Galaxy88,1894.47,832.24,-0.35301624641397922,0.030969270557900171
Galaxy89,3098.97,994.26,0.011205373457671489,-0.039650743315072873
Galaxy90,4023.8,71.91,-0.095757586627909175,0.24493174918039015
Galaxy91,2705.94,4105.81,0.074160266326961016,-0.0018757235241877723
Galaxy92,258.38,2748.96,-0.18748240273986141,0.179600027597174
Galaxy93,25.82,850.12,0.39887706606614393,0.10790229687023634
Galaxy94,1307.03,1134.07,-0.29086228795403368,-0.2229931854053783
Galaxy95,3592.17,3943.89,0.13648348507486324,0.31493454219784345
Galaxy96,3624.9,3990.42,-0.2176903550784699,0.28250229815052968
Galaxy97,1390.14,1390.42,-0.037375017466206376,0.16433912777464574
Galaxy98,3586.98,1699.85,0.49590731625323481,-0.21032759349051977
Galaxy99,549.08,403.63,-0.032193301157886711,0.37308912858104526
Galaxy100,3063.67,2745.48,0.36617850137881758,-0.2229929022353421
Galaxy101,747.57,2090.06,-0.13426510787448812,0.35557892302284699
Galaxy102,3802.23,2180.88,0.20562488863980632,-0.25962401347583353
Galaxy103,2169.34,559.28,-0.18770953373982802,-0.018395691801706672
Galaxy104,2409.97,2247.8,0.052671784543264294,-0.11056502431437919
Galaxy105,2866.29,2191.9,0.29097055617177425,-0.2794006488461413
Galaxy106,3211.04,287.75,-0.034332150443537095,0.31019275986057332
Galaxy107,3944.62,461.05,-0.23277251384245864,-0.089781208744951255
Galaxy108,3757.33,1560.12,-0.19640600485474424,-0.1219609335222166
Galaxy109,1856.46,3265.39,0.2771112388780424,0.57928543404126764
Galaxy110,263.07,2401.86,0.11093063216189655,0.37612310821007766
Galaxy111,1396.24,2963.4,-0.31840957378273854,0.083740403148905018
Galaxy112,1798.5,487.97,0.12296404685054722,-0.011597022359387685
Galaxy113,3304.12,868.17,0.25217070364209676,0.23474490546596516
Galaxy114,2804.05,918.23,0.076861642118249668,-0.08060892231719273
Galaxy115,3029.67,3653.9,-0.10404266566185849,-0.064310759915801596
Galaxy116,1117.15,890.87,-0.077731156480165819,0.038262027407044902
Galaxy117,3011.62,40.19,-0.022616865126148671,-0.062432894829786992
Galaxy118,1330.5,1968.96,0.32548863172429104,0.032012409642491302
Galaxy119,598.95,3438.81,0.22829454276502359,-0.10518583793363012
Galaxy120,3861.29,2452.22,-0.13226196954982278,-0.01056464994089968
Galaxy121,531.14,3655.57,0.20287372345978791,-0.31382387587079075
Galaxy122,3427.02,1210.54,-0.13234645197871839,0.12031035668614989
Galaxy123,3836.24,3193.02,0.28381106488625346,0.17573185845866615
Galaxy124,2727.44,3268.58,0.20681767506281268,-0.41015063804258561
Galaxy125,3847.07,651.12,0.50115474976658769,0.32827793665649213
Galaxy126,2810.62,559.1,0.17620240261974293,-0.074493647197942603
Galaxy127,60.96,3294.71,0.41941740529522176,-0.056594923902250363
Galaxy128,3088.3,3270.41,-0.11671633988509572,0.10994996259429204
Galaxy129,2169.61,978.31,-0.097928456446761972,-0.34755842228636824
Galaxy130,2428.94,124.37,0.49840547842175731,0.47881250039939965
Galaxy131,2602.01,536.11,-0.22923433320489411,0.24784586955212612
Galaxy132,93.4,3932.73,-0.07403616929269799,-0.20038563741225757
Galaxy133,1590.27,2427.69,0.18855938047663873,-0.27358939890172684
Galaxy134,2188.69,3948.73,-0.16831117889477243,0.30674561799157118
Galaxy135,3024.7,1967.1,-0.035200604214564779,-0.42273225801308889
Galaxy136,2852.26,3024.65,-0.12675860096606409,-0.26314381856845559
Galaxy137,3944.63,3619.16,0.41947935888655508,-0.26911310567919888
Galaxy138,2279.67,2555.98,0.078224026766621366,-0.22817156434024258
Galaxy139,3829.92,2750.99,0.13116586139142028,-0.25939109741628613
Galaxy140,4089.99,1271.58,-0.12567816883713748,-0.056198525031351365
Galaxy141,3219.2,2268.0,0.23192589230460753,0.18819645989394657
Galaxy142,1954.05,2423.66,-0.6897412770708945,0.038522375864684266
Galaxy143,3542.09,755.75,0.189621889167878,-0.3292169442577258
Galaxy144,3036.12,111.15,-0.097357752415097948,-0.1218445982235319
Galaxy145,1342.09,3605.75,-0.21624771664327191,-0.16051421373400931
Galaxy146,245.09,3750.6,0.054131339737765988,0.16983391545617552
Galaxy147,3472.23,3775.68,-0.34569171345803951,0.13463442158901781
Galaxy148,439.96,583.8,-0.015708713779187568,0.19569448753346536
Galaxy149,2484.57,2136.06,-0.084234338142608445,-0.24984182414002326
Galaxy150,632.15,3682.4,0.12995341888320452,0.24162776788258869
Galaxy151,2757.35,100.5,-0.22702069260952534,-0.015205264043416253
Galaxy152,786.96,1896.9,-0.086223939996145471,0.14189771668590628
Galaxy153,2623.03,3297.44,-0.11096734465889485,-0.035274105520575152
Galaxy154,2616.62,2330.41,0.17287410021786961,-0.24968428459901809
Galaxy155,2858.93,780.12,0.26315937393368816,0.18986410288025404
Galaxy156,370.61,3165.92,0.13040037707992827,0.029299262759158728
Galaxy157,2490.91,3516.18,0.074262953771523393,-0.060693777231788093
Galaxy158,1903.07,2508.93,-0.1980955703671958,-0.23164147292638304
Galaxy159,3412.14,999.04,0.10422838699139772,0.075940936132565459
Galaxy160,2928.22,3286.59,0.3404505023196252,0.14955705010987513
Galaxy161,3801.19,4005.89,0.053837519405340775,0.11814504637053802
Galaxy162,2248.57,149.0,-0.081203483571336749,0.014723548321823071
Galaxy163,2248.29,2241.02,-0.11929236363642132,-0.52017927938116015
Galaxy164,2752.93,3637.78,0.075861667905015528,-0.12337550170514611
Galaxy165,2305.77,1775.8,-0.042396328309340245,-0.090465996763776146
Galaxy166,711.76,2161.17,-0.18000624043892485,-0.038792922563229887
Galaxy167,206.73,1055.93,0.41605333068027511,0.23878121986465647
Galaxy168,2236.87,4120.63,-0.16705883731612914,-0.10194560616550127
Galaxy169,1801.47,2902.98,-0.36036151446539377,-0.20143159224637858
Galaxy170,1740.58,2593.67,-0.019200236718519004,-0.09482665838096177
Galaxy171,290.49,2412.05,-0.26226613668681664,0.051497782478781978
Galaxy172,2958.23,3290.36,0.3231789020999063,0.10528168197069082
Galaxy173,2143.72,450.92,-0.0062296888622579566,-0.035579435507883325
Galaxy174,318.16,2969.08,0.0429805628861199,-0.17215002491251935
Galaxy175,2006.23,2566.86,-0.44900255938781308,-0.059348975611566324
Galaxy176,2608.78,2671.08,-0.10243506418874762,0.095101421447257473
Galaxy177,1454.5,2926.63,-0.1648962650355571,0.014000931975681058
Galaxy178,864.93,950.73,-0.12052602630494717,-0.2195449922980561
Galaxy179,827.23,2107.73,-0.26440255422965614,-0.22342967735757693
Galaxy180,625.94,2031.03,-0.053725801734664562,-0.11848256601081755
Galaxy181,2325.38,2084.83,0.054677842956739151,-0.19457679997610816
Galaxy182,1011.47,3015.81,0.22321295617607631,-0.030330514035156714
Galaxy183,1800.57,2385.83,-0.057254690640756667,-0.11166142655608587
Galaxy184,3411.98,3320.77,0.15963338244414085,0.061421569380584996
Galaxy185,2278.34,3057.09,0.21630068781629325,-0.22382634258749867
Galaxy186,3163.36,2379.94,0.2001850765576107,0.016525404646890424
Galaxy187,2128.02,2608.05,0.28405700781722393,0.23064262117263606
Galaxy188,614.94,918.46,-0.10112411827265429,0.13871894289746883
Galaxy189,3704.23,2863.42,0.0040495489254440548,-0.031188253676661462
Galaxy190,3772.75,3268.23,0.212148601739441,0.370989526354016
Galaxy191,3476.48,3257.94,-0.13880360795402394,0.42658059722448732
Galaxy192,3753.08,3603.79,0.15810883843274764,-0.26497008344589401
Galaxy193,617.82,10.57,-0.14108470014048302,-0.22617016313650093
Galaxy194,2113.84,1455.45,-0.17931152935709091,-0.13547413278825426
Galaxy195,2401.46,2751.16,-0.07979849387920579,0.061704481079761397
Galaxy196,1482.99,1979.47,-0.093228181735722643,0.15696871645705823
Galaxy197,299.53,978.19,0.0082223278236361955,-0.12895016236246934
Galaxy198,1952.6,552.1,-0.051332498513401006,0.15962043192529557
Galaxy199,4148.48,261.67,-0.087449111408004529,2.9727068725067529e-05
Galaxy200,3713.27,3492.43,-0.18757003995292265,-0.37289934040913869
Galaxy201,3392.21,950.6,-0.22620800116966547,-0.29467047848602335
Galaxy202,3282.14,3586.62,-0.029828505777066583,-0.069293543769445826
Galaxy203,2613.57,2759.71,-0.081958103869649385,-0.10213367015802433
Galaxy204,2533.62,2458.37,0.31065213522632623,-0.37261402193960802
Galaxy205,265.33,336.57,-0.3209568996910882,0.036691141876585807
Galaxy206,1265.55,95.62,0.19871715588370709,-0.03849836785515541
Galaxy207,3544.17,3943.29,-0.17165868033694393,-0.056105079120495435
Galaxy208,1112.4,823.83,0.085649873053535067,-0.038217475332845773
Galaxy209,2339.99,2235.21,-0.29041475185457299,-0.20330068979838639
Galaxy210,3919.92,2161.7,0.34252703752210223,-0.0983800818239388
Galaxy211,1196.18,2922.22,-0.12359961153860477,0.53573274530824144
Galaxy212,1648.75,1550.42,0.13017763577069894,0.23683723466259182
Galaxy213,3273.06,431.64,-0.22135066354541116,-0.30723110787880492
Galaxy214,2725.2,1437.84,0.16225377392813259,-0.35483080701464609
Galaxy215,303.39,3585.41,-0.074749432881584588,-0.36691625380291154
Galaxy216,3185.67,2961.94,0.19543975784465173,-0.080878480217592835
Galaxy217,2369.53,2412.56,0.10308886192244458,-0.24175748468710362
Galaxy218,756.2,3401.96,0.24440009544615099,-0.27926252032487814
Galaxy219,2676.6,2610.79,-0.20558834472677723,-0.29220891880319699
Galaxy220,1978.24,2277.85,0.045905561922896077,0.036181437921271542
Galaxy221,3811.38,668.44,-0.0025285996105600781,-0.10065790998852861
Galaxy222,3221.66,2447.79,0.036832257807275656,0.12268945541576613
Galaxy223,3167.8,2929.09,0.2007032465519466,-0.10753372772703737
Galaxy224,1939.35,162.79,0.030310018364423458,-0.25003094231858519
Galaxy225,1935.47,3828.92,-0.15573452056207118,0.019676167250016141
Galaxy226,2122.97,1293.32,0.12673138459967226,0.13321899245267294
Galaxy227,2769.87,3298.97,0.095951324962880807,-0.11072510154752419
Galaxy228,1918.11,147.17,-0.044888786381230318,0.50289820537865237
Galaxy229,3743.55,3420.94,-0.11390375979723787,-0.26477330548301486
Galaxy230,3189.11,96.6,-0.086891151250310911,0.046491249862723544
Galaxy231,1627.53,765.55,-0.029686426487258513,0.46234215981656673
Galaxy232,195.97,2216.23,0.0061790153083017205,0.26310003820542027
Galaxy233,3218.75,1514.65,-0.29737524709994073,-0.025459795875892227
Galaxy234,3058.66,2618.43,0.095195948705528388,-0.37299056365080602
Galaxy235,3587.31,2205.33,0.0016290994610314996,-0.014501656069970892
Galaxy236,2665.21,1595.27,0.46447824415039901,0.081421731552145993
Galaxy237,2038.61,3415.39,0.16349242907479195,0.31969527232801948
Galaxy238,1610.74,1362.72,-0.15502389197080241,0.031552011958220799
Galaxy239,2099.84,3884.28,0.081198831807914387,0.16786361968632713
Galaxy240,1881.0,1832.26,-0.016600596709806736,-0.20429722851330603
Galaxy241,4109.02,1919.1,-0.03557955229570977,-0.21779156157968171
Galaxy242,3217.94,993.06,-0.088218227898931301,-0.055961394823484299
Galaxy243,838.24,2927.75,-0.084713362766652894,0.30118353288374611
Galaxy244,2988.5,541.58,-0.38721734439955152,-0.13342974761612358
Galaxy245,663.4,1608.48,-0.2596285728914085,0.14061204779445832
Galaxy246,383.26,2809.42,0.069030319199003071,-0.054787984878635981
Galaxy247,582.44,2074.12,-0.23182936269139839,0.007734206373894964
Galaxy248,3320.31,4084.22,0.15182526604526833,0.065421792686198063
Galaxy249,363.83,2712.09,0.41094584912820975,0.24097140331948391
Galaxy250,380.18,1506.59,0.1189871499323979,0.077457894466332444
Galaxy251,3793.85,423.38,0.28934130613412284,-0.054060992452162129
Galaxy252,1237.51,1143.67,-0.081957757323259758,-0.29380860720113777
Galaxy253,4176.57,3373.42,0.093880680042413484,-0.18513686051150305
Galaxy254,654.9,2701.25,-0.27024324861126153,0.38299105682113477
Galaxy255,929.04,1165.35,0.34985763427577277,0.26285211938994224
Galaxy256,1371.81,3448.8,-0.027711159234335592,0.26558122630693448
Galaxy257,3701.64,4171.34,-0.16456966868084133,0.0029732069210666734
Galaxy258,1578.98,79.35,0.024381636242570087,0.15664717037189008
Galaxy259,4135.27,542.77,-0.02704598953180596,0.0092203190675796409
Galaxy260,3427.29,591.91,-0.21237973617156511,-0.28231068599061115
Galaxy261,2585.27,2910.65,0.400956429793693,0.10271277982561471
Galaxy262,3357.17,2897.33,-0.0011227526985519709,-0.032636483876535546
Galaxy263,916.62,3678.63,0.041216593488403369,-0.13616865615784504
Galaxy264,1665.86,2738.97,-0.33883853479375381,-0.27788773545493861
Galaxy265,2293.91,3122.13,0.26046175916809877,0.2066289312929897
Galaxy266,1668.87,2946.83,-0.014774732342856714,-0.34361214607795865
Galaxy267,4024.73,1894.99,0.3298913133745871,-0.0088423341331997918
Galaxy268,1976.13,3122.06,0.40015052345460694,-0.024515030565413459
Galaxy269,953.25,1611.44,-0.31228503195406077,-0.10562311234526785
Galaxy270,3640.02,440.1,-0.084176423247490417,-0.051422344092050348
Galaxy271,1910.51,936.98,-0.2103918528419402,-0.073472110351960662
Galaxy272,1164.08,973.75,-0.24925442122089231,0.19598479433315208
Galaxy273,2051.81,4107.71,0.06591446092546599,0.3528448176407617
Galaxy274,2643.7,1332.72,0.18556732473238952,0.30755059582056149
Galaxy275,3812.68,1516.58,0.2131534410350987,-0.0076678721322535753
Galaxy276,1617.95,2601.32,-0.35844263646907859,-0.25723748130502277
Galaxy277,1311.49,2919.89,0.24086013169150791,0.4352098758907722
Galaxy278,2816.32,3838.56,-0.04240911914404949,0.16104291557321398
Galaxy279,4173.47,4071.87,0.21581866658627807,0.16609172227930744
Galaxy280,2439.59,130.89,0.32508784864460372,0.0774447934981293
Galaxy281,3064.04,2881.91,0.21437785689950742,0.16512853914687664
Galaxy282,111.01,616.63,0.21285584233252025,0.12309537158804472
Galaxy283,20.05,2492.75,0.11862122838663364,-0.16754356877881277
Galaxy284,2242.37,1650.87,-0.17916048318876271,-0.18603872446889122
Galaxy285,2385.94,2238.28,0.15255445437697618,-0.29850387893326141
Galaxy286,3880.8,849.43,-0.17305869602667201,-0.3255796412492501
Galaxy287,3325.38,3852.2,0.35104254070203766,-0.11818237155227306
Galaxy288,1094.29,1625.02,-0.0087781816689533054,0.12772643773126047
Galaxy289,964.87,604.23,0.18527967787786098,-0.23709465471574495
Galaxy290,2705.76,1500.31,0.25205547365980824,-0.50779732824130797
Galaxy291,870.82,156.74,0.17014151396443761,0.078024835244584978
Galaxy292,3674.12,3264.95,0.23234893081879598,-0.43175588912028817
Galaxy293,18.38,907.32,-0.15532936841575296,-0.1900520122528202
Galaxy294,161.86,3692.08,0.26060712993734869,0.0089692314955600594
Galaxy295,3790.99,4075.01,-0.15539514634025731,0.20767988462955844
Galaxy296,1459.88,327.7,-0.09949668081392532,-0.090612256834100402
Galaxy297,3257.31,3491.73,-0.16787452492475413,-0.11699788737050407
Galaxy298,3457.94,3161.0,-0.027664871807037777,0.26463861501114111
Galaxy299,736.9,2276.15,-0.28627519893307879,-0.011149273106243501
Galaxy300,890.59,3391.38,-0.046320112955738013,0.089377489220945211
Galaxy301,1598.66,2125.38,-0.024249267505646044,0.010319947192261383
Galaxy302,70.01,3677.3,0.097452463003001893,0.18115064514001908
Galaxy303,895.29,3854.08,-0.015045220268498569,-0.10733601428231451
Galaxy304,343.44,2627.17,0.25422670884342835,0.011475061266840281
Galaxy305,2949.53,3501.37,0.25019038880623207,0.16906176608060045
Galaxy306,623.31,2667.05,0.16105136495882194,0.47627664665546476
Galaxy307,679.3,3126.39,0.32959563153648042,0.0067196575676275391
Galaxy308,2709.6,387.31,-0.16833332415072055,0.16605676495423255
Galaxy309,1974.89,512.77,0.013079947610208226,0.12811567229381787
Galaxy310,1681.16,1491.72,-0.36860526904270419,-0.21980678931529016
Galaxy311,1539.93,3611.61,-0.17912711814308716,-0.12511199720823019
Galaxy312,1532.15,1755.23,0.10300026988237462,-0.35508939306500203
Galaxy313,1339.04,3103.7,0.21823262863142806,0.15235451658216609
Galaxy314,426.41,3106.44,0.47627025035966142,0.19928704968049848
Galaxy315,2247.97,1165.02,0.080771344179821999,0.17739944166152269
Galaxy316,1946.36,329.17,-0.44151828642666247,-0.27331710785162916
Galaxy317,4017.35,1015.14,0.1769325651835193,-0.023450123792515605
Galaxy318,3183.19,3050.2,0.16400354314430721,-0.60360489339748902
Galaxy319,1365.56,344.52,0.13082173328885083,0.001066844839620943
Galaxy320,803.2,3280.71,0.23008297956621399,0.24667120954415384
Galaxy321,2228.29,3866.77,-0.62614618377567077,0.3341871642086347
Galaxy322,2899.07,3924.97,-0.015503969982274962,-0.38133407124443275
Galaxy323,2454.78,662.88,-0.17843019333931531,-0.054510152151613304
Galaxy324,2350.92,3807.03,-0.15457682989901111,0.037114877948849934
Galaxy325,3956.67,3690.46,-0.28474678661499442,0.035386292155830334
Galaxy326,3855.25,293.33,-0.22626465422268921,0.017504780780961848
Galaxy327,1231.19,1509.47,0.010649652720237185,0.23284360691035844
Galaxy328,1054.65,776.77,-0.33423705915224239,0.22041996134130662
Galaxy329,3452.13,714.47,0.44325781795930053,-0.20983861399211529
Galaxy330,986.71,1056.7,0.076715410247023899,-0.013724669634895804
Galaxy331,3066.21,4.09,0.16502742935046164,0.32769899633145105
Galaxy332,1710.29,1793.83,-0.38321953031654044,0.1514939076219611
Galaxy333,3590.98,2779.03,-0.25432462942007461,-0.23564041176361078
Galaxy334,655.8,3832.6,-0.40208227142273745,-0.42464420763353916
Galaxy335,1483.36,3340.51,-0.61951190381495069,0.20689206104521485
Galaxy336,1739.13,2436.79,0.089926341994206932,0.23835325070684069
Galaxy337,4098.54,1525.17,0.078245410596759379,-0.062908797158609017
Galaxy338,441.09,2533.17,0.10922606601176268,0.21113092528945604
Galaxy339,1409.99,2977.1,0.0020390433959162624,0.27060455977346382
Galaxy340,3788.44,269.03,0.39170085278671291,-0.32826469534290587
Galaxy341,3077.13,681.73,-0.039490627626138843,-0.31445102476218728
Galaxy342,2726.64,3517.81,-0.28038079085711154,-0.12017103428956104
Galaxy343,3828.72,1879.82,-0.050288275533684416,-0.0054412641683669188
Galaxy344,1019.52,3989.32,0.37266793168375045,0.26774529319519697
Galaxy345,1778.88,51.08,-0.55593906134186843,-0.066255122336701056
Galaxy346,1842.91,2800.38,-0.12526249763223374,-0.196975404211954
Galaxy347,3893.05,2839.87,0.27868527158041073,-0.10758791385899882
Galaxy348,313.21,1239.84,-0.071648300900331766,-0.084113718418332331
Galaxy349,2600.44,1983.9,-0.28861691565643788,-0.36982946576654352
Galaxy350,1978.1,19.82,0.28169806051380192,0.042466614504438602
Galaxy351,230.66,1139.94,-0.43724571155274056,0.2901372048168584
Galaxy352,2578.87,2610.68,0.17489055118904911,0.10805629201318254
Galaxy353,3663.01,962.59,-0.093124494351606663,0.18378349155311235
Galaxy354,2771.99,3989.87,0.080189989292466096,-0.25119361153414077
Galaxy355,3044.33,828.84,0.44585117410131542,-0.093781260796124255
Galaxy356,3459.41,1666.26,0.42276407414568262,0.060936091529152456
Galaxy357,192.87,3032.0,-0.16240788702704831,-0.33233877413824009
Galaxy358,492.41,1216.07,0.090086283579543971,-0.17604406142793927
Galaxy359,3163.63,2749.09,0.040187130932646961,0.013809510602195291
Galaxy360,104.21,2013.73,0.32341920340643221,0.67565095237692963
Galaxy361,887.88,2341.86,-0.16827712442609313,0.084497742733505798
Galaxy362,2227.61,714.51,-0.026155657440184998,0.49741675834140853
Galaxy363,4156.62,322.08,0.20909825983973263,-0.15932051137422026
Galaxy364,1945.07,880.84,-0.33154227235019396,-0.13875444818242463
Galaxy365,946.18,3355.13,0.24354254851563084,-0.19190894411167142
Galaxy366,1187.41,1133.94,0.10195679826731402,0.027491003273074185
Galaxy367,2379.26,1540.01,-0.49811494276278762,-0.19122084111087947
Galaxy368,1206.62,165.68,0.14210856378820566,0.33210923577465312
Galaxy369,690.26,1398.22,0.14452191839987982,-0.074169492556151906
Galaxy370,1539.61,839.69,0.35390210364293762,-0.068568602658712841
Galaxy371,410.68,2432.86,-0.10305207170160997,0.4121435067078581
Galaxy372,2817.46,2351.15,-0.030430901479818903,-0.18070917810118847
Galaxy373,3917.23,1979.71,0.035811773717307177,0.50433854553723512
Galaxy374,1535.95,1451.1,-0.040603479453694913,-0.37789410706474069
Galaxy375,85.68,875.13,-0.20962068829682867,0.011027937033476834
Galaxy376,87.75,1811.07,0.059994689550800701,0.064554055801541291
Galaxy377,971.6,482.44,0.17524499891405898,-0.35935054012232442
Galaxy378,944.64,1782.0,-0.18688468375913769,0.29902434267194189
Galaxy379,1907.62,1798.96,-0.036709480653151716,-0.40094552589578719
Galaxy380,1646.39,2706.26,-0.26219786588980037,-0.19657234082378608
Galaxy381,1353.07,2342.31,0.33726954314857149,-0.24596094144460867
Galaxy382,2763.16,403.15,-0.088353687827825045,-0.17495361095181761
Galaxy383,4014.72,600.21,0.21021190632236547,-0.00493213120245585
Galaxy384,2868.86,2946.29,0.1560481891628126,0.15391671983985267
Galaxy385,4059.19,3345.86,-0.10415211083395778,0.2613459148464507
Galaxy386,1685.53,305.73,0.32369172373390137,0.13440644226162027
Galaxy387,1330.89,1389.3,-0.0027142891234811783,0.014679199152162243
Galaxy388,2336.59,2122.75,-0.070493818517870455,-0.39163398955534734
Galaxy389,3653.18,480.6,0.32824994491567977,0.20364080648958929
Galaxy390,151.73,1076.05,-0.059940098426776355,-0.016808715607251529
Galaxy391,157.35,3188.97,-0.14172338988736735,0.093216786273944932
Galaxy392,422.08,480.58,0.09943124467579402,-0.52847391180063141
Galaxy393,3239.64,3789.37,-0.11403907366274992,0.26835828122685812
Galaxy394,1410.64,3506.37,-0.46649054365581677,-0.14109470944220284
Galaxy395,1642.78,3875.29,-0.23909480899405466,0.024440527488255787
Galaxy396,3150.39,3018.29,-0.4380808424279779,0.034917125575220073
Galaxy397,499.79,2693.29,0.2294146932910546,0.17351202909347199
Galaxy398,644.21,2629.29,0.28321238585255309,-0.090561681955614731
Galaxy399,2125.17,2032.46,0.36565093799905718,-0.03702805298832712
Galaxy400,928.51,2271.58,-0.13227862493281461,0.22236637261172643
Galaxy401,3014.61,3319.28,0.0081159371153977089,-0.064233443826080427
Galaxy402,2186.05,603.72,0.0019739890461987208,-0.38277261236014792
Galaxy403,2427.55,522.37,-0.53813651939021911,-0.074855427374830433
Galaxy404,774.88,1493.39,-0.23303134893520266,-0.013250430778892763
Galaxy405,2804.9,2186.45,0.38118129459247213,-0.060502377064651044
Galaxy406,2541.84,3791.62,0.29612650183496586,-0.37498904326959365
Galaxy407,791.49,3451.1,-0.12690075282512908,0.16068279674300648
Galaxy408,1034.87,2012.02,0.13304565038401675,0.43395523923000678
Galaxy409,782.23,3171.45,0.528861044600616,-0.048037772548148165
Galaxy410,6.72,874.36,0.11764960908961433,0.3545049938062016
Galaxy411,3982.49,110.47,-0.014588270379640516,0.15042044562205953
Galaxy412,13.46,504.41,-0.11968437703959293,-0.17195759685247905
Galaxy413,3558.62,3728.85,-0.048669153959380748,0.21222161366131864
Galaxy414,955.28,695.28,-0.36738716206995503,0.17130357386896994
Galaxy415,3340.32,1120.65,-0.090069016282817549,-0.28891141481947186
Galaxy416,102.97,29.39,-0.055857572148244244,0.23148900891094412
Galaxy417,1780.31,2593.08,-0.11294169175144912,-0.23426237891746696
Galaxy418,377.93,1820.65,0.098689505890533283,-0.079381720552152785
Galaxy419,3328.01,2216.6,-0.0043807499008918366,-0.35701260070498775
Galaxy420,1223.16,652.03,0.19962122094095047,0.1021786139536658
Galaxy421,983.87,1240.48,0.19015283275402284,0.026588166584555116
Galaxy422,3253.55,2760.09,0.033575671404401541,-0.29395353842342853
Galaxy423,896.7,1868.81,-0.3427614728607381,0.30743910970911614
Galaxy424,3287.82,896.12,0.14316556349379317,0.081541820180238339
Galaxy425,3279.14,1081.96,-0.162832583395742,0.15760215480088199
Galaxy426,3492.48,2170.59,-0.027546893878133,0.10719632530177621
Galaxy427,928.6,1375.78,-0.33868237058998973,-0.21763150443735318
Galaxy428,1206.92,3272.29,0.15266143441355157,-0.19554337153408013
Galaxy429,477.77,22.01,-0.28769265051184761,0.48573056010954369
Galaxy430,3885.5,2518.24,-0.095024977904444599,0.15450030617354749
Galaxy431,2748.26,3420.78,-0.20493933923376145,0.1359950992893815
Galaxy432,2811.41,2845.74,0.37186929715738748,0.067557326186421005
Galaxy433,130.47,1724.74,-0.3393714506597606,0.13934525226847008
Galaxy434,1823.91,3794.22,0.022819705601110518,0.1378393926452679
Galaxy435,899.28,1017.53,0.31592956967930541,-0.074583971943364649
Galaxy436,1739.1,1119.77,-0.48751273271127071,-0.14875012712234192
Galaxy437,3015.99,2182.16,0.14169663693391069,-0.1377574390747435
Galaxy438,859.29,3133.03,-0.019051993509524912,-0.013373534965936518
Galaxy439,3531.41,2693.84,-0.094860046895122008,-0.33222009401138169
Galaxy440,4179.4,3944.1,0.3380439368038104,-0.012101930953601341
Galaxy441,1586.3,3466.21,-0.45639888728834316,0.022151026142134822
Galaxy442,418.99,2837.9,-0.052892568731736284,0.102373181749586
Galaxy443,1892.2,494.69,0.40733223011354519,-0.070189537453884274
Galaxy444,2952.91,3755.63,0.3434749328154032,0.31597615494135034
Galaxy445,3619.22,177.38,-0.2121509611996063,-0.1689120150550239
Galaxy446,3611.05,2093.08,0.0027299472543296788,0.20299257556847744
Galaxy447,1964.39,532.5,-0.030439840722062073,0.093122734681475902
Galaxy448,2996.56,1515.99,0.092401942618429697,-0.20299073304426729
Galaxy449,497.51,2354.33,-0.051640095508817541,-0.016843110062261607
Galaxy450,304.64,3231.46,0.15378609008226496,-0.074664375311714132
Galaxy451,2386.42,163.27,0.025851535721308078,-0.31849543935492275
Galaxy452,3761.59,1360.19,0.082965974579127508,0.044683924938237238
Galaxy453,1941.85,2187.7,-0.045169742793018205,0.15440626516515976
Galaxy454,3503.88,2299.62,0.080322983233664158,-0.19393897996695031
Galaxy455,3706.22,626.01,-0.42025246764550822,-0.079963188797714593
Galaxy456,3591.78,3276.44,-0.038194353653631385,-0.33190706806923226
Galaxy457,3759.71,584.39,-0.061154124240520219,-0.30282812170890583
Galaxy458,1475.41,442.23,0.35382484028651373,0.056776544700933879
Galaxy459,594.7,3132.27,0.32052730535148233,0.53232638115522068
Galaxy460,1333.89,1139.97,-0.28266619153764849,-0.080737764991263755
Galaxy461,1684.42,2858.27,-0.090052484730653234,-0.30990508204175937
Galaxy462,1512.43,3411.6,0.00065478144027769636,0.37604060495973124
Galaxy463,3153.5,2042.81,0.54332800317099239,-0.042894029421895574
Galaxy464,1761.17,2339.3,-0.14111893496951594,-0.051445632181640055
Galaxy465,2423.72,2306.87,0.044979296240009438,-0.45888287329185506
Galaxy466,4141.08,2585.24,0.086003850932622222,-0.046483036607424602
Galaxy467,681.45,1039.63,0.38190940714889676,0.28790545815457952
Galaxy468,3898.28,1221.95,0.41572908767624867,-0.27517429266930266
Galaxy469,778.35,3397.46,0.65055297863798311,0.02737082785094494
Galaxy470,3360.7,1156.9,-0.34177821041582246,0.2561047413732781
Galaxy471,2934.9,1488.37,-0.093611254857176737,0.05114632903395197
Galaxy472,3801.74,1112.41,-0.035467415294126198,-0.2467518538470122
Galaxy473,3837.74,1515.41,0.35613758411967616,-0.016495434327691655
Galaxy474,3424.19,3260.16,-0.25428831183073985,-0.11773973044099161
Galaxy475,1113.6,3344.65,0.37149568290689777,-0.25871850257989776
Galaxy476,3926.88,784.77,-0.1738769277167112,0.28284122964227643
Galaxy477,838.93,2478.17,0.2014664721903042,0.30206974193196767
Galaxy478,3881.79,3566.67,-0.10023707533152984,0.0069249872219351132
Galaxy479,3605.02,2037.59,0.4336234101326023,0.25489730320347354
Galaxy480,3710.22,853.86,0.0041277331892462564,-0.016536473908121727
Galaxy481,480.36,3559.21,-0.021474135784668336,-0.1039527293738286
Galaxy482,3810.11,1719.24,-0.15428055499516158,-0.50334131554658734
Galaxy483,3495.96,168.73,-0.14497377745021203,-0.18379642526248541
Galaxy484,3595.03,3919.07,0.33934784144787977,-0.087310555742040982
Galaxy485,3892.64,4176.07,-0.035238910557662761,0.21704598168913347
Galaxy486,387.03,4095.86,-0.031981750944344065,-0.44751031983432416
Galaxy487,3152.5,3379.54,0.021525889508241497,-0.073349965499220765
Galaxy488,360.28,965.59,0.16986365602168008,0.00040566056377934478
Galaxy489,285.7,3950.0,0.13195040916370945,-0.27990077705775956
Galaxy490,1950.59,2487.82,-0.32584748478532605,-0.16025974443013924
Galaxy491,474.12,76.08,-0.070273106337232299,0.22244577425255344
Galaxy492,2250.42,2266.35,-0.099413308143877499,-0.011164023351678098
Galaxy493,1347.95,2370.17,0.14581061502458409,0.10335328892338963
Galaxy494,3622.06,1173.51,-0.17262525512548266,-0.17902621327511542
Galaxy495,2295.81,4043.83,0.017082472696576426,0.19430189587080454
Galaxy496,651.85,3271.13,0.32501924063779153,0.014332372579342077
Galaxy497,3290.95,3938.61,-0.24516954846561634,-0.07663015523976803
Galaxy498,2134.07,911.47,-0.1017354729491094,-0.23721837842223037
Galaxy499,845.27,2665.16,-0.043906096539507292,0.022774792805799082
Galaxy500,4148.41,276.06,0.1352219772559371,-0.28439586783240611
Galaxy501,1257.4,139.07,-0.30462751067253502,-0.070745434029464677
Galaxy502,1611.56,3790.98,-0.14872615982162687,0.36199581875378306
Galaxy503,2698.64,1222.65,-0.077626648100733248,0.01523931085608371
Galaxy504,1373.14,3522.86,-0.56906807136511717,-0.69055911472317144
Galaxy505,2110.36,1746.67,-0.15737317786639565,-0.17289227504753718
Galaxy506,2188.07,311.82,0.14339840580365482,0.040362197481276903
Galaxy507,2187.16,1734.89,-0.069975160623661076,-0.015306599662146161
Galaxy508,2266.92,2380.76,0.36697686433377996,-0.42140947486804231
Galaxy509,3041.95,2228.46,-0.042308157186707621,-0.19972762508132166
Galaxy510,1818.81,2403.13,-0.030761215609560882,-0.43923185142358467
Galaxy511,4078.82,1194.17,-0.062688089876259734,-0.12476666278127427
Galaxy512,3049.94,229.89,0.1494550543466179,0.33982022562681313
Galaxy513,3134.67,3494.43,0.18827529387576922,0.12060240416675583
Galaxy514,3464.09,1876.69,0.39163116500046169,-0.41506653887216632
Galaxy515,3574.7,1546.47,0.26028141054987053,0.12687800711670902
Galaxy516,2606.85,819.13,0.049652150458047703,0.040751261754839341
Galaxy517,141.91,1665.94,-0.022925887725712323,0.66944286967388367
Galaxy518,2893.89,985.03,-0.11132054168855932,-0.17876356178229735
Galaxy519,398.17,1195.57,-0.14748137004395956,0.095020877044662305
Galaxy520,2439.38,3833.73,0.20626466328313403,0.056238522732268759
Galaxy521,2890.42,1301.95,-0.22500313814873185,-0.082233684403568486
Galaxy522,1665.06,2918.03,-0.26656711757685952,-0.27764691335929731
Galaxy523,2756.84,1530.21,-0.48311076173131551,-0.18632958649614467
Galaxy524,3997.22,1192.88,0.1895679013725976,0.29032258911182973
Galaxy525,1222.43,2908.59,0.18168098027122864,0.38089760140811968
Galaxy526,873.3,1154.52,0.09920075367576453,-0.011554180742181661
Galaxy527,3308.45,1957.67,-0.50164810832204432,-0.16465600782641523
Galaxy528,361.93,362.42,-0.14816177746143339,-0.064123211828612858
Galaxy529,269.43,3572.72,-0.18350002991597758,-0.052040301221320709
Galaxy530,1059.77,3718.35,0.21103063926352658,-0.40640541378940159
Galaxy531,3112.49,1275.58,0.065025100729868862,-0.1512715634452021
Galaxy532,1150.65,3706.7,0.052339005389252347,-0.46204377541807051
Galaxy533,1144.42,3918.49,-0.48301299306365209,-0.19933514808717392
Galaxy534,3412.59,3171.21,0.39157106133403896,0.10635035152204708
Galaxy535,3627.59,280.32,0.20517816557395155,-0.2176940557548544
Galaxy536,1468.47,3953.54,-0.030209687547578357,-0.45670610582398008
Galaxy537,2612.66,272.87,0.20922884500010619,-0.075271223356216999
Galaxy538,2874.93,3620.89,0.042491719998441757,0.034765943544413216
Galaxy539,744.47,2566.61,0.21337914512241937,0.15646826487098045
Galaxy540,827.78,2721.89,-0.010698750281217639,0.075344139556448364
Galaxy541,4091.75,1325.27,0.28757368869782363,-0.052620664819209281
Galaxy542,1415.9,2234.89,-0.02182538470456058,0.22684315947075009
Galaxy543,540.28,1022.85,0.33671049879738435,0.11302794643302833
Galaxy544,2697.75,4006.73,-0.32179384928383309,0.092754211413686782
Galaxy545,2011.29,3180.42,-0.064013766165833541,-0.067127126815018243
Galaxy546,1029.92,2704.0,-0.15035254012047725,0.11506997351877149
Galaxy547,1837.68,228.14,0.1438306797757381,0.053239544780916762
Galaxy548,3794.97,1093.89,0.02763681276688159,0.12100411312296687
Galaxy549,516.92,4042.64,-0.085436987123646488,-0.29601271197367451
Galaxy550,1005.1,947.71,-0.40132004806416632,0.32135619089432893
Galaxy551,3244.86,3399.14,0.053872101029490721,-0.084783800868461559
Galaxy552,3152.06,366.23,-0.12186703137392348,0.093484596267767006
Galaxy553,1561.79,2006.19,-0.30186790427879551,-0.01782830421358382
Galaxy554,1612.68,3319.96,-0.07163251554554366,0.19806460797017916
Galaxy555,2269.6,1135.54,0.029884120431053457,-0.34253062658284966
Galaxy556,3079.89,842.16,-0.039711990433266731,0.18131930912096317
Galaxy557,3302.43,2423.66,0.22093880455748632,0.10015504434977514
Galaxy558,1362.41,2577.06,-0.079587663431321509,0.12230068608646025
Galaxy559,3603.42,2384.39,-0.41941804936546939,-0.054024286307645566
Galaxy560,3637.77,2495.33,0.088047428109370732,0.16017874985790764
Galaxy561,3445.12,906.18,0.064540893344702546,-0.30912713609820264
Galaxy562,318.43,392.68,-0.18764147002193915,0.66226563858411558
Galaxy563,3910.6,689.01,-0.23278548499094792,0.20057521294779906
Galaxy564,1034.21,1940.37,-0.17517625320732397,0.17836461868546644
Galaxy565,2957.34,2409.57,-0.04317525041688465,0.0028636684882999697
Galaxy566,1659.93,3491.05,-0.24942737416693828,0.5977479482057767
Galaxy567,3042.17,2324.08,-0.12159057248399315,0.094344230292119274
Galaxy568,2973.2,738.1,0.264483464157453,0.07196934118136783
Galaxy569,3274.2,2394.51,-0.18498306932012354,-0.084438953877131795
Galaxy570,1193.93,1644.59,-0.20557366100648497,0.2609427507770668
Galaxy571,2500.93,3936.54,-0.052512330567024937,-0.23838531774916236
Galaxy572,2753.59,4166.89,-0.099977877694419029,-0.27406390996396768
Galaxy573,3630.04,3034.99,0.36862588282950259,-0.11824278732195195
Galaxy574,1694.56,3442.09,0.094775913682931714,0.56408565280616807
Galaxy575,691.46,3084.61,0.25666451239231147,-0.13167944552377731
Galaxy576,1686.13,685.96,0.091644179082687877,-0.081415145005045861
Galaxy577,2606.03,589.2,-0.18128935471214092,-0.00097096417603992347
Galaxy578,763.35,2418.24,0.18230705562597174,0.30401797462249225
Galaxy579,851.56,1824.43,-0.13512783463628172,-0.37285817191009868
Galaxy580,2233.49,1310.02,0.49170356966838835,0.10666011769461028
Galaxy581,2594.32,140.26,-0.10885507115267143,0.1024642878540859
Galaxy582,3650.58,919.69,0.039402634644881966,0.16969755519003152
Galaxy583,1733.69,3897.21,0.18248377923606668,0.32150948979311156
Galaxy584,143.61,3663.04,0.089824348820723793,-0.28639364034486231
Galaxy585,2003.64,4185.33,-0.40123651266118637,0.12484671104983748
Galaxy586,3051.59,1503.64,-0.003813080086162446,0.1372103409405338
Galaxy587,1373.48,3044.62,-0.0029628138061381232,0.45741280136320212
Galaxy588,2358.92,2328.93,0.1098078456349342,-0.050269705328174902
Galaxy589,1835.48,689.17,-0.018316067833032301,0.17885779471767999
Galaxy590,477.97,2517.17,0.071390926319843506,0.24797536061520334
Galaxy591,266.51,72.45,0.10389243589587771,-0.14407489451863773
Galaxy592,1442.18,1710.94,-0.052380851297847586,0.35176116758552689
Galaxy593,321.07,2762.77,-0.057187560578163266,0.25180062027429173
Galaxy594,2433.21,3123.91,0.088989298068537948,-0.015566339765251647
Galaxy595,2951.1,4199.13,-0.14860331500780394,0.064372711089575138
Galaxy596,2784.26,17.2,-0.14019460013969959,-0.083402779428463664
Galaxy597,266.37,232.7,0.010919147577260355,0.47467023768161898
Galaxy598,2761.48,1192.91,-0.36148180523617052,0.019880666912609812
Galaxy599,1000.2,2009.4,-0.28415229220268634,0.28425697032441571
Galaxy600,1325.19,2907.69,-0.50298708625066224,0.2551031756004622
Galaxy601,2817.69,2263.65,-0.088685976860594151,-0.10846469694151056
Galaxy602,2726.03,1789.37,-0.26298469964430193,-0.026875991686223094
Galaxy603,2641.28,3633.6,-0.12285591340502075,0.43403492461202209
Galaxy604,2835.38,530.83,-0.04036948478341857,0.031183327535520264
Galaxy605,602.57,3968.29,0.16683870166917195,-0.79484970729035542
Galaxy606,2849.35,2591.12,-0.38828521179684528,0.058814562250917912
Galaxy607,3274.64,3622.61,0.13586032273570225,-0.00083386131859634893
Galaxy608,1872.35,1559.03,-0.26964886072870431,-0.0093595002163075619
Galaxy609,1830.58,635.82,-0.10668972098390017,-0.093757326905081317
Galaxy610,1317.26,382.57,-0.39314985010029341,0.11307398737746319
Galaxy611,2744.25,390.86,0.49651581399337696,-0.27305830077822962
Galaxy612,2627.88,2324.38,0.30673492442398143,-0.42266535995691867
Galaxy613,966.01,4058.71,0.075881785817351916,-0.26412980299326877
Galaxy614,1817.19,605.77,-0.3456669817143338,-0.46777609804116832
Galaxy615,972.24,1584.48,-0.075385268139753492,0.22996124645939198
Galaxy616,2353.84,1359.72,-0.57200502717324553,-0.073692125167884009
Galaxy617,2985.36,1380.52,-0.29860826336658025,0.21414124960075853
Galaxy618,3504.55,552.01,0.10705070312891524,0.092176912186373847
Galaxy619,3994.15,74.57,0.090459376918864409,-0.32449647817009625
Galaxy620,59.99,1065.8,-0.37044929617636779,-0.17815022092181801
Galaxy621,2.84,3847.43,-0.078529588057734148,-0.25385782863607326
Galaxy622,749.01,1526.48,-0.01211750767132358,0.36833551759095318
Galaxy623,3886.92,774.05,0.18338140320844695,0.055985847075653655
Galaxy624,3634.39,3626.4,-0.16594639016604923,-0.039285915376468077
Galaxy625,2324.38,1022.47,0.13992007990463248,-0.0066891494354254927
Galaxy626,1318.83,2295.98,0.15515799882136816,-0.15592836399076915
Galaxy627,2460.61,3772.85,-0.069691179202399686,-0.38095364671443732
Galaxy628,544.08,2009.7,-0.13128344602469499,0.017091955460052682
Galaxy629,2381.12,3131.51,-0.13261677690516693,-0.32978428997487819
Galaxy630,2336.63,1887.86,-0.17370435501203207,-0.31501050310595613
Galaxy631,1620.93,2229.77,-0.036425863685222576,-0.17433263491160772
Galaxy632,2031.87,1482.68,-0.16859158403018737,-0.30485706986097638
Galaxy633,1268.69,888.15,0.52485733818202684,0.16204822375052988
Galaxy634,2949.01,2546.56,0.018509301641906964,-0.36595248744578263
Galaxy635,1076.45,2032.48,-0.32536369775195884,0.12875637470035978
Galaxy636,2091.62,1746.55,0.011297312783487806,0.04308707703416606
Galaxy637,3112.13,1639.88,0.02066944956351404,0.24552240825295432
Galaxy638,839.75,1886.73,0.18710048143240521,0.27805440246914276
Galaxy639,2693.12,2776.19,0.021002503216710711,-0.37717843553625374
Galaxy640,380.28,226.67,-0.24033349317059874,0.016063319618221182
Galaxy641,2419.76,2456.16,0.08004175032244977,0.0020927478693535395
Galaxy642,321.62,3589.33,0.048160881852898033,0.28792410490859854
Galaxy643,2993.38,31.03,-0.53883076113992079,-0.08450097542114457
Galaxy644,2856.5,1748.27,-0.004428351263927632,0.069846761746926972
Galaxy645,424.37,3057.93,-0.13194914975482053,-0.053894889607329931
Galaxy646,3138.74,3060.5,-0.096598120323865666,-0.0028377532130333394
Galaxy647,454.1,4053.31,0.050685072523944566,-0.44986725525776927
Galaxy648,1368.0,2379.79,-0.0092909649417866058,0.23225632501409049
Galaxy649,1043.91,633.97,-0.017228011129174228,-0.15715859361566334
Galaxy650,2956.4,1697.44,0.29698425874694973,-0.10624470199045616
Galaxy651,1597.98,2948.36,-0.023706619946693819,-0.22049126327002741
Galaxy652,2604.61,3147.45,0.0090314919156654905,-0.20536902990024422
Galaxy653,830.67,3789.25,0.039112743621008514,-0.34472190708863037
Galaxy654,92.46,4027.59,-0.0047835986556367394,-0.048040118888924455
Galaxy655,3728.34,4005.72,-0.06935453807492227,-0.064947414340821366
Galaxy656,3414.46,4109.52,0.27547460564999182,-0.051681484540178402
Galaxy657,2437.83,2717.96,-0.1416291154017357,0.012675843235795903
Galaxy658,4041.76,1548.44,-0.054466288476307287,-0.061410615098720582
Galaxy659,4045.58,2851.43,0.54435168004173984,-0.016585639966094658
Galaxy660,1572.52,560.04,-0.22383826838819862,0.012600574770690508
Galaxy661,1690.58,2363.23,0.40333395680338646,-0.14833504117620805
Galaxy662,1476.93,2430.5,0.24846792967375669,0.016302561921159156
Galaxy663,2193.66,2947.0,0.0060712515528860422,0.048310962221799147
Galaxy664,6.27,1234.44,-0.026759003961517171,0.021707976424737555
Galaxy665,275.16,2318.37,-0.04748226531689384,0.26974476266280145
Galaxy666,3849.61,2322.21,0.30140880855869301,0.12096451456598711
Galaxy667,3603.9,2135.22,0.15331053350909379,-0.0026309805138966524
Galaxy668,717.79,2599.09,-0.0078857171743096227,0.092320473577131773
Galaxy669,921.82,3535.2,-0.015381946746517272,-0.13663050773880867
Galaxy670,2907.01,3650.44,0.33451510415203922,0.36914928282120285
Galaxy671,1328.02,4161.28,0.25296284972802829,0.025960778609736349
Galaxy672,161.57,1428.71,-0.14037766805629762,-0.13156206810458132
Galaxy673,1170.3,962.74,0.064987419926252607,0.1605609829015745
Galaxy674,3629.96,3662.65,-0.38361848762872364,0.01290807902613033
Galaxy675,2918.07,4118.17,0.090438719875397061,-0.19072046942680418
Galaxy676,2656.81,1501.5,0.43506153666175917,-0.28269696211287476
Galaxy677,1152.16,2319.94,-0.23088773789112702,0.042088082373050895
Galaxy678,1763.82,3288.54,0.34560653788897533,0.2276549560856258
Galaxy679,3731.69,3036.04,0.11595032537408584,0.070042986651772374
Galaxy680,1014.02,2112.33,0.18444973305674975,0.035911873260947608
Galaxy681,2896.39,1034.86,-0.2259403544263392,0.0075826978641819476
Galaxy682,3409.81,2150.76,-0.032694457099896865,0.44470093454573989
Galaxy683,996.37,2226.46,-0.30369197565278094,0.26034967499733302
Galaxy684,1996.68,3718.76,0.11528961543415948,0.53956790812949951
Galaxy685,1621.3,2745.23,-0.12404679122676471,-0.27019480021203524
Galaxy686,3395.25,1474.6,0.27014586921489153,-0.3193389428815544
Galaxy687,4144.61,3258.15,0.25839964577658059,0.043488358343513979
Galaxy688,2199.05,1765.27,-0.28394289213063972,0.013919054247099355
Galaxy689,1912.56,1790.92,-0.037589238038752609,-0.089942242185435881
Galaxy690,2508.08,2545.52,0.24153845752729541,0.011456445981691404
Galaxy691,893.94,4008.9,0.095629566119143097,0.030365293496214085
Galaxy692,1134.2,344.8,-0.10169984172356045,-0.044859608615537096
Galaxy693,1386.01,1485.31,0.31253563753844149,0.43688175770205795
Galaxy694,2754.04,2871.94,0.59218473585499587,-0.35340162495253835
Galaxy695,1591.99,1924.98,0.026186959459038622,-0.16960925077862832
Galaxy696,3156.98,322.38,0.27341962766469396,0.15160657368187999
Galaxy697,3533.87,397.43,0.20016783454065087,0.21930099323465602
Galaxy698,1884.52,3595.21,0.052344617737395641,0.14661538360605997
Galaxy699,1635.07,2609.21,-0.23571552814927976,-0.16854637772188946
Galaxy700,3686.93,618.58,0.10834388962678783,-0.064539759214001027
Galaxy701,1406.29,626.97,0.14097956231801012,-0.25856372770182728
Galaxy702,972.04,88.25,-0.12542779093204331,0.0514356265753559
Galaxy703,3133.33,3208.69,0.2763123207250785,0.089827340840631709
Galaxy704,3496.89,1255.51,-0.13380270523045246,0.27483253288267878
Galaxy705,1462.4,942.55,0.3139112798557615,-0.18391676061993517
Galaxy706,1960.13,2164.11,0.1294762591264863,-0.014985022208382187
Galaxy707,752.02,1217.45,0.19130632125339916,0.10443038489404276
Galaxy708,1122.85,2584.47,0.099961692499549865,0.075993510437597056
Galaxy709,2544.64,4039.27,0.51544667742094996,-0.077486008592663802
Galaxy710,92.7,2730.54,0.069054030433553099,0.023103552102750141
Galaxy711,497.47,425.63,-0.18563345786071334,0.20250961650027899
Galaxy712,3303.19,3712.85,0.22562385754890008,-0.030833943284192297
Galaxy713,2668.15,2660.56,0.24054658484107125,-0.1883507657603738
Galaxy714,1894.83,2226.73,-0.21195082112036731,-0.447908414316885
Galaxy715,929.84,558.02,0.094343198138094178,-0.052523404402443741
Galaxy716,3465.82,3711.56,0.08460214569267839,0.28654230362929983
Galaxy717,1098.73,2352.33,0.16787034547794283,0.052415161111697972
Galaxy718,2062.12,572.37,0.19885581336853286,-0.045473725922649644
Galaxy719,1556.17,2753.91,0.014106147854262507,-0.21448193893384462
Galaxy720,2649.68,1658.93,-0.059254847598215629,-0.4739236893419575
