GalaxyID,x,y,e1,e2
Galaxy1,1573.89,2190.28,-0.07758724859352803,0.080421222620222638
Galaxy2,3966.14,2777.67,-0.077778318198837182,-0.022014837788558533
Galaxy3,2358.52,3807.53,-0.066119244696250912,-0.01753951691295258
Galaxy4,434.92,1284.36,0.14661327246285724,0.11434763075104146
Galaxy5,4107.56,2436.69,0.17080646136587452,0.057948889422207245
Galaxy6,1658.51,3131.51,0.025306403456043833,-0.15313016299674234
Galaxy7,2429.8,2402.9,0.18133625572521309,0.34477970405229597
Galaxy8,3550.77,1877.86,0.085400771074335705,-0.14822458626383367
Galaxy9,4156.66,1988.78,0.15749284718685586,0.0036236940930410022
Galaxy10,205.6,3886.4,0.13895554231769638,0.024478376015363134
Galaxy11,1005.56,3920.02,0.4191679785739949,0.21861234258198117
Galaxy12,1632.56,3237.48,0.081914848327574452,0.64632785437487594
Galaxy13,3033.33,2468.31,0.045077926015511582,0.20483988566745803
Galaxy14,2567.47,3247.93,0.0062223567452249773,-0.0043817344802422192
Galaxy15,358.79,406.62,-0.14060022451474036,0.072031283309957866
Galaxy16,2590.45,3867.51,-0.57272882994516627,0.20335993915702463
Galaxy17,3540.9,90.93,-0.3456608942242122,-0.15953778411041736
Galaxy18,2697.42,3819.56,-0.42285053962832836,0.058802308789490498
Galaxy19,2341.9,1312.48,-0.11177442707121422,0.019000121027658589
Galaxy20,3975.63,1074.72,-0.09404139219971358,-0.0041699455564865734
Galaxy21,1528.86,1814.32,0.42809250529430176,0.12305823004604577
Galaxy22,3114.05,1854.21,-0.13634605713177994,-0.12976513353531297
Galaxy23,2186.02,1836.45,-0.20667076633363454,-0.02624932851651933
Galaxy24,2619.9,520.89,0.08705427445089528,-0.10526694322999902
Galaxy25,3740.62,2552.64,0.37799301225539617,-0.37533950844179209
Galaxy26,932.53,2943.78,-0.049889453376048248,0.20337011385226422
Galaxy27,3103.03,876.78,0.074929678245502354,0.1270386699447687
Galaxy28,2094.55,3210.55,0.02822628437150846,0.42108779750488889
Galaxy29,3045.34,1495.96,-0.57864490500140953,-0.047154311289082873
Galaxy30,3176.15,353.33,-0.060180866523148503,-0.22859446500160996
Galaxy31,3837.79,1433.15,-0.28521958595210861,0.12270433045330227
Galaxy32,2428.72,1388.88,-0.18077663879526404,0.27392979272892687
Galaxy33,655.09,231.47,-0.04042144702006352,-0.11495041720753152
Galaxy34,1081.65,184.91,-0.11694117979110191,-0.14959037665949254
Galaxy35,1848.38,1626.59,0.15215808214320603,0.31894449214663989
Galaxy36,835.45,633.14,-0.091810379888872376,-0.0027614397506253024
Galaxy37,522.44,137.14,0.0089442204080354831,-0.42489598598288347
Galaxy38,178.74,2859.77,0.096882819555484806,0.35829277448723895
Galaxy39,899.54,241.79,0.62395459784691265,0.19234943095571455
Galaxy40,3330.94,707.27,0.071633377327609604,-0.086466994189775145
Galaxy41,1317.3,1886.66,-0.43496379182985845,0.43421765102412402
Galaxy42,3585.49,1364.79,0.031201949009178775,0.19956338104066579
Galaxy43,1210.12,2858.74,-0.19626044759633682,0.16629100757902024
Galaxy44,3148.59,1765.71,-0.26616408599216007,-0.21530670814738831
Galaxy45,2298.29,3383.43,-0.065029891034940349,0.25765873731701217
Galaxy46,4006.43,939.94,-0.063405519564279589,0.21134643202262621
Galaxy47,303.67,3694.64,-0.10555741454849422,0.31744304084926211
Galaxy48,2999.3,2541.69,0.042012476253676517,-0.037047821789477839
Galaxy49,27.71,544.49,0.034517010624251311,-0.18915986008158808
Galaxy50,603.5,2140.4,0.11927101041295661,0.15654745205516071
Galaxy51,1110.76,2961.22,0.12009478416231871,-0.057331407765819048
Galaxy52,750.95,1735.85,0.055576054366874572,-0.020234561397410367
Galaxy53,3182.99,998.36,0.06038018202469897,0.27234555795128362
Galaxy54,2783.48,282.41,-0.19653513223266311,0.10763101106973763
Galaxy55,643.72,3280.54,0.0010711748585976177,0.021028429225495485
Galaxy56,803.94,1044.48,0.22381663121126466,0.5648820145920127
Galaxy57,2399.4,3158.2,0.34053318901113455,-0.045704889125061821
Galaxy58,1135.74,623.08,-0.23692227100470473,0.028760331539046828
Galaxy59,808.24,3855.61,0.1432903303980764,-0.26409821528695282
Galaxy60,2502.38,2399.37,0.043758338026953836,0.21486837464556607
Galaxy61,1894.96,2970.86,-0.18160248296319997,0.16475217134394718
Galaxy62,2178.81,3886.9,0.19462993371743592,0.11797086790100619
Galaxy63,2474.87,2959.0,-0.21170523501036942,0.047128185119688165
Galaxy64,205.3,528.99,0.17112717120284288,-0.094606252008874431
Galaxy65,543.53,585.79,-0.25588577716630795,0.39916988262633307
Galaxy66,1820.5,2550.63,0.18978784996822479,0.21501019359830439
Galaxy67,2556.1,2213.74,-0.12967413328916932,0.27252696818585193
Galaxy68,1261.03,827.99,0.10706731766279169,0.049425931523712059
Galaxy69,2714.85,3164.71,-0.324252433914203,0.28450067316744898
Galaxy70,3301.51,719.67,-0.23509912668021926,-0.16367168339195784
Galaxy71,4064.92,611.08,0.39744503722487312,0.24292975651126356
Galaxy72,2022.68,1977.28,0.014735243818688709,-0.081332802343963673
Galaxy73,1384.2,3220.61,-0.038988169504056258,-0.19928924055069133
Galaxy74,1167.91,712.95,0.32534858352863938,-0.022259665639605922
Galaxy75,1959.78,2381.33,0.090578458035104531,-0.1666085621516365
Galaxy76,3211.0,742.82,-0.039168094819773042,0.028281259577128466
Galaxy77,3078.38,2874.01,-0.24954462655376264,0.23338476633416044
Galaxy78,2035.71,3268.86,0.4153229928305458,0.26739505590807111
Galaxy79,3069.62,25.16,0.24589224685357419,0.26236175307339282
Galaxy80,137.12,3670.55,0.041390167768010772,0.0991824317322091
Galaxy81,17.04,3944.04,0.016179744505307112,-0.20740964586839625
Galaxy82,3219.17,1936.45,-0.088909548931828897,-0.20192710075145087
Galaxy83,1577.59,561.02,-0.075662411782056779,0.096396331150813946
Galaxy84,1977.91,1941.77,0.22910329353921274,0.076888984004510025
Galaxy85,1248.79,1930.17,0.23582274289922742,0.11924928326345118
Galaxy86,1168.31,2433.3,0.036439394816692845,-0.14024318290807716
Galaxy87,2778.33,1953.09,-0.0074329938414602614,0.23762805335466886
Galaxy88,3596.82,871.35,-0.060419569597944013,0.13308985385502967
Galaxy89,3175.06,1927.63,-0.076488736282102232,-0.012393008687603485
Galaxy90,217.01,675.44,0.16982666145952821,0.5227320499149315
Galaxy91,1571.23,692.95,-0.067083002314035731,-0.24016464541652655
Galaxy92,1335.89,1100.69,-0.31525647518512678,0.14920404395015535
Galaxy93,2758.4,3701.75,0.36920030966257822,0.11481812545269759
Galaxy94,928.03,3942.28,0.28390401860353864,0.14527392641211245
Galaxy95,2205.92,3753.82,-0.0015981408636578931,-0.33482192012112044
Galaxy96,2083.56,2390.62,0.11305939324483363,0.4137016922198522
Galaxy97,11.33,2423.6,0.049042834654750331,-0.12448313348590533
Galaxy98,2103.59,937.47,-0.65948630598749469,0.092478750583466107
Galaxy99,118.13,2394.12,0.24933755446158334,0.094664165719887616
Galaxy100,839.64,844.97,0.021032120535699909,-0.22483664831032679
Galaxy101,2739.25,3121.58,-0.11451961701831484,-0.0053158380997165022
Galaxy102,305.94,4009.58,0.12303809618608801,-0.090064317871960425
Galaxy103,877.16,1543.19,-0.10352006459317221,0.059651368066045964
Galaxy104,3159.28,1824.89,-0.19372420188139045,0.084441617640099928
Galaxy105,3792.74,1822.85,-0.021860189732494206,-0.20107824787986622
Galaxy106,595.53,3060.64,-0.013990155261959375,0.26838712676594112
Galaxy107,4052.87,3099.92,0.42634381531605181,0.28165982269099971
Galaxy108,2636.79,3292.13,0.08823207369235031,-0.34587467343528455
Galaxy109,2675.97,3091.21,-0.42395298872355081,-0.20743827241392609
Galaxy110,2040.93,1022.98,0.055556364853477924,-0.0064045152397358626
Galaxy111,1501.85,3745.15,0.042167965380346201,0.28430177212203162
Galaxy112,2364.62,2346.54,0.077743721909353858,0.54449921466111839
Galaxy113,3689.28,1013.88,-0.12108902675260504,0.095202810224073522
Galaxy114,3772.33,3331.24,0.19336446575961799,0.051203604272900716
Galaxy115,2069.06,416.27,0.30919778432039813,-0.086220749546901218
Galaxy116,2524.68,889.18,-0.16145402711097392,-0.0068254217208705247
Galaxy117,231.14,9.89,-0.065673576244823034,-0.20368043603779432
Galaxy118,1500.08,237.65,-0.45569788158694724,-0.27117185680493133
Galaxy119,1708.27,53.21,0.50806546390889029,0.49754669464866741
Galaxy120,4092.39,1844.3,0.10429120713726291,-0.33362830332082216
Galaxy121,602.75,2445.2,-0.18973106545777357,0.15247389747130205
Galaxy122,1642.56,2352.86,-0.14727284480448677,0.09250467837749575
Galaxy123,3325.4,3072.63,0.20859802670013999,-0.15896600387318832
Galaxy124,929.46,2725.9,0.25864196541449125,-0.03439508744658476
Galaxy125,3383.57,1657.04,-0.31423186039049533,-0.13711555741111436
Galaxy126,1421.52,937.61,0.087501206382731955,0.28373938763250472
Galaxy127,2943.4,1352.16,-0.064184326344046749,-0.24751901425381978
Galaxy128,314.52,736.62,-0.059709751688938981,0.35691817615795884
Galaxy129,254.64,2175.52,-0.12889581003447512,0.031050303134507302
Galaxy130,715.42,1515.96,0.064665740349740264,-0.040140587191308627
Galaxy131,1480.44,2399.11,0.46888476084490521,-0.27206693428138085
Galaxy132,1149.72,2780.9,0.29157275643427538,-0.13938985592494479
Galaxy133,3510.08,3889.0,0.11986756480848787,0.078570888017346768
Galaxy134,3709.57,111.49,-0.24911734134702895,0.028325493423933319
Galaxy135,1463.78,29.47,-0.27079875820216837,-0.18519195637663599
Galaxy136,1940.28,5.88,0.16657538274283945,-0.24267117676471034
Galaxy137,2802.05,4024.99,-0.30533415127398722,0.67236963590226995
Galaxy138,3064.94,3968.57,0.25815960987623238,0.34930202933389987
Galaxy139,3127.09,1571.13,0.19186487855896966,0.39755425726784521
Galaxy140,2494.8,229.31,0.35286138397072353,-0.14275359716748282
Galaxy141,1505.62,2955.23,-0.067417632988160614,0.1721712938574565
Galaxy142,3703.97,1857.46,-0.00043797948347419624,-0.05408392710102812
Galaxy143,245.78,1492.44,-0.0032337139214908836,0.22992768893069887
Galaxy144,3552.99,635.96,-0.10613467993827208,0.0046776896639330878
Galaxy145,421.19,2222.31,-0.090760538007424063,0.27292473974756304
Galaxy146,1578.57,2605.5,0.0025242347957157717,0.14264881441799276
Galaxy147,1265.62,1186.81,-0.17151122093206222,0.15206409071080104
Galaxy148,2073.56,31.54,-0.088457502006997799,0.26921920271858052
Galaxy149,1684.87,3635.29,0.19503218945120543,0.21407474558600453
Galaxy150,3519.44,3523.86,-0.34413747445180098,-0.32806913322623554
Galaxy151,1547.3,3280.61,0.04833028619370508,-0.12021326113947806
Galaxy152,1110.73,1.01,0.043590932419422919,-0.33238520043442049
Galaxy153,2817.01,3331.8,0.0041821108914428945,-0.10525144564810829
Galaxy154,1345.1,2896.83,0.26071582635544011,0.266563891250228
Galaxy155,571.44,4099.11,-0.11150389956263118,0.2796599140041367
Galaxy156,1442.39,2113.08,0.20645609271131002,0.039506387957270572
Galaxy157,3133.61,3999.15,0.20021423296906138,0.47429627378918737
Galaxy158,2526.87,3892.74,-0.25062476582616455,-0.10872556521029227
Galaxy159,3613.03,3620.17,0.3320779876716487,0.30686674778525658
Galaxy160,3856.93,1080.48,-0.074972680242203577,0.17136440659633417
Galaxy161,1529.15,475.42,-0.15545112968950736,0.090891535202201695
Galaxy162,3764.94,2343.67,0.0027923648683645403,-0.24933172640903756
Galaxy163,1817.79,2166.28,0.010124722053802548,0.069560959141106354
Galaxy164,2068.04,952.79,0.15186629264747858,0.35170991017023762
Galaxy165,1100.33,2406.96,-0.33303663187767585,-0.18302391776112031
Galaxy166,4042.34,2564.46,0.092021486479968065,-0.4926113453088411
Galaxy167,909.15,3459.8,0.19111890559793293,0.063607137286461155
Galaxy168,4008.2,1261.37,0.19629116834605162,-0.12502816120536142
Galaxy169,421.25,28.32,-0.37816662402119988,-0.045611706148847873
Galaxy170,823.69,1013.08,0.23464788854066301,0.3527138175507033
Galaxy171,2042.19,2797.18,-0.035609301884016134,0.30190614405965382
Galaxy172,1034.37,4003.5,0.094630350398236335,-0.2760686532524228
Galaxy173,3398.04,3177.39,0.069819568330377405,-0.5160728584729728
Galaxy174,1297.05,870.91,0.32624181016456705,-0.13543331799209227
Galaxy175,2655.77,2433.87,-0.37337071808514877,-0.092902631399622959
Galaxy176,3599.44,2456.41,0.19526375130951856,-0.30186208844918089
Galaxy177,854.98,4030.43,-0.034049243316618849,0.043147512361568482
Galaxy178,2132.31,2016.25,-0.068228323881261141,0.069442959814366323
Galaxy179,1393.41,834.61,-0.0030466100488826947,-0.36082326806599097
Galaxy180,503.92,922.76,-0.12868103604002962,0.23105202340251607
Galaxy181,2298.2,1066.05,0.069091970106406927,-0.18679343461238201
Galaxy182,1887.07,3510.93,0.28931368069159846,0.0070985471086304763
Galaxy183,1189.25,1861.56,-0.042323158848202674,0.018188783179046486
Galaxy184,3319.14,2711.96,-0.0034847789753885347,-0.25239095300634462
Galaxy185,1517.78,3891.53,0.28631690856338499,-0.24288812719404296
Galaxy186,1515.48,3831.5,-0.18084687355978588,0.042598227480155834
Galaxy187,1259.79,2255.27,0.0071878791803811366,-0.39038767278452613
Galaxy188,97.66,2885.71,0.08570851397651949,0.27891868457364721
Galaxy189,3473.27,3411.31,-0.13043340400883449,-0.12177092839736803
Galaxy190,1441.09,2106.24,-0.23818526397176973,-0.24775034541481278
Galaxy191,2482.47,2661.75,0.19768502482757744,0.19751579784416357
Galaxy192,2031.32,239.93,0.1937995225751229,-0.2190072232997122
Galaxy193,443.53,1575.53,0.057980985934416612,0.10670755336171611
Galaxy194,3742.51,2559.75,-0.028079524306361847,0.19757506739848024
Galaxy195,392.87,323.69,0.11963011702700511,-0.25089261526371082
Galaxy196,1116.28,2294.94,0.30761326719482507,-0.21724413221036662
Galaxy197,413.28,2588.81,-0.014131568419933072,0.2287767345531756
Galaxy198,3774.63,4130.98,0.073963059827974589,-0.22055686244239769
Galaxy199,581.78,671.93,0.070079829711759828,-0.002490900934609408
Galaxy200,3630.32,2538.81,0.093118460557857136,0.23676151466831938
Galaxy201,3950.58,86.15,-0.18603696403058817,-0.028485622437670964
Galaxy202,960.34,1071.49,0.19756320860186549,0.11229702420009252
Galaxy203,3818.11,541.81,-0.2175243166260577,-0.059216322290788333
Galaxy204,1214.38,3280.05,0.22953041468572852,-0.092455027240392479
Galaxy205,3167.73,577.18,0.06954535799836116,-0.36500678599027164
Galaxy206,765.03,2279.1,0.18528012610201788,0.036154331522577382
Galaxy207,298.72,970.02,-0.46045089770544306,0.26209448582423611
Galaxy208,3879.81,2375.45,0.081822314086687734,0.18341540990220287
Galaxy209,803.25,494.61,-0.10875423140496199,0.33737566265893748
Galaxy210,2704.48,1767.83,-0.22242960265154171,-0.04550445618991987
Galaxy211,194.99,1777.68,0.20699641083534676,-0.014923582775744224
Galaxy212,1795.85,3636.02,-0.13871790615412183,0.1314399224330989
Galaxy213,2240.4,326.77,0.12649831885532689,0.21031112307791772
Galaxy214,1573.71,2324.7,-0.21493541820493542,0.25506926899046756
Galaxy215,3366.32,404.58,-0.18954711199784316,-0.19006647019132378
Galaxy216,2910.54,1376.1,-0.17810068924362363,0.089347286756267463
Galaxy217,2104.26,1034.53,0.10951425055461819,-0.0020101776718096376
Galaxy218,2726.87,3580.33,0.25405772340489208,-0.2603119930347339
Galaxy219,750.55,1924.05,0.12773422914987523,0.39910665860856187
Galaxy220,3491.12,1653.29,0.041052821583123053,0.4607945547122142
Galaxy221,2777.38,773.68,0.46416410784408363,-0.38946675270796932
Galaxy222,812.13,2732.17,0.34637648461176862,0.37051903881631409
Galaxy223,854.37,2073.97,0.21380935240569182,0.33755618047985719
Galaxy224,907.52,353.17,-0.23345933170860084,-0.13547209356197268
Galaxy225,4190.03,3757.65,0.13141076464390278,-0.049972235414684388
Galaxy226,248.84,3630.35,0.29144063322921931,0.42552517419813524
Galaxy227,945.54,1585.98,0.0094797138972222798,0.2890595376560755
Galaxy228,3749.71,2042.5,-0.13469958303920584,-0.078141252414788503
Galaxy229,1171.62,3862.54,-0.13528163955427994,-0.047150082501050586
Galaxy230,3173.08,4121.35,0.11777321792733275,0.22921563836876685
Galaxy231,2052.2,576.92,0.34930343528038388,-0.21017048020819393
Galaxy232,2781.39,172.1,0.129068954490698,0.1264290899466112
Galaxy233,2726.02,376.45,-0.088085588742486814,-0.02556248208784874
Galaxy234,1237.98,1481.75,0.18608047017928597,-0.50045360925893168
Galaxy235,2405.23,3520.91,0.19841156514381547,0.340051349979133
Galaxy236,2708.25,2649.64,-0.086010069063229971,0.36568824852849735
Galaxy237,903.78,2475.86,0.16685493397327067,0.11993172976841893
Galaxy238,1780.56,3283.91,0.1050623824290057,0.18403790184087288
Galaxy239,1061.57,2617.87,0.31135856354545993,-0.0021904757456265578
Galaxy240,4025.92,1771.21,0.18968239307262102,-0.059480111314146406
Galaxy241,1644.64,1164.54,-0.185158829576476,-0.30276471470084937
Galaxy242,1535.74,2544.5,0.1172258228009519,0.17697022901510454
Galaxy243,1464.68,1849.69,0.006129222155809487,-0.2979036022459679
Galaxy244,13.46,1158.93,-0.045971045078941834,0.1048807991723793
Galaxy245,2647.25,1247.78,0.24720850076241105,0.35183273731982756
Galaxy246,2171.9,3707.02,-0.1119360638431855,-0.34147561124567055
Galaxy247,103.97,3173.18,-0.26634000780224598,0.062924638561461133
Galaxy248,996.48,1436.13,0.06704792272266076,0.13235393525277145
Galaxy249,3709.69,387.95,0.093364938045423479,0.050478426147028889
Galaxy250,3077.94,2546.2,-0.099977821624699606,-0.30148417957624407
Galaxy251,123.16,507.17,-0.050418866417828397,-0.055318119511398735
Galaxy252,4152.73,3338.99,0.36532702800853656,-0.21708718165414226
Galaxy253,1518.66,3676.73,0.29926367942839227,0.13564986393752299
Galaxy254,2726.38,3395.83,-0.037454900802823793,0.11113031000753065
Galaxy255,1312.41,3171.67,0.099733235780864321,0.21078960633560068
Galaxy256,479.03,1978.85,-0.12658885659331484,0.19654382059164588
Galaxy257,1851.4,1268.81,0.23581567296182954,-0.18501611238897209
Galaxy258,3291.79,3781.89,0.083837803162022467,0.14503322758872955
Galaxy259,3694.53,1326.73,-0.47390682723997546,-0.42223849579189965
Galaxy260,751.88,1212.27,0.079685639307757891,0.28499039960990735
Galaxy261,1067.52,2950.98,-0.24701693033251035,0.20294689932129972
Galaxy262,3733.52,4151.85,0.23587632803396347,0.24176466687139533
Galaxy263,2356.15,746.55,-0.092483392941001344,0.1827966147494024
Galaxy264,2855.56,2129.79,-0.0037031431542112747,-0.050455935552308491
Galaxy265,3626.93,4013.26,0.32122777155344584,-0.061445923400811481
Galaxy266,1893.27,2402.36,0.022315620443427261,0.36562970216118329
Galaxy267,1646.99,4115.25,0.046358338606025798,0.0043150317976010377
Galaxy268,1059.54,1868.91,0.19118144347664828,-0.14709228165881819
Galaxy269,2620.88,3306.2,-0.35980692807470416,-0.12864071105856326
Galaxy270,2242.35,3400.1,0.068761266761787926,0.098037123494610912
Galaxy271,2561.62,1944.17,-0.051023883122930255,-0.19322631870629672
Galaxy272,1956.53,1309.13,0.044107184398670091,0.44664179928076142
Galaxy273,2518.26,1753.75,0.11821790190061693,-0.035842543273153372
Galaxy274,2070.26,1096.32,0.0092725932706321651,-0.04530925325702264
Galaxy275,1698.54,3303.45,0.039889319372664378,-0.093470506378745516
Galaxy276,24.08,1345.18,0.037850380503730574,-0.022409335965554417
Galaxy277,3366.67,2045.16,-0.02927473860443916,-0.19617907324696238
Galaxy278,3415.57,2350.99,-0.0079046712761524779,-0.01766654701157494
Galaxy279,3693.21,2432.29,0.1104949667712995,-0.012578457274889127
Galaxy280,1636.29,3993.3,-0.12577915514378521,-0.47123324454369786
Galaxy281,1503.34,2135.02,0.037352253735701051,-0.1412995112766105
Galaxy282,3560.43,627.39,0.023149609822977729,0.028619216036339018
Galaxy283,466.06,2055.53,-0.075221242228727281,0.30401062774151605
Galaxy284,162.0,2941.08,-0.10221294189649116,-0.05037516720345328
Galaxy285,978.74,3970.19,0.27870136112519817,-0.19972637280816141
Galaxy286,3774.42,2531.3,-0.26859296562142254,-0.17614083446602613
Galaxy287,377.97,1630.67,0.070574163442672505,-0.30847316647750617
Galaxy288,1818.38,2956.84,-0.17271732941731263,-0.18323899500206964
Galaxy289,4103.35,3712.68,-0.033816056065550104,0.36644624698090045
Galaxy290,4183.45,3582.71,0.067729152034822007,0.010880195827989469
Galaxy291,3447.61,2050.3,0.2021096774468692,-0.38046533719254727
Galaxy292,1113.15,627.28,0.097505440332709831,-0.26048419223274644
Galaxy293,418.68,1960.56,-0.26895309495883446,-0.074376490801954187
Galaxy294,3674.63,3498.4,-0.018901159535581025,0.17492746012540192
Galaxy295,3481.56,1453.94,0.22470809329204147,-0.44031419699660307
Galaxy296,3916.25,4009.11,0.018986912797149619,-0.033273491824269058
Galaxy297,2539.54,2872.65,-0.14657052718149202,-0.053809039731451354
Galaxy298,727.12,3629.6,0.12176839856301111,-0.12214029015668346
Galaxy299,1163.6,691.45,-0.22938836530054846,0.29604763446166688
Galaxy300,2943.59,2321.86,-0.40003491066205821,-0.03034594898166712
Galaxy301,2536.47,1502.04,0.087971763311801676,-0.35774110284638161
Galaxy302,2132.18,3237.83,0.44596211407231717,0.18826575207839255
Galaxy303,2501.88,3226.99,-0.31551573510149145,0.3003003240211804
Galaxy304,1463.78,3981.47,0.24357336209879366,-0.17475739692740339
Galaxy305,2119.92,4173.1,0.073973306980656753,0.25193400863892318
Galaxy306,354.72,1031.62,-0.16935999274677607,-0.010365750634231813
Galaxy307,489.77,21.46,0.21063798637784012,-0.1395548951189054
Galaxy308,507.7,4141.84,0.28523486388470215,-0.38097018863361459
Galaxy309,1775.58,2437.88,0.0038970814669683912,0.45365038658435886
Galaxy310,1518.51,2335.94,-0.29326282555158045,0.108575179829899
Galaxy311,3789.45,2619.4,0.15223409836116855,-0.30860925905308578
Galaxy312,1661.46,3688.74,0.087186823803444974,0.037986337769173963
Galaxy313,2356.58,3227.02,-0.11919415117672222,0.43962324594719032
Galaxy314,834.6,694.57,0.075143478049527437,-0.11858979513251985
Galaxy315,938.29,3384.89,-0.19445874289420048,0.056859240122752994
Galaxy316,4027.51,1985.24,-0.33278588334474751,-0.30179485675796758
Galaxy317,897.97,3114.25,0.24083185736179247,0.16433522530752043
Galaxy318,483.96,2936.97,-0.060439051342516079,-0.4457903592187743
Galaxy319,1719.07,3321.13,0.32065483691272045,-0.075579444452220479
Galaxy320,3405.33,4116.15,0.41190899870015774,-0.066185365160776638
Galaxy321,3862.56,3851.46,0.42287224380669958,0.15309126935862932
Galaxy322,3354.94,297.14,0.017453434765834289,-0.18383644486980139
Galaxy323,1345.08,1256.35,0.18563994830621533,-0.12118700555987026
Galaxy324,3899.41,106.57,-0.090133182047150415,0.089362102081410683
Galaxy325,2104.52,3684.66,-0.00011916050261773226,-0.087966848457025321
Galaxy326,718.69,1223.89,-0.23162034740739962,0.33012334321765197
Galaxy327,156.7,1847.17,0.19865871610493527,-0.024538256585711071
Galaxy328,2797.45,3298.82,0.063216280583270917,-0.30265883979671609
Galaxy329,70.39,1196.83,0.22892487826314484,0.1782603620087222
Galaxy330,1464.34,1055.27,-0.06710629518487668,0.29177412333937941
Galaxy331,2235.33,2092.76,-0.20737217745389749,-0.12935886510214892
Galaxy332,2482.16,899.41,-0.2038162868556801,-0.23748429767541421
Galaxy333,4079.96,2724.88,-0.24634418121919918,-0.16316961722490322
Galaxy334,2272.45,2061.66,-0.29310414880998009,0.25237194946261021
Galaxy335,3324.42,1477.09,-0.15359492246526171,0.27609816924037306
Galaxy336,3798.46,2364.2,0.18697505772463122,-0.22245275422876859
Galaxy337,152.3,97.6,0.31279452933636193,0.23147519364642402
Galaxy338,1191.45,611.62,-0.20275882767605846,0.21510545416148222
Galaxy339,363.46,4111.8,0.39500123399852144,0.076440971453282103
Galaxy340,2376.26,1333.18,-0.14362992398780436,-0.19761890496421125
Galaxy341,1070.18,2893.61,0.14034061875538623,0.091005120655980681
Galaxy342,3823.03,4122.32,0.21919358698552477,0.091684842428301799
Galaxy343,2266.04,3890.47,0.067452038136220471,-0.31519431413455989
Galaxy344,849.06,3967.12,-0.14407850285449897,-0.016298686514325388
Galaxy345,1276.11,1314.76,-0.062687313173042561,0.12123790718430467
Galaxy346,1825.94,1536.75,0.19038825531663656,0.23281123875697962
Galaxy347,610.92,1187.21,0.070468524963866047,-0.076725430540527051
Galaxy348,3573.65,2929.64,-0.14423523987187667,0.037072028988940825
Galaxy349,3904.1,2553.07,0.28261965157057817,-0.037297114674250204
Galaxy350,3113.61,2621.76,-0.080602212302604587,-0.23802252746362212
Galaxy351,1600.87,2815.21,0.28824861489884601,0.058980511902193777
Galaxy352,3918.96,822.93,0.34448302532528474,-0.17088226552591937
Galaxy353,2831.74,903.48,-0.17943125064230675,-0.23528485614752026
Galaxy354,4124.63,96.97,-0.06824943399921693,-0.074563053290984574
Galaxy355,714.45,1497.89,0.028612046079069434,0.25781559449582425
Galaxy356,4196.12,1456.53,0.033573797593147409,-0.32361494273432112
Galaxy357,2457.37,2874.37,-0.36412991390023985,0.11783300044516125
Galaxy358,750.26,2941.42,0.32040503990121627,0.17440730836995719
Galaxy359,3414.04,3811.79,0.048300762335213021,-0.10680210044644287
Galaxy360,1131.67,1201.75,-0.12055160339171175,-0.11830075264020945
Galaxy361,2193.82,241.59,0.14790063456114783,-0.42421398890459977
Galaxy362,892.66,4160.64,0.13749272869037032,-0.18263012460059308
Galaxy363,2303.54,2886.0,0.075803176478866918,0.1645330411072416
Galaxy364,1233.03,2403.3,-0.081537977893307495,0.54014855979941867
Galaxy365,3673.64,1400.37,0.35017465591386898,0.16513249158694321
Galaxy366,1624.89,120.18,0.019622985408155123,0.1107403758443392
Galaxy367,2535.42,344.25,-0.27179544491355379,0.2523451072122293
Galaxy368,2059.78,2338.11,-0.044525161165474864,-0.15621988855239033
Galaxy369,1702.88,3800.16,-0.23527764485169583,-0.20075964486565459
Galaxy370,3799.7,2453.24,0.039594239455363126,0.23074510548191218
Galaxy371,3624.89,2077.35,-0.18772735172048505,-0.028236929260548868
Galaxy372,3542.51,341.52,-0.28606310765778431,0.033634577677103969
Galaxy373,1066.45,924.54,0.15745426272459409,0.14490877232916305
Galaxy374,3063.15,1856.32,0.46823615073273572,-0.0014153734779438765
Galaxy375,2832.02,2242.6,-0.11163741489688175,-0.2394761417956045
Galaxy376,1585.07,290.54,-0.43611000003439454,0.013188593614937367
Galaxy377,3997.19,2420.28,0.26231112057719635,-0.11105275383198725
Galaxy378,2021.01,1049.07,-0.12339520595188257,-0.12703348204496545
Galaxy379,2643.6,1493.48,-0.20400488566722327,-0.30884704943500069
Galaxy380,2090.92,219.11,-0.29092026424201445,0.20184186038145729
Galaxy381,3460.55,1505.61,-0.44996943701092162,-0.073908109158965687
Galaxy382,203.65,1763.5,0.17603142531556551,-0.38588863402229157
Galaxy383,3004.48,1009.8,0.047033785237476408,0.032529766977447784
Galaxy384,3434.82,281.81,-0.23702581376248116,0.078694106263189539
Galaxy385,3241.73,1169.65,-0.16098219956601612,-0.17765678977304544
Galaxy386,262.07,2219.13,-0.15113485267342502,0.16978339578964047
Galaxy387,1054.12,3003.88,0.24249356226885288,0.41510184358618835
Galaxy388,87.65,4187.56,0.10887104032690915,-0.42862830712540062
Galaxy389,1315.85,1000.01,0.051892453501103664,0.030688477663624696
Galaxy390,196.85,3719.72,-0.030544267701489838,0.41007702353206221
Galaxy391,2991.46,3325.1,0.31838933815712633,-0.62071067372168898
Galaxy392,261.48,3369.74,0.20484853926427882,-0.26387222150388207
Galaxy393,2768.95,1947.15,-0.24511954906882291,-0.028020469679767655
Galaxy394,747.03,1670.07,0.31122141963917882,0.19979030804946096
Galaxy395,2441.39,3411.21,-0.26937963935098957,0.388982087263405
Galaxy396,1826.27,1993.16,-0.11723703972599947,0.057799341318140962
Galaxy397,2109.92,3817.75,0.34304120050373443,0.12486347515751678
Galaxy398,3579.35,1425.03,-0.20900055196083231,0.2550195985590562
Galaxy399,4008.87,2647.69,0.31785511683731826,0.30169195600029386
Galaxy400,974.29,2381.03,-0.27223328110768152,0.61128999368594272
Galaxy401,782.27,959.18,0.38321562947683208,0.33844943198046296
Galaxy402,280.34,1302.47,-0.063720025919680942,-0.04922809645570965
Galaxy403,3413.51,3618.85,0.030867137878972495,0.48694898304965778
Galaxy404,3981.69,864.29,0.2507100584005218,-0.27290906219906169
Galaxy405,2837.16,1024.93,0.07925722523914705,0.24352411585004205
Galaxy406,1774.02,3299.8,0.2481832584574421,0.34267049331716781
Galaxy407,2423.86,3421.38,-0.50258080983629005,-0.0051379218069261268
Galaxy408,2558.39,2443.01,-0.3011758054769626,0.13185221449843165
Galaxy409,2942.43,2222.34,-0.12316140435540213,-0.031602166462403443
Galaxy410,3501.37,3823.36,-0.13960905895136597,0.19908200623481531
Galaxy411,3682.48,3631.98,0.35230415695066114,0.095475689137544936
Galaxy412,1111.78,3734.35,-0.32154809538088358,-0.42387065070478103
Galaxy413,1915.6,2292.9,-0.23102326717015167,-0.06353800770244461
Galaxy414,2412.06,3180.22,-0.11276550204090419,0.25438580261792665
Galaxy415,1461.5,3787.75,-0.041541726488407815,0.2846036043708875
Galaxy416,3589.88,2956.7,0.26159340721035274,-0.19751884934920277
Galaxy417,2799.44,1494.76,0.11282988553246909,-0.039660050956264889
Galaxy418,780.66,3019.48,-0.13682280355005039,-0.3973256825870124
Galaxy419,1700.73,1795.84,0.14992214704996065,-0.04446691353619113
Galaxy420,2958.39,3630.99,0.09581013017669654,0.5164693149150873
Galaxy421,3030.46,608.5,0.37585624468494305,-0.24127697372080636
Galaxy422,1942.23,3072.55,0.080642296500958374,0.22332127314512007
Galaxy423,1148.23,2991.71,0.064235681807245953,0.42222830242899034
Galaxy424,250.42,2621.23,0.26640837220505748,-0.070948083947848309
Galaxy425,399.46,2723.62,0.49296939570186393,0.15720290900976247
Galaxy426,907.14,3443.93,0.14818696324060263,0.089794985835708635
