GalaxyID,x,y,e1,e2
Galaxy1,3245.17,256.26,0.047690499097424566,-0.048868285584833124
Galaxy2,2865.74,2118.49,-0.088723045213093113,-0.012845443843090013
Galaxy3,1891.76,3290.72,-0.047912874133327288,-0.20374826726440978
Galaxy4,485.07,3392.13,0.15057276668699421,-0.015157859135261648
Galaxy5,3197.96,147.8,0.22485968091417055,-0.010277685733305494
Galaxy6,945.94,2403.88,0.40604194240420821,0.23683647546775649
Galaxy7,2642.83,4079.31,-0.18257248925639721,-0.15132249390374547
Galaxy8,3484.17,1175.36,-0.10661199775664942,-0.094072493358766329
Galaxy9,2159.29,1579.84,-0.22492077543614292,0.040859485389167033
Galaxy10,1878.34,722.21,0.17621322331831837,-0.18473760080738502
Galaxy11,1787.0,2373.35,0.12816717621158513,0.37249213019716665
Galaxy12,1970.79,2494.1,-0.28947265688851626,0.25077518309691105
Galaxy13,3176.83,319.68,-0.22694743396327061,-0.036755547620870591
Galaxy14,3856.08,977.59,-0.010938459220276718,0.0072996053159943425
Galaxy15,2524.01,649.23,-0.34281284670124967,-0.065802897778841865
Galaxy16,3180.34,3253.28,0.015969822278379758,-0.43407062131243035
Galaxy17,2268.08,3465.41,0.278802706571746,0.19792512665119497
Galaxy18,2639.66,2781.14,-0.22935458555565713,0.1292955298645948
Galaxy19,2984.51,281.89,0.19736784461331697,-0.079185181808507518
Galaxy20,2736.07,1164.67,-0.12006630793633567,-0.01793929294280246
Galaxy21,1324.57,2331.64,0.012681981273185549,-0.27779850363029035
Galaxy22,3105.26,2415.28,-0.31708001982242306,-0.2042838862194421
Galaxy23,3313.73,4084.27,-0.10887289275997022,0.45050321752302136
Galaxy24,191.25,4168.33,-0.1566958293570303,0.011670819521227588
Galaxy25,2013.02,2264.07,-0.12829290941492202,-0.13562467315136201
Galaxy26,2515.46,1047.32,-0.070300986104876007,0.28441288002439474
Galaxy27,3933.88,3813.74,0.04048661700744477,0.047303688473582982
Galaxy28,103.85,1076.15,0.37161002353796196,0.27482663609646002
Galaxy29,2903.74,3939.1,-0.023847245124115547,0.028125442046921079
Galaxy30,1169.11,2911.62,-0.17243215144671317,-0.081276670468459655
Galaxy31,2706.07,2319.38,0.24777309787346,-0.070227368917067573
Galaxy32,3542.45,4192.2,0.51254183382873886,0.19756282249796908
Galaxy33,3959.77,864.55,-0.32108147147598881,0.040429937550839901
Galaxy34,1047.45,1233.24,-0.31024841555575822,-0.12120255908615037
Galaxy35,475.75,1396.08,-0.28191317817596145,-0.33714336677119688
Galaxy36,3696.54,3752.67,0.2876552073773293,-0.28210651491424121
Galaxy37,4031.52,3192.71,0.0015797645564055718,0.012404756269605161
Galaxy38,2626.63,2536.28,-0.14531632783494569,0.085421299079476376
Galaxy39,1459.57,620.31,0.01339472562543996,0.22950874187620399
Galaxy40,2252.2,431.07,0.069490031521066531,-0.18203526889037303
Galaxy41,2125.7,2507.2,0.14953168598817643,0.17764028255829176
Galaxy42,2824.25,1481.7,0.24816098211170101,0.13424523191245138
Galaxy43,2227.61,162.08,-0.077600487045246608,0.27047611467831861
Galaxy44,855.11,2557.38,0.087271829409521204,-0.10793340310475
Galaxy45,594.02,1500.59,-0.19021073878495839,0.19164016332710504
Galaxy46,649.68,1993.94,0.13117316415566529,-0.013188286091384366
Galaxy47,1955.44,2065.7,-0.17857663409555621,0.33542893199077889
Galaxy48,2140.72,625.37,0.025437302512226603,-0.19840756015913061
Galaxy49,3253.59,2336.3,0.01698699962794864,-0.08920583975617094
Galaxy50,555.69,3711.97,-0.12744679336261416,0.083522873302480705
Galaxy51,1863.82,1843.67,-0.21498676810053946,0.24085356596380464
Galaxy52,1911.64,1884.01,-0.082193152050853702,-0.37335897576109545
Galaxy53,2940.81,317.37,0.020052757291181167,-0.048574793958985583
Galaxy54,1069.32,731.92,-0.16050954073961926,-0.34970883908783623
Galaxy55,2846.4,453.86,-0.14171556454547177,-0.10769586747255128
Galaxy56,3385.04,1302.86,-0.36090198591392653,0.066606207645466958
Galaxy57,3597.4,2476.29,-0.13009003766294067,0.15538611148231404
Galaxy58,3608.91,3573.94,-0.026988338621879132,0.11339725827273422
Galaxy59,200.88,3518.12,0.33112236447744153,-0.43146017321390157
Galaxy60,738.12,1296.74,-0.41433142927286337,0.38930621713842062
Galaxy61,2774.05,3334.43,-0.0027156349145179282,0.04381272220890986
Galaxy62,509.0,3978.45,-0.21754943055426218,-0.27165440189197798
Galaxy63,1377.58,4032.83,-0.0054813629117710094,-0.096400174838389613
Galaxy64,3879.24,418.85,0.19076602585513375,0.073832025902434734
Galaxy65,231.14,114.97,-0.097809348288597678,0.007101364234452269
Galaxy66,3008.45,4037.21,0.38476690115548201,0.12640464817742444
Galaxy67,2471.73,981.8,-0.23868391431942054,-0.068764407167328054
Galaxy68,1400.99,4009.39,0.4169577360808745,-0.097073857747198913
Galaxy69,277.18,130.76,-0.10903566071858926,0.20415280173283759
Galaxy70,2987.12,1115.07,-0.14589391482884545,-0.029143148774746559
Galaxy71,1629.7,825.33,0.0029842882567494428,0.010470645705043073
Galaxy72,568.96,2438.79,0.11691988853605619,-0.051017779744182867
Galaxy73,1911.15,4191.72,-0.27512434869158442,-0.049154450478509332
Galaxy74,1575.82,947.9,-0.066882581593843485,-0.016561093677869648
Galaxy75,3938.67,1701.8,0.12432800206931802,-0.14340613790149159
Galaxy76,156.44,1223.27,-0.12599261751120011,-0.2122088220469816
Galaxy77,657.16,3164.07,-0.041082635441281656,-0.0077519086852689198
Galaxy78,1524.71,2774.08,0.079906593891498859,0.55034605421618632
Galaxy79,1354.41,4057.67,0.12765676969500275,-0.035334744817316355
Galaxy80,86.7,2413.98,-0.19252614343112961,0.12377180612596546
Galaxy81,1811.93,672.29,-0.083852905135703329,-0.27487453815556584
Galaxy82,3281.11,3045.1,-0.073391536148848802,-0.52875136969498771
Galaxy83,3211.34,252.95,-0.35000822948501098,0.19983274541494397
Galaxy84,3112.6,2185.38,-0.091427260705137403,-0.2121649819145317
Galaxy85,3486.34,2218.67,0.00034022463449250029,-0.11104226054592739
Galaxy86,1671.75,1907.53,-0.21354991497119952,0.13950188761262286
Galaxy87,2387.9,3830.89,-0.43846243451290878,-0.14159478741070514
Galaxy88,108.24,281.18,-0.4187303517066287,0.19528762349232232
Galaxy89,1319.01,1707.54,0.14332415149671446,0.37624685553887582
Galaxy90,3737.15,2769.63,0.12086009930379354,-0.25195481749054854
Galaxy91,718.36,1554.14,-0.25408372099845622,-0.014569107473301812
Galaxy92,991.51,2156.92,0.47267886901215656,0.16824996148289101
Galaxy93,2333.33,3352.35,0.034897327458732197,0.67429973609561744
Galaxy94,4149.26,1858.26,0.13253754012258315,-0.1404173791007865
Galaxy95,2476.82,3729.85,-0.21988118984013777,0.097173248186530281
Galaxy96,3204.33,2473.53,-0.17439744627202405,-0.35006472010289713
Galaxy97,1063.03,1499.79,0.25056861668580871,-0.15773656917866113
Galaxy98,2759.71,504.77,-0.10986627394033151,0.12265252857466288
Galaxy99,3583.2,2120.69,-0.36999546271918715,-0.041595361295206232
Galaxy100,1999.83,2085.02,-0.99622002967875822,0.39385802257138708
Galaxy101,143.73,2315.33,0.12719900452401589,0.039504714342284544
Galaxy102,147.83,358.68,-0.27757056285383563,-0.11076299145509469
Galaxy103,483.5,1630.21,-0.093887881074319099,0.034161318032775209
Galaxy104,1303.93,1356.07,-0.14263439815051968,0.083029925893367981
Galaxy105,2598.84,3604.31,-0.074232651268807209,0.3843604490850403
Galaxy106,625.14,555.94,0.50542375167453168,-0.25342300278367003
Galaxy107,3367.88,942.13,-0.18527207475459714,-0.1827194659117434
Galaxy108,1637.4,2199.7,-0.24426571297153488,0.022457043689468326
Galaxy109,1898.19,4119.14,0.20795888747985969,-0.60711266479139681
Galaxy110,775.27,1347.89,-0.12131184682741192,-0.21245772866752533
Galaxy111,1377.92,2930.76,-0.041446795002029524,-0.08619056970463107
Galaxy112,3247.31,4198.3,-0.28642023269891997,0.19681394210486974
Galaxy113,2982.12,1430.71,-0.015626548056369538,0.34445867490170212
Galaxy114,3253.95,4141.88,-0.2029639876875888,0.15738271950298427
Galaxy115,1857.32,2888.25,-0.21108051778880593,0.097578699398050167
Galaxy116,891.65,1024.96,0.13917428291453762,0.27325394403594916
Galaxy117,685.95,2392.52,0.30482678054686996,0.11507116687609327
Galaxy118,1717.08,316.58,-0.20293444359781992,0.0026648716727900312
Galaxy119,2813.98,1684.57,-0.23318684262186731,0.0013519047688629673
Galaxy120,4144.06,164.78,-0.0041867844903691331,-0.13885436093810716
Galaxy121,1949.59,256.75,0.020560125056980502,0.27405748281684378
Galaxy122,2379.4,810.0,3.2886726642950004e-05,-0.40412111427907177
Galaxy123,3470.98,233.14,0.29334953234048955,0.067960412629024691
Galaxy124,1993.95,422.38,-0.20553601514282593,-0.25338791616520501
Galaxy125,1920.68,3139.94,0.15097505769268757,0.035940595113202939
Galaxy126,1673.91,228.97,-0.20641761725493946,-0.070371622192953995
Galaxy127,3839.69,1938.09,0.21304480027784164,-0.25415115636722396
Galaxy128,2820.71,1247.5,0.051054712129474281,0.090193695176334576
Galaxy129,46.88,1240.44,0.16260833348069784,0.42612679042461232
Galaxy130,1093.45,2103.47,-0.071294508959196937,0.33575929435586416
Galaxy131,633.81,3239.89,0.033024659723286443,-0.10970210438363037
Galaxy132,2232.82,1355.08,-0.01160243960262948,0.37755124983681809
Galaxy133,1826.68,2472.77,-0.17544982501835321,0.17453686456863093
Galaxy134,3949.6,1574.14,0.11584368713219928,-0.059352953598406505
Galaxy135,953.73,4128.23,0.39004434419649558,0.067719489890746179
Galaxy136,3157.81,3364.22,0.14879078902795251,-0.091421696940593405
Galaxy137,885.41,3271.58,-0.045825955518972727,-0.30736300058962673
Galaxy138,82.99,3988.19,0.06299733566702545,0.10131483490462556
Galaxy139,2452.84,1654.34,-0.17394875006612853,-0.094682099886183424
Galaxy140,2578.74,2108.54,-0.19859120692446255,-0.36498774895924352
Galaxy141,39.86,1256.08,-0.089910730907030598,-0.011998700984141214
Galaxy142,3722.81,2738.46,-0.13392120876615227,0.21441755728732803
Galaxy143,3649.9,1552.8,-0.30624422072302676,-0.0087770357228132978
Galaxy144,1825.13,756.81,-0.21567505467819159,-0.068350785458155372
Galaxy145,3524.92,953.31,0.048092941723537952,0.35691691946872145
Galaxy146,3599.87,1208.48,-0.2473027898222894,0.094773332781279099
Galaxy147,1489.03,1655.86,0.10393053142148237,0.56468674608085156
Galaxy148,1909.77,1042.98,-0.20917488537197182,-0.15636170178286363
Galaxy149,3485.21,1799.9,0.00053865537769920424,-0.36159775724762078
Galaxy150,2473.86,857.95,-0.34787543353708739,0.050969633163448436
Galaxy151,1107.2,1146.71,-0.1099471469344072,0.07740147647336261
Galaxy152,2341.99,3857.6,-0.076620361780626395,-0.043234306240273468
Galaxy153,305.37,3010.58,0.042914914419625041,0.069052840130416071
Galaxy154,2274.84,2269.03,-0.31663572119230177,-0.24371394027065291
Galaxy155,3877.61,259.5,0.29529528933481691,0.018741806671632312
Galaxy156,1817.23,465.27,-0.16107034898303768,-0.083047336260800131
Galaxy157,633.88,103.93,-0.12468744694951814,0.1714200062029996
Galaxy158,1910.44,2693.18,-0.10085374956233059,0.13760294469865048
Galaxy159,98.74,136.2,0.080554678918376241,0.064168834294516086
Galaxy160,1869.98,3995.02,-0.0372752208975798,-0.26807658919023186
Galaxy161,1032.62,2555.15,0.191881078661716,0.47255422053334473
Galaxy162,357.59,997.41,-0.23087312996336137,0.057371581667227542
Galaxy163,3277.6,1387.71,-0.33669907677368666,-0.027922123070169225
Galaxy164,52.68,3002.2,-0.071015582678018413,0.14100685024774329
Galaxy165,3747.45,1383.1,0.15602061353824112,0.010765930108739913
Galaxy166,2482.61,694.33,0.19504203954387211,-0.22645729956615335
Galaxy167,513.5,1956.76,-0.3854002916108748,0.26443935265382684
Galaxy168,2479.11,2439.86,-0.048680685855455291,0.17610192655836851
Galaxy169,3009.92,2482.14,-0.34903351709004127,-0.0222367989677133
Galaxy170,3419.17,681.23,-0.014182787893350972,-0.096870495183985827
Galaxy171,2500.87,4066.91,-0.62138122930810291,0.0058902625841765061
Galaxy172,220.06,1758.73,0.084114505131364509,0.068323569177303298
Galaxy173,2304.13,1954.39,-0.070255323639678471,0.070227419512962255
Galaxy174,116.61,572.11,0.29953577685813881,0.17661235561113642
Galaxy175,1620.29,1035.03,0.07966565715304047,0.092915913321991145
Galaxy176,4128.29,2172.25,-0.20467710220983024,-0.11051558180322464
Galaxy177,3785.6,3392.71,0.3712529322232726,-0.0058328614282375374
Galaxy178,1869.6,1243.53,0.033046232539040959,-0.36938173875003144
Galaxy179,2253.77,385.26,-0.12378193403582884,0.13983373086220499
Galaxy180,878.26,2652.42,0.20807470608803991,-0.16594794260171869
Galaxy181,3606.45,3650.48,0.16162296524305581,0.37414249597376836
Galaxy182,2919.91,4173.35,-0.52201225008814855,0.20454438365639016
Galaxy183,2069.0,230.64,0.067269117814837548,-0.11053522825417225
Galaxy184,3162.91,2855.66,-0.67382268089740838,-0.26005721875003801
Galaxy185,4105.56,3770.37,-0.19816698917215259,-0.13402037228975769
Galaxy186,1383.31,1131.32,0.19881640534921649,-0.043731752865328183
Galaxy187,2824.32,840.68,0.14940824730324975,0.2979481831607228
Galaxy188,3310.81,226.45,0.19443143845443878,-0.25363489909249137
Galaxy189,915.17,4131.99,-0.022447649175363904,-0.13381121947752228
Galaxy190,2689.51,1280.44,0.25566886027110025,0.23252617910118839
Galaxy191,1112.07,2286.2,-0.32749424079126443,0.20709919187509074
Galaxy192,1298.57,2710.84,-0.29867326153952201,0.00042779448116900265
Galaxy193,2905.25,2970.4,0.10830051327388558,-0.19758734410943488
Galaxy194,950.89,29.67,-0.38505257958478994,0.38610089073048215
Galaxy195,2928.55,3188.34,0.082744504711241951,-0.77853085204283345
Galaxy196,3073.73,1885.1,-0.24579921141667768,-0.27837120583599284
Galaxy197,396.94,1981.05,0.25263929467685253,0.089513603191284943
Galaxy198,2640.07,1821.41,0.41618934036654276,-0.033200076747312908
Galaxy199,2430.65,1349.0,-0.47299507835098731,-0.27428346116364005
Galaxy200,2084.33,1272.3,-0.16797878370663055,-0.045920575022816712
Galaxy201,2306.75,1315.3,-0.15854240258629609,0.18658950333940472
Galaxy202,694.94,1635.47,0.054449082360315017,-0.20656480578543945
Galaxy203,3134.44,724.72,-0.20028368087518278,-0.093506273005288132
Galaxy204,2172.06,2581.16,0.057842494065313887,0.30391912939624877
Galaxy205,2432.42,1832.82,-0.15680280433124477,-0.36968120391479331
Galaxy206,1378.21,2833.06,0.061888749036025613,0.23454740686134812
Galaxy207,1767.24,1850.8,-0.33580196948931912,0.41725679822459305
Galaxy208,2473.29,1805.9,-0.24342629058197626,0.37190871826848498
Galaxy209,2521.61,521.84,-0.31759238621756902,0.26603202855323488
Galaxy210,1261.57,2966.28,0.10117734356201594,-0.0021731341256579217
Galaxy211,999.06,1699.53,-0.2171154494978198,0.10063642567471369
Galaxy212,4012.42,2474.44,-0.11473918168054223,0.15695999446338027
Galaxy213,3909.75,2229.39,0.097885666720089942,0.31638430637079867
Galaxy214,2639.93,3983.25,-0.29493065776011357,0.037239342054355251
Galaxy215,1663.0,2365.07,0.10881323214767841,0.040546029733133815
Galaxy216,2639.76,2751.51,-0.41028584174004817,0.23653942317295357
Galaxy217,1901.79,338.14,-0.37188345329110878,0.349271137683347
Galaxy218,146.5,31.6,-0.28828425613783637,0.0015446954984254871
Galaxy219,2028.79,215.64,-0.53526980738865859,-0.013380199057237911
Galaxy220,870.26,2940.18,-0.052230691040713734,0.2857507312612893
Galaxy221,1981.44,607.1,-0.15028657429846387,0.2039474046092368
Galaxy222,3084.47,1522.27,-0.5476196970619791,0.020467067298401476
Galaxy223,1419.14,3252.22,0.10227389524899066,-0.073429875199540237
Galaxy224,3772.78,523.98,-0.045611839576904054,0.24145288666774545
Galaxy225,2906.48,3286.42,0.14615781828703725,0.23907481722231066
Galaxy226,356.18,2285.19,-0.33953022372605085,0.08872794766283959
Galaxy227,1137.0,2821.95,0.19972092105495873,-0.038761417964250311
Galaxy228,2827.36,3854.02,-0.28859282269604414,0.14370919554812864
Galaxy229,2652.46,3634.26,-0.10640668128098939,0.61067684415236712
Galaxy230,4156.87,454.11,0.15842891453849234,-0.033386669530770345
Galaxy231,3085.79,1415.54,0.026397640341895887,-0.42332978991677483
Galaxy232,535.34,1041.2,-0.14359417106393321,0.31866242032943631
Galaxy233,3517.73,9.99,0.31106992754961832,-0.25765833426090023
Galaxy234,3896.76,1797.38,-0.38414553586080274,0.088008756688824408
Galaxy235,271.89,1655.91,-0.1429493038892812,-0.0059566061190858277
Galaxy236,1418.77,293.84,-0.088924806782082491,-0.010338772360554575
Galaxy237,2777.13,2404.72,-0.31561444769492392,0.043734105588664141
Galaxy238,3904.97,2381.9,0.27532793922425458,-0.36151299906386869
Galaxy239,3250.98,1817.88,0.08105622771020897,-0.42729619341097619
Galaxy240,1799.82,1180.64,0.1363650079237661,-0.53192925049076811
Galaxy241,3476.48,3325.67,0.24977768282648488,0.10560396969185633
Galaxy242,1677.12,779.16,-0.066089441885440414,-0.18392736719897149
Galaxy243,1027.28,1346.83,0.10461170186303483,-0.13997983128724326
Galaxy244,3539.63,109.56,-0.25601682511917107,-0.10396906171768054
Galaxy245,1595.29,1048.75,-0.069613927749565069,0.30149427118855265
Galaxy246,1349.66,846.15,0.20384833052962978,0.076703942554305321
Galaxy247,2426.41,3880.69,-0.067729956686576165,0.0902941539114476
Galaxy248,4116.28,2608.72,0.4294733857003924,0.042511386429647718
Galaxy249,2076.62,210.56,-0.12097756873158969,-0.15279515515587228
Galaxy250,569.99,3888.52,-0.11923362670157187,-0.096335293271122446
Galaxy251,2215.38,3304.89,-0.099644766441485039,0.086613402973790499
Galaxy252,2420.35,2370.26,-0.31919936388246911,0.20667407948659303
Galaxy253,1300.46,1822.04,-0.2328479726619031,0.028549867943454252
Galaxy254,3183.05,4177.6,0.20396550137923344,0.23252092597578997
Galaxy255,2460.61,3078.37,-0.23191776712967802,0.16513645852216369
Galaxy256,3368.74,1027.02,0.15152067317772427,-0.098547352319329512
Galaxy257,1889.2,2941.96,-0.17628917699478505,0.013590481643883545
Galaxy258,1940.66,3185.22,0.0025307153587177666,0.029542604967964181
Galaxy259,28.55,1678.68,-0.049085937464498131,0.048299430116048189
Galaxy260,1141.28,2806.06,-0.51595782097007314,0.030483716990608839
Galaxy261,3498.53,2277.37,-0.22358768946569513,0.24620344685004922
Galaxy262,2508.28,615.75,-0.20385306776828621,0.2516645962405839
Galaxy263,1006.32,550.62,0.17165917100595332,0.25783115916656196
Galaxy264,231.64,3061.92,-0.1402703752024716,-0.12629051413657968
Galaxy265,1867.32,1720.81,-0.076474201120466448,-0.038423320459191612
Galaxy266,1013.37,2482.57,-0.077592367003223334,0.27186926590005811
Galaxy267,2347.17,1730.97,0.052608900023606714,-0.11540543798035163
Galaxy268,1851.48,163.59,0.037451383998131776,0.036470955187348414
Galaxy269,2776.76,3869.85,-0.4570038794364778,-0.041693814642949911
Galaxy270,555.31,3252.5,-0.23556477222659683,0.34785337203966427
Galaxy271,3939.78,4098.85,0.54641766970472294,-0.25801349776301113
Galaxy272,2434.76,61.56,-0.38493503926278583,-0.21849287846830856
Galaxy273,1376.81,3124.12,0.15793359972192761,-0.011896129007881784
Galaxy274,2803.89,1760.27,-0.091100043199862715,-0.053164188380679468
Galaxy275,2853.66,850.76,0.096678752869472528,0.10627747650094152
Galaxy276,1806.77,17.38,0.12303131785997516,-0.23239244337617929
Galaxy277,3426.22,3571.38,0.084257949548268263,0.57773251432716555
Galaxy278,658.34,2957.06,0.030142554173503477,0.012442427371816736
Galaxy279,793.65,2001.6,0.073200213238446013,-0.34649553796078075
Galaxy280,2768.83,3457.78,0.15281441780376759,-0.17406006786030029
Galaxy281,4102.66,3571.32,0.090866824924692974,-0.21688110692454876
Galaxy282,897.38,4006.87,0.027668626437319183,0.13370114433144348
Galaxy283,334.55,3716.49,0.13890565819288633,-0.31869901523057692
Galaxy284,305.76,1253.41,-0.0087203401158561494,0.010324487617314831
Galaxy285,292.57,2536.74,0.17199485201195397,-0.12163142380399303
Galaxy286,548.6,2952.38,-0.40168315770817375,0.30199380938903075
Galaxy287,2556.12,3281.68,-0.23011881414574564,0.0030987043680327092
Galaxy288,3560.38,3090.72,-0.17499917157425685,0.16032051341725026
Galaxy289,1351.82,2143.45,-0.16532594176453455,-0.1956118526169465
Galaxy290,504.07,3917.89,0.064238512061227021,-0.032828453401481335
Galaxy291,2340.82,1055.65,-0.14808723316764749,-0.061508379873601887
Galaxy292,3759.76,3409.76,0.39924930939032566,-0.36130924317390012
Galaxy293,946.16,694.06,-0.092995339039041502,-0.33822117898041248
Galaxy294,3180.33,2236.83,-0.1950066088786982,0.0048335289815147064
Galaxy295,3600.52,342.46,-0.12865212950710631,-0.18087110121824124
Galaxy296,1349.53,2940.3,-0.029841373255674791,0.32336161000418173
Galaxy297,1508.42,1370.1,0.32872782352336516,0.16030759443844478
Galaxy298,1877.28,1034.01,0.30942940458489826,0.012836218841776617
Galaxy299,1542.77,1657.55,0.16845144195667028,0.43687588386171572
Galaxy300,2124.62,547.26,-0.29330253300243819,0.011208040577072162
Galaxy301,795.37,2888.31,0.16883271790923632,0.17124919696538227
Galaxy302,271.85,1265.7,0.72260467352036239,-0.32487098948516768
Galaxy303,2109.72,523.72,-0.20921416659033626,-0.082600398838224884
Galaxy304,2346.72,815.37,-0.32857019694458295,0.24089201478897054
Galaxy305,1620.09,2339.45,0.15008912707381111,0.23538379944600044
Galaxy306,2800.57,4120.87,-0.017626180841105038,0.17500810932921873
Galaxy307,3518.04,2099.91,-0.13452627374417156,0.016807362218011795
Galaxy308,1266.62,473.81,-0.05425289821892984,-0.26538205287900657
Galaxy309,3057.3,3235.5,-0.076033981581608151,-0.34867357510198949
Galaxy310,3887.97,2704.76,0.3433615128375479,-0.29868105240215664
Galaxy311,2757.34,3966.48,-0.2113629184441794,0.20964203784930363
Galaxy312,1432.23,884.92,0.019318287187415226,0.095028636978995065
Galaxy313,1582.24,1201.86,-0.11439765302326416,-0.023516019056401521
Galaxy314,2958.72,2578.0,-0.063159887469310505,-0.034057055133524805
Galaxy315,371.5,953.81,-0.30731339967883547,0.28481426167242896
Galaxy316,2071.75,1302.19,-0.38564499497338806,-0.024542551325361983
Galaxy317,1436.12,4143.86,0.52364939786002762,0.020240586839172237
Galaxy318,1910.07,1574.62,0.19677466997894841,-0.34386855880665146
Galaxy319,3241.64,1014.53,-0.25508977209870398,0.043961282242546702
Galaxy320,1199.75,3385.23,0.066574889735956433,0.033604341611302234
Galaxy321,437.39,2031.87,-0.28046267434051769,0.10843954907002049
Galaxy322,1426.7,655.81,0.090405264321213277,-0.22503373775737756
Galaxy323,3915.04,2551.12,-0.18096558498436649,-0.4277960551312644
Galaxy324,1457.38,3952.5,0.3500773056134685,-0.34518680546638258
Galaxy325,2037.59,1597.31,0.5997853091154135,0.052041369555872692
Galaxy326,1111.0,832.72,-0.22005181290620779,0.022519972235907147
Galaxy327,929.65,4051.44,-0.056687284848935426,-0.30469496124203449
Galaxy328,72.49,317.94,0.16875920477587864,0.14753970722478066
Galaxy329,1438.8,2514.73,0.31372167701886322,0.61525013982739551
Galaxy330,1118.84,1232.56,0.48046467633450735,-0.083859546396431062
Galaxy331,1875.18,714.89,0.31684478246906922,-0.040294023220907638
Galaxy332,2513.76,719.0,-0.21712822824905065,-0.018054155298816699
Galaxy333,2383.98,405.01,-0.094223841971952674,0.15627123942509802
Galaxy334,3072.39,2567.18,-0.29273716266738092,-0.069626036887868725
Galaxy335,1465.21,899.08,-0.022343424235114727,-0.029933627503142463
Galaxy336,545.08,1809.85,0.18238608901432879,0.13409277078452539
Galaxy337,2703.99,1095.4,-0.28688792252791445,-0.3905805964045217
Galaxy338,3991.26,3211.22,0.17457462930104692,0.13120851443788067
Galaxy339,2779.41,683.03,-0.05006502243221532,-0.4083695916324907
Galaxy340,840.85,2450.39,-0.12899858841192896,0.44384863742462416
Galaxy341,2677.16,157.6,-0.26654708339755462,0.13948070058437992
Galaxy342,2148.61,3648.31,0.0038782222851992398,0.15734248234962211
Galaxy343,1487.74,3991.5,-0.16308029093114162,0.14453354298630677
Galaxy344,3901.2,4137.61,-0.024332777630663091,-0.25255439787943545
Galaxy345,3515.49,1794.21,0.029597126872582022,0.20671070210697245
Galaxy346,2607.48,3725.93,-0.68760729545756094,0.21990225796977841
Galaxy347,2415.48,3354.77,-0.20431734830973303,0.024993903350814528
Galaxy348,846.83,2722.32,0.19701949087417167,-0.18331400100424422
Galaxy349,2396.64,2002.2,-0.15650763782551042,-0.099780621394876257
Galaxy350,4167.12,2495.53,0.031509389431878879,-0.27199751827078533
Galaxy351,895.43,2748.11,-0.020286619555123675,-0.036696827897631901
Galaxy352,3630.2,185.28,0.016363657392635796,-0.13815299713452733
Galaxy353,1785.84,3344.95,0.23915378807959686,-0.19507103340734788
Galaxy354,1049.66,2354.76,-0.11263400585698419,0.3971318875732438
Galaxy355,1480.5,3072.62,0.3995765666468698,0.38033438054620228
Galaxy356,2920.47,1395.63,0.34162046867873203,0.13731685560531834
Galaxy357,1859.44,3314.38,-0.14423334081208472,-0.034999404714219279
Galaxy358,2793.45,1529.59,0.30948404705286009,-0.26175054452799695
Galaxy359,1113.27,3895.05,-0.25732653071176292,0.054123437444200007
Galaxy360,1036.23,2554.6,0.061159996762000193,0.17067573292137181
Galaxy361,3936.38,1818.47,-0.23740644299545005,-0.15319866050583228
Galaxy362,3230.75,33.39,0.19005075512980391,0.071061121716712375
Galaxy363,2271.19,124.47,-0.2870463927071436,0.045406168280214591
Galaxy364,914.09,1477.71,-0.28174427596794832,-0.0093986932287277725
Galaxy365,3516.76,3267.18,0.088933397125785268,-0.11607053755378635
Galaxy366,3369.76,1673.64,-0.27556282174151137,0.14317581039486643
Galaxy367,1665.15,190.28,-0.03334552789953385,-0.20182909015472023
Galaxy368,2958.31,1071.31,-0.091440170832227274,0.047082689371695012
Galaxy369,1019.79,568.21,-0.20018704910137075,-0.29539381099799783
Galaxy370,1268.75,200.58,0.092211287679010434,0.096420540536723276
Galaxy371,91.97,1552.59,-0.21495313532434382,0.36211545417008606
Galaxy372,4056.03,2761.6,0.13191999784325326,0.073022837646186139
Galaxy373,3692.8,3349.97,0.17155991964947381,0.11159045403396316
Galaxy374,2436.17,791.8,0.24656101594596799,-0.37227608650912991
Galaxy375,3011.01,1248.97,-0.065690159279991167,-0.080001627768833128
Galaxy376,2411.84,2819.65,-0.30145587062222745,-0.024905206603038049
Galaxy377,1025.8,1692.51,-0.029418681914166842,-0.034685309899797109
Galaxy378,1253.57,3023.88,0.57376686617412087,0.19959966872934978
Galaxy379,426.26,3437.01,-0.32015583836194617,0.20614568285712276
Galaxy380,4113.95,4099.7,0.31926314000519174,0.1837041449103316
Galaxy381,1741.59,1660.4,-0.18055141428509913,-0.13733165551769738
Galaxy382,3168.36,813.43,-0.11501650936625518,0.26946941238931066
Galaxy383,1608.87,2987.01,0.18389566840961019,0.19462644080699293
Galaxy384,859.85,2778.66,-0.43704139778055756,0.23284045892125566
Galaxy385,2324.61,467.38,-0.10120085725276605,0.14003056564179292
Galaxy386,1764.11,3349.77,0.25157886987292799,0.26833476112899957
Galaxy387,3091.39,4058.89,0.19820523153716202,0.36965630074039535
Galaxy388,4002.57,990.91,-0.39176204931523095,0.049840980108792537
Galaxy389,3478.35,2098.92,0.28819610842299509,-0.1106255933538062
Galaxy390,3124.61,3315.43,-0.2168179118122448,-0.31322652036792148
Galaxy391,177.74,1220.61,0.35919404948803996,-0.035012995845247849
Galaxy392,1740.69,1494.81,-0.023421699843744467,0.12613031763516841
Galaxy393,3854.88,1173.46,-0.43870164464069683,-0.10768585772241857
Galaxy394,2788.74,1650.31,0.067473465893214984,-0.09050394032990805
Galaxy395,2638.41,242.58,0.12782769788745652,0.31560114827059393
Galaxy396,3466.57,3098.68,0.25503843137334614,0.27425025689303395
Galaxy397,230.46,818.81,0.20378344511142626,-0.16873678740874504
Galaxy398,2571.8,1227.1,-0.15877351707613291,0.13546175154263462
Galaxy399,1645.93,3994.27,0.31809123137661111,-0.20449092107759559
Galaxy400,1272.71,3592.44,0.0019939681939678544,0.032026605900385328
Galaxy401,2048.08,4181.88,-0.02229576487950502,-0.37028391098263935
Galaxy402,1819.84,2914.39,-0.13804876124658727,-0.35064179951043478
Galaxy403,335.66,3860.07,-0.47960191313746131,0.22348705753173953
Galaxy404,1260.99,1341.45,-0.11744628604626603,-0.020635450001189617
Galaxy405,2520.1,2653.8,-0.20528833583827105,0.43714815837043647
Galaxy406,2122.27,1141.69,0.30672753191086188,-0.21749541752579205
Galaxy407,1567.43,3155.58,-0.23956779481429114,0.21616387001281528
Galaxy408,3980.72,2584.79,0.18555431364734415,0.041912876448307351
Galaxy409,3884.99,1100.03,0.28748919269341805,0.066790379521595805
Galaxy410,3796.14,705.05,-0.38864911562421295,0.070453779297622449
Galaxy411,4182.0,1813.64,0.025452804348250077,0.24822358546882467
Galaxy412,3162.14,3118.94,0.15038245045285073,-0.12356443633652231
Galaxy413,1355.93,311.12,-0.19762707247336328,-0.43983559147432211
Galaxy414,992.21,3732.39,0.07639627395537138,-0.034880073005305968
Galaxy415,1057.17,1526.8,0.091591170201286196,0.21299749786237621
Galaxy416,217.89,3697.28,0.30354824798427082,-0.080843675244450325
Galaxy417,3382.71,3498.69,0.082548602111662095,0.09217990000562569
Galaxy418,2717.96,1168.43,-0.11977822423165067,0.028779272795176586
Galaxy419,299.51,2464.78,-0.16003764794251812,0.14541946915707443
Galaxy420,2134.2,1305.98,0.011945379407958534,0.53223029551241952
Galaxy421,2096.43,2846.0,-0.18209672582006861,-0.11922519759197447
Galaxy422,2760.12,3169.62,0.062761333551020787,-0.11760910172767602
Galaxy423,2067.97,986.48,-0.043456304146390595,-0.18238178709177247
Galaxy424,2162.62,4099.21,-0.30668652334358926,-0.25737075110634439
Galaxy425,2248.6,1538.15,0.11829483095055937,0.41511649250113075
Galaxy426,628.73,3544.27,0.26449607493644522,0.14831846140030094
Galaxy427,4030.98,3142.21,0.24551869300796542,0.16786259712366358
Galaxy428,679.78,3374.52,0.034903459531383393,-0.06712657300155371
Galaxy429,2549.53,3491.02,0.13949893153037962,-1.2065849448276973
Galaxy430,1004.57,3282.16,-0.18156714910283986,0.3872672023027246
Galaxy431,822.59,2567.87,-0.060990696508920889,0.45621051641378157
Galaxy432,2668.48,696.18,-0.27360127776184856,-0.4475666508419831
Galaxy433,2445.12,3338.61,0.030169759337040025,0.062929354471053356
Galaxy434,453.13,3209.11,-0.43739757501860593,0.32789520252341581
Galaxy435,1254.93,1764.51,0.29010811217459848,-0.18882128241877949
Galaxy436,2575.39,3727.2,-0.24743019264617089,-0.1887266281202209
Galaxy437,3258.67,3361.34,0.11304326736883716,-0.14665401999338501
Galaxy438,511.65,2127.34,-0.11939789252047515,0.02640884395769609
Galaxy439,2705.15,2532.43,-0.03090567321015858,0.32521567692488645
Galaxy440,1152.31,3365.02,0.30654665717372137,-0.17479078904817966
Galaxy441,3995.84,3718.97,0.14180704597463969,-0.39095568430811983
Galaxy442,3560.17,3582.6,0.0093696033167280368,-0.11145310742094114
Galaxy443,933.93,2342.17,0.34597605452175573,-0.10137449988295538
Galaxy444,2433.76,2694.27,-0.42364293651449192,0.074753292213288122
Galaxy445,4103.57,1760.01,-0.15082634692725577,-0.034528288657212608
Galaxy446,3042.77,2837.47,-0.080246037745816956,-0.499601225670742
Galaxy447,1323.1,1637.85,-0.12730380657395252,0.40387937789272893
Galaxy448,273.58,121.83,0.40064105785894039,-0.33235581294701289
Galaxy449,2140.11,1767.6,0.18664363494033914,-0.078614442030342624
Galaxy450,3802.63,2207.65,-0.058669276331658429,-0.11450390789727481
Galaxy451,3413.62,879.3,-0.035230466267680484,0.062243341424874296
Galaxy452,1752.3,2566.02,0.0060282915349548633,0.011719663605774311
Galaxy453,3294.61,3878.62,0.33791029865850808,0.13373477854302662
Galaxy454,2886.71,3321.17,0.38560226069639658,-0.3867216204971794
Galaxy455,591.4,2498.82,-0.10421248740341232,-0.24351647709530261
Galaxy456,60.53,1574.23,0.23831846375317678,0.083311562276108239
Galaxy457,2168.33,1297.72,-0.3404328684169185,-0.30986630839717083
Galaxy458,4159.1,1635.25,0.11645628824956336,0.13451081857262082
Galaxy459,409.46,3869.94,-0.13691268652662836,-0.14849383679066308
Galaxy460,2988.06,3779.09,0.33967443468973924,0.12570516474727711
Galaxy461,1658.08,2510.86,-0.0045720069675201473,0.42197055528118754
Galaxy462,3626.37,4061.24,-0.40789145331503951,0.14731029477188029
Galaxy463,2131.49,2057.03,0.23340883306736315,0.16699020182498994
Galaxy464,2796.8,669.37,-0.10321877069082688,0.15386328930419904
Galaxy465,989.06,4199.86,0.23577427938318757,0.30468418115324314
Galaxy466,3593.37,719.0,-0.036686274062308927,-0.0961469981580199
Galaxy467,3287.89,1980.07,0.30417285423348334,-0.06670219234877775
Galaxy468,2356.23,3130.21,-0.3370271885494297,0.23484467488504346
Galaxy469,1841.18,246.53,-0.30963901302970476,-0.23086694411677919
Galaxy470,2075.3,3279.15,0.18686540262205076,0.18897470660255661
Galaxy471,2632.12,1313.96,-0.23024092388194323,-0.04893942946620275
Galaxy472,455.19,960.39,0.080527429753544447,0.01479720332125653
Galaxy473,4132.05,1696.63,-0.1143238737939221,-0.22487512646629193
Galaxy474,740.75,3240.97,0.0034919860899865485,0.46666334509409502
Galaxy475,265.85,2764.65,0.12520748772872212,-0.011851378437789203
Galaxy476,2983.99,2002.38,0.26495441954697624,-0.13571495434853686
Galaxy477,718.39,3858.64,0.11161082780298093,0.11628915248921443
Galaxy478,639.97,1461.11,-0.043290549682865193,0.15987243767111053
Galaxy479,2701.26,1961.31,-0.33117520650226195,0.075942140698957702
Galaxy480,585.78,1716.56,-0.0505946217114943,0.22611673461006931
Galaxy481,572.39,1837.05,0.053722263067326401,-0.018096659642082194
Galaxy482,3387.63,3473.06,0.083981786600393654,-0.0021521820420621479
Galaxy483,2461.11,2373.03,-0.24565942007660593,0.10515074237069269
Galaxy484,988.14,12.65,-0.0066635581493195636,-0.052683560361184212
Galaxy485,931.2,1.18,0.23716479090981638,-0.13695801963416077
Galaxy486,3048.09,1670.25,0.36880886173351329,0.25557836640224374
Galaxy487,4.21,707.95,0.11596274123856967,0.015614349345380113
Galaxy488,470.64,1475.8,-0.092882167081301148,-0.12025433070945325
Galaxy489,1036.7,3767.13,0.077870530637682692,-0.22483996504190706
Galaxy490,3710.28,511.13,-0.40690831613700773,-0.16902569240531959
Galaxy491,3474.22,433.74,0.31816813566907298,-0.13473744712327967
Galaxy492,2260.94,3671.42,0.0045824529356109089,-0.13129628326678278
Galaxy493,2470.84,3427.96,-0.052573404436790164,0.087973762630418728
Galaxy494,518.32,2643.54,0.029166703215590596,0.1542621102766504
Galaxy495,2644.73,1023.51,0.016623334207357371,-0.35689570533832826
Galaxy496,2284.43,299.99,0.034741348181251949,-0.062351838353206922
Galaxy497,1119.91,127.2,0.078787247729313239,-0.2437723276025881
Galaxy498,1821.65,138.56,0.21891994184966534,-0.11586693823793257
Galaxy499,495.19,2508.86,-0.1710264672838579,0.35146309471819448
Galaxy500,252.83,1487.46,-0.42236601228128662,0.35439586592857736
Galaxy501,2278.3,1176.39,0.042890700177709698,-0.12127765451401362
Galaxy502,672.14,4080.45,0.33717962006427726,-0.21366821827682364
Galaxy503,306.68,3865.88,-0.15398369349535146,0.34229857592731727
Galaxy504,652.01,16.96,0.20885840413808499,0.10002055664153775
Galaxy505,3181.6,187.07,0.28305871602636029,-0.40536001988003889
Galaxy506,1538.21,1408.67,-0.073103294262418517,0.54593674178246465
Galaxy507,3948.93,2861.11,0.34654674527331919,0.23941311812966651
Galaxy508,103.23,668.87,0.12267839114386114,-0.15152665715809632
Galaxy509,285.96,1885.43,0.30812891346326893,0.20368871640655223
Galaxy510,135.32,2450.71,-0.023471501735646771,-0.25382767074340673
Galaxy511,1578.67,1832.82,0.049081735518956088,-0.10205094432457248
Galaxy512,2785.45,1969.01,0.34444018591425474,-0.43213838948965555
Galaxy513,318.05,3990.63,0.34736889445225194,-0.085183983914051797
Galaxy514,3460.6,2659.32,0.09502172807485805,0.26552099779685695
Galaxy515,549.39,2741.9,0.19231655681447532,0.25848292747514201
Galaxy516,2372.0,913.55,-0.48777584387203599,-0.04669077712136261
Galaxy517,3805.14,3100.08,0.1227753492356486,-0.089781438379159362
Galaxy518,3368.21,207.43,-0.11116483130878352,-0.069558422002329534
Galaxy519,3643.51,204.35,-0.34273044833887339,0.1115854525092146
Galaxy520,1779.97,667.78,0.11387146479356056,0.049353495643965337
Galaxy521,3645.37,2951.61,-0.31827455136589677,0.31915480878692731
Galaxy522,1034.53,789.87,0.14557590930275816,0.060879603256909734
Galaxy523,3360.13,449.13,-0.041382514585680229,-0.16160809247121408
Galaxy524,490.47,288.75,-0.34050902088248369,0.15270462167359072
Galaxy525,3140.95,2027.37,-0.03435932090963173,-0.15737567350410583
Galaxy526,934.14,579.9,-0.057698600734918878,-0.10039102881765792
Galaxy527,1513.48,1646.64,-0.085593462873419651,0.10617040081661958
Galaxy528,523.91,1714.66,0.068903811968558742,0.027726924459271843
Galaxy529,1525.97,2965.05,0.14136314975459091,-0.1127019365327091
Galaxy530,1220.61,2351.65,0.24144193933158919,0.30379091318027696
Galaxy531,1235.16,3721.51,0.11666546516603137,-0.085144254030379563
Galaxy532,852.52,3448.53,-0.1220472061302901,-0.017129863798421449
Galaxy533,349.42,2740.18,0.14011574822029066,-0.16753933345630567
Galaxy534,233.23,2407.72,0.16870140674147369,-0.010320144241290796
Galaxy535,1573.46,1731.31,0.14108128525685509,0.2597813231894226
Galaxy536,2445.29,2255.29,-0.18126348075625798,0.22749712075588541
Galaxy537,3907.85,3746.17,0.16099171570105225,0.22961883680105336
Galaxy538,4012.02,358.03,0.036930122255820076,-0.2575788839120306
