GalaxyID,x,y,e1,e2
Galaxy1,1384.86,627.6,0.36217675594659154,0.18569247860696231
Galaxy2,1159.42,1215.61,0.18191537270473535,-0.11737742604423307
Galaxy3,945.26,1030.14,-0.51496086975809008,0.073443956862789525
Galaxy4,2194.34,3.01,-0.019324792728115617,-0.051917158743447364
Galaxy5,1045.56,2909.44,-0.14958346184817353,-0.16894398974539723
Galaxy6,920.53,3633.25,-0.20879227533232778,-0.060722524919692787
Galaxy7,1373.06,4061.13,0.043170989247955954,-0.126161777756502
Galaxy8,183.62,3578.69,-0.40573240788056852,0.095481547448597187
Galaxy9,4019.16,4178.04,0.057479546962516212,0.43500708523503728
Galaxy10,1875.21,2288.53,0.25923839998608744,0.12765012121150485
Galaxy11,1541.26,394.76,0.084469064052659928,0.16450205649397623
Galaxy12,2281.82,998.38,-0.062376177345031314,0.10397201987820014
Galaxy13,2278.63,315.53,-0.053172123279160891,-0.071942425877114663
Galaxy14,1285.81,3983.24,0.10527612892486375,-0.026346302331418207
Galaxy15,905.59,3731.32,0.41019982047138698,-0.078706033658718699
Galaxy16,1335.87,3489.21,0.097071776982410263,-0.16171086411690289
Galaxy17,3992.73,2074.81,-0.32432450555768633,0.0979406068068535
Galaxy18,1171.58,3743.49,0.070280755881561144,-0.025919185935628995
Galaxy19,2177.11,3324.99,-0.30323665039024134,-0.11125387786161796
Galaxy20,448.48,3208.93,0.004609990740877333,-0.11674837510932987
Galaxy21,113.71,506.28,-0.3328737961399455,-0.16817474107662944
Galaxy22,1679.01,3225.06,-0.39176836510601037,0.043273846940623056
Galaxy23,528.9,1009.93,-0.28881882032791523,0.4084058302495443
Galaxy24,628.06,3940.01,-0.32463179385838126,0.26088357699970183
Galaxy25,2951.99,1570.99,0.21745980788954811,0.27145323714391989
Galaxy26,3434.81,942.4,-0.29980745846612017,-0.027517383579022225
Galaxy27,1679.66,1301.61,-0.23591437928443673,-0.31405475023892371
Galaxy28,3751.09,2582.51,-0.45087187043278376,-0.052835113984868474
Galaxy29,2821.23,1917.95,-0.015720384838867868,-0.3717429551844913
Galaxy30,3653.32,2547.81,-0.074007041317265765,-0.16385141363558092
Galaxy31,543.42,3312.14,0.11427590445592176,-0.36001417422284132
Galaxy32,1946.7,2568.53,0.34545362393790957,-0.17872789026002806
Galaxy33,1011.71,2514.43,0.1360448488410701,0.35543443407023512
Galaxy34,222.77,3701.8,0.29476696123763829,-0.092956618268311392
Galaxy35,4116.68,3457.45,-0.68134964519023977,-0.32334274936939023
Galaxy36,400.37,2598.18,-0.061287242640463827,-0.0034506449578196249
Galaxy37,1000.79,329.54,0.42717777661938727,0.16009966036983742
Galaxy38,1884.77,1786.33,0.37452632467740454,0.29051771656645431
Galaxy39,646.73,174.82,-0.26449049595632584,0.21744276996889803
Galaxy40,818.67,2755.6,-0.18244078880293019,-0.034572611853830204
Galaxy41,2659.42,3130.18,-0.17830249604643739,-0.11450924287798617
Galaxy42,2020.42,541.28,0.017634102359356779,0.11186241582893186
Galaxy43,3647.87,2701.01,-0.26626036269371245,-0.46205843359153503
Galaxy44,3731.15,369.63,-0.34809078461222798,0.30565949854333285
Galaxy45,1414.93,1765.52,0.16945999971241579,0.35468359157049356
Galaxy46,2788.8,1114.73,0.1503719215012066,-0.16385661698611817
Galaxy47,1443.39,1952.02,-0.125073679094375,0.29476302283006167
Galaxy48,2499.05,3056.11,-0.016613079217626441,0.16342206656728539
Galaxy49,971.76,568.09,-0.36236778477128578,0.10261235773630706
Galaxy50,494.54,750.56,0.38453845019412591,-0.098457612541628728
Galaxy51,466.04,4077.3,-0.10894310029826713,-0.13913236707196386
Galaxy52,3481.88,3187.95,0.043427364806515933,-0.095493784228035422
Galaxy53,757.92,1003.89,0.2778376386302282,-0.23177189621188243
Galaxy54,495.06,1437.8,0.24279628719272017,-0.083737483520095857
Galaxy55,3698.99,1351.57,-0.206245608637037,0.10877784075482227
Galaxy56,3894.83,2621.38,0.010148266009442325,0.10526606696731516
Galaxy57,2366.62,1769.29,0.26127119970244095,-0.066224465636127786
Galaxy58,2039.41,3448.22,0.31095631889230702,0.20524308973707234
Galaxy59,2210.97,132.43,0.224395249690759,-0.15641122503286622
Galaxy60,4125.22,1244.59,0.20511380042640801,-0.49639096796973936
Galaxy61,3040.85,1173.0,-0.30569014590621091,-0.22373279845639044
Galaxy62,2567.83,1272.27,0.48547705924616313,-0.066188951876673327
Galaxy63,1618.46,1124.47,0.033529125562272721,-0.20154879070123766
Galaxy64,1183.9,437.77,-0.011950043845438171,0.1941908176747546
Galaxy65,331.76,1902.2,-0.029077095284255533,-0.26192202581820251
Galaxy66,4012.37,3577.34,-0.18357774819758424,0.17471993220860571
Galaxy67,3055.63,1346.4,0.16292772647977166,0.23175292910029627
Galaxy68,1849.74,4046.13,-0.11634238196848812,-0.19171432709367653
Galaxy69,744.28,2213.19,0.15027872948658383,-0.39518671448509335
Galaxy70,1571.91,1327.29,0.067939535372109242,0.10029221311218955
Galaxy71,3059.3,2262.08,0.070431717210906117,0.080986695360074273
Galaxy72,420.08,2721.4,-0.043279124002132303,-0.1233321830896519
Galaxy73,2725.27,954.71,0.058694480006945951,0.08475589846039229
Galaxy74,3176.42,1161.31,0.21229418395659416,0.11100262735793559
Galaxy75,2869.77,3777.7,-0.15590623898702011,-0.43042281370936925
Galaxy76,452.39,179.75,-0.2396804071806915,0.17367865795166637
Galaxy77,907.41,353.7,0.38080803248722817,0.24588539716761512
Galaxy78,2489.97,1380.06,-0.15118101687738891,0.27297256418325172
Galaxy79,2967.35,1560.52,-0.044372519181842707,0.30404818565656166
Galaxy80,735.06,720.24,0.14722833729018825,-0.17373747432290704
Galaxy81,1856.49,1808.52,0.14924060221845939,0.38430587033690383
Galaxy82,1694.59,1444.18,-0.065197458394645441,0.252176807963222
Galaxy83,129.75,1549.71,-0.086933695488590618,0.034243696000355199
Galaxy84,4157.1,1824.07,-0.076190404008698129,0.1772826946989588
Galaxy85,2733.64,3831.79,-0.0093202345698311165,0.23480504896228876
Galaxy86,559.13,912.29,0.078150503162420948,-0.12390506735000467
Galaxy87,26.14,2233.41,0.03876771246874889,0.20244004533436691
Galaxy88,2452.36,3250.32,-0.25334994123373689,0.032688888737445937
Galaxy89,3454.87,910.7,-0.083260514254010348,0.47372221322478614
Galaxy90,3558.01,2973.41,-0.14125712364944981,0.23317359038878699
Galaxy91,1742.76,945.0,-0.012799028383438313,0.029159783736785183
Galaxy92,1507.86,2154.61,-0.20115988518930195,-0.10411068990214854
Galaxy93,434.13,642.33,0.033811583497833878,-0.0011916980155446122
Galaxy94,1015.48,977.77,0.035714622345725991,0.076871333214726945
Galaxy95,3288.82,1549.41,-0.075185638197544258,0.10399371869577809
Galaxy96,1702.31,758.88,0.38663475538149217,-0.095964932941067949
Galaxy97,4023.33,4138.32,-0.30888232105955193,-0.027334280153938649
Galaxy98,3519.31,1148.12,0.031509639902935857,0.3602235154302339
Galaxy99,111.9,4128.6,0.21347519383276745,-0.04538388002866451
Galaxy100,3165.36,576.07,0.41757543751347487,0.059943205969938351
Galaxy101,3710.4,1099.82,-0.25813502557355023,0.38842203025050481
Galaxy102,4100.17,1051.04,-0.14830093483336135,0.056332540126825648
Galaxy103,2255.0,3102.81,-0.34467719294993493,-0.13571804655279091
Galaxy104,1599.13,1719.64,-0.18122763640187994,0.068682431866804228
Galaxy105,2421.19,3729.99,-0.24827436232735753,-0.62418357339245611
Galaxy106,735.41,313.19,0.13128249418160987,-0.099452672816275484
Galaxy107,59.39,1571.63,0.16062461948756657,-0.13077238284647535
Galaxy108,3650.93,3699.41,-0.0028921990750157001,0.32334676363422143
Galaxy109,2618.73,2258.47,-0.20960225002219199,-0.059242330281543798
Galaxy110,3737.97,3219.45,-0.26563259838318315,0.10364408866974366
Galaxy111,2896.59,1140.15,-0.12496156511213033,0.023653145877731485
Galaxy112,333.4,3019.04,0.026544286213233577,-0.3134366849270811
Galaxy113,557.76,828.34,-0.067457599087599796,0.35219186550697135
Galaxy114,2525.2,1693.56,-0.001320519505749379,0.039297000703033332
Galaxy115,165.46,1170.54,-0.021405396066663029,0.20776886466789776
Galaxy116,2586.03,3292.21,-0.032409698759336435,0.30665004016593139
Galaxy117,1992.39,1336.92,0.30997378331207975,-0.11578565098662302
Galaxy118,439.69,3002.99,0.39512843971175488,-0.15802367658319413
Galaxy119,3982.89,3637.55,-0.17203192736112283,0.21269784360040114
Galaxy120,3304.18,199.98,0.31224601869080104,-0.38669153099168829
Galaxy121,1819.18,1352.23,-0.31450764736620074,-0.13592720617346188
Galaxy122,7.44,1488.61,-0.1300212604998352,0.35190037113520051
Galaxy123,2977.12,3733.41,0.1700437415136492,0.19275985475512805
Galaxy124,131.06,4193.54,-0.2983446774740024,-0.14306596039316657
Galaxy125,1245.13,1365.2,0.16918610056093791,0.29701962861055309
Galaxy126,449.78,821.17,-0.090661435254481795,-0.11485367030091223
Galaxy127,3735.21,1375.62,0.044720125161923717,0.35873776750710828
Galaxy128,3533.66,3124.68,-0.21520959989075522,-0.082638323338396089
Galaxy129,199.63,2661.21,0.14573095040560591,0.048366339899543774
Galaxy130,1118.63,3556.07,-0.028612442834549282,0.0446619646712927
Galaxy131,1709.36,1357.96,0.25160946305870602,-0.16025230177375943
Galaxy132,1028.34,679.67,-0.056653482597497251,-0.13262815557379351
Galaxy133,4155.09,3193.06,-0.046473182922220621,0.10734267402293053
Galaxy134,2686.84,56.56,0.010763083952554025,0.19121948777104891
Galaxy135,395.92,2394.74,0.085623432849025571,-0.23266230886507802
Galaxy136,4195.18,2002.42,-0.03812995644823515,0.27446091345380974
Galaxy137,1023.27,3803.49,-0.22825016026115652,0.25225280474160405
Galaxy138,3575.31,2683.7,-0.10058681163266529,-0.24126971692677213
Galaxy139,3911.65,1632.97,-0.24181077691154551,0.23476442403663406
Galaxy140,797.79,676.47,0.26769001681753235,0.032571124764360762
Galaxy141,3419.94,328.51,0.016873603491915162,-0.0029730770410580087
Galaxy142,2737.31,1939.33,0.18511135497430228,0.20888407468116077
Galaxy143,982.6,268.95,0.064089939013249955,0.35973688148175592
Galaxy144,240.97,1428.66,-0.054395617639571542,-0.035002541420083987
Galaxy145,501.39,2164.09,-0.067803387265048753,0.14988081928748631
Galaxy146,478.73,886.66,0.36642196153089851,-0.1510987308380197
Galaxy147,2203.63,3396.96,-0.082890432753670362,-0.0055749902522127248
Galaxy148,3934.36,2115.16,-0.15720656592067006,-0.038452348822692453
Galaxy149,4139.14,1197.34,0.21846393992868773,-0.12268336176031402
Galaxy150,3287.92,950.27,-0.30351526347716573,0.28437108699193742
Galaxy151,3800.6,1065.25,-0.54349697262919372,-0.26741383835125687
Galaxy152,3367.55,884.98,0.20471816884638791,-0.12936105699615569
Galaxy153,2801.22,2051.48,0.24144404333991037,-0.15511616118553515
Galaxy154,811.03,3436.93,0.34778265694178873,0.17227471558346727
Galaxy155,597.82,2130.9,0.09992758765010043,-0.16800079680696742
Galaxy156,971.95,1377.13,-0.37151255679792577,-0.15071603964696459
Galaxy157,1528.49,2890.26,0.16816225364813681,0.0046831410092690318
Galaxy158,2933.94,804.73,0.46314611897328833,0.39502744624250852
Galaxy159,3708.17,3887.38,-0.04720839066534023,-0.13957697808663461
Galaxy160,2536.05,2683.92,0.15511117359240423,-0.56916106318192672
Galaxy161,2874.33,2979.74,0.067597965606059143,-0.35356464287106681
Galaxy162,1597.01,251.27,-0.11606957519565275,-0.18734938012672392
Galaxy163,1346.8,2003.2,-0.12880985527614891,-0.20955347994151011
Galaxy164,3160.57,2264.98,-0.26500790080223408,0.063630104515182057
Galaxy165,3557.26,3650.21,0.029280735369634214,0.35214020394637324
Galaxy166,470.14,1843.16,-0.046453935773856897,-0.21772344757916673
Galaxy167,3800.47,1457.21,-0.023932195144854979,0.30158009745410724
Galaxy168,1850.15,3481.64,0.096375369938887664,-0.016569643504248499
Galaxy169,3028.07,788.5,0.53104897108877069,0.47224879764084188
Galaxy170,2197.22,1791.3,-0.069110898156371281,0.10459642955075241
Galaxy171,266.55,2052.96,-0.088569764502048898,0.026780816710730869
Galaxy172,2067.25,1555.72,0.25453640206834155,-0.11474653323758494
Galaxy173,1615.46,2188.7,0.1421894741344511,-0.42532154785372012
Galaxy174,754.27,2109.73,0.1171238567689222,-0.075945048606877841
Galaxy175,489.56,3732.0,-0.082976524624126802,0.11772556680499048
Galaxy176,322.12,2624.79,-0.11104008952421837,-0.18895389070152552
Galaxy177,246.99,4038.54,-0.075366313939165708,0.11054868875171084
Galaxy178,3341.46,2596.27,0.049689006335929958,-0.11115599976177504
Galaxy179,3279.7,2128.06,0.35980778687935838,-0.29080293607699309
Galaxy180,2068.79,485.04,-0.31268957991621538,0.23641540586714799
Galaxy181,3236.98,216.57,-0.5249324714474074,0.069898024826571814
Galaxy182,1157.7,3339.24,0.090041541113315637,0.18550746104222493
Galaxy183,4044.56,746.99,-0.18279543597519068,-0.41787220796646812
Galaxy184,3068.72,331.96,-0.31767798424369331,0.45939629800920867
Galaxy185,4121.09,2344.49,-0.39815881108392348,-0.10811490839812571
Galaxy186,3475.97,2088.65,-0.023950033325835396,-0.20217588568694753
Galaxy187,1585.64,685.25,0.20693037269270592,0.018339924769611542
Galaxy188,907.07,1602.59,0.42263648650588537,0.071678006599674174
Galaxy189,136.23,2463.1,-0.19747800628353465,0.38286697476059806
Galaxy190,4051.11,3171.83,-0.27120826473519266,-0.11061612866750903
Galaxy191,763.57,434.26,0.12688356626705266,-0.16314241705940591
Galaxy192,118.7,1872.31,0.24374831013527407,0.17074056186493958
Galaxy193,3065.27,2814.47,-0.033366140617470265,-0.39951487449757062
Galaxy194,3981.83,1477.11,0.61789849606120395,-0.077818183754536974
Galaxy195,2451.26,3239.35,0.46654987644188123,-0.24507720238230532
Galaxy196,2160.89,3767.99,-0.14859845348337447,-0.14743223636210676
Galaxy197,1135.2,2615.87,0.009251916051768054,-0.59885510018183263
Galaxy198,3687.04,2475.44,-0.013782844087629392,-0.2990666500152821
Galaxy199,1367.22,1371.16,0.58539356030334644,0.26041066698850146
Galaxy200,1253.68,2258.94,-0.085946327045121645,0.10380974926399925
Galaxy201,1710.54,1175.57,-0.15568507387199243,-0.062096601934746094
Galaxy202,1156.0,1135.3,0.062031096307532278,0.3320568685548404
Galaxy203,1598.11,2530.94,0.31496289578471559,0.00040857732807066116
Galaxy204,132.31,3812.36,0.10558703205732045,-0.17570156833545847
Galaxy205,510.0,2020.06,0.444022311139744,0.12693862353075189
Galaxy206,43.1,1604.53,0.15044770022224557,-0.080333422904040303
Galaxy207,797.96,113.72,0.14886676697661333,0.56771915632069569
Galaxy208,2286.45,1020.12,0.51939580007513553,-0.0011797879254258348
Galaxy209,2568.96,3242.72,0.018685010902679169,-0.44130646704880949
Galaxy210,1172.82,1567.96,0.04046549916328316,0.26997511387985457
Galaxy211,2307.32,4126.68,0.046391639535489547,0.34946337344432649
Galaxy212,3121.92,3424.78,0.1098366825233176,-0.0019446697779739452
Galaxy213,2090.13,2613.41,0.14726473636396217,-0.1707727017874773
Galaxy214,1108.03,1410.62,-0.12420466473591157,0.45009489320376567
Galaxy215,643.97,2196.52,0.17596849687333266,0.36948127250338997
Galaxy216,2510.26,4162.97,-0.15897928916998422,0.007943488068131721
Galaxy217,2795.0,3957.92,0.14696152591232814,-0.13709657990712831
Galaxy218,571.86,1558.39,0.11714820369917443,-0.004166212753207014
Galaxy219,3349.23,4121.83,-0.311471968189033,0.25342364163175018
Galaxy220,35.18,3635.61,0.19014876686855264,-0.21256920015731562
Galaxy221,3944.65,1570.52,0.096948163790604613,0.41488580538327891
Galaxy222,275.27,3704.41,-0.18849728529013063,-0.326645115562755
Galaxy223,3910.04,3232.52,0.050644836582028674,0.51555749134849016
Galaxy224,1492.78,1433.23,-0.083581078278911078,0.015068458680260344
Galaxy225,482.5,2763.45,0.075099764008172379,-0.25601978112698298
Galaxy226,1736.13,4116.92,0.046500215303645655,-0.13605221063517736
Galaxy227,4041.65,3798.3,-0.33117888456103683,0.33036177323732308
Galaxy228,1251.64,493.35,0.0030452882536506354,-0.034210625700535874
Galaxy229,193.17,1658.62,0.083709069673767539,-0.045905516944332758
Galaxy230,2248.38,773.42,-0.0920777500567692,0.24345043713928527
Galaxy231,1008.53,1419.87,-0.052679698964571434,0.12764790516073635
Galaxy232,1095.34,1983.18,-0.11644886119686726,-0.15722307276751812
Galaxy233,2485.76,2872.9,0.18441927705372843,-0.29720565840955065
Galaxy234,3468.43,2611.26,0.13368343029670968,-0.17473773919213423
Galaxy235,2464.85,1789.98,0.25247638793764371,-0.18446513704707612
Galaxy236,933.03,2830.5,0.37253134629066459,-0.38537168209081635
Galaxy237,4123.98,3107.12,-0.17869609906087913,0.2904995416163888
Galaxy238,2456.82,3241.64,-0.42647615638976599,-0.017770064967969706
Galaxy239,1525.91,3215.34,-0.072558806199735634,-0.23934185285849646
Galaxy240,785.13,629.83,-0.22458179241525242,0.028056460404880579
Galaxy241,520.9,154.2,0.03708994381815367,0.16374934473648206
Galaxy242,2649.39,1999.77,0.22641472445595021,0.21359710660939543
Galaxy243,3966.45,1429.36,0.049020823493330951,-0.19788881303420924
Galaxy244,378.86,1042.21,-0.036035150158910234,-0.026566247861976283
Galaxy245,970.11,2383.99,0.15129089663249867,-0.14219133378981594
Galaxy246,1808.81,2959.83,0.11389256965440261,0.079545333619716121
Galaxy247,2612.16,3826.31,-0.077934675766075739,0.035753076518415014
Galaxy248,984.85,1484.55,0.091791925413027775,-0.27991353684677278
Galaxy249,1651.89,2646.91,0.035478259825493144,-0.041660598716584923
Galaxy250,4072.57,390.36,-0.078601726591920718,-0.25094369670644429
Galaxy251,2904.21,586.18,0.031675648783256516,0.22792221774705934
Galaxy252,2409.73,848.19,-0.21712984349620673,0.1287051446891633
Galaxy253,1299.99,3035.49,0.12698991799662385,-0.14564734744203225
Galaxy254,1469.86,1795.21,0.18644218451020267,0.22868570987071679
Galaxy255,2764.15,451.21,0.24808501629799176,0.39163667199671182
Galaxy256,1598.51,1716.29,-0.15384039274296357,-0.15700065717786754
Galaxy257,2532.63,545.86,0.19195197145185899,0.33301899801305113
Galaxy258,3731.09,2474.68,-0.36808227247394215,0.0092262745743875163
Galaxy259,2400.91,1743.65,-0.018381469004878415,-0.49012392816011408
Galaxy260,3670.75,962.48,-0.068956423069266276,0.28616204344135282
Galaxy261,3396.95,1647.31,0.39348849828442228,-0.076049052036339687
Galaxy262,546.83,2171.33,-0.29771539401891683,0.15840915177553144
Galaxy263,1134.26,1134.56,0.046655189901978117,-0.01934583183063995
Galaxy264,1784.27,4173.66,-0.12918135069956363,-0.42626112617201539
Galaxy265,2335.56,2110.57,-0.032624374850800109,-0.21103810797908157
Galaxy266,3467.56,326.98,-0.080621363184817982,-0.27535384985909195
Galaxy267,4148.52,3683.86,0.090092659613688036,-0.020349719495554384
Galaxy268,3297.45,224.85,0.28681620915584904,0.28213814049243668
Galaxy269,1845.3,1715.44,0.087904119211426907,-0.06355570114783915
Galaxy270,2705.27,2705.39,0.084491310714267923,-0.13401156454760493
Galaxy271,1814.0,2730.4,-0.085197417026771888,-0.020268665983507017
Galaxy272,3111.37,2075.78,-0.049345218889151915,0.080757104034706539
Galaxy273,914.4,1077.29,-0.21772916545526255,-0.14528569551947093
Galaxy274,3124.71,1846.34,0.28225167431845938,0.011461993310841551
Galaxy275,522.95,3868.44,-0.20084887963298617,0.058877562649323714
Galaxy276,1400.66,3453.63,-0.30276519033768728,0.14639413404910012
Galaxy277,2679.51,363.8,-0.11651165115023264,0.19892001997044861
Galaxy278,1129.71,3867.65,0.22564203899927077,-0.22370114807075253
Galaxy279,750.27,1342.35,-0.055439840332124971,0.068245965102388242
Galaxy280,1775.94,2738.99,0.070541864244749064,0.085200838738302906
Galaxy281,1747.88,1461.74,-0.15360146122941437,0.13935271276571387
Galaxy282,418.65,1274.11,-0.23299275942131473,-0.35469871269506875
Galaxy283,778.66,1314.67,-0.27665813689995211,0.047295596242435851
Galaxy284,1323.41,1606.96,0.26501155580040253,0.25841459911836639
Galaxy285,909.48,680.24,0.12019697669850316,0.23730715282336245
Galaxy286,234.91,3757.77,-0.058525281780175784,-0.12861056206703109
Galaxy287,3596.35,1913.46,-0.096784326979687502,-0.54630729111352883
Galaxy288,1066.0,2385.61,0.19878623888133246,-0.1414806806079269
Galaxy289,1470.86,2101.03,0.01300595176714904,0.4331986879020765
Galaxy290,467.82,1125.66,-0.3264955327029222,-0.053775486192272376
Galaxy291,1461.38,4166.11,-0.050863037796433287,-0.054962046618721637
Galaxy292,1558.87,1075.49,0.044052596488937834,0.21294713247290237
Galaxy293,586.86,3692.46,0.016309231358643317,-0.036762709913655059
Galaxy294,4042.71,2348.92,-0.23137251588215813,0.091816889212392658
Galaxy295,70.32,1509.27,0.10584238277692462,0.13970842338464309
Galaxy296,3736.06,25.56,-0.35406733621560749,-0.081665480311513397
Galaxy297,2885.72,3848.69,0.02831567730082353,0.22725051333274951
Galaxy298,496.96,3756.68,-0.20876696494092631,-0.036482374653644012
Galaxy299,2521.35,3248.02,0.25817987486879956,-0.28785644795497084
Galaxy300,1649.87,1462.57,0.19843472485119154,0.15286162902080888
Galaxy301,1921.85,551.54,0.088648561582614735,-0.11999299869236264
Galaxy302,3587.18,1115.7,0.055753114115303939,0.4920050752581015
Galaxy303,29.54,1481.29,-0.12578356560819906,-0.37806264085016877
Galaxy304,2163.59,3531.4,-0.077939907299961142,0.047562192197651967
Galaxy305,1643.79,2825.57,0.040689530629010255,0.19819758173544511
Galaxy306,1291.99,1964.82,-0.14270638437501657,-0.21003406009483563
Galaxy307,2288.58,3892.54,0.10556377838513573,-0.2314546117819524
Galaxy308,2761.87,3074.16,-0.042733391987278525,0.12896089614729786
Galaxy309,3007.42,4036.73,-0.20019882580743503,-0.14830919790513117
Galaxy310,1222.35,1565.43,-0.14574013825451837,0.21553347001657139
Galaxy311,2035.45,552.25,0.46531710419324018,-0.10624023928423931
Galaxy312,2127.87,2917.14,-0.032791776728102504,0.18196403491951002
Galaxy313,2495.39,264.76,-0.076950483322484123,-0.0012518347100639871
Galaxy314,218.26,149.92,0.22607915843564386,-0.27886194203051207
Galaxy315,3376.6,1027.95,-0.26138403702620516,0.31840839900678758
Galaxy316,1506.55,1531.18,0.14882033260015057,-0.30523460459142104
Galaxy317,3068.82,1084.79,0.19534386061901521,-0.095256723988103642
Galaxy318,3943.87,199.43,-0.15803368192978159,0.03824258256032266
Galaxy319,6.39,2919.6,-0.0078755714908683716,0.079939617380701988
Galaxy320,4055.72,3868.12,-0.30210359143627191,-0.018272739423968665
Galaxy321,1467.21,729.53,0.017512961974533461,-0.029711389689692516
Galaxy322,1807.88,1215.18,0.14281798291667613,0.26750369550015818
Galaxy323,1543.64,2319.07,-0.00065690425073511305,-0.2740566527680609
Galaxy324,1194.31,1126.42,0.036434288322012745,0.053099227549182663
Galaxy325,1664.65,2805.51,0.17822026836644825,-0.24604281330816549
Galaxy326,1438.68,1815.65,0.23318977441013622,-0.01267013954641719
Galaxy327,773.65,1709.87,0.80348295698494332,0.29679191687025736
Galaxy328,1137.45,728.07,-0.0086097147571487231,0.36101817792610935
Galaxy329,3552.06,3231.93,-0.64743246290189049,-0.14690749160708294
Galaxy330,3628.3,4049.43,-0.27791780230957852,-0.29572238467241113
Galaxy331,4179.21,3013.37,-0.10491511529082904,0.19438310022424576
Galaxy332,1222.23,1861.93,-0.25413801420028098,-0.10308700049307704
Galaxy333,2156.55,3370.86,-0.019867427375938947,-0.23282994684229419
Galaxy334,3860.89,2334.85,-0.043821756233033471,-0.14914924184762257
Galaxy335,3978.75,3587.27,-0.10696774006651617,0.27509795752868488
Galaxy336,2280.72,2516.58,0.101109595332517,0.0195435747172856
Galaxy337,3606.5,3916.77,0.063573726933593422,-0.29387060690348238
Galaxy338,3469.43,649.15,-0.17397910758996599,-0.10649417589945628
Galaxy339,4052.67,1831.73,0.16275420605890939,-0.27429005950023988
Galaxy340,3733.97,2123.9,-0.080453544095819729,-0.19780719102331989
Galaxy341,2578.92,308.46,-0.22705253165490846,0.35691187738809216
Galaxy342,2565.97,2634.45,-0.12843479977663433,-0.10524133127889659
Galaxy343,910.61,3439.45,-0.088564386311907647,0.094280911527663755
Galaxy344,1150.0,2878.75,0.08192184960560997,-0.25619273641976592
Galaxy345,3069.54,4116.58,-0.39407519756237153,0.076546555403235322
Galaxy346,2282.43,3112.12,-0.15174889416174098,-0.32494703604008424
Galaxy347,3490.26,421.26,-0.10050315670214605,0.27944727373045569
Galaxy348,2128.95,2434.05,-0.016383764972634246,-0.038881370247634398
Galaxy349,4046.69,1240.43,0.042360767900664731,-0.49798705168886909
Galaxy350,2076.1,2182.94,0.044634387119066823,-0.22159759818195995
Galaxy351,1379.76,2896.57,0.018741731360867209,0.18066457388338936
Galaxy352,3164.89,444.93,0.2014531987138945,0.030466237699862231
Galaxy353,3826.53,2111.11,-0.18674675471706439,-0.35662187140727653
Galaxy354,2772.16,1096.71,0.25732435481060262,-0.13323290305572183
Galaxy355,3919.04,2144.77,-0.71945044575156514,0.29324361627892614
Galaxy356,1834.4,2658.66,-0.19050781156894073,0.10440501322925412
Galaxy357,1547.93,1937.78,-0.32709950312874925,-0.21479187476630596
Galaxy358,3851.54,2410.37,-0.18018264097190823,0.011674958883533197
Galaxy359,1826.83,127.92,-0.080773088969513962,-0.15940160538032716
Galaxy360,3941.99,1846.99,-0.51954223293597901,0.13029887991318206
Galaxy361,1845.33,2424.34,0.030744722344136159,0.31102499601304295
Galaxy362,948.06,4180.09,0.0064501205840763309,0.085340553854763412
Galaxy363,3753.04,474.52,0.10706787421981898,0.14277558878239649
Galaxy364,3690.43,2755.1,-0.13424812067889208,-0.11664410764770236
Galaxy365,2353.17,2400.63,-0.16730235994054676,-0.13663610748873703
Galaxy366,1435.64,2747.66,-0.083076274970112385,0.49806520712082458
Galaxy367,3453.37,2740.18,-0.055754825659788981,-0.075429528335668058
Galaxy368,610.88,2825.37,-0.10042282661569003,0.19282203559674832
Galaxy369,2211.59,3600.87,0.056757343747958156,0.022446093775222983
Galaxy370,891.06,1658.8,0.01791230845364758,-0.44515638718924688
Galaxy371,4030.7,3614.86,0.21229187889562184,-0.23434801203085481
Galaxy372,4091.87,1883.53,-0.11385213853946723,0.15705789196894288
Galaxy373,2244.97,56.99,-0.15455045999752423,-0.28165751819466944
Galaxy374,2411.59,4088.06,0.16205232023894151,-0.39320516766797581
Galaxy375,3542.94,2640.61,0.012113609281478421,-0.3669124676612201
Galaxy376,984.53,1715.14,-0.33943351131324262,-0.1317492057823009
Galaxy377,3386.02,367.05,-0.27331193206603477,-0.1517303923057324
Galaxy378,2808.88,2044.57,0.17135704154612202,-0.3266348992697366
Galaxy379,1740.73,2230.4,-0.086409300343151141,0.12394193693566992
Galaxy380,727.22,3538.66,0.36354520125134526,0.42202565333325115
Galaxy381,3324.38,2301.07,0.11668184317987598,-0.33352492327686017
Galaxy382,4127.74,721.59,0.16384721768933738,0.043468772326931804
Galaxy383,3460.2,791.18,-0.073788300560124781,-0.019058518790683876
Galaxy384,693.36,2936.59,0.013911376893323703,-0.11100384696702364
Galaxy385,1939.15,633.9,0.08421304294660166,0.072609758345578868
Galaxy386,543.92,321.7,-0.39675799908493453,-0.0049012164939240821
Galaxy387,3649.48,2408.73,0.018770195183377303,-0.17794952647697426
Galaxy388,2272.38,1018.92,0.0089941941216494514,0.19999945230881797
Galaxy389,463.58,3398.88,-0.098481433305299487,-0.2283485732131495
Galaxy390,909.83,3405.26,0.0071775274232607905,0.035782499849013508
Galaxy391,883.2,1463.57,0.086960494386826459,0.029465622222234263
Galaxy392,970.19,4132.87,0.19052216191280386,-0.086194390984248984
Galaxy393,1038.9,619.06,-0.060612407309538471,0.013543909610958561
Galaxy394,3204.76,1125.33,0.16459327425223608,0.12131799696066223
Galaxy395,2374.27,3994.02,0.43507478266658473,-0.14319563480788669
Galaxy396,1032.69,1513.58,0.054144324904788856,-0.039897109376315937
Galaxy397,1373.99,1628.37,-0.22384874530443322,0.29592546991754864
Galaxy398,990.74,1234.72,0.26629737721270175,-0.16607443200780364
Galaxy399,1163.99,1232.28,-0.59989201899607592,-0.029559628409369258
Galaxy400,1760.82,2274.23,0.48233214078118158,-0.22612078185725865
Galaxy401,2950.9,3089.67,0.021632282931952615,0.59734432092126122
Galaxy402,2114.45,1385.71,0.021630189809169198,0.61238441776557162
Galaxy403,3162.4,2013.35,-0.15670726120924125,-0.10805395566651602
Galaxy404,2469.96,1314.57,0.071850687130366894,0.13430180737235189
Galaxy405,1771.78,3477.01,0.034990773492387314,0.060285468345925644
Galaxy406,2713.44,1692.2,0.14693436442297328,0.18111133357576067
Galaxy407,949.68,3098.35,-0.071574132032476534,-0.16252031717557019
Galaxy408,2582.99,3738.66,-0.21017946753004824,0.15045283926032016
Galaxy409,988.09,1600.96,-0.18277077696320082,-0.036580055887659384
Galaxy410,2516.47,1195.26,0.076006893367308578,0.00059519212772261854
Galaxy411,2347.87,3359.12,-0.5741608075589667,-0.1525125283147023
Galaxy412,625.54,1023.45,-0.21770579803208928,0.14085729219491427
Galaxy413,3745.5,3803.32,-0.070197172811898856,-0.15788227298218271
Galaxy414,3363.78,3128.08,-0.017087593012759208,-0.37664960056913577
Galaxy415,2353.57,882.22,-0.2302045521068628,-0.099991826152801319
Galaxy416,1988.31,3983.75,-0.045311889216838652,0.10391978373951238
Galaxy417,3711.47,965.74,0.09890651137396278,0.43742091775252989
Galaxy418,1351.1,195.02,-0.27736975924212542,-0.15932016580055158
Galaxy419,2260.6,3357.12,-0.21659017356707302,-0.52357821280413486
Galaxy420,357.99,1215.93,-0.030648908387535659,0.13409821484339007
Galaxy421,2486.92,1323.52,0.26652101471674317,-0.13497453435549756
Galaxy422,366.69,1479.0,0.14931953329998573,-0.153299656800441
Galaxy423,1829.51,863.73,0.10380676301811807,0.15586106558062282
Galaxy424,3175.19,3600.78,0.013217560296114539,-0.2518890630447066
Galaxy425,2658.69,3925.89,-0.098506652722094218,0.20467331517550974
Galaxy426,3594.57,1174.0,0.03833444853953967,0.26595426085284257
Galaxy427,3691.53,2921.19,-0.12576211029897477,0.16284218748386953
Galaxy428,1652.76,1551.53,0.34384622451131591,-0.099498025063300244
Galaxy429,2147.3,1806.63,0.23045629558384681,-0.0070186508048647386
Galaxy430,293.01,3638.29,-0.0015518098411429898,-0.39562759326471036
Galaxy431,1352.54,3853.21,0.22205709764818876,-0.18166634530586825
Galaxy432,638.25,1002.77,0.254493914570808,-0.49992601998222586
Galaxy433,1522.13,783.37,-0.12907488702417708,-0.27796017215624413
Galaxy434,3478.03,2004.71,-0.092415586236574004,-0.052147018837724102
Galaxy435,2470.88,2451.83,0.17505058417410374,-0.20388066920453624
Galaxy436,554.24,2365.67,-0.1519540043135213,0.23486957601132591
Galaxy437,3246.96,2173.05,-0.03030026386386106,-0.74272798606526202
Galaxy438,3643.8,2357.45,0.00466949530311081,-0.014963519004068671
Galaxy439,1167.99,3236.63,0.2099023486073725,0.032974011306245096
Galaxy440,1715.14,1466.74,0.51498603941164789,-0.22692813843938353
Galaxy441,3901.36,1352.99,-0.58654637370027052,-0.13632763247964247
Galaxy442,3357.7,959.99,0.036464214786113766,0.23255702583484344
Galaxy443,2147.95,405.07,-0.14300315158689483,0.33150608687781452
Galaxy444,1721.7,4195.92,0.40089708291794007,-0.10462040282072413
Galaxy445,1268.71,3878.2,0.003179699395489264,-0.1090872364979191
Galaxy446,38.78,3367.15,-0.20980053940443166,-0.17624241128768528
Galaxy447,3638.71,3180.44,0.026595287710594939,0.19031078996009776
Galaxy448,3019.66,1789.39,-0.053787619252732705,0.32630443241608509
Galaxy449,1763.81,2029.49,-0.3249276576244885,0.11921697847463829
Galaxy450,1413.3,2361.63,-0.21377671325547939,-0.17897343942918487
Galaxy451,2798.36,1563.57,0.0093953039879868805,0.031405987373798315
Galaxy452,1782.33,2287.9,0.018927934336745333,-0.21798084847164778
Galaxy453,1144.5,3887.42,0.013381562052731515,0.27684874711161961
Galaxy454,3032.43,1001.54,-0.081786847564183168,0.052032786319072682
Galaxy455,274.33,2955.42,-0.23100795931556087,0.065023919010104958
Galaxy456,4148.91,2394.16,-0.26529059563908342,0.32305549472666717
Galaxy457,3961.11,592.06,-0.059982344379763325,-0.36009294796861135
Galaxy458,2890.6,548.22,-0.52448533208742831,0.10237150778161609
Galaxy459,2424.02,488.67,-0.027403963854692487,0.041029959128783933
Galaxy460,2987.29,2086.01,0.53460869763135632,0.130662422412859
Galaxy461,4167.83,3492.42,-0.32120808312305954,-0.18138408922487798
Galaxy462,117.34,2378.96,0.17779454842942624,0.049933294492216854
Galaxy463,1308.79,2316.62,-0.024047465968718748,0.22848053683143549
Galaxy464,1768.93,3653.55,-0.18652801104721181,-0.41711966371265347
Galaxy465,3455.56,3730.15,-0.19502408464773685,0.18808050107809687
Galaxy466,1394.08,2230.58,0.074997654004546291,-0.23285109917078492
Galaxy467,418.66,3992.38,0.38471587887301267,0.4682393437493611
Galaxy468,2576.72,457.96,-0.010303078491821341,0.15591461975899842
Galaxy469,774.64,3351.34,0.25539923137869225,0.2906112183986172
Galaxy470,809.18,765.91,-0.11371881606432913,0.12121028645499229
Galaxy471,3967.78,1520.89,0.11128329594319419,0.11971736999339369
Galaxy472,957.61,3525.19,-0.12818647040165657,-0.1949286791401762
Galaxy473,3557.03,2807.27,0.056366601047353304,0.12748023384947066
Galaxy474,40.45,2288.43,0.19638847213238783,-0.34121542810924554
Galaxy475,537.09,515.45,0.13668993644516989,0.32415435929116154
Galaxy476,2421.28,324.21,0.22806033150258273,0.047440048197659609
Galaxy477,2957.15,3909.18,-0.22437132973782373,0.065360791236627414
Galaxy478,1856.3,1744.51,-0.26165645049825181,0.061005469952838731
Galaxy479,3911.18,1848.43,-0.72119354620587928,0.34094015791688337
Galaxy480,1713.17,1948.91,0.1430004520649307,-0.50357768330382724
Galaxy481,3745.69,2423.72,-0.25030400296717437,-0.28106798470767153
Galaxy482,2671.25,679.5,-0.087686410230335438,-0.11662067825149849
Galaxy483,3544.29,1401.29,0.28623999984692661,0.40984442160609325
Galaxy484,3.93,1207.8,-0.13916587571599315,-0.016158030029404878
Galaxy485,979.8,1334.05,0.10109233874333881,0.31290431806142738
Galaxy486,2859.59,3630.29,-0.14470878454914213,0.21269579638943786
Galaxy487,3098.25,862.41,-0.051756623300114615,0.22796580674668609
Galaxy488,1754.72,3009.49,0.081945963011770595,-0.036288630249246709
Galaxy489,1131.25,3092.67,0.077892986074647994,0.091867447714484851
Galaxy490,3504.64,3174.73,0.11813321721573183,-0.19211610434352888
Galaxy491,1714.9,1632.09,-0.42952126965590565,0.19446827410333686
Galaxy492,2049.92,1303.39,0.030566298025128544,0.38703578250688275
Galaxy493,1933.21,913.63,0.10682738159132191,-0.10669741854081673
Galaxy494,3718.45,133.76,-0.3855618952089846,0.32839409307447931
Galaxy495,4041.17,2521.15,-0.070152702446729637,0.39138431412471281
Galaxy496,1515.08,1883.94,0.17390656787754175,0.14056280509673652
Galaxy497,2062.01,3963.46,0.16098962253614998,-0.41417423220383409
Galaxy498,3101.54,1177.73,0.33729545423044127,0.18409168195667067
Galaxy499,3069.26,4068.23,-0.50435935762719519,-0.0081530501815685955
Galaxy500,3006.48,1568.8,0.42300705723505944,-0.070174056422182482
Galaxy501,7.11,109.33,0.09728785109125121,-0.2604735564508075
Galaxy502,1879.06,3021.23,-0.052250054626431668,0.10080320323259968
Galaxy503,3268.96,3311.38,-0.18654496961838374,0.077857052657947748
Galaxy504,522.26,251.5,0.42873416340508441,0.073659797457611878
Galaxy505,2701.67,465.94,0.36296230448564454,0.24683424981438967
Galaxy506,1006.37,4020.08,0.080710963257038221,-0.21033979957983076
Galaxy507,2221.58,9.29,0.04997656757062257,0.052226576712938844
Galaxy508,1828.02,1330.16,0.35253154534566117,-0.070767709239439397
Galaxy509,3811.7,988.35,-0.25242417070507711,-0.40573513136487882
Galaxy510,2880.63,3892.17,-0.2625476764825434,-0.24493575826575514
Galaxy511,1060.96,796.77,-0.28414144778814415,-0.19618361679769938
Galaxy512,927.87,3790.81,0.31314612893789251,-0.18622511362955724
Galaxy513,4005.48,1709.09,-0.041334106326479575,0.44405701949023141
Galaxy514,2898.86,75.39,0.37931825649882384,0.020769921610729575
Galaxy515,3603.85,501.33,-0.42908890224040119,0.21905513618824257
Galaxy516,2974.38,4146.94,-0.21359977918025333,0.099731674662710629
Galaxy517,732.74,1805.55,0.0024199581563273814,-0.26863431700776613
Galaxy518,406.76,1425.88,0.20805881400036014,0.059467750367431141
Galaxy519,1216.52,1735.58,0.070437591148040823,-0.44060336449515841
Galaxy520,4094.23,568.56,-0.21083971532237272,0.16949528917293968
Galaxy521,308.37,1742.22,0.18105909088210348,0.20008620567657839
Galaxy522,2435.15,1393.48,0.2865328517335598,-0.13303792226886074
Galaxy523,2400.04,1566.48,0.12983437040420259,0.13124651388706915
Galaxy524,2587.81,3432.88,-0.15741799852871435,-0.28823791247228481
Galaxy525,347.42,2423.08,-0.0046430365594784875,-0.026630747669977795
Galaxy526,3639.71,3186.84,-0.23382295224170146,-0.16555909879480085
Galaxy527,2993.71,3986.49,-0.023056966904561271,0.08821539793503376
Galaxy528,166.22,2923.61,0.13571806075454942,-0.027247825898446459
Galaxy529,3310.7,2641.7,-0.11565439556675045,-0.38488791041765252
Galaxy530,1585.58,1326.55,0.28723680270002921,-0.019251790354631031
Galaxy531,4161.06,54.47,-0.18992067884202704,-0.13712171723817634
Galaxy532,379.09,310.77,-0.049228615798727247,0.21437065470350025
Galaxy533,3210.8,2424.14,-0.23643343484313062,-0.18639180533234651
Galaxy534,3870.13,3042.22,0.18961911144842764,-0.11675318742490139
Galaxy535,504.96,3706.87,0.10574628981319049,-0.23709280086540094
Galaxy536,49.22,3714.36,0.35178216598373785,-0.079193391257153425
Galaxy537,4195.04,1322.64,0.13221669339164227,-0.33743486830747504
Galaxy538,2235.52,1095.36,0.078795547663639776,-0.29912571034414065
Galaxy539,3736.05,2062.17,0.31600007276400388,0.073030197058374158
Galaxy540,1486.2,2655.24,0.056307679093112351,-0.41278784099118049
Galaxy541,246.44,1073.03,0.07184050108913391,-0.34820004179288544
Galaxy542,2659.86,3335.81,0.46969519082004091,-0.23402697686004997
Galaxy543,3923.45,3432.52,-0.069475525450656106,-0.33265713738220043
Galaxy544,232.83,2646.68,0.27650038056954851,-0.23300893479603974
Galaxy545,270.61,781.89,-0.0076579921308942006,0.093974148675476127
Galaxy546,2675.21,1316.56,0.032066227967590927,0.11065656133771259
Galaxy547,920.98,517.41,-0.054642865473300009,-0.069848176817015162
Galaxy548,500.84,503.17,-0.04683839392564032,0.096894112472234464
Galaxy549,2042.59,2563.86,0.086692861761406254,0.29593889066912388
Galaxy550,3750.47,1396.54,0.030834726248982161,0.42457732218345251
Galaxy551,4021.73,1896.64,-0.2886511942950451,-0.16691299552592403
Galaxy552,3006.96,1469.73,0.29657752902443202,-0.036655300871320497
Galaxy553,2541.32,3332.48,-0.066340794465474473,0.074537004228032444
Galaxy554,1443.48,3242.61,-0.25563144138234778,0.090321693703454581
Galaxy555,1195.56,4185.82,0.23682849934511088,0.2357326066117823
Galaxy556,1699.28,2713.99,0.011465181938201063,-0.015833538800268776
Galaxy557,3127.1,178.71,-0.024343130887635137,0.33244642923330503
Galaxy558,2068.14,2114.82,-0.22107763179582152,-0.2417199038302783
Galaxy559,3487.05,347.87,-0.02828974482245844,0.093756007051998727
Galaxy560,2120.49,1854.54,0.32001886092955062,0.069343812693870133
Galaxy561,1182.59,208.0,-0.20091966349685794,0.37936850420943152
Galaxy562,3871.94,995.11,-0.37720314509139458,-0.38011300884150789
Galaxy563,329.9,92.77,0.083280529697030398,0.15632071074022494
Galaxy564,1915.09,3083.28,-0.0088288866841573291,0.37891177616606941
Galaxy565,506.2,957.74,0.004947812772535698,-0.14496736582855013
Galaxy566,2946.04,820.05,0.044711257545584367,0.026022362427984558
Galaxy567,28.12,3585.5,-0.22241486385746537,0.063034180640685292
Galaxy568,2852.96,2155.13,-0.072943807512928893,0.23796316989930405
Galaxy569,3068.65,166.96,-0.12613688614765545,0.04802935206222915
Galaxy570,2482.31,3292.54,-0.060909956174156496,0.04012918100280953
Galaxy571,3348.7,1636.28,0.020538596267039688,-0.054377750652376697
Galaxy572,1812.06,1315.14,0.090173098215367481,0.17698188882248353
Galaxy573,252.82,2384.23,-0.3779817080395238,-0.17866608146565124
Galaxy574,1907.16,1854.27,0.18830996638185013,-0.075504883158086317
Galaxy575,1843.27,990.39,0.13619779429528053,-0.0014204506611916329
Galaxy576,3730.35,2653.15,-0.54557560611218281,0.1301680467799223
Galaxy577,4057.47,4075.9,0.37838868758497379,-0.207423891363923
Galaxy578,1908.01,2414.12,-0.10663254914291562,0.21824271797276573
Galaxy579,937.62,2279.89,-0.29957153340628861,0.061450731495056823
Galaxy580,4099.51,48.1,0.28336500769098327,-0.094833763257082565
Galaxy581,3582.64,174.92,0.12766598699545623,0.031647434474325942
Galaxy582,655.68,588.66,0.20123256746670692,0.17606600764801786
Galaxy583,3960.16,1348.79,-0.31677791831079011,-0.49927362988008173
Galaxy584,3645.09,2615.04,-0.11499810479528581,-0.14674687351765037
Galaxy585,763.27,424.99,0.011657547337647123,0.0069970837027046734
Galaxy586,2222.84,76.5,0.23334981003262065,-0.26796253660679847
Galaxy587,1775.06,2265.16,0.36083883034329478,-0.25513726528363095
Galaxy588,3787.5,3647.73,0.15294392957382402,0.025312208557177241
Galaxy589,1643.6,3724.41,-0.0053548986899578732,0.028280296872336713
Galaxy590,1577.96,3604.14,0.15671731282318235,0.30531187897165213
Galaxy591,3510.26,2103.84,-0.30570636893410347,-0.68162338908010822
Galaxy592,1936.77,2708.79,-0.17041872893746199,0.040682686764141496
Galaxy593,2363.71,437.78,0.36403682507815732,-0.17432995777308316
Galaxy594,3245.92,2014.98,0.25179622763025189,-0.12975307177973816
Galaxy595,3118.33,2223.39,-0.043576981612370766,-0.45089756310317797
Galaxy596,266.28,3079.2,-0.28152221941415145,-0.23543718879024639
Galaxy597,4141.65,3484.36,-0.12977922536255362,-0.079098393842956083
Galaxy598,3437.89,2749.68,-0.38592594362024618,0.1148978916414494
Galaxy599,1847.02,2296.54,0.30443056180655076,-0.070714766972138271
Galaxy600,690.75,3089.39,0.12811014455771055,-0.14242120483366624
Galaxy601,1768.69,512.94,0.16307243501834084,-0.22833358746574303
Galaxy602,2902.73,579.56,-0.26295329561187158,0.30177890668074714
Galaxy603,3919.86,3835.55,-0.2402737235799236,-0.1924151483635908
Galaxy604,3746.08,3011.37,-0.13222019232551041,0.056616622161521836
Galaxy605,1886.8,3061.97,0.32600905206543102,0.15627649597855048
Galaxy606,832.93,3299.6,-0.13256353985695196,0.18502336299423641
Galaxy607,3390.59,1602.54,0.076416753786967995,0.10920173515602652
Galaxy608,1951.92,1836.48,0.10414045140581495,0.16418055058296982
Galaxy609,1467.55,4071.55,0.052242562510588383,0.40862549546424098
Galaxy610,1632.47,1015.18,-0.38157035186254851,-0.12541738021391516
Galaxy611,1331.78,405.63,-0.04501818046509079,-0.30247798655630781
Galaxy612,2881.84,1500.53,0.57019808335057731,-0.094314862137930583
Galaxy613,85.75,3151.69,0.15216260202895993,0.045385381981498794
Galaxy614,545.43,3375.52,0.11800152504695381,-0.030501379430847572
Galaxy615,2356.34,3416.82,0.033686397356685466,-0.078340658767678553
Galaxy616,3617.92,555.05,-0.46642324484615227,0.18491518968054249
Galaxy617,3348.05,4036.32,0.16319670476267756,0.01311105495589196
Galaxy618,800.36,2895.75,-0.080115998397535068,-0.26443763914716967
Galaxy619,1506.77,2253.27,-0.037807208496725614,0.43207834815476548
Galaxy620,1435.69,1377.74,-0.27630520873317832,-0.10275175521711287
Galaxy621,2228.64,2932.96,0.21168154904030989,-0.42728700565156352
Galaxy622,1231.31,811.33,0.10311271634783571,-0.17019534110172566
Galaxy623,431.02,2662.23,0.26009801166156571,0.035101100393243427
Galaxy624,2093.12,208.24,0.0045667818610737876,-0.10122920435199824
Galaxy625,2409.73,1355.02,-0.027740878556411136,0.2205127246184711
Galaxy626,2413.01,1917.72,0.18405011514934003,-0.13495662637440928
Galaxy627,1151.04,1922.11,0.44302009744528764,0.29131614737262695
Galaxy628,944.09,2716.59,-0.11182779807409254,0.05676323747845867
Galaxy629,1980.5,2294.54,0.0006421697696579326,-0.039978537681927058
Galaxy630,3493.29,3221.94,0.093596673617683868,0.0070859247960240318
Galaxy631,2481.04,393.16,0.086108069236639814,0.29152544748909315
Galaxy632,472.35,2655.08,0.09326035306019187,0.081393155456607136
Galaxy633,3372.63,3309.49,-0.13961144778673459,0.16701606957029796
Galaxy634,983.76,2459.72,0.40158321462985641,-0.030034758440580973
Galaxy635,2494.74,3547.91,0.0094521618562398227,0.16762976711656724
Galaxy636,2369.98,3550.13,0.22616804435870708,-0.19928286477934171
Galaxy637,19.79,1990.77,0.077187898984826378,-0.21052958004259228
Galaxy638,3749.55,568.58,0.19770907371514046,-0.29611974277909864
Galaxy639,3967.41,1625.12,-0.371447418576212,0.18973250626731375
Galaxy640,2919.69,61.1,0.16619557193736731,0.13218987573906757
Galaxy641,2928.07,2520.72,0.14340162145999427,0.10802485100215561
Galaxy642,1134.12,3212.11,0.039048077381171928,-0.044256399695620716
Galaxy643,2684.66,466.99,0.063029495194975582,0.47357074633910057
Galaxy644,1632.34,3423.29,-0.46013869881973829,0.23425249211563431
Galaxy645,3060.26,1277.0,0.14165120580293719,0.011379415297891327
Galaxy646,3150.57,3812.19,-0.30343600637091217,0.3098957871666701
Galaxy647,509.93,1010.41,0.042201305543631808,0.12801230168676625
Galaxy648,1926.31,1557.53,-0.17019892542315332,0.22462859160526549
Galaxy649,3122.23,3990.8,0.22723587225469496,-0.28306619542105749
Galaxy650,710.96,358.21,-0.15278966529317139,0.091630797242306106
Galaxy651,2563.3,1715.64,-0.091898964700123376,-0.072615928785864051
Galaxy652,2701.73,286.22,0.30824190725458234,-0.022937626365398589
Galaxy653,1909.94,1550.33,-0.015553361953611594,-0.043058842113100911
Galaxy654,2882.25,4132.32,-0.36784879025691286,0.16547830598832736
Galaxy655,519.69,1209.2,-0.11999155014725044,0.052005093667589708
Galaxy656,2745.29,1318.82,-0.024294969843532244,-0.19234104520392395
Galaxy657,1467.94,2707.5,0.24269751706284953,-0.30605645884194255
Galaxy658,1214.52,3499.08,-0.63857811578837886,0.13320140028834659
Galaxy659,4048.0,2499.76,-0.29624408083931963,0.052313686470395589
Galaxy660,590.12,1026.32,-0.13659534526472816,-0.19837048901779747
Galaxy661,2776.77,4169.68,-0.17411779980747372,0.022738993062534879
Galaxy662,3454.42,3524.77,-0.22974624876369149,0.32826269121920815
Galaxy663,183.05,2920.78,-0.16312868819554804,0.35444237442661991
Galaxy664,3723.56,4043.13,-0.14586712018378867,0.020490613902869541
Galaxy665,1933.33,2861.03,0.090636207605674257,0.1146048176285881
Galaxy666,2179.87,1669.22,-0.31810162253500307,0.4313876851551231
Galaxy667,3926.84,2673.74,-0.16111417119878094,-0.23125683849862427
Galaxy668,2792.24,2269.53,0.35448829241319912,0.36651197885425346
