GalaxyID,x,y,e1,e2
Galaxy1,2808.72,344.46,-0.084374936647891918,0.031130083107784666
Galaxy2,2235.45,3707.59,0.0052029645801592583,0.26889968029374345
Galaxy3,177.17,1855.04,-0.38612527474107156,0.06917570059775216
Galaxy4,1399.92,3127.97,-0.19936869244081867,0.22735169964720106
Galaxy5,1236.33,3356.58,-0.16582208008879018,0.091810611040538517
Galaxy6,183.06,2846.45,-0.27142811957830038,0.063676981293584012
Galaxy7,1737.2,630.67,0.22765645416528243,0.17295496589218787
Galaxy8,125.59,2294.45,-0.10151564962468351,-0.030931029029534721
Galaxy9,1613.41,882.31,0.53934382944015447,0.15468422306574298
Galaxy10,1352.69,1757.03,-0.15561301165623589,-0.03150254830561286
Galaxy11,1157.55,1976.63,-0.22792705932982252,0.022006049642981099
Galaxy12,77.77,1333.51,-0.44539040187543227,0.038497325835273738
Galaxy13,1982.83,3749.84,-0.088756164491465117,0.021997499420237605
Galaxy14,1100.78,2980.69,-0.3157726422294409,-0.14584024997651973
Galaxy15,3076.94,2737.09,0.13416583786591607,-0.085321343488297757
Galaxy16,671.04,3746.59,0.15867687918976514,0.24670064482228812
Galaxy17,2456.04,534.88,0.31075373040350529,0.1519247910207272
Galaxy18,792.52,3330.1,0.014622322476970553,0.18806206940150735
Galaxy19,2887.95,1252.63,-0.079251467571782086,-0.50209126388500636
Galaxy20,2253.6,1774.7,-0.16616290126762503,-0.15460965264742924
Galaxy21,1558.83,1033.39,-0.081157395002397131,0.14142315676447836
Galaxy22,3339.53,4099.18,-0.11075108457344773,0.14329394742704821
Galaxy23,3467.97,2151.78,0.17217788824913116,-0.18977823071366939
Galaxy24,262.12,2706.41,-0.19807091305996316,-0.51198181848791557
Galaxy25,1881.05,2763.72,-0.0079345683520197219,0.25824860194390398
Galaxy26,1935.3,329.99,-0.090788665066031532,0.22502061416338429
Galaxy27,109.52,567.22,-0.23119142600216186,0.27083166595564845
Galaxy28,316.96,1246.65,0.19071638568011287,-0.056119747673318898
Galaxy29,2241.32,2916.46,-0.44910036107978052,0.34153004673437554
Galaxy30,1632.04,4192.17,0.073595774122044155,-0.16281873894878013
Galaxy31,1237.64,2530.57,0.30847279212348228,0.084526938954971986
Galaxy32,1815.46,424.48,0.2351822831109584,0.077424874957352147
Galaxy33,71.25,1411.9,0.27903615630443546,-0.01454207511007255
Galaxy34,2845.91,2342.04,0.33629778212520378,-0.30010479501640874
Galaxy35,2944.55,1083.49,-0.18035342733493953,-0.032711784510854706
Galaxy36,1563.29,698.23,-0.16959712553764283,-0.17150939188626038
Galaxy37,1607.5,2783.36,-0.35161538326961406,0.31380313773155077
Galaxy38,3175.46,2399.49,0.18799062231380798,-0.20472049583274293
Galaxy39,2015.29,2527.92,-0.16052253992472404,0.29730468960334755
Galaxy40,1619.88,1463.66,0.19680082023484563,0.10796788445119282
Galaxy41,2665.34,3285.24,0.089805274110225347,0.28557626100166345
Galaxy42,3843.18,1281.97,0.060414072003358826,-0.427856612136709
Galaxy43,299.84,724.81,0.42790413073351008,0.12059749594638991
Galaxy44,2980.16,199.56,0.49161476675102256,0.1071278044140459
Galaxy45,3915.66,2704.66,0.19978383215562542,-0.27301598307858299
Galaxy46,3694.61,3829.96,0.017401145234455739,-0.34137874757925096
Galaxy47,1923.05,406.69,0.12020277095177689,-0.24044517865334386
Galaxy48,2516.34,3114.34,0.15368518514733198,-0.37575264898267635
Galaxy49,3816.43,3476.2,0.27361196769235352,0.032046052874977866
Galaxy50,683.49,2303.56,-0.26181147446180442,0.30009574194518202
Galaxy51,2884.7,1459.04,0.30879314138010083,-0.10697331244765207
Galaxy52,1416.91,2611.41,0.068790284790787345,0.11431257500851633
Galaxy53,3140.54,4177.43,-0.10320763925619621,0.50012697247433091
Galaxy54,1638.73,571.86,-0.0085701105138950573,-0.14889271268123125
Galaxy55,3392.03,3369.24,0.041019563626548176,0.1164745528040359
Galaxy56,1045.51,2126.54,-0.43714530803900098,-0.17358694786994511
Galaxy57,1508.2,1417.21,-0.070850522358250109,0.16166908165972788
Galaxy58,1206.26,3560.59,0.1534833296868976,-0.28852744708652101
Galaxy59,2440.32,2475.4,0.21902442535628483,0.020831784004699205
Galaxy60,3118.08,732.21,-0.072089173823757291,-0.31057963956851126
Galaxy61,3154.3,2768.2,-0.25225077824221298,0.29538698167114907
Galaxy62,1657.98,655.14,-0.083366218699308658,-0.20398323937483631
Galaxy63,292.82,3645.84,-0.15540414983231265,0.016317429835231025
Galaxy64,1390.88,771.15,-0.23259282633517325,0.059009266666642489
Galaxy65,888.99,743.69,0.23741037229042961,-0.096818629917791679
Galaxy66,2791.55,642.86,-9.6133505040146838e-05,0.18220761156565948
Galaxy67,3682.52,261.01,-0.029636131884838407,-0.052034581557345957
Galaxy68,1028.85,933.08,0.10965551877840551,-0.16553775051334285
Galaxy69,2778.16,892.33,0.083029142442599818,0.28354488465426936
Galaxy70,12.44,3927.6,0.024457879990961634,-0.41477635316996031
Galaxy71,2869.35,3686.01,-0.37772677873190585,-0.085253563963593307
Galaxy72,2174.89,1338.64,0.025398926583295123,0.25660149846156965
Galaxy73,471.52,3698.94,-0.47418420295826802,-0.43916671476900271
Galaxy74,3857.75,1691.21,-0.0026004629535954366,-0.18456005503067802
Galaxy75,2024.66,1791.02,0.25830450119965015,0.29061305729730236
Galaxy76,3488.77,3722.21,-0.30194211609342897,0.089423362882021948
Galaxy77,1592.79,2060.97,0.04633413225731664,0.31859528149958938
Galaxy78,2423.8,4040.26,0.19279187967185174,-0.021158397948448086
Galaxy79,192.76,1695.13,0.12726426457903811,0.23051130419792271
Galaxy80,943.17,244.8,-0.037272209313182092,-0.1187607466249479
Galaxy81,3575.8,16.87,-0.0038219209467059007,-0.089661823052631567
Galaxy82,3516.77,3988.44,-0.53851824377864632,0.20664381221792735
Galaxy83,3889.65,2944.64,-0.1805501600844428,0.029113516746832345
Galaxy84,3930.36,2269.6,0.074037117613645481,-0.064261593629770589
Galaxy85,2040.72,2229.05,-0.24500936846844443,0.41475934387372182
Galaxy86,1159.26,7.87,-0.46493062767032844,-0.067767266285098854
Galaxy87,1763.73,512.29,0.026272797557481631,0.024925558558854824
Galaxy88,3767.2,2546.96,-0.25662023688991792,-0.49641204007440204
Galaxy89,2491.91,1659.68,0.11199974221117195,0.083949415579302605
Galaxy90,2387.34,2780.62,0.10703229989311469,0.099717105685555779
Galaxy91,2750.52,3017.6,0.069312517414932523,0.16319541031663515
Galaxy92,3097.62,265.26,0.20328153245303529,-0.080767698685316469
Galaxy93,351.74,1030.86,0.36981804215256309,-0.48035116039124659
Galaxy94,1668.94,3270.45,-0.15500722726026103,0.084845768904027008
Galaxy95,1707.79,1985.07,-0.13079519161507136,0.085272972699371008
Galaxy96,3546.97,1790.87,0.22752819678220615,-0.025806065564167327
Galaxy97,3452.11,2802.92,-0.10626554390297123,0.036196437889373767
Galaxy98,1674.44,779.57,-0.095155736580714689,0.088808900060096521
Galaxy99,1821.49,779.92,0.27748353110014745,0.36652180172338622
Galaxy100,2646.21,3856.6,-0.048968326912134916,0.058401937977399489
Galaxy101,3974.19,4064.85,-0.27029967516232534,0.029690164891596021
Galaxy102,2722.72,3869.28,-0.068713222303462107,-0.15892582825934645
Galaxy103,2841.59,2363.12,-0.11471964462916656,0.07054229751187735
Galaxy104,1376.51,1412.41,-0.28059424073226125,0.29110587684516392
Galaxy105,1817.52,4157.85,-0.27544051663221059,0.22891013244777333
Galaxy106,922.14,2362.33,-0.1227911480896253,-0.086347362793386187
Galaxy107,705.43,1890.86,-0.11676212059617308,0.15263952991484989
Galaxy108,2200.47,1421.97,0.21767904190499354,0.25170979502150292
Galaxy109,2124.73,912.29,0.18489168082363894,-0.13450630604880243
Galaxy110,627.49,4168.72,-0.25009388740725624,0.12700578093025869
Galaxy111,3073.64,969.53,-0.31610974084569821,0.033654224616746761
Galaxy112,2433.33,3532.16,-0.31832488931832287,-0.14741443263988507
Galaxy113,2881.49,243.05,-0.064856916538108156,-0.26630322788585137
Galaxy114,2980.32,1798.77,-0.24957683215434304,0.38213566009049393
Galaxy115,2266.95,2442.9,-0.049105039331686334,-0.10730364284715119
Galaxy116,1629.49,1556.97,0.32043253779998382,0.072510339619062142
Galaxy117,541.47,3755.36,-0.086941606643578723,0.081016578723065141
Galaxy118,644.75,2065.53,0.05650600173925005,-0.12760308918002264
Galaxy119,4088.37,2349.22,-0.1088512803142121,0.064275237443933472
Galaxy120,1661.74,3862.66,-0.025169052700080984,-0.3469528267971651
Galaxy121,2207.88,1732.3,-0.013492313532404675,-0.27486853119077403
Galaxy122,2177.68,4165.22,0.083358084620129475,0.38867882793162867
Galaxy123,2294.6,1327.52,-0.087071625913419784,0.34687625802571243
Galaxy124,3454.07,1660.42,0.021132194933338642,-0.14266138452334079
Galaxy125,1384.43,3642.59,0.1040474759971127,-0.24668188851158035
Galaxy126,731.59,1417.51,-0.15302463464493132,-0.31398968921754539
Galaxy127,1124.71,1565.91,-0.21538275285827113,0.030440967886184792
Galaxy128,322.92,1022.06,0.1287089616187245,-0.32989415821517309
Galaxy129,1654.23,604.31,0.075751508193515282,-0.28961993340884007
Galaxy130,1185.35,1064.97,0.38811284807630708,0.15478051334362236
Galaxy131,3819.76,4077.42,0.080246286011127363,0.031949824086360171
Galaxy132,2462.43,1662.25,0.17678677851737531,0.20952719379152968
Galaxy133,3942.71,4093.47,0.070557013906974303,-0.3653788630328994
Galaxy134,452.62,1498.04,-0.17700975872036948,0.04166063922644006
Galaxy135,3214.01,531.71,0.10936592188530991,-0.31109215238153926
Galaxy136,217.82,2157.7,0.089929361967643534,0.036091875871542334
Galaxy137,2844.56,4105.54,-0.018783191326146607,-0.17260098591994355
Galaxy138,1488.95,3296.41,-0.33159349437081687,0.20013724821238546
Galaxy139,3119.3,2558.77,-0.015564318340662853,-0.37192791969615208
Galaxy140,1884.33,272.98,0.15628098339119881,0.084738162966807418
Galaxy141,3450.9,3663.79,-0.26259483396169964,-0.022732959887845614
Galaxy142,3173.92,1110.69,0.14717593084393651,0.0323306817630723
Galaxy143,10.01,119.83,-0.10718217198577772,-0.085813174357639632
Galaxy144,2042.76,3137.02,0.19077567596174427,-0.16194379279994092
Galaxy145,1073.02,1731.82,-0.25548150079244814,-0.0928253902354228
Galaxy146,3680.55,3704.35,-0.3927216654302973,-0.28775036510439578
Galaxy147,3552.95,289.47,-0.14635863663734117,0.13019389238037835
Galaxy148,2625.37,1079.97,-0.037821608958985342,0.18004564086267685
Galaxy149,3422.51,114.48,-0.17862692015737092,-0.46251920834818372
Galaxy150,2738.5,1174.0,-0.082761503924037916,0.25994429187439072
Galaxy151,1598.68,3585.73,-0.26712607984661374,0.12117247945076101
Galaxy152,2896.0,961.29,0.30295674249228671,0.0054491448337541312
Galaxy153,1184.42,3464.98,-0.055395218716893652,0.036285087026644236
Galaxy154,204.3,2963.66,0.049222304566728631,-0.075993344528158285
Galaxy155,903.35,1621.29,0.14296686404858105,-0.083133242174106739
Galaxy156,1415.83,3009.37,0.069060367550999327,0.06168515129194254
Galaxy157,540.08,2440.0,0.14767980546345733,0.033904671533298715
Galaxy158,2188.8,116.26,0.19387051436829125,-0.18956221084343738
Galaxy159,3507.73,858.49,0.0030584080479087172,0.1733390651335453
Galaxy160,3770.86,2518.68,-0.1300896867490543,0.001243213645897509
Galaxy161,4042.16,835.8,0.008354573087155176,0.07334186849783364
Galaxy162,3962.91,1851.6,0.17386520895593788,0.40696098089273935
Galaxy163,2726.48,16.28,0.0011622980525064358,0.042161883640807946
Galaxy164,210.9,1663.19,0.30046111462352698,-0.078119396523236156
Galaxy165,3720.56,1554.77,-0.30266140424832416,0.097922852979943728
Galaxy166,2379.35,1746.51,-0.31314899027994175,-0.034978753004828611
Galaxy167,1454.97,1253.57,0.25294383591556296,0.31303668361142239
Galaxy168,3552.84,2563.4,-0.085507120008606788,-0.084560331899139057
Galaxy169,3451.99,2576.06,0.24032578364211502,0.5391151735942542
Galaxy170,4139.94,267.74,-0.21077726287118564,-0.17340432832151265
Galaxy171,2579.64,3950.26,-0.012636093659140396,-0.076610533731458375
Galaxy172,3885.6,2062.47,0.21165527347895374,0.16454122543734895
Galaxy173,500.77,770.08,0.065254196243635265,0.38121716896334523
Galaxy174,391.0,2200.32,-0.23806346767930001,-0.12495640630990063
Galaxy175,744.98,3487.33,0.074562935439620767,0.075112348188893147
Galaxy176,1969.95,3450.07,-0.084231357179407482,0.020164937310929575
Galaxy177,866.68,3092.08,0.1134114660390053,-0.13828893595674455
Galaxy178,123.12,3235.71,0.13413681786325887,-0.3466436973348403
Galaxy179,2084.25,3023.92,-0.019209825855797759,0.06294402471189682
Galaxy180,3652.71,4054.93,-0.0033260185885446896,0.0095972583231724376
Galaxy181,2019.65,2294.75,-0.059812084496932608,0.27591725769506459
Galaxy182,1385.97,4031.36,0.11013499849326273,0.21970971125637606
Galaxy183,2825.95,3334.99,0.1153107008891302,0.27705190143015634
Galaxy184,1533.9,1106.33,-0.024883594915940999,-0.11004683147720473
Galaxy185,29.45,2141.67,-0.51731162890839433,-0.057972810499550206
Galaxy186,3466.1,3301.52,0.050995676791651248,-0.13876217307234173
Galaxy187,3460.03,812.02,0.19899788639326621,0.18918610791894405
Galaxy188,4065.53,3439.35,0.1751735260321664,0.11692882779314456
Galaxy189,1624.33,3713.96,0.036674508928227684,-0.1570270788886684
Galaxy190,3277.73,1758.75,0.0017660309492764786,0.059869168630102353
Galaxy191,299.75,2272.55,0.23093385008548398,-0.24505956807759105
Galaxy192,3332.56,3543.08,0.15967971105425213,0.32451121443661723
Galaxy193,516.09,391.75,-0.40258496757180973,-0.12320087757171627
Galaxy194,371.41,4130.29,0.099539643684627713,0.017473886846357128
Galaxy195,3912.82,1124.46,-0.13800734493609229,-0.090257106632958523
Galaxy196,1777.32,3611.86,-0.061919974513719674,-0.13681442585146741
Galaxy197,1979.58,4025.17,-0.21988794986667859,0.24057513325521188
Galaxy198,3362.07,1245.45,-0.18658327309434683,0.032722391598419276
Galaxy199,1598.33,850.64,0.12309432597857703,-0.19362053189068129
Galaxy200,3755.96,2506.85,-0.10096237242207937,-0.1122093300230879
Galaxy201,1008.63,2837.98,-0.14050738832629583,0.18631622749115842
Galaxy202,1297.53,2169.88,0.065664167382836564,0.14548846591342968
Galaxy203,2362.63,1778.79,0.16594640906171085,-0.042642787449995251
Galaxy204,1390.94,3126.85,-0.14059320995153124,0.2255003587223855
Galaxy205,57.05,1308.25,0.067699624676385392,0.11262312750145984
Galaxy206,2353.27,1733.66,-0.09833807011691599,0.039758197248025748
Galaxy207,3593.51,2054.05,0.016106598488688471,0.33513415058207829
Galaxy208,2955.04,3235.19,0.43781281251583803,0.20007991590808472
Galaxy209,1817.39,857.87,-0.28833900521361155,0.27563922558946524
Galaxy210,451.08,9.86,-0.10246231506561998,0.33510884898955245
Galaxy211,1564.33,1297.3,-0.26895715499294054,0.042931393622963915
Galaxy212,3168.96,1893.83,-0.37675951566621158,-0.071898998119105245
Galaxy213,2515.7,1745.68,-0.27157177106282937,-0.14477812590819253
Galaxy214,2184.64,2386.48,0.25356062711164162,0.090719648705465658
Galaxy215,2630.89,2627.39,-0.009449832882735841,0.3665868921613859
Galaxy216,1048.55,368.68,-0.33491500680157921,0.099831168282749516
Galaxy217,2351.89,2627.23,0.0054221663781536152,0.35930298531334987
Galaxy218,1598.84,2785.86,0.15206764850052301,0.033828842730767847
Galaxy219,282.67,1378.97,-0.31661541655057523,-0.31773349539541512
Galaxy220,2414.01,3938.68,-0.042573450784842863,-0.2418506625761791
Galaxy221,3725.05,1472.06,-0.24234267582843633,0.16724582214111225
Galaxy222,918.47,3914.41,0.19283651424808684,-0.064319992035456186
Galaxy223,1141.42,310.63,-0.18126351905216098,0.25619900100642412
Galaxy224,3205.13,2228.73,0.36814080167098906,0.067644345804827477
Galaxy225,3384.27,2618.92,0.12387385983598029,-0.10921060852378067
Galaxy226,3649.28,2327.62,-0.056575732471060639,0.049867816639300816
Galaxy227,494.1,1483.45,0.14949628807960033,-0.29473199351288137
Galaxy228,3575.01,4170.15,-0.017896946546979101,-0.28349917380649425
Galaxy229,2981.97,3426.43,-0.20133875279402094,-0.10922355570178599
Galaxy230,3037.81,1751.63,0.28869383015337347,0.034846652757189664
Galaxy231,1940.2,2124.9,-0.093681781244143142,0.48252042026486414
Galaxy232,145.16,1283.88,0.18599874698523983,-0.07647066762860677
Galaxy233,2731.39,768.64,-0.19198067232012392,-0.1776943969283144
Galaxy234,315.35,3400.73,0.2369186691921813,-0.020382561466909845
Galaxy235,178.56,2372.44,-0.13085378222883953,-0.008265936508214361
Galaxy236,1356.04,1441.11,-0.094643369057908988,0.011530812175526761
Galaxy237,3728.46,1899.09,-0.30797384423559737,-0.073321514421054584
Galaxy238,341.69,1319.02,-0.31968789291561039,-0.35576453321511736
Galaxy239,4050.61,236.39,-0.03615540219463885,-0.19754159789540615
Galaxy240,765.06,3278.86,-0.11943934425189699,0.097979874891958973
Galaxy241,355.73,4052.52,0.21516235034664194,-0.14815610848262861
Galaxy242,3713.66,4028.02,-0.12046057905317739,0.20858891848600131
Galaxy243,1582.8,3112.23,-0.05718721136062916,0.12331136071470278
Galaxy244,2117.91,2215.34,0.24286411256840099,-0.011129201284452522
Galaxy245,3577.45,3034.61,0.087905272072630186,-0.29045573341080855
Galaxy246,1743.06,1044.08,-0.046841234184736957,0.29026494425023097
Galaxy247,1643.39,3408.63,0.015440906338790486,0.10292363608634161
Galaxy248,2843.57,822.48,0.58978564719177107,-0.32070724240734505
Galaxy249,2944.54,2972.24,-0.068626287812220188,-0.34486728423401231
Galaxy250,2304.8,497.74,0.025241992551781667,-0.015794524586163941
Galaxy251,2299.02,637.28,0.22150187210663241,-0.15815961984056232
Galaxy252,1030.21,2113.62,0.017972805600002972,0.17289369834594789
Galaxy253,4099.2,4196.97,-0.02727937017212036,-0.0423898119234591
Galaxy254,2049.22,2868.2,0.14245356561219785,0.021728961691207027
Galaxy255,1432.39,1509.34,0.11364298412616512,0.37056706587072041
Galaxy256,2008.44,61.88,-0.27093406967744177,0.15298611875941884
Galaxy257,2543.81,479.46,0.16917108482019177,-0.1820335102257282
Galaxy258,3488.0,798.81,0.051732262033011324,-0.20972771818604169
Galaxy259,2468.86,1822.43,-0.28521530947218776,-0.1770294817993672
Galaxy260,55.39,2701.93,0.043324931230262043,-0.48046518351439038
Galaxy261,1637.52,1054.91,0.10246017811019655,0.16371133570789875
Galaxy262,2241.87,1323.22,0.084899355040060118,-0.085014813965923058
Galaxy263,3286.02,2162.33,0.086430801627776346,-0.0071662033221592814
Galaxy264,2616.44,2564.69,-0.39444131063408999,0.49612886940848322
Galaxy265,4054.11,3329.56,-0.091925257506574612,0.18644200706580205
Galaxy266,2701.82,3193.24,0.27641319922951391,-0.037721514283134389
Galaxy267,436.19,2863.11,-0.25255920564664647,0.038082233150589485
Galaxy268,1373.22,2536.97,-0.15995268329437839,-0.045335947103696914
Galaxy269,2796.25,2180.25,-0.25604332101454874,0.025605929318590473
Galaxy270,1702.66,1107.27,0.34398352018331524,0.12081418558640238
Galaxy271,4046.99,321.99,-0.1819217346232212,-0.08290577091003036
Galaxy272,1954.48,3640.87,-0.18058592958668651,0.021141600445775441
Galaxy273,3335.15,2230.8,-0.14951075429516067,0.25686560832868943
Galaxy274,522.19,2619.36,-0.30463066783211362,0.076402241918050756
Galaxy275,2024.09,3059.43,-0.12419606659290448,0.24667577236625987
Galaxy276,2104.41,1909.56,-0.1318119140306627,0.027882848939602994
Galaxy277,3978.12,1810.1,0.16239619129134136,-0.015100530569350373
Galaxy278,1340.11,4134.58,-0.1925421913207902,0.044379328838341725
Galaxy279,705.38,1407.47,-0.22280454844641948,-0.12903063302531778
Galaxy280,563.57,1230.22,-0.13373112886698954,0.087326382399538938
Galaxy281,3928.77,107.36,0.058425350261075149,-0.047348943156172302
Galaxy282,2341.35,2013.89,-0.09454340399289908,-0.066701559685557688
Galaxy283,2923.93,1140.34,0.23232195722315879,0.17379573447923896
Galaxy284,3419.6,3901.81,-0.29652144902825195,0.13933471021517826
Galaxy285,101.52,2894.85,-0.31016151262876068,0.0045804824385781845
Galaxy286,2440.79,437.37,0.20345029658747907,-0.26296151880547858
Galaxy287,1364.53,3891.0,-0.35930604888050072,-0.17656806006534254
Galaxy288,1249.86,3530.2,0.0014313229564447416,0.29581865749394104
Galaxy289,3113.3,743.38,0.13314919410716844,-0.004833166585443114
Galaxy290,1662.29,682.43,0.14528901934483127,-0.31791309708620513
Galaxy291,2884.52,3964.13,0.012715085581700303,-0.35106616264023682
Galaxy292,2189.06,4195.42,-0.019305900371172018,0.086504706504214879
Galaxy293,1001.91,3570.36,0.013679068623353385,-0.14532942875324484
Galaxy294,1103.2,2532.03,-0.31122398088123338,-0.19576399064447811
Galaxy295,1342.13,2486.23,-0.27036900563565414,0.35987158853983897
Galaxy296,1542.15,2042.98,-0.000425547385816058,0.058667492530391857
Galaxy297,1934.65,3005.02,0.10160216668485512,0.27593782772190428
Galaxy298,4129.34,1673.68,-0.16626686655043776,0.1498383170156356
Galaxy299,3182.62,3869.9,0.11507956592479118,0.019511475480848264
Galaxy300,1155.19,3348.23,-0.23509515059152802,0.081942092630313795
Galaxy301,1775.14,1027.14,-0.08939514680352334,0.32798549649409825
Galaxy302,2559.54,2093.27,0.059167072019319825,0.2461398586914017
Galaxy303,3899.0,2982.04,-0.33775521746235215,-0.13742972362732853
Galaxy304,2971.4,2728.44,0.030958491723536437,0.28348685141970364
Galaxy305,2915.17,239.91,-0.090800183536321355,0.025395237194293874
Galaxy306,3709.75,2208.78,0.19826710436545758,0.22762964248854728
Galaxy307,3541.82,1052.98,-0.17316869096416504,0.47088300558937651
Galaxy308,3841.35,3355.87,-0.061952482934004606,0.11511269325778437
Galaxy309,2001.53,603.46,-0.23338280737773842,-0.10625689812310676
Galaxy310,1548.21,1963.48,-0.39708351146210596,0.29754120374663395
Galaxy311,1345.02,3043.18,-0.078032448795104667,-0.30244349744994686
Galaxy312,3370.05,2268.4,-0.4165346798260563,0.17973745379425637
Galaxy313,4180.0,2454.86,0.24928797612806458,0.19523368369829369
Galaxy314,589.75,1702.2,-0.53380537317297783,0.109074190390373
Galaxy315,3468.49,4175.92,0.16208721899605261,0.18721885052648399
Galaxy316,2476.23,1114.65,-0.043146218977683032,0.23899093971439145
Galaxy317,2002.66,3412.02,-0.0886842976234124,0.041669515989157482
Galaxy318,1333.39,1621.89,-0.02585509928152277,-0.074756810370664811
Galaxy319,62.97,3584.75,-0.14703515314185117,0.078332055702044934
Galaxy320,1162.74,4010.53,0.20998043811940173,0.092591294127947726
Galaxy321,3329.03,3554.4,-0.070254341296923317,-0.29643263075607629
Galaxy322,1229.31,50.5,-0.31168404683965056,-0.0081587146892174167
Galaxy323,3405.88,2396.62,0.18374550001109077,0.16013660782211231
Galaxy324,3232.46,2937.78,-0.030223216543781774,-0.099188299976149905
Galaxy325,3461.58,615.17,0.075619295336602776,0.017093137104972584
Galaxy326,299.61,2276.52,0.13845404851813689,-0.073885519906758443
Galaxy327,1448.2,2082.48,0.1313167372692827,0.015801898235410367
Galaxy328,2071.23,3102.99,-0.24911219734471104,-0.1770956572698747
Galaxy329,4107.02,2048.68,0.037420758073073393,-0.054358015446948703
Galaxy330,1865.83,196.33,-0.068028290020828136,0.10512418755117006
Galaxy331,839.75,229.45,0.26395398664312797,-0.13550390899136264
Galaxy332,857.44,1480.51,-0.24210221655681341,0.10116993027471557
Galaxy333,1780.78,3814.25,-0.073729985789931909,0.094293837848021811
Galaxy334,4127.52,1234.7,-0.31107863654253382,0.44612851598572367
Galaxy335,35.48,3620.07,-0.4571883422560899,-0.085661329470443581
Galaxy336,2533.4,2377.69,-0.014185394244565599,0.07748642809014393
Galaxy337,805.74,2904.27,-0.076694354317779059,-0.25678862048709428
Galaxy338,4031.14,3079.84,-0.089994789612724932,-0.25449160124323567
Galaxy339,1175.29,3583.71,-0.24526631150833941,-0.37179713104357992
Galaxy340,2449.01,2386.68,0.22314492916426804,0.067612427246158222
Galaxy341,1640.55,1861.52,-0.052074598806375536,-0.027151940247163331
Galaxy342,3780.74,3565.72,0.26764339675976251,-0.18966963987366625
Galaxy343,1819.85,3543.86,0.3541991751923686,0.23549756428667004
Galaxy344,3701.22,3144.46,0.096611047053122623,0.080330725276259479
Galaxy345,3286.07,3179.43,-0.23282728560357152,0.26644329791485261
Galaxy346,3461.19,176.31,0.37875588979679553,0.046796507712524041
Galaxy347,3800.59,1697.18,0.19687144982635185,0.073226646606916634
Galaxy348,627.27,2674.03,0.09264051305910842,0.05262796574148744
Galaxy349,3221.01,3042.83,-0.07937886658789306,0.066714940891751229
Galaxy350,1924.43,1426.55,0.022812200367917389,0.038478559460208756
Galaxy351,2471.24,1412.06,-0.041401575276133806,0.6290179356756227
Galaxy352,902.27,2609.47,-0.4344179937046756,0.31615050161180824
Galaxy353,1334.04,1564.46,-0.42568406864365549,-0.081131957867617926
Galaxy354,2716.86,3330.84,0.03197900923864886,0.11615588162686681
Galaxy355,2934.03,1955.33,-0.15898406600455403,0.028428601370269604
Galaxy356,369.15,3406.79,0.2011565295822067,-0.14118041022518532
Galaxy357,498.99,1194.43,-0.095091604582304229,-0.030778561050980091
Galaxy358,4073.72,1400.48,-0.38679760556125153,0.14920818146701489
Galaxy359,3737.57,2162.38,-0.018422875907676196,-0.08419310707959228
Galaxy360,2119.51,3906.95,0.14763218584952703,-0.042162249542598923
Galaxy361,2762.17,2324.59,0.0035462552318543481,0.30475900569985664
Galaxy362,3900.96,3864.8,0.062300165340196528,0.075585760849053121
Galaxy363,2564.35,3329.29,0.33502036314558115,0.11788801680277419
Galaxy364,3411.45,4021.17,-0.0033921571920120103,-0.034441532427192306
Galaxy365,1176.44,2014.06,0.28119555745436187,0.086114012945838092
Galaxy366,699.45,2524.31,0.3218446592834644,0.21075580634065627
Galaxy367,1356.77,2432.56,0.28817136663358861,-0.086568674650442462
Galaxy368,2800.85,332.11,0.18762040720584122,0.23407910372590171
Galaxy369,2358.48,1424.59,0.22651426309597716,0.091750593933835944
Galaxy370,1629.35,3121.1,-0.33299943792970482,0.43725235464061896
Galaxy371,2930.55,184.08,0.52441719176402268,0.12476124344432472
Galaxy372,945.54,2521.43,-0.3182906296580319,-0.17376605423204858
Galaxy373,2510.15,1020.11,-0.096946397042031007,0.20121613874001662
Galaxy374,3184.69,3959.39,0.36288267872565777,-0.059722534033715427
Galaxy375,3164.78,194.47,0.13501756407459484,0.13945584673452321
Galaxy376,958.82,1209.07,-0.2473090580678837,0.34371332753603578
Galaxy377,1404.75,2222.45,0.45609155360446951,0.49828566483785475
Galaxy378,1787.32,3099.15,-0.17422527084348163,0.090042339530895493
Galaxy379,2186.92,1551.94,0.562793294136547,0.60446922148261473
Galaxy380,609.75,2080.25,0.041097525704789278,-0.1435067861673984
Galaxy381,830.61,3393.49,-0.14406704666334394,-0.073201396574514396
Galaxy382,3896.21,2305.03,-0.076418036421215862,-0.18992240564303173
Galaxy383,3340.45,1153.24,-0.14445238461774096,-0.089653083678390311
Galaxy384,1144.22,1952.54,0.11563060445096526,0.31050518919198916
Galaxy385,1476.67,528.4,-0.025453729071699183,0.041627445951248704
Galaxy386,508.29,3914.62,-0.068008025906554054,-0.01844736544314474
Galaxy387,2603.82,2917.61,-0.081152735934205009,-0.054549582722075246
Galaxy388,55.32,3276.2,0.083056215587342733,-0.030248804974409189
Galaxy389,3238.14,3408.57,-0.21009485463783065,0.18130722989376957
Galaxy390,1459.52,893.13,-0.20304992257426813,0.079973716856731464
Galaxy391,3885.91,1138.2,-0.30259416341927114,-0.19808467748245831
Galaxy392,652.75,3036.61,-0.0065851068481558722,0.0048703441482080868
Galaxy393,3024.13,1028.6,0.04389330599061543,-0.03648825381883021
Galaxy394,1025.82,1642.83,-0.12462799312587519,0.10368928319115917
Galaxy395,2177.76,2745.68,-0.05632761651143877,0.093582902625951453
Galaxy396,432.32,185.56,0.68001171069295041,0.15474499122958524
Galaxy397,2499.48,1654.89,-0.043209592922629686,0.0043506035540014365
Galaxy398,1631.9,3600.74,-0.10751147440702238,0.38048722470025265
Galaxy399,2739.73,3648.36,-0.32207876993489271,0.082982342552276628
Galaxy400,3547.62,198.32,-0.17660682756083462,0.034336704831617791
Galaxy401,3471.25,2289.4,0.27860908317082567,-0.27385139417098819
Galaxy402,2961.89,1271.93,0.039192572762322492,-0.088089773868188226
Galaxy403,1919.68,1290.88,0.22600233405163161,0.30870154012249373
Galaxy404,2426.4,2756.75,0.34225631323274586,0.50611654009580853
Galaxy405,591.17,1489.64,-0.17614481241594815,-0.16089192031829158
Galaxy406,373.28,3164.36,-0.26184805672006373,-0.15855838141566747
Galaxy407,1556.17,2684.39,-0.22869648158836711,0.040272165691423348
Galaxy408,3078.11,2102.67,0.066324289878473414,-0.29904664818345805
Galaxy409,2705.05,4029.44,0.10703851633714115,0.29529534944345165
Galaxy410,2598.8,2931.09,0.35643252471163506,0.1288330246876625
Galaxy411,3119.53,3076.9,0.34635997959753084,0.19880290947427148
Galaxy412,2220.3,2315.11,0.11094979940523524,0.10971296329460611
Galaxy413,3428.75,2215.07,-0.045784838054473108,-0.11293742283834818
Galaxy414,3560.58,2699.54,-0.1015047465173293,-0.056041559043169958
Galaxy415,3069.24,3498.92,0.19896238645003181,-0.045477035028746338
Galaxy416,601.0,4123.27,0.22131641800585811,-0.24786891891030907
Galaxy417,2441.57,3821.96,-0.38571072054998379,-0.0025733574603988424
Galaxy418,3833.35,1096.35,-0.23233477792744539,0.010035769928289929
Galaxy419,948.39,3667.23,-0.092763366587871848,0.23323882904362997
Galaxy420,3702.39,2682.64,0.0092683515802578689,-0.2667875970697442
Galaxy421,689.35,990.63,0.18464279104613918,-0.35708299355154977
Galaxy422,1903.09,3962.54,0.19830003154616382,0.0066400154780781734
Galaxy423,2276.17,2622.34,0.013750174035506046,-0.052217056023872915
Galaxy424,1507.27,1812.47,-0.12931256387911619,0.28769273406674151
Galaxy425,3427.34,2885.76,-0.043232335803958653,0.025449468157750871
Galaxy426,1421.54,74.16,0.053501778902046306,0.32419303423514406
Galaxy427,4195.77,233.61,0.07848840210803712,-0.11153178150651454
Galaxy428,1545.16,3363.68,-0.11599115327691865,0.52801918380025759
Galaxy429,173.67,3881.4,-0.20375936914581511,-0.061501449936112812
Galaxy430,2358.19,1740.2,-0.37043673020499784,-0.048123836047203578
Galaxy431,2685.11,493.18,0.25565950475658172,0.20331083031256539
Galaxy432,647.36,4008.21,0.47290828173959465,-0.35332129018478559
Galaxy433,3660.88,3231.38,0.1349534904771246,-0.027615922136498938
Galaxy434,670.83,2497.77,0.15378235840396132,-0.073927424876340186
Galaxy435,566.91,1194.1,-0.24407880015296513,-0.14264096883163072
Galaxy436,989.32,1911.06,-0.029699681456629795,-0.055866191053461793
Galaxy437,3055.45,154.18,-0.22235083981646042,-0.20677813110358101
Galaxy438,1635.35,2412.17,0.077021226854326386,-0.090784635028891628
Galaxy439,2012.8,417.6,0.098604864314855337,0.24268323358583058
Galaxy440,2023.7,3299.45,-0.12816682199555038,-0.1549880200523896
Galaxy441,3206.36,3726.45,0.23117930812023499,-0.1483103770752662
Galaxy442,1118.27,2144.25,-0.24048245450588207,0.07481047979353822
Galaxy443,1146.51,2118.94,-0.037233087225032796,0.048865916376569354
Galaxy444,3105.15,3218.7,0.0025098650995444872,-0.12872994175622021
Galaxy445,821.88,3694.02,0.4162175003037098,-0.093092979189473374
Galaxy446,185.05,2026.3,-0.19881405107553235,0.078631497614251339
Galaxy447,3879.27,1270.27,-0.15401780174327934,-0.18896898067133197
Galaxy448,2920.87,2994.66,0.39051428770366825,0.28426565921761904
Galaxy449,3100.83,476.92,0.10245130045377267,0.14829238956569812
Galaxy450,1156.8,3791.72,-0.085459480351637765,0.038374511693418129
Galaxy451,1122.84,2589.57,-0.42773680523412227,0.20723865786060255
Galaxy452,64.94,2372.76,0.11824569826231565,-0.16720368125493082
Galaxy453,3743.98,3547.26,0.077682347223837808,0.024950583108963975
Galaxy454,2858.44,497.91,0.41192013854560972,-0.028036254008797275
Galaxy455,2148.48,1054.77,0.32618643060235353,0.41833124889026957
Galaxy456,88.54,2320.22,0.36101184396591118,-0.30809128946107217
Galaxy457,1264.93,1781.95,0.30914188842627865,0.1816823680679221
Galaxy458,3538.01,4079.9,-0.17386303586575941,-0.032976455163477809
Galaxy459,1010.67,1168.0,-0.061924224223143365,0.087553615099584273
Galaxy460,1155.3,2155.91,-0.40020988374713151,-0.064479807263800384
Galaxy461,3439.13,605.06,-0.071116692055716288,-0.11445239236369539
Galaxy462,378.32,2445.36,-0.30713046415461592,0.28198898933804312
Galaxy463,1063.59,1538.83,-0.39578939979710698,-0.0045565804954944694
Galaxy464,2484.84,867.53,0.30948243720069502,0.06736972437469807
Galaxy465,3320.66,1065.78,-0.49218109678866784,0.11527865998898822
Galaxy466,3068.06,168.54,-0.15148802047960302,0.019900487050751869
Galaxy467,3589.65,3988.84,-0.46027827718724612,-0.10340396841966959
Galaxy468,4102.55,2890.76,0.26601911620318341,0.45478588312708396
Galaxy469,1962.3,584.36,0.38474276399892737,-0.29651560206879596
Galaxy470,1087.64,4065.15,0.30342049829157869,0.11737514655435408
Galaxy471,2809.56,2354.39,0.25944640835550031,0.17293822697116512
Galaxy472,3845.09,1525.02,0.12394590927575727,-0.26982106105678044
Galaxy473,2565.36,2299.03,0.19003937604274787,0.39660280192632658
Galaxy474,3912.27,2700.15,-0.24490613958529706,-0.56655369883526396
Galaxy475,2605.79,3964.83,-0.21417311768197292,-0.20511506479527644
Galaxy476,863.89,2393.18,0.41308895886089991,-0.42199882908030062
Galaxy477,1083.0,3742.95,-0.15213115246342362,0.10595553072466547
Galaxy478,495.66,3324.0,-0.18228698895861639,-0.074446560373047962
Galaxy479,2312.49,1128.15,0.084159924359917163,0.23017370151697708
Galaxy480,1456.22,153.13,-0.040484199820717735,0.1134365455249049
Galaxy481,4125.43,504.04,-0.34095233740506409,-0.10292128115081227
Galaxy482,1704.88,718.96,0.26773596920961579,0.087501333627083441
Galaxy483,2830.55,2882.05,0.3923361026776056,0.035595911796018363
Galaxy484,483.58,2599.06,-0.085312560801230647,-0.10200351607059047
Galaxy485,2022.51,251.69,-0.54332530455568739,-0.17238020600370396
Galaxy486,2673.47,63.48,0.32541919916702244,-0.035340896772622851
Galaxy487,1224.91,363.52,-0.17403411032708921,-0.40408324223137249
Galaxy488,1466.4,157.21,-0.10998818231271495,0.19254457612801557
Galaxy489,2998.08,3860.82,-0.40972445884746805,-0.16476674894746973
Galaxy490,159.87,4085.76,-0.40260994115008097,0.10379567065211287
Galaxy491,1021.3,3807.97,-0.091319276523496626,-0.083131742133683947
Galaxy492,181.52,4188.41,0.091008730636693555,0.30407765033998907
Galaxy493,3870.04,1577.45,-0.41336042331028766,-0.015928884739743424
Galaxy494,2022.44,3924.42,0.1255426219872465,0.13861876860134467
Galaxy495,46.53,2810.7,-0.040555556011313602,-0.13451099011692697
Galaxy496,1936.2,660.04,0.1020930471065114,-0.042662330094197287
Galaxy497,3905.74,258.63,-0.035008199853752295,-0.24092137188159046
Galaxy498,588.04,3944.14,0.013109184529113249,-0.030382882870163514
Galaxy499,4016.12,2719.62,0.29044885172676743,0.054522558315589338
Galaxy500,1824.93,92.78,-0.26172653323092626,-0.32417443248842437
Galaxy501,3243.01,1064.91,-0.25491040738183041,0.099223880574424397
Galaxy502,4187.19,729.17,0.0088222377254244533,0.56483630333812895
Galaxy503,160.27,483.42,-0.15462437805008561,-0.072276639854432251
Galaxy504,2598.34,1797.33,0.13223845220737046,0.26605958605298963
Galaxy505,3338.25,3671.83,0.58335006043578597,0.0083697467389828722
Galaxy506,809.47,1280.04,-0.081056238063207386,0.082118503287579817
Galaxy507,3165.08,3972.77,0.30889981170592196,0.29367323600425366
Galaxy508,2021.13,3564.09,0.14589104710284811,-0.07186162254080139
Galaxy509,2263.62,648.9,-0.14284610532368658,-0.23406128144977909
Galaxy510,2279.1,2738.38,-0.022253569832498384,0.086141382571419275
Galaxy511,3273.64,267.36,-0.20072749067040474,0.22203083704379906
Galaxy512,3006.84,689.32,0.42590700397352566,-0.25331783232048488
Galaxy513,1853.3,701.66,0.090738939876464419,-0.1392030090724008
Galaxy514,4167.43,3059.18,-0.50334282518093487,-0.23581754853580825
Galaxy515,5.21,4196.88,0.059370524873519091,-0.034525274063558029
Galaxy516,105.45,3814.59,-0.22914590476904351,0.30006260701752324
Galaxy517,1787.22,1766.09,-0.36816128748703719,0.24157787041360443
Galaxy518,823.72,2623.79,0.057113126585274787,-0.18021240038673683
Galaxy519,1284.18,3457.41,0.067642090194092355,-0.12966182834988241
Galaxy520,2356.29,2585.95,0.40900967293149654,-0.26613257059563766
Galaxy521,1618.86,2606.84,-0.042746701530149742,0.33333651016091903
Galaxy522,2130.29,1544.24,0.51803695795401339,0.16244761083852044
Galaxy523,497.1,1890.05,-0.077288428303381077,-0.32187548031480584
Galaxy524,3118.88,2895.83,-0.044581843928927306,0.294438186063747
Galaxy525,1101.71,2280.49,-0.26163924474385025,0.34906822401956006
Galaxy526,1530.53,293.29,0.26821523477703213,-0.075888926750359548
Galaxy527,4038.13,2805.68,0.27720181484736356,0.28747687837518227
Galaxy528,1984.68,3911.69,-0.14040387819680195,-0.15911325732116913
Galaxy529,367.54,2776.98,-0.21722182552324742,-0.091796181766540447
Galaxy530,984.24,4196.41,-0.17507657792918863,0.33281290134967945
Galaxy531,3167.74,2789.07,-0.009062851996321732,0.17591113835222572
Galaxy532,2234.27,2315.54,0.14858233542470428,0.27719447257924146
Galaxy533,3387.47,2755.5,0.0077055485486587482,0.097590518993555309
Galaxy534,2417.69,3678.55,-0.1759693479050578,0.061061354129093248
Galaxy535,868.59,3865.51,0.056355915066547038,0.46567537577113083
Galaxy536,2818.59,2359.74,0.077272211540163879,0.10815706334644466
Galaxy537,1363.49,478.83,-0.10157246659174085,-0.21134815416144917
Galaxy538,4182.99,1763.23,0.16301768699068594,0.021482067664092462
Galaxy539,637.73,1798.53,-0.38186590529588538,-0.026059057586347162
Galaxy540,4036.84,3973.63,0.067007237033748002,-0.090503951235805055
Galaxy541,3971.37,1538.58,0.44893905450302762,0.042367044976741847
Galaxy542,2170.97,1583.18,0.13403365839332093,0.60931469673853078
Galaxy543,182.83,2494.67,-0.29060189624390642,0.10504493956631025
Galaxy544,1994.1,4177.26,0.2970881041167962,0.11458371323476463
Galaxy545,3495.45,371.82,0.18820743026952957,0.072121612284068354
Galaxy546,2641.7,1036.29,-0.31723187542950793,0.2460165682448634
Galaxy547,3102.36,2092.13,-0.2192774242382638,-0.03946608872494213
Galaxy548,4119.41,3031.53,0.053463709805278217,-0.10271094115281136
Galaxy549,1997.74,4026.28,-0.051314945997183531,-0.033772744339092275
Galaxy550,1038.36,4123.14,-0.25487277772953365,-0.033783420997192358
Galaxy551,1893.04,3379.77,0.21431403296545304,0.19876928847877826
Galaxy552,1816.29,907.31,0.31430276979274729,-0.065328795908550424
Galaxy553,871.71,111.05,-0.42026851949998834,-0.22724727705653505
Galaxy554,534.91,3897.39,0.17809315960646771,0.15504554124283448
Galaxy555,3017.52,642.25,-0.086773247998804065,0.32470654725424453
Galaxy556,2307.07,810.71,0.061659389589926311,0.10236071160200606
Galaxy557,749.78,2462.12,-0.0045874623564547412,-0.29551957545049573
Galaxy558,326.05,1050.06,-0.032828352215545309,-0.11144882058946487
Galaxy559,3366.27,63.6,-0.19120987121799471,0.16649799996979994
Galaxy560,3648.4,3514.62,-0.14726707955731763,0.1127724488295776
Galaxy561,3844.9,4052.45,0.079849916798778578,-0.043789401316317089
Galaxy562,1893.0,220.35,-0.19102089894538438,-0.25059789823957701
Galaxy563,2778.26,1339.66,0.0148258472804529,0.02431418528248927
Galaxy564,3272.48,2633.37,-0.16587181897877928,-0.46678676209759823
Galaxy565,1090.7,3774.01,0.13450274120992059,0.25186844083811644
Galaxy566,2101.47,1274.53,0.021393032203305296,0.095714833044981379
Galaxy567,2215.54,512.33,0.33055732817976502,-0.10041623010016379
Galaxy568,3909.26,318.9,-0.36492926175826479,-0.16288139775259444
Galaxy569,677.77,1524.81,-0.13696996161818109,0.30856585067310871
Galaxy570,3207.89,2479.75,-0.32094714853928241,0.44296442328698055
Galaxy571,2191.76,2793.96,0.045277358243097802,0.092564892995512779
Galaxy572,3498.98,3765.48,0.22399275085941064,-0.51176131771650912
